ANS($label,$featureLabel,$value) : [V_product\14(X859690270148,X859690270146,X859690270158,X859690270157,X859690270156,X859690270155,X859690270154,X859690270153,$value,X859690270151,$label,X859690270149,X859690270147,$product), V_M7\1($product), V_pfeature-label-comment\5($featureLabel,X85969027063,X85969027064,X85969027061,$product)]

ANS($label,$featureLabel,$value) : [V_product\14(X859690270148,X859690270146,X859690270158,X859690270157,X859690270156,X859690270155,X859690270154,X859690270153,X859690270152,$value,$label,X859690270149,X859690270147,$product), V_M7\1($product), V_pfeature-label-comment\5($featureLabel,X85969027063,X85969027064,X85969027061,$product)]

