digraph  g{ graph[label = "14:18:15.711"]
node [shape=rectangle, color=black, fontcolor=black, style=bold] edge [color=black] 0 [label="HashDistinct", color = yellow] ; 
1 [label="Union", color = yellow] ; 
0 -> 1 ; 
2 [label="BindAccessEval", color = yellow] ; 
1 -> 2 ; 
3 [label="BindAccessEval", color = yellow] ; 
2 -> 3 ; 
4 [label="SQLQuery
SELECT tab_2261.nr, tab_2261.producer, tab_2261.propertyNum2 
FROM Producer AS tab_2263, CountryType AS tab_2264, Product AS tab_2261, Product AS tab_2262  
WHERE tab_2262.producer = tab_2263.nr AND tab_2261.producer = tab_2262.producer AND tab_2261.nr = tab_2262.nr AND tab_2264.countryType = 221 AND tab_2263.country = tab_2264.country
333", color = yellow] ; 
3 -> 4 ; 
5 [label="FunctionCallBindAccess
(<http://www4.wiwiss.fu-berlin.de/bizer/bsbm/v01/instances/dataFromProducer{1}/Product{0}>, \"{2}\")", color = yellow] ; 
3 -> 5 ; 
6 [label="FunctionCallBindAccess
AddConstant{1=(\"<http://www4.wiwiss.fu-berlin.de/bizer/bsbm/v01/vocabulary/Product>\", \"<http://www4.wiwiss.fu-berlin.de/bizer/bsbm/v01/vocabulary/productPropertyNumeric>\")}", color = yellow] ; 
2 -> 6 ; 
8 [label="BindAccessEval", color = yellow] ; 
1 -> 8 ; 
9 [label="BindAccessEval", color = yellow] ; 
8 -> 9 ; 
10 [label="SQLQuery
SELECT tab_2269.nr, tab_2269.producer, tab_2269.propertyNum2 
FROM Product AS tab_2269, Product AS tab_2270, Producer AS tab_2268, CountryType AS tab_2271  
WHERE tab_2270.producer = tab_2268.nr AND tab_2269.producer = tab_2270.producer AND tab_2269.nr = tab_2270.nr AND tab_2271.countryType = 211 AND tab_2268.country = tab_2271.country
553", color = yellow] ; 
9 -> 10 ; 
11 [label="FunctionCallBindAccess
(<http://www4.wiwiss.fu-berlin.de/bizer/bsbm/v01/instances/dataFromProducer{1}/Product{0}>, \"{2}\")", color = yellow] ; 
9 -> 11 ; 
12 [label="FunctionCallBindAccess
AddConstant{1=(\"<http://www4.wiwiss.fu-berlin.de/bizer/bsbm/v01/vocabulary/Product>\", \"<http://www4.wiwiss.fu-berlin.de/bizer/bsbm/v01/vocabulary/productPropertyNumeric>\")}", color = yellow] ; 
8 -> 12 ; 
14 [label="BindAccessEval", color = yellow] ; 
1 -> 14 ; 
15 [label="BindAccessEval", color = yellow] ; 
14 -> 15 ; 
16 [label="SQLQuery
SELECT tab_2276.nr, tab_2276.producer, tab_2276.propertyNum2 
FROM CountryType AS tab_2278, Producer AS tab_2275, Product AS tab_2276, Product AS tab_2277  
WHERE tab_2277.producer = tab_2275.nr AND tab_2276.producer = tab_2277.producer AND tab_2276.nr = tab_2277.nr AND tab_2278.countryType = 212 AND tab_2275.country = tab_2278.country
460", color = yellow] ; 
15 -> 16 ; 
17 [label="FunctionCallBindAccess
(<http://www4.wiwiss.fu-berlin.de/bizer/bsbm/v01/instances/dataFromProducer{1}/Product{0}>, \"{2}\")", color = yellow] ; 
15 -> 17 ; 
18 [label="FunctionCallBindAccess
AddConstant{1=(\"<http://www4.wiwiss.fu-berlin.de/bizer/bsbm/v01/vocabulary/Product>\", \"<http://www4.wiwiss.fu-berlin.de/bizer/bsbm/v01/vocabulary/productPropertyNumeric>\")}", color = yellow] ; 
14 -> 18 ; 
20 [label="BindAccessEval", color = yellow] ; 
1 -> 20 ; 
21 [label="BindAccessEval", color = yellow] ; 
20 -> 21 ; 
22 [label="SQLQuery
SELECT tab_2282.nr, tab_2282.producer, tab_2282.propertyNum2 
FROM Producer AS tab_2283, Product AS tab_2282, CountryType AS tab_2285, Product AS tab_2284  
WHERE tab_2284.producer = tab_2283.nr AND tab_2282.producer = tab_2284.producer AND tab_2282.nr = tab_2284.nr AND tab_2285.countryType = 222 AND tab_2283.country = tab_2285.country
116", color = yellow] ; 
21 -> 22 ; 
23 [label="FunctionCallBindAccess
(<http://www4.wiwiss.fu-berlin.de/bizer/bsbm/v01/instances/dataFromProducer{1}/Product{0}>, \"{2}\")", color = yellow] ; 
21 -> 23 ; 
24 [label="FunctionCallBindAccess
AddConstant{1=(\"<http://www4.wiwiss.fu-berlin.de/bizer/bsbm/v01/vocabulary/Product>\", \"<http://www4.wiwiss.fu-berlin.de/bizer/bsbm/v01/vocabulary/productPropertyNumeric>\")}", color = yellow] ; 
20 -> 24 ; 
26 [label="BindAccessEval", color = yellow] ; 
1 -> 26 ; 
27 [label="BindAccessEval", color = yellow] ; 
26 -> 27 ; 
28 [label="SQLQuery
SELECT tab_2290.nr, tab_2290.producer, tab_2290.propertyTex6 
FROM Product AS tab_2290, Product AS tab_2291, Producer AS tab_2289, CountryType AS tab_2292  
WHERE tab_2291.producer = tab_2289.nr AND tab_2290.producer = tab_2291.producer AND tab_2290.nr = tab_2291.nr AND tab_2292.countryType = 212 AND tab_2289.country = tab_2292.country
460", color = yellow] ; 
27 -> 28 ; 
29 [label="FunctionCallBindAccess
(<http://www4.wiwiss.fu-berlin.de/bizer/bsbm/v01/instances/dataFromProducer{1}/Product{0}>, \"{2}\")", color = yellow] ; 
27 -> 29 ; 
30 [label="FunctionCallBindAccess
AddConstant{1=(\"<http://www4.wiwiss.fu-berlin.de/bizer/bsbm/v01/vocabulary/Product>\", \"<http://www4.wiwiss.fu-berlin.de/bizer/bsbm/v01/vocabulary/productPropertyTextual>\")}", color = yellow] ; 
26 -> 30 ; 
32 [label="BindAccessEval", color = yellow] ; 
1 -> 32 ; 
33 [label="BindAccessEval", color = yellow] ; 
32 -> 33 ; 
34 [label="SQLQuery
SELECT tab_2297.nr, tab_2297.producer, tab_2297.propertyTex6 
FROM Producer AS tab_2296, CountryType AS tab_2299, Product AS tab_2297, Product AS tab_2298  
WHERE tab_2298.producer = tab_2296.nr AND tab_2297.producer = tab_2298.producer AND tab_2297.nr = tab_2298.nr AND tab_2299.countryType = 221 AND tab_2296.country = tab_2299.country
333", color = yellow] ; 
33 -> 34 ; 
35 [label="FunctionCallBindAccess
(<http://www4.wiwiss.fu-berlin.de/bizer/bsbm/v01/instances/dataFromProducer{1}/Product{0}>, \"{2}\")", color = yellow] ; 
33 -> 35 ; 
36 [label="FunctionCallBindAccess
AddConstant{1=(\"<http://www4.wiwiss.fu-berlin.de/bizer/bsbm/v01/vocabulary/Product>\", \"<http://www4.wiwiss.fu-berlin.de/bizer/bsbm/v01/vocabulary/productPropertyTextual>\")}", color = yellow] ; 
32 -> 36 ; 
38 [label="BindAccessEval", color = yellow] ; 
1 -> 38 ; 
39 [label="BindAccessEval", color = yellow] ; 
38 -> 39 ; 
40 [label="SQLQuery
SELECT tab_2303.nr, tab_2303.producer, tab_2303.propertyTex6 
FROM CountryType AS tab_2306, Producer AS tab_2305, Product AS tab_2303, Product AS tab_2304  
WHERE tab_2304.producer = tab_2305.nr AND tab_2303.producer = tab_2304.producer AND tab_2303.nr = tab_2304.nr AND tab_2306.countryType = 222 AND tab_2305.country = tab_2306.country
116", color = yellow] ; 
39 -> 40 ; 
41 [label="FunctionCallBindAccess
(<http://www4.wiwiss.fu-berlin.de/bizer/bsbm/v01/instances/dataFromProducer{1}/Product{0}>, \"{2}\")", color = yellow] ; 
39 -> 41 ; 
42 [label="FunctionCallBindAccess
AddConstant{1=(\"<http://www4.wiwiss.fu-berlin.de/bizer/bsbm/v01/vocabulary/Product>\", \"<http://www4.wiwiss.fu-berlin.de/bizer/bsbm/v01/vocabulary/productPropertyTextual>\")}", color = yellow] ; 
38 -> 42 ; 
44 [label="BindAccessEval", color = yellow] ; 
1 -> 44 ; 
45 [label="BindAccessEval", color = yellow] ; 
44 -> 45 ; 
46 [label="SQLQuery
SELECT tab_2311.nr, tab_2311.producer, tab_2311.propertyTex6 
FROM Product AS tab_2311, Product AS tab_2312, CountryType AS tab_2313, Producer AS tab_2310  
WHERE tab_2312.producer = tab_2310.nr AND tab_2311.producer = tab_2312.producer AND tab_2311.nr = tab_2312.nr AND tab_2313.countryType = 211 AND tab_2310.country = tab_2313.country
553", color = yellow] ; 
45 -> 46 ; 
47 [label="FunctionCallBindAccess
(<http://www4.wiwiss.fu-berlin.de/bizer/bsbm/v01/instances/dataFromProducer{1}/Product{0}>, \"{2}\")", color = yellow] ; 
45 -> 47 ; 
48 [label="FunctionCallBindAccess
AddConstant{1=(\"<http://www4.wiwiss.fu-berlin.de/bizer/bsbm/v01/vocabulary/Product>\", \"<http://www4.wiwiss.fu-berlin.de/bizer/bsbm/v01/vocabulary/productPropertyTextual>\")}", color = yellow] ; 
44 -> 48 ; 
50 [label="BindAccessEval", color = yellow] ; 
1 -> 50 ; 
51 [label="BindAccessEval", color = yellow] ; 
50 -> 51 ; 
52 [label="SQLQuery
SELECT tab_2318.nr, tab_2318.rating2, tab_2318.publisher 
FROM Review AS tab_2317, CountryType AS tab_2320, Person AS tab_2319, Review AS tab_2318  
WHERE tab_2317.person = tab_2319.nr AND tab_2318.publisher = tab_2319.publisher AND tab_2318.nr = tab_2317.nr AND tab_2320.countryType = 222 AND tab_2319.country = tab_2320.country
3244", color = yellow] ; 
51 -> 52 ; 
53 [label="FunctionCallBindAccess
(<http://www4.wiwiss.fu-berlin.de/bizer/bsbm/v01/instances/dataFromRatingSite{2}/Review{0}>, \"{1}\")", color = yellow] ; 
51 -> 53 ; 
54 [label="FunctionCallBindAccess
AddConstant{1=(\"<http://xmlns.com/foaf/0.1/Document>\", \"<http://www4.wiwiss.fu-berlin.de/bizer/bsbm/v01/vocabulary/rating>\")}", color = yellow] ; 
50 -> 54 ; 
56 [label="BindAccessEval", color = yellow] ; 
1 -> 56 ; 
57 [label="BindAccessEval", color = yellow] ; 
56 -> 57 ; 
58 [label="SQLQuery
SELECT tab_2326.nr, tab_2326.rating2, tab_2326.publisher 
FROM CountryType AS tab_2327, Review AS tab_2326, Review AS tab_2325, Person AS tab_2324  
WHERE tab_2325.person = tab_2324.nr AND tab_2326.publisher = tab_2324.publisher AND tab_2326.nr = tab_2325.nr AND tab_2327.countryType = 221 AND tab_2324.country = tab_2327.country
4416", color = yellow] ; 
57 -> 58 ; 
59 [label="FunctionCallBindAccess
(<http://www4.wiwiss.fu-berlin.de/bizer/bsbm/v01/instances/dataFromRatingSite{2}/Review{0}>, \"{1}\")", color = yellow] ; 
57 -> 59 ; 
60 [label="FunctionCallBindAccess
AddConstant{1=(\"<http://xmlns.com/foaf/0.1/Document>\", \"<http://www4.wiwiss.fu-berlin.de/bizer/bsbm/v01/vocabulary/rating>\")}", color = yellow] ; 
56 -> 60 ; 
62 [label="BindAccessEval", color = yellow] ; 
1 -> 62 ; 
63 [label="BindAccessEval", color = yellow] ; 
62 -> 63 ; 
64 [label="SQLQuery
SELECT tab_2331.nr, tab_2331.rating2, tab_2331.publisher 
FROM Person AS tab_2332, CountryType AS tab_2334, Review AS tab_2333, Review AS tab_2331  
WHERE tab_2333.person = tab_2332.nr AND tab_2331.publisher = tab_2332.publisher AND tab_2331.nr = tab_2333.nr AND tab_2334.countryType = 211 AND tab_2332.country = tab_2334.country
4310", color = yellow] ; 
63 -> 64 ; 
65 [label="FunctionCallBindAccess
(<http://www4.wiwiss.fu-berlin.de/bizer/bsbm/v01/instances/dataFromRatingSite{2}/Review{0}>, \"{1}\")", color = yellow] ; 
63 -> 65 ; 
66 [label="FunctionCallBindAccess
AddConstant{1=(\"<http://xmlns.com/foaf/0.1/Document>\", \"<http://www4.wiwiss.fu-berlin.de/bizer/bsbm/v01/vocabulary/rating>\")}", color = yellow] ; 
62 -> 66 ; 
68 [label="BindAccessEval", color = yellow] ; 
1 -> 68 ; 
69 [label="BindAccessEval", color = yellow] ; 
68 -> 69 ; 
70 [label="SQLQuery
SELECT tab_2339.nr, tab_2339.rating2, tab_2339.publisher 
FROM Review AS tab_2339, Review AS tab_2338, Person AS tab_2340, CountryType AS tab_2341  
WHERE tab_2338.person = tab_2340.nr AND tab_2339.publisher = tab_2340.publisher AND tab_2339.nr = tab_2338.nr AND tab_2341.countryType = 212 AND tab_2340.country = tab_2341.country
3845", color = yellow] ; 
69 -> 70 ; 
71 [label="FunctionCallBindAccess
(<http://www4.wiwiss.fu-berlin.de/bizer/bsbm/v01/instances/dataFromRatingSite{2}/Review{0}>, \"{1}\")", color = yellow] ; 
69 -> 71 ; 
72 [label="FunctionCallBindAccess
AddConstant{1=(\"<http://xmlns.com/foaf/0.1/Document>\", \"<http://www4.wiwiss.fu-berlin.de/bizer/bsbm/v01/vocabulary/rating>\")}", color = yellow] ; 
68 -> 72 ; 
74 [label="BindAccessEval", color = yellow] ; 
1 -> 74 ; 
75 [label="BindAccessEval", color = yellow] ; 
74 -> 75 ; 
76 [label="SQLQuery
SELECT tab_2347.nr, tab_2347.rating1, tab_2347.publisher 
FROM Person AS tab_2345, CountryType AS tab_2348, Review AS tab_2347, Review AS tab_2346  
WHERE tab_2346.person = tab_2345.nr AND tab_2347.publisher = tab_2345.publisher AND tab_2347.nr = tab_2346.nr AND tab_2348.countryType = 221 AND tab_2345.country = tab_2348.country
4416", color = yellow] ; 
75 -> 76 ; 
77 [label="FunctionCallBindAccess
(<http://www4.wiwiss.fu-berlin.de/bizer/bsbm/v01/instances/dataFromRatingSite{2}/Review{0}>, \"{1}\")", color = yellow] ; 
75 -> 77 ; 
78 [label="FunctionCallBindAccess
AddConstant{1=(\"<http://xmlns.com/foaf/0.1/Document>\", \"<http://www4.wiwiss.fu-berlin.de/bizer/bsbm/v01/vocabulary/rating>\")}", color = yellow] ; 
74 -> 78 ; 
80 [label="BindAccessEval", color = yellow] ; 
1 -> 80 ; 
81 [label="BindAccessEval", color = yellow] ; 
80 -> 81 ; 
82 [label="SQLQuery
SELECT tab_2352.nr, tab_2352.rating1, tab_2352.publisher 
FROM Person AS tab_2353, CountryType AS tab_2355, Review AS tab_2354, Review AS tab_2352  
WHERE tab_2354.person = tab_2353.nr AND tab_2352.publisher = tab_2353.publisher AND tab_2352.nr = tab_2354.nr AND tab_2355.countryType = 211 AND tab_2353.country = tab_2355.country
4310", color = yellow] ; 
81 -> 82 ; 
83 [label="FunctionCallBindAccess
(<http://www4.wiwiss.fu-berlin.de/bizer/bsbm/v01/instances/dataFromRatingSite{2}/Review{0}>, \"{1}\")", color = yellow] ; 
81 -> 83 ; 
84 [label="FunctionCallBindAccess
AddConstant{1=(\"<http://xmlns.com/foaf/0.1/Document>\", \"<http://www4.wiwiss.fu-berlin.de/bizer/bsbm/v01/vocabulary/rating>\")}", color = yellow] ; 
80 -> 84 ; 
86 [label="BindAccessEval", color = yellow] ; 
1 -> 86 ; 
87 [label="BindAccessEval", color = yellow] ; 
86 -> 87 ; 
88 [label="SQLQuery
SELECT tab_2360.nr, tab_2360.rating1, tab_2360.publisher 
FROM Review AS tab_2359, Person AS tab_2361, CountryType AS tab_2362, Review AS tab_2360  
WHERE tab_2359.person = tab_2361.nr AND tab_2360.publisher = tab_2361.publisher AND tab_2360.nr = tab_2359.nr AND tab_2362.countryType = 212 AND tab_2361.country = tab_2362.country
3845", color = yellow] ; 
87 -> 88 ; 
89 [label="FunctionCallBindAccess
(<http://www4.wiwiss.fu-berlin.de/bizer/bsbm/v01/instances/dataFromRatingSite{2}/Review{0}>, \"{1}\")", color = yellow] ; 
87 -> 89 ; 
90 [label="FunctionCallBindAccess
AddConstant{1=(\"<http://xmlns.com/foaf/0.1/Document>\", \"<http://www4.wiwiss.fu-berlin.de/bizer/bsbm/v01/vocabulary/rating>\")}", color = yellow] ; 
86 -> 90 ; 
92 [label="BindAccessEval", color = yellow] ; 
1 -> 92 ; 
93 [label="BindAccessEval", color = yellow] ; 
92 -> 93 ; 
94 [label="SQLQuery
SELECT tab_2368.nr, tab_2368.rating1, tab_2368.publisher 
FROM Person AS tab_2366, CountryType AS tab_2369, Review AS tab_2368, Review AS tab_2367  
WHERE tab_2367.person = tab_2366.nr AND tab_2368.publisher = tab_2366.publisher AND tab_2368.nr = tab_2367.nr AND tab_2369.countryType = 222 AND tab_2366.country = tab_2369.country
3244", color = yellow] ; 
93 -> 94 ; 
95 [label="FunctionCallBindAccess
(<http://www4.wiwiss.fu-berlin.de/bizer/bsbm/v01/instances/dataFromRatingSite{2}/Review{0}>, \"{1}\")", color = yellow] ; 
93 -> 95 ; 
96 [label="FunctionCallBindAccess
AddConstant{1=(\"<http://xmlns.com/foaf/0.1/Document>\", \"<http://www4.wiwiss.fu-berlin.de/bizer/bsbm/v01/vocabulary/rating>\")}", color = yellow] ; 
92 -> 96 ; 
98 [label="BindAccessEval", color = yellow] ; 
1 -> 98 ; 
99 [label="BindAccessEval", color = yellow] ; 
98 -> 99 ; 
100 [label="SQLQuery
SELECT tab_2374.nr, tab_2374.producer, tab_2374.propertyTex1 
FROM Producer AS tab_2373, CountryType AS tab_2376, Product AS tab_2374, Product AS tab_2375  
WHERE tab_2375.producer = tab_2373.nr AND tab_2374.producer = tab_2375.producer AND tab_2374.nr = tab_2375.nr AND tab_2376.countryType = 211 AND tab_2373.country = tab_2376.country
553", color = yellow] ; 
99 -> 100 ; 
101 [label="FunctionCallBindAccess
(<http://www4.wiwiss.fu-berlin.de/bizer/bsbm/v01/instances/dataFromProducer{1}/Product{0}>, \"{2}\")", color = yellow] ; 
99 -> 101 ; 
102 [label="FunctionCallBindAccess
AddConstant{1=(\"<http://www4.wiwiss.fu-berlin.de/bizer/bsbm/v01/vocabulary/Product>\", \"<http://www4.wiwiss.fu-berlin.de/bizer/bsbm/v01/vocabulary/productPropertyTextual>\")}", color = yellow] ; 
98 -> 102 ; 
104 [label="BindAccessEval", color = yellow] ; 
1 -> 104 ; 
105 [label="BindAccessEval", color = yellow] ; 
104 -> 105 ; 
106 [label="SQLQuery
SELECT tab_2380.nr, tab_2380.producer, tab_2380.propertyTex1 
FROM Producer AS tab_2382, Product AS tab_2380, Product AS tab_2381, CountryType AS tab_2383  
WHERE tab_2381.producer = tab_2382.nr AND tab_2380.producer = tab_2381.producer AND tab_2380.nr = tab_2381.nr AND tab_2383.countryType = 222 AND tab_2382.country = tab_2383.country
116", color = yellow] ; 
105 -> 106 ; 
107 [label="FunctionCallBindAccess
(<http://www4.wiwiss.fu-berlin.de/bizer/bsbm/v01/instances/dataFromProducer{1}/Product{0}>, \"{2}\")", color = yellow] ; 
105 -> 107 ; 
108 [label="FunctionCallBindAccess
AddConstant{1=(\"<http://www4.wiwiss.fu-berlin.de/bizer/bsbm/v01/vocabulary/Product>\", \"<http://www4.wiwiss.fu-berlin.de/bizer/bsbm/v01/vocabulary/productPropertyTextual>\")}", color = yellow] ; 
104 -> 108 ; 
110 [label="BindAccessEval", color = yellow] ; 
1 -> 110 ; 
111 [label="BindAccessEval", color = yellow] ; 
110 -> 111 ; 
112 [label="SQLQuery
SELECT tab_2388.nr, tab_2388.producer, tab_2388.propertyTex1 
FROM Product AS tab_2388, Product AS tab_2389, Producer AS tab_2387, CountryType AS tab_2390  
WHERE tab_2389.producer = tab_2387.nr AND tab_2388.producer = tab_2389.producer AND tab_2388.nr = tab_2389.nr AND tab_2390.countryType = 221 AND tab_2387.country = tab_2390.country
333", color = yellow] ; 
111 -> 112 ; 
113 [label="FunctionCallBindAccess
(<http://www4.wiwiss.fu-berlin.de/bizer/bsbm/v01/instances/dataFromProducer{1}/Product{0}>, \"{2}\")", color = yellow] ; 
111 -> 113 ; 
114 [label="FunctionCallBindAccess
AddConstant{1=(\"<http://www4.wiwiss.fu-berlin.de/bizer/bsbm/v01/vocabulary/Product>\", \"<http://www4.wiwiss.fu-berlin.de/bizer/bsbm/v01/vocabulary/productPropertyTextual>\")}", color = yellow] ; 
110 -> 114 ; 
116 [label="BindAccessEval", color = yellow] ; 
1 -> 116 ; 
117 [label="BindAccessEval", color = yellow] ; 
116 -> 117 ; 
118 [label="SQLQuery
SELECT tab_2395.nr, tab_2395.producer, tab_2395.propertyTex1 
FROM Producer AS tab_2394, CountryType AS tab_2397, Product AS tab_2395, Product AS tab_2396  
WHERE tab_2396.producer = tab_2394.nr AND tab_2395.producer = tab_2396.producer AND tab_2395.nr = tab_2396.nr AND tab_2397.countryType = 212 AND tab_2394.country = tab_2397.country
460", color = yellow] ; 
117 -> 118 ; 
119 [label="FunctionCallBindAccess
(<http://www4.wiwiss.fu-berlin.de/bizer/bsbm/v01/instances/dataFromProducer{1}/Product{0}>, \"{2}\")", color = yellow] ; 
117 -> 119 ; 
120 [label="FunctionCallBindAccess
AddConstant{1=(\"<http://www4.wiwiss.fu-berlin.de/bizer/bsbm/v01/vocabulary/Product>\", \"<http://www4.wiwiss.fu-berlin.de/bizer/bsbm/v01/vocabulary/productPropertyTextual>\")}", color = yellow] ; 
116 -> 120 ; 
122 [label="BindAccessEval", color = yellow] ; 
1 -> 122 ; 
123 [label="BindAccessEval", color = yellow] ; 
122 -> 123 ; 
124 [label="SQLQuery
SELECT tab_2403.nr, tab_2403.producer, tab_2403.propertyTex2 
FROM CountryType AS tab_2404, Product AS tab_2401, Product AS tab_2403, Producer AS tab_2402  
WHERE tab_2401.producer = tab_2402.nr AND tab_2403.producer = tab_2401.producer AND tab_2403.nr = tab_2401.nr AND tab_2404.countryType = 212 AND tab_2402.country = tab_2404.country
460", color = yellow] ; 
123 -> 124 ; 
125 [label="FunctionCallBindAccess
(<http://www4.wiwiss.fu-berlin.de/bizer/bsbm/v01/instances/dataFromProducer{1}/Product{0}>, \"{2}\")", color = yellow] ; 
123 -> 125 ; 
126 [label="FunctionCallBindAccess
AddConstant{1=(\"<http://www4.wiwiss.fu-berlin.de/bizer/bsbm/v01/vocabulary/Product>\", \"<http://www4.wiwiss.fu-berlin.de/bizer/bsbm/v01/vocabulary/productPropertyTextual>\")}", color = yellow] ; 
122 -> 126 ; 
128 [label="BindAccessEval", color = yellow] ; 
1 -> 128 ; 
129 [label="BindAccessEval", color = yellow] ; 
128 -> 129 ; 
130 [label="SQLQuery
SELECT tab_2409.nr, tab_2409.producer, tab_2409.propertyTex2 
FROM Product AS tab_2410, Producer AS tab_2408, CountryType AS tab_2411, Product AS tab_2409  
WHERE tab_2410.producer = tab_2408.nr AND tab_2409.producer = tab_2410.producer AND tab_2409.nr = tab_2410.nr AND tab_2411.countryType = 221 AND tab_2408.country = tab_2411.country
333", color = yellow] ; 
129 -> 130 ; 
131 [label="FunctionCallBindAccess
(<http://www4.wiwiss.fu-berlin.de/bizer/bsbm/v01/instances/dataFromProducer{1}/Product{0}>, \"{2}\")", color = yellow] ; 
129 -> 131 ; 
132 [label="FunctionCallBindAccess
AddConstant{1=(\"<http://www4.wiwiss.fu-berlin.de/bizer/bsbm/v01/vocabulary/Product>\", \"<http://www4.wiwiss.fu-berlin.de/bizer/bsbm/v01/vocabulary/productPropertyTextual>\")}", color = yellow] ; 
128 -> 132 ; 
134 [label="BindAccessEval", color = yellow] ; 
1 -> 134 ; 
135 [label="BindAccessEval", color = yellow] ; 
134 -> 135 ; 
136 [label="SQLQuery
SELECT tab_2415.nr, tab_2415.producer, tab_2415.propertyTex2 
FROM Producer AS tab_2417, Product AS tab_2415, Product AS tab_2416, CountryType AS tab_2418  
WHERE tab_2416.producer = tab_2417.nr AND tab_2415.producer = tab_2416.producer AND tab_2415.nr = tab_2416.nr AND tab_2418.countryType = 211 AND tab_2417.country = tab_2418.country
553", color = yellow] ; 
135 -> 136 ; 
137 [label="FunctionCallBindAccess
(<http://www4.wiwiss.fu-berlin.de/bizer/bsbm/v01/instances/dataFromProducer{1}/Product{0}>, \"{2}\")", color = yellow] ; 
135 -> 137 ; 
138 [label="FunctionCallBindAccess
AddConstant{1=(\"<http://www4.wiwiss.fu-berlin.de/bizer/bsbm/v01/vocabulary/Product>\", \"<http://www4.wiwiss.fu-berlin.de/bizer/bsbm/v01/vocabulary/productPropertyTextual>\")}", color = yellow] ; 
134 -> 138 ; 
140 [label="BindAccessEval", color = yellow] ; 
1 -> 140 ; 
141 [label="BindAccessEval", color = yellow] ; 
140 -> 141 ; 
142 [label="SQLQuery
SELECT tab_2422.nr, tab_2422.producer, tab_2422.propertyTex2 
FROM Product AS tab_2422, CountryType AS tab_2425, Product AS tab_2424, Producer AS tab_2423  
WHERE tab_2424.producer = tab_2423.nr AND tab_2422.producer = tab_2424.producer AND tab_2422.nr = tab_2424.nr AND tab_2425.countryType = 222 AND tab_2423.country = tab_2425.country
116", color = yellow] ; 
141 -> 142 ; 
143 [label="FunctionCallBindAccess
(<http://www4.wiwiss.fu-berlin.de/bizer/bsbm/v01/instances/dataFromProducer{1}/Product{0}>, \"{2}\")", color = yellow] ; 
141 -> 143 ; 
144 [label="FunctionCallBindAccess
AddConstant{1=(\"<http://www4.wiwiss.fu-berlin.de/bizer/bsbm/v01/vocabulary/Product>\", \"<http://www4.wiwiss.fu-berlin.de/bizer/bsbm/v01/vocabulary/productPropertyTextual>\")}", color = yellow] ; 
140 -> 144 ; 
146 [label="BindAccessEval", color = yellow] ; 
1 -> 146 ; 
147 [label="BindAccessEval", color = yellow] ; 
146 -> 147 ; 
148 [label="SQLQuery
SELECT tab_2430.nr, tab_2430.producer, tab_2430.propertyTex3 
FROM Producer AS tab_2429, CountryType AS tab_2432, Product AS tab_2430, Product AS tab_2431  
WHERE tab_2431.producer = tab_2429.nr AND tab_2430.producer = tab_2431.producer AND tab_2430.nr = tab_2431.nr AND tab_2432.countryType = 222 AND tab_2429.country = tab_2432.country
116", color = yellow] ; 
147 -> 148 ; 
149 [label="FunctionCallBindAccess
(<http://www4.wiwiss.fu-berlin.de/bizer/bsbm/v01/instances/dataFromProducer{1}/Product{0}>, \"{2}\")", color = yellow] ; 
147 -> 149 ; 
150 [label="FunctionCallBindAccess
AddConstant{1=(\"<http://www4.wiwiss.fu-berlin.de/bizer/bsbm/v01/vocabulary/Product>\", \"<http://www4.wiwiss.fu-berlin.de/bizer/bsbm/v01/vocabulary/productPropertyTextual>\")}", color = yellow] ; 
146 -> 150 ; 
152 [label="BindAccessEval", color = yellow] ; 
1 -> 152 ; 
153 [label="BindAccessEval", color = yellow] ; 
152 -> 153 ; 
154 [label="SQLQuery
SELECT tab_2436.nr, tab_2436.producer, tab_2436.propertyTex3 
FROM Producer AS tab_2438, Product AS tab_2436, Product AS tab_2437, CountryType AS tab_2439  
WHERE tab_2437.producer = tab_2438.nr AND tab_2436.producer = tab_2437.producer AND tab_2436.nr = tab_2437.nr AND tab_2439.countryType = 212 AND tab_2438.country = tab_2439.country
460", color = yellow] ; 
153 -> 154 ; 
155 [label="FunctionCallBindAccess
(<http://www4.wiwiss.fu-berlin.de/bizer/bsbm/v01/instances/dataFromProducer{1}/Product{0}>, \"{2}\")", color = yellow] ; 
153 -> 155 ; 
156 [label="FunctionCallBindAccess
AddConstant{1=(\"<http://www4.wiwiss.fu-berlin.de/bizer/bsbm/v01/vocabulary/Product>\", \"<http://www4.wiwiss.fu-berlin.de/bizer/bsbm/v01/vocabulary/productPropertyTextual>\")}", color = yellow] ; 
152 -> 156 ; 
158 [label="BindAccessEval", color = yellow] ; 
1 -> 158 ; 
159 [label="BindAccessEval", color = yellow] ; 
158 -> 159 ; 
160 [label="SQLQuery
SELECT tab_2444.nr, tab_2444.producer, tab_2444.propertyTex3 
FROM Product AS tab_2444, Product AS tab_2445, CountryType AS tab_2446, Producer AS tab_2443  
WHERE tab_2445.producer = tab_2443.nr AND tab_2444.producer = tab_2445.producer AND tab_2444.nr = tab_2445.nr AND tab_2446.countryType = 211 AND tab_2443.country = tab_2446.country
553", color = yellow] ; 
159 -> 160 ; 
161 [label="FunctionCallBindAccess
(<http://www4.wiwiss.fu-berlin.de/bizer/bsbm/v01/instances/dataFromProducer{1}/Product{0}>, \"{2}\")", color = yellow] ; 
159 -> 161 ; 
162 [label="FunctionCallBindAccess
AddConstant{1=(\"<http://www4.wiwiss.fu-berlin.de/bizer/bsbm/v01/vocabulary/Product>\", \"<http://www4.wiwiss.fu-berlin.de/bizer/bsbm/v01/vocabulary/productPropertyTextual>\")}", color = yellow] ; 
158 -> 162 ; 
164 [label="BindAccessEval", color = yellow] ; 
1 -> 164 ; 
165 [label="BindAccessEval", color = yellow] ; 
164 -> 165 ; 
166 [label="SQLQuery
SELECT tab_2451.nr, tab_2451.producer, tab_2451.propertyTex3 
FROM Producer AS tab_2450, CountryType AS tab_2453, Product AS tab_2451, Product AS tab_2452  
WHERE tab_2452.producer = tab_2450.nr AND tab_2451.producer = tab_2452.producer AND tab_2451.nr = tab_2452.nr AND tab_2453.countryType = 221 AND tab_2450.country = tab_2453.country
333", color = yellow] ; 
165 -> 166 ; 
167 [label="FunctionCallBindAccess
(<http://www4.wiwiss.fu-berlin.de/bizer/bsbm/v01/instances/dataFromProducer{1}/Product{0}>, \"{2}\")", color = yellow] ; 
165 -> 167 ; 
168 [label="FunctionCallBindAccess
AddConstant{1=(\"<http://www4.wiwiss.fu-berlin.de/bizer/bsbm/v01/vocabulary/Product>\", \"<http://www4.wiwiss.fu-berlin.de/bizer/bsbm/v01/vocabulary/productPropertyTextual>\")}", color = yellow] ; 
164 -> 168 ; 
170 [label="BindAccessEval", color = yellow] ; 
1 -> 170 ; 
171 [label="BindAccessEval", color = yellow] ; 
170 -> 171 ; 
172 [label="SQLQuery
SELECT tab_2457.nr, tab_2457.producer, tab_2457.propertyTex4 
FROM Producer AS tab_2459, Product AS tab_2457, Product AS tab_2458, CountryType AS tab_2460  
WHERE tab_2458.producer = tab_2459.nr AND tab_2457.producer = tab_2458.producer AND tab_2457.nr = tab_2458.nr AND tab_2460.countryType = 212 AND tab_2459.country = tab_2460.country
460", color = yellow] ; 
171 -> 172 ; 
173 [label="FunctionCallBindAccess
(<http://www4.wiwiss.fu-berlin.de/bizer/bsbm/v01/instances/dataFromProducer{1}/Product{0}>, \"{2}\")", color = yellow] ; 
171 -> 173 ; 
174 [label="FunctionCallBindAccess
AddConstant{1=(\"<http://www4.wiwiss.fu-berlin.de/bizer/bsbm/v01/vocabulary/Product>\", \"<http://www4.wiwiss.fu-berlin.de/bizer/bsbm/v01/vocabulary/productPropertyTextual>\")}", color = yellow] ; 
170 -> 174 ; 
176 [label="BindAccessEval", color = yellow] ; 
1 -> 176 ; 
177 [label="BindAccessEval", color = yellow] ; 
176 -> 177 ; 
178 [label="SQLQuery
SELECT tab_2465.nr, tab_2465.producer, tab_2465.propertyTex4 
FROM Product AS tab_2465, Product AS tab_2466, CountryType AS tab_2467, Producer AS tab_2464  
WHERE tab_2466.producer = tab_2464.nr AND tab_2465.producer = tab_2466.producer AND tab_2465.nr = tab_2466.nr AND tab_2467.countryType = 222 AND tab_2464.country = tab_2467.country
116", color = yellow] ; 
177 -> 178 ; 
179 [label="FunctionCallBindAccess
(<http://www4.wiwiss.fu-berlin.de/bizer/bsbm/v01/instances/dataFromProducer{1}/Product{0}>, \"{2}\")", color = yellow] ; 
177 -> 179 ; 
180 [label="FunctionCallBindAccess
AddConstant{1=(\"<http://www4.wiwiss.fu-berlin.de/bizer/bsbm/v01/vocabulary/Product>\", \"<http://www4.wiwiss.fu-berlin.de/bizer/bsbm/v01/vocabulary/productPropertyTextual>\")}", color = yellow] ; 
176 -> 180 ; 
182 [label="BindAccessEval", color = yellow] ; 
1 -> 182 ; 
183 [label="BindAccessEval", color = yellow] ; 
182 -> 183 ; 
184 [label="SQLQuery
SELECT tab_2471.nr, tab_2471.producer, tab_2471.propertyTex4 
FROM CountryType AS tab_2474, Producer AS tab_2473, Product AS tab_2471, Product AS tab_2472  
WHERE tab_2472.producer = tab_2473.nr AND tab_2471.producer = tab_2472.producer AND tab_2471.nr = tab_2472.nr AND tab_2474.countryType = 221 AND tab_2473.country = tab_2474.country
333", color = yellow] ; 
183 -> 184 ; 
185 [label="FunctionCallBindAccess
(<http://www4.wiwiss.fu-berlin.de/bizer/bsbm/v01/instances/dataFromProducer{1}/Product{0}>, \"{2}\")", color = yellow] ; 
183 -> 185 ; 
186 [label="FunctionCallBindAccess
AddConstant{1=(\"<http://www4.wiwiss.fu-berlin.de/bizer/bsbm/v01/vocabulary/Product>\", \"<http://www4.wiwiss.fu-berlin.de/bizer/bsbm/v01/vocabulary/productPropertyTextual>\")}", color = yellow] ; 
182 -> 186 ; 
188 [label="BindAccessEval", color = yellow] ; 
1 -> 188 ; 
189 [label="BindAccessEval", color = yellow] ; 
188 -> 189 ; 
190 [label="SQLQuery
SELECT tab_2480.nr, tab_2480.producer, tab_2480.propertyTex4 
FROM Product AS tab_2478, Product AS tab_2480, CountryType AS tab_2481, Producer AS tab_2479  
WHERE tab_2478.producer = tab_2479.nr AND tab_2480.producer = tab_2478.producer AND tab_2480.nr = tab_2478.nr AND tab_2481.countryType = 211 AND tab_2479.country = tab_2481.country
553", color = yellow] ; 
189 -> 190 ; 
191 [label="FunctionCallBindAccess
(<http://www4.wiwiss.fu-berlin.de/bizer/bsbm/v01/instances/dataFromProducer{1}/Product{0}>, \"{2}\")", color = yellow] ; 
189 -> 191 ; 
192 [label="FunctionCallBindAccess
AddConstant{1=(\"<http://www4.wiwiss.fu-berlin.de/bizer/bsbm/v01/vocabulary/Product>\", \"<http://www4.wiwiss.fu-berlin.de/bizer/bsbm/v01/vocabulary/productPropertyTextual>\")}", color = yellow] ; 
188 -> 192 ; 
194 [label="BindAccessEval", color = yellow] ; 
1 -> 194 ; 
195 [label="BindAccessEval", color = yellow] ; 
194 -> 195 ; 
196 [label="SQLQuery
SELECT tab_2487.nr, tab_2487.rating1, tab_2487.publisher 
FROM Person AS tab_2485, CountryType AS tab_2488, Review AS tab_2487, Review AS tab_2486  
WHERE tab_2486.person = tab_2485.nr AND tab_2487.publisher = tab_2485.publisher AND tab_2487.nr = tab_2486.nr AND tab_2488.countryType = 211 AND tab_2485.country = tab_2488.country
4310", color = yellow] ; 
195 -> 196 ; 
197 [label="FunctionCallBindAccess
(<http://www4.wiwiss.fu-berlin.de/bizer/bsbm/v01/instances/dataFromRatingSite{2}/Review{0}>, \"{1}\")", color = yellow] ; 
195 -> 197 ; 
198 [label="FunctionCallBindAccess
AddConstant{1=(\"<http://purl.org/stuff/rev#Review>\", \"<http://www4.wiwiss.fu-berlin.de/bizer/bsbm/v01/vocabulary/rating>\")}", color = yellow] ; 
194 -> 198 ; 
200 [label="BindAccessEval", color = yellow] ; 
1 -> 200 ; 
201 [label="BindAccessEval", color = yellow] ; 
200 -> 201 ; 
202 [label="SQLQuery
SELECT tab_2492.nr, tab_2492.rating1, tab_2492.publisher 
FROM Person AS tab_2493, CountryType AS tab_2495, Review AS tab_2494, Review AS tab_2492  
WHERE tab_2494.person = tab_2493.nr AND tab_2492.publisher = tab_2493.publisher AND tab_2492.nr = tab_2494.nr AND tab_2495.countryType = 212 AND tab_2493.country = tab_2495.country
3845", color = yellow] ; 
201 -> 202 ; 
203 [label="FunctionCallBindAccess
(<http://www4.wiwiss.fu-berlin.de/bizer/bsbm/v01/instances/dataFromRatingSite{2}/Review{0}>, \"{1}\")", color = yellow] ; 
201 -> 203 ; 
204 [label="FunctionCallBindAccess
AddConstant{1=(\"<http://purl.org/stuff/rev#Review>\", \"<http://www4.wiwiss.fu-berlin.de/bizer/bsbm/v01/vocabulary/rating>\")}", color = yellow] ; 
200 -> 204 ; 
206 [label="BindAccessEval", color = yellow] ; 
1 -> 206 ; 
207 [label="BindAccessEval", color = yellow] ; 
206 -> 207 ; 
208 [label="SQLQuery
SELECT tab_2501.nr, tab_2501.rating1, tab_2501.publisher 
FROM Person AS tab_2499, CountryType AS tab_2502, Review AS tab_2500, Review AS tab_2501  
WHERE tab_2500.person = tab_2499.nr AND tab_2501.publisher = tab_2499.publisher AND tab_2501.nr = tab_2500.nr AND tab_2502.countryType = 222 AND tab_2499.country = tab_2502.country
3244", color = yellow] ; 
207 -> 208 ; 
209 [label="FunctionCallBindAccess
(<http://www4.wiwiss.fu-berlin.de/bizer/bsbm/v01/instances/dataFromRatingSite{2}/Review{0}>, \"{1}\")", color = yellow] ; 
207 -> 209 ; 
210 [label="FunctionCallBindAccess
AddConstant{1=(\"<http://purl.org/stuff/rev#Review>\", \"<http://www4.wiwiss.fu-berlin.de/bizer/bsbm/v01/vocabulary/rating>\")}", color = yellow] ; 
206 -> 210 ; 
212 [label="BindAccessEval", color = yellow] ; 
1 -> 212 ; 
213 [label="BindAccessEval", color = yellow] ; 
212 -> 213 ; 
214 [label="SQLQuery
SELECT tab_2508.nr, tab_2508.rating1, tab_2508.publisher 
FROM Review AS tab_2506, Review AS tab_2508, Person AS tab_2507, CountryType AS tab_2509  
WHERE tab_2506.person = tab_2507.nr AND tab_2508.publisher = tab_2507.publisher AND tab_2508.nr = tab_2506.nr AND tab_2509.countryType = 221 AND tab_2507.country = tab_2509.country
4416", color = yellow] ; 
213 -> 214 ; 
215 [label="FunctionCallBindAccess
(<http://www4.wiwiss.fu-berlin.de/bizer/bsbm/v01/instances/dataFromRatingSite{2}/Review{0}>, \"{1}\")", color = yellow] ; 
213 -> 215 ; 
216 [label="FunctionCallBindAccess
AddConstant{1=(\"<http://purl.org/stuff/rev#Review>\", \"<http://www4.wiwiss.fu-berlin.de/bizer/bsbm/v01/vocabulary/rating>\")}", color = yellow] ; 
212 -> 216 ; 
218 [label="BindAccessEval", color = yellow] ; 
1 -> 218 ; 
219 [label="BindAccessEval", color = yellow] ; 
218 -> 219 ; 
220 [label="SQLQuery
SELECT tab_2513.nr, tab_2513.producer, tab_2513.propertyNum1 
FROM Producer AS tab_2515, Product AS tab_2513, Product AS tab_2514, CountryType AS tab_2516  
WHERE tab_2514.producer = tab_2515.nr AND tab_2513.producer = tab_2514.producer AND tab_2513.nr = tab_2514.nr AND tab_2516.countryType = 221 AND tab_2515.country = tab_2516.country
333", color = yellow] ; 
219 -> 220 ; 
221 [label="FunctionCallBindAccess
(<http://www4.wiwiss.fu-berlin.de/bizer/bsbm/v01/instances/dataFromProducer{1}/Product{0}>, \"{2}\")", color = yellow] ; 
219 -> 221 ; 
222 [label="FunctionCallBindAccess
AddConstant{1=(\"<http://www4.wiwiss.fu-berlin.de/bizer/bsbm/v01/vocabulary/Product>\", \"<http://www4.wiwiss.fu-berlin.de/bizer/bsbm/v01/vocabulary/productPropertyNumeric>\")}", color = yellow] ; 
218 -> 222 ; 
224 [label="BindAccessEval", color = yellow] ; 
1 -> 224 ; 
225 [label="BindAccessEval", color = yellow] ; 
224 -> 225 ; 
226 [label="SQLQuery
SELECT tab_2521.nr, tab_2521.producer, tab_2521.propertyNum1 
FROM Product AS tab_2521, Product AS tab_2522, CountryType AS tab_2523, Producer AS tab_2520  
WHERE tab_2522.producer = tab_2520.nr AND tab_2521.producer = tab_2522.producer AND tab_2521.nr = tab_2522.nr AND tab_2523.countryType = 222 AND tab_2520.country = tab_2523.country
116", color = yellow] ; 
225 -> 226 ; 
227 [label="FunctionCallBindAccess
(<http://www4.wiwiss.fu-berlin.de/bizer/bsbm/v01/instances/dataFromProducer{1}/Product{0}>, \"{2}\")", color = yellow] ; 
225 -> 227 ; 
228 [label="FunctionCallBindAccess
AddConstant{1=(\"<http://www4.wiwiss.fu-berlin.de/bizer/bsbm/v01/vocabulary/Product>\", \"<http://www4.wiwiss.fu-berlin.de/bizer/bsbm/v01/vocabulary/productPropertyNumeric>\")}", color = yellow] ; 
224 -> 228 ; 
230 [label="BindAccessEval", color = yellow] ; 
1 -> 230 ; 
231 [label="BindAccessEval", color = yellow] ; 
230 -> 231 ; 
232 [label="SQLQuery
SELECT tab_2528.nr, tab_2528.producer, tab_2528.propertyNum1 
FROM Producer AS tab_2527, CountryType AS tab_2530, Product AS tab_2528, Product AS tab_2529  
WHERE tab_2529.producer = tab_2527.nr AND tab_2528.producer = tab_2529.producer AND tab_2528.nr = tab_2529.nr AND tab_2530.countryType = 211 AND tab_2527.country = tab_2530.country
553", color = yellow] ; 
231 -> 232 ; 
233 [label="FunctionCallBindAccess
(<http://www4.wiwiss.fu-berlin.de/bizer/bsbm/v01/instances/dataFromProducer{1}/Product{0}>, \"{2}\")", color = yellow] ; 
231 -> 233 ; 
234 [label="FunctionCallBindAccess
AddConstant{1=(\"<http://www4.wiwiss.fu-berlin.de/bizer/bsbm/v01/vocabulary/Product>\", \"<http://www4.wiwiss.fu-berlin.de/bizer/bsbm/v01/vocabulary/productPropertyNumeric>\")}", color = yellow] ; 
230 -> 234 ; 
236 [label="BindAccessEval", color = yellow] ; 
1 -> 236 ; 
237 [label="BindAccessEval", color = yellow] ; 
236 -> 237 ; 
238 [label="SQLQuery
SELECT tab_2534.nr, tab_2534.producer, tab_2534.propertyNum1 
FROM CountryType AS tab_2537, Producer AS tab_2536, Product AS tab_2534, Product AS tab_2535  
WHERE tab_2535.producer = tab_2536.nr AND tab_2534.producer = tab_2535.producer AND tab_2534.nr = tab_2535.nr AND tab_2537.countryType = 212 AND tab_2536.country = tab_2537.country
460", color = yellow] ; 
237 -> 238 ; 
239 [label="FunctionCallBindAccess
(<http://www4.wiwiss.fu-berlin.de/bizer/bsbm/v01/instances/dataFromProducer{1}/Product{0}>, \"{2}\")", color = yellow] ; 
237 -> 239 ; 
240 [label="FunctionCallBindAccess
AddConstant{1=(\"<http://www4.wiwiss.fu-berlin.de/bizer/bsbm/v01/vocabulary/Product>\", \"<http://www4.wiwiss.fu-berlin.de/bizer/bsbm/v01/vocabulary/productPropertyNumeric>\")}", color = yellow] ; 
236 -> 240 ; 
242 [label="BindAccessEval", color = yellow] ; 
1 -> 242 ; 
243 [label="BindAccessEval", color = yellow] ; 
242 -> 243 ; 
244 [label="SQLQuery
SELECT tab_2541.nr, tab_2541.rating2, tab_2541.publisher 
FROM Person AS tab_2543, CountryType AS tab_2544, Review AS tab_2541, Review AS tab_2542  
WHERE tab_2542.person = tab_2543.nr AND tab_2541.publisher = tab_2543.publisher AND tab_2541.nr = tab_2542.nr AND tab_2544.countryType = 212 AND tab_2543.country = tab_2544.country
3845", color = yellow] ; 
243 -> 244 ; 
245 [label="FunctionCallBindAccess
(<http://www4.wiwiss.fu-berlin.de/bizer/bsbm/v01/instances/dataFromRatingSite{2}/Review{0}>, \"{1}\")", color = yellow] ; 
243 -> 245 ; 
246 [label="FunctionCallBindAccess
AddConstant{1=(\"<http://purl.org/stuff/rev#Review>\", \"<http://www4.wiwiss.fu-berlin.de/bizer/bsbm/v01/vocabulary/rating>\")}", color = yellow] ; 
242 -> 246 ; 
248 [label="BindAccessEval", color = yellow] ; 
1 -> 248 ; 
249 [label="BindAccessEval", color = yellow] ; 
248 -> 249 ; 
250 [label="SQLQuery
SELECT tab_2548.nr, tab_2548.rating2, tab_2548.publisher 
FROM Review AS tab_2549, Person AS tab_2550, CountryType AS tab_2551, Review AS tab_2548  
WHERE tab_2549.person = tab_2550.nr AND tab_2548.publisher = tab_2550.publisher AND tab_2548.nr = tab_2549.nr AND tab_2551.countryType = 221 AND tab_2550.country = tab_2551.country
4416", color = yellow] ; 
249 -> 250 ; 
251 [label="FunctionCallBindAccess
(<http://www4.wiwiss.fu-berlin.de/bizer/bsbm/v01/instances/dataFromRatingSite{2}/Review{0}>, \"{1}\")", color = yellow] ; 
249 -> 251 ; 
252 [label="FunctionCallBindAccess
AddConstant{1=(\"<http://purl.org/stuff/rev#Review>\", \"<http://www4.wiwiss.fu-berlin.de/bizer/bsbm/v01/vocabulary/rating>\")}", color = yellow] ; 
248 -> 252 ; 
254 [label="BindAccessEval", color = yellow] ; 
1 -> 254 ; 
255 [label="BindAccessEval", color = yellow] ; 
254 -> 255 ; 
256 [label="SQLQuery
SELECT tab_2556.nr, tab_2556.rating2, tab_2556.publisher 
FROM CountryType AS tab_2558, Review AS tab_2556, Person AS tab_2555, Review AS tab_2557  
WHERE tab_2557.person = tab_2555.nr AND tab_2556.publisher = tab_2555.publisher AND tab_2556.nr = tab_2557.nr AND tab_2558.countryType = 211 AND tab_2555.country = tab_2558.country
4310", color = yellow] ; 
255 -> 256 ; 
257 [label="FunctionCallBindAccess
(<http://www4.wiwiss.fu-berlin.de/bizer/bsbm/v01/instances/dataFromRatingSite{2}/Review{0}>, \"{1}\")", color = yellow] ; 
255 -> 257 ; 
258 [label="FunctionCallBindAccess
AddConstant{1=(\"<http://purl.org/stuff/rev#Review>\", \"<http://www4.wiwiss.fu-berlin.de/bizer/bsbm/v01/vocabulary/rating>\")}", color = yellow] ; 
254 -> 258 ; 
260 [label="BindAccessEval", color = yellow] ; 
1 -> 260 ; 
261 [label="BindAccessEval", color = yellow] ; 
260 -> 261 ; 
262 [label="SQLQuery
SELECT tab_2564.nr, tab_2564.rating2, tab_2564.publisher 
FROM Person AS tab_2563, CountryType AS tab_2565, Review AS tab_2562, Review AS tab_2564  
WHERE tab_2562.person = tab_2563.nr AND tab_2564.publisher = tab_2563.publisher AND tab_2564.nr = tab_2562.nr AND tab_2565.countryType = 222 AND tab_2563.country = tab_2565.country
3244", color = yellow] ; 
261 -> 262 ; 
263 [label="FunctionCallBindAccess
(<http://www4.wiwiss.fu-berlin.de/bizer/bsbm/v01/instances/dataFromRatingSite{2}/Review{0}>, \"{1}\")", color = yellow] ; 
261 -> 263 ; 
264 [label="FunctionCallBindAccess
AddConstant{1=(\"<http://purl.org/stuff/rev#Review>\", \"<http://www4.wiwiss.fu-berlin.de/bizer/bsbm/v01/vocabulary/rating>\")}", color = yellow] ; 
260 -> 264 ; 
266 [label="BindAccessEval", color = yellow] ; 
1 -> 266 ; 
267 [label="BindAccessEval", color = yellow] ; 
266 -> 267 ; 
268 [label="SQLQuery
SELECT tab_2569.nr, tab_2569.producer, tab_2569.propertyTex5 
FROM Product AS tab_2569, Producer AS tab_2571, CountryType AS tab_2572, Product AS tab_2570  
WHERE tab_2570.producer = tab_2571.nr AND tab_2569.producer = tab_2570.producer AND tab_2569.nr = tab_2570.nr AND tab_2572.countryType = 221 AND tab_2571.country = tab_2572.country
333", color = yellow] ; 
267 -> 268 ; 
269 [label="FunctionCallBindAccess
(<http://www4.wiwiss.fu-berlin.de/bizer/bsbm/v01/instances/dataFromProducer{1}/Product{0}>, \"{2}\")", color = yellow] ; 
267 -> 269 ; 
270 [label="FunctionCallBindAccess
AddConstant{1=(\"<http://www4.wiwiss.fu-berlin.de/bizer/bsbm/v01/vocabulary/Product>\", \"<http://www4.wiwiss.fu-berlin.de/bizer/bsbm/v01/vocabulary/productPropertyTextual>\")}", color = yellow] ; 
266 -> 270 ; 
272 [label="BindAccessEval", color = yellow] ; 
1 -> 272 ; 
273 [label="BindAccessEval", color = yellow] ; 
272 -> 273 ; 
274 [label="SQLQuery
SELECT tab_2577.nr, tab_2577.producer, tab_2577.propertyTex5 
FROM Product AS tab_2577, CountryType AS tab_2579, Product AS tab_2578, Producer AS tab_2576  
WHERE tab_2578.producer = tab_2576.nr AND tab_2577.producer = tab_2578.producer AND tab_2577.nr = tab_2578.nr AND tab_2579.countryType = 212 AND tab_2576.country = tab_2579.country
460", color = yellow] ; 
273 -> 274 ; 
275 [label="FunctionCallBindAccess
(<http://www4.wiwiss.fu-berlin.de/bizer/bsbm/v01/instances/dataFromProducer{1}/Product{0}>, \"{2}\")", color = yellow] ; 
273 -> 275 ; 
276 [label="FunctionCallBindAccess
AddConstant{1=(\"<http://www4.wiwiss.fu-berlin.de/bizer/bsbm/v01/vocabulary/Product>\", \"<http://www4.wiwiss.fu-berlin.de/bizer/bsbm/v01/vocabulary/productPropertyTextual>\")}", color = yellow] ; 
272 -> 276 ; 
278 [label="BindAccessEval", color = yellow] ; 
1 -> 278 ; 
279 [label="BindAccessEval", color = yellow] ; 
278 -> 279 ; 
280 [label="SQLQuery
SELECT tab_2584.nr, tab_2584.producer, tab_2584.propertyTex5 
FROM CountryType AS tab_2586, Producer AS tab_2583, Product AS tab_2584, Product AS tab_2585  
WHERE tab_2585.producer = tab_2583.nr AND tab_2584.producer = tab_2585.producer AND tab_2584.nr = tab_2585.nr AND tab_2586.countryType = 211 AND tab_2583.country = tab_2586.country
553", color = yellow] ; 
279 -> 280 ; 
281 [label="FunctionCallBindAccess
(<http://www4.wiwiss.fu-berlin.de/bizer/bsbm/v01/instances/dataFromProducer{1}/Product{0}>, \"{2}\")", color = yellow] ; 
279 -> 281 ; 
282 [label="FunctionCallBindAccess
AddConstant{1=(\"<http://www4.wiwiss.fu-berlin.de/bizer/bsbm/v01/vocabulary/Product>\", \"<http://www4.wiwiss.fu-berlin.de/bizer/bsbm/v01/vocabulary/productPropertyTextual>\")}", color = yellow] ; 
278 -> 282 ; 
284 [label="BindAccessEval", color = yellow] ; 
1 -> 284 ; 
285 [label="BindAccessEval", color = yellow] ; 
284 -> 285 ; 
286 [label="SQLQuery
SELECT tab_2590.nr, tab_2590.producer, tab_2590.propertyTex5 
FROM Producer AS tab_2592, Product AS tab_2590, Product AS tab_2591, CountryType AS tab_2593  
WHERE tab_2591.producer = tab_2592.nr AND tab_2590.producer = tab_2591.producer AND tab_2590.nr = tab_2591.nr AND tab_2593.countryType = 222 AND tab_2592.country = tab_2593.country
116", color = yellow] ; 
285 -> 286 ; 
287 [label="FunctionCallBindAccess
(<http://www4.wiwiss.fu-berlin.de/bizer/bsbm/v01/instances/dataFromProducer{1}/Product{0}>, \"{2}\")", color = yellow] ; 
285 -> 287 ; 
288 [label="FunctionCallBindAccess
AddConstant{1=(\"<http://www4.wiwiss.fu-berlin.de/bizer/bsbm/v01/vocabulary/Product>\", \"<http://www4.wiwiss.fu-berlin.de/bizer/bsbm/v01/vocabulary/productPropertyTextual>\")}", color = yellow] ; 
284 -> 288 ; 
}

