ANS($offer,$offerURL,$price,$deliveryDays,$value) : [V_offer\10(X2082351661738526,X2082351661738527,X2082351661738528,$offerURL,X2082351661738530,X2082351661738531,$price,$deliveryDays,X2082351661738534,$offer), V_pfeature-label-comment\5("biographies",X2082351661738426,X2082351661738421,X2082351661738422,X2082351661738534), V_M32\1(X2082351661738534), V_product\14(X2082351661738351,X2082351661738353,X2082351661738341,X2082351661738343,X2082351661738344,X2082351661738345,X2082351661738346,X2082351661738347,X2082351661738348,$value,X2082351661738350,X2082351661738352,X2082351661738354,X2082351661738534), V_product-country\2(X2082351661738534,$country), V_country-type-122\1($country)]

ANS($offer,$offerURL,$price,$deliveryDays,$value) : [V_offer\10(X2082351661738526,X2082351661738527,X2082351661738528,$offerURL,X2082351661738530,X2082351661738531,$price,$deliveryDays,X2082351661738534,$offer), V_pfeature-label-comment\5("biographies",X2082351661738426,X2082351661738421,X2082351661738422,X2082351661738534), V_M32\1(X2082351661738534), V_product\14(X2082351661738829,X2082351661738831,X2082351661738833,X2082351661738835,X2082351661738836,X2082351661738837,X2082351661738838,X2082351661738839,$value,X2082351661738841,X2082351661738828,X2082351661738830,X2082351661738832,X2082351661738534), V_product-country\2(X2082351661738534,$country), V_country-type-122\1($country)]

ANS($offer,$offerURL,$price,$deliveryDays,$value) : [V_offer\10(X2082351661738526,X2082351661738527,X2082351661738528,$offerURL,X2082351661738530,X2082351661738531,$price,$deliveryDays,X2082351661738534,$offer), V_pfeature-label-comment\5("biographies",X2082351661738426,X2082351661738421,X2082351661738422,X2082351661738534), V_M60\1(X2082351661738534), V_product\14(X2082351661738829,X2082351661738831,X2082351661738833,X2082351661738835,X2082351661738836,X2082351661738837,X2082351661738838,X2082351661738839,$value,X2082351661738841,X2082351661738828,X2082351661738830,X2082351661738832,X2082351661738534), V_product-country\2(X2082351661738534,$country), V_country-type-121\1($country)]

ANS($offer,$offerURL,$price,$deliveryDays,$value) : [V_offer\10(X2082351661738526,X2082351661738527,X2082351661738528,$offerURL,X2082351661738530,X2082351661738531,$price,$deliveryDays,X2082351661738534,$offer), V_pfeature-label-comment\5("biographies",X2082351661738426,X2082351661738421,X2082351661738422,X2082351661738534), V_M32\1(X2082351661738534), V_product\14(X2082351661738351,X2082351661738353,X2082351661738341,X2082351661738343,X2082351661738344,X2082351661738345,X2082351661738346,X2082351661738347,X2082351661738348,$value,X2082351661738350,X2082351661738352,X2082351661738354,X2082351661738534), V_product-country\2(X2082351661738534,$country), V_country-type-121\1($country)]

ANS($offer,$offerURL,$price,$deliveryDays,$value) : [V_offer\10(X2082351661738526,X2082351661738527,X2082351661738528,$offerURL,X2082351661738530,X2082351661738531,$price,$deliveryDays,X2082351661738534,$offer), V_pfeature-label-comment\5("biographies",X2082351661738426,X2082351661738421,X2082351661738422,X2082351661738534), V_M32\1(X2082351661738534), V_product\14(X2082351661738829,X2082351661738831,X2082351661738833,X2082351661738835,X2082351661738836,X2082351661738837,X2082351661738838,X2082351661738839,$value,X2082351661738841,X2082351661738828,X2082351661738830,X2082351661738832,X2082351661738534), V_product-country\2(X2082351661738534,$country), V_country-type-121\1($country)]

ANS($offer,$offerURL,$price,$deliveryDays,$value) : [V_offer\10(X2082351661738526,X2082351661738527,X2082351661738528,$offerURL,X2082351661738530,X2082351661738531,$price,$deliveryDays,X2082351661738534,$offer), V_pfeature-label-comment\5("biographies",X2082351661738426,X2082351661738421,X2082351661738422,X2082351661738534), V_M60\1(X2082351661738534), V_product\14(X2082351661738829,X2082351661738831,X2082351661738833,X2082351661738835,X2082351661738836,X2082351661738837,X2082351661738838,X2082351661738839,$value,X2082351661738841,X2082351661738828,X2082351661738830,X2082351661738832,X2082351661738534), V_product-country\2(X2082351661738534,$country), V_country-type-122\1($country)]

ANS($offer,$offerURL,$price,$deliveryDays,$value) : [V_offer\10(X2082351661738526,X2082351661738527,X2082351661738528,$offerURL,X2082351661738530,X2082351661738531,$price,$deliveryDays,X2082351661738534,$offer), V_pfeature-label-comment\5("biographies",X2082351661738426,X2082351661738421,X2082351661738422,X2082351661738534), V_M60\1(X2082351661738534), V_product\14(X2082351661738351,X2082351661738353,X2082351661738341,X2082351661738343,X2082351661738344,X2082351661738345,X2082351661738346,X2082351661738347,X2082351661738348,$value,X2082351661738350,X2082351661738352,X2082351661738354,X2082351661738534), V_product-country\2(X2082351661738534,$country), V_country-type-121\1($country)]

ANS($offer,$offerURL,$price,$deliveryDays,$value) : [V_offer\10(X2082351661738526,X2082351661738527,X2082351661738528,$offerURL,X2082351661738530,X2082351661738531,$price,$deliveryDays,X2082351661738534,$offer), V_pfeature-label-comment\5("biographies",X2082351661738426,X2082351661738421,X2082351661738422,X2082351661738534), V_M60\1(X2082351661738534), V_product\14(X2082351661738351,X2082351661738353,X2082351661738341,X2082351661738343,X2082351661738344,X2082351661738345,X2082351661738346,X2082351661738347,X2082351661738348,$value,X2082351661738350,X2082351661738352,X2082351661738354,X2082351661738534), V_product-country\2(X2082351661738534,$country), V_country-type-122\1($country)]

