$country	$agentType
<http://downlode.org/rdf/iso-3166/countries#GB>	<http://xmlns.com/foaf/0.1/Organization>	
<http://downlode.org/rdf/iso-3166/countries#FR>	<http://xmlns.com/foaf/0.1/Organization>	
<http://downlode.org/rdf/iso-3166/countries#ES>	<http://www4.wiwiss.fu-berlin.de/bizer/bsbm/v01/vocabulary/Producer>	
<http://downlode.org/rdf/iso-3166/countries#GB>	<http://www4.wiwiss.fu-berlin.de/bizer/bsbm/v01/vocabulary/Producer>	
<http://downlode.org/rdf/iso-3166/countries#KR>	<http://xmlns.com/foaf/0.1/Organization>	
<http://downlode.org/rdf/iso-3166/countries#RU>	<http://xmlns.com/foaf/0.1/Organization>	
<http://downlode.org/rdf/iso-3166/countries#FR>	<http://www4.wiwiss.fu-berlin.de/bizer/bsbm/v01/vocabulary/Producer>	
<http://downlode.org/rdf/iso-3166/countries#ES>	<http://xmlns.com/foaf/0.1/Organization>	
<http://downlode.org/rdf/iso-3166/countries#GB>	<http://xmlns.com/foaf/0.1/Agent>	
<http://downlode.org/rdf/iso-3166/countries#KR>	<http://xmlns.com/foaf/0.1/Agent>	
<http://downlode.org/rdf/iso-3166/countries#KR>	<http://www4.wiwiss.fu-berlin.de/bizer/bsbm/v01/vocabulary/Producer>	
<http://downlode.org/rdf/iso-3166/countries#RU>	<http://xmlns.com/foaf/0.1/Agent>	
<http://downlode.org/rdf/iso-3166/countries#FR>	<http://xmlns.com/foaf/0.1/Agent>	
<http://downlode.org/rdf/iso-3166/countries#ES>	<http://xmlns.com/foaf/0.1/Agent>	
<http://downlode.org/rdf/iso-3166/countries#RU>	<http://www4.wiwiss.fu-berlin.de/bizer/bsbm/v01/vocabulary/Producer>	
<http://downlode.org/rdf/iso-3166/countries#GB>	<http://xmlns.com/foaf/0.1/Person>	
<http://downlode.org/rdf/iso-3166/countries#KR>	<http://xmlns.com/foaf/0.1/Person>	
<http://downlode.org/rdf/iso-3166/countries#ES>	<http://xmlns.com/foaf/0.1/Person>	
<http://downlode.org/rdf/iso-3166/countries#RU>	<http://xmlns.com/foaf/0.1/Person>	
<http://downlode.org/rdf/iso-3166/countries#FR>	<http://xmlns.com/foaf/0.1/Person>	
<http://downlode.org/rdf/iso-3166/countries#GB>	<http://www4.wiwiss.fu-berlin.de/bizer/bsbm/v01/vocabulary/Vendor>	
<http://downlode.org/rdf/iso-3166/countries#KR>	<http://www4.wiwiss.fu-berlin.de/bizer/bsbm/v01/vocabulary/Vendor>	
<http://downlode.org/rdf/iso-3166/countries#RU>	<http://www4.wiwiss.fu-berlin.de/bizer/bsbm/v01/vocabulary/Vendor>	
<http://downlode.org/rdf/iso-3166/countries#FR>	<http://www4.wiwiss.fu-berlin.de/bizer/bsbm/v01/vocabulary/Vendor>	
