digraph  g{
node [shape=rectangle, color=black, fontcolor=black, style=bold]
0 [label="LogSkolemFunctionCall
(\"{0}\", \"{1}\")" , color = blue] ; 
1 [label="LogDistinct" , color = blue] ; 
0 -> 1 ; 
2 [label="Union", color = blue] ; 
1 -> 2 ; 
3 [label="LogSQLEval 
SELECT tab_3.primaryname, tab_2.character FROM swCasting AS tab_2, swperson AS tab_3   WHERE tab_2.category = 'actor' AND tab_2.nconst = tab_3.nconst", color = blue] ; 
2 -> 3 ; 
5 [label="LogSQLEval 
SELECT tab_1.primaryname, tab_0.character FROM swCasting AS tab_0, swperson AS tab_1   WHERE tab_0.category = 'actress' AND tab_0.nconst = tab_1.nconst", color = blue] ; 
2 -> 5 ; 
7 [label="LogProj
[0,3]" , color = blue] ; 
2 -> 7 ; 
8 [label="Join\n 1PREDICATE_EQUAL2 ", color = blue] ; 
7 -> 8 ; 
9 [label="LogProj
[1,2]" , color = blue] ; 
8 -> 9 ; 
10 [label="Join\n 0PREDICATE_EQUAL3 ", color = blue] ; 
9 -> 10 ; 
11 [label="LogSQLEval 
SELECT nconst, primaryname FROM swperson", color = blue] ; 
10 -> 11 ; 
12 [label="LogProj
[0,2]" , color = blue] ; 
10 -> 12 ; 
13 [label="LogAQLEval 
SELECT ?char ?org ?nconst WHERE { ?c <http://www.wikidata.org/prop/P463> ?stat1.
?stat1 <http://www.wikidata.org/prop/statement/P463> ?org.
?c <http://www.wikidata.org/prop/P175> ?stat2 .
?stat2 <http://www.wikidata.org/prop/statement/P175> ?actor .
?actor <http://www.wikidata.org/prop/P345> ?stat4 .
?stat4 <http://www.wikidata.org/prop/statement/P345> ?nconst .
?c <http://www.wikidata.org/prop/P3798> ?stat3 .
?stat3 <http://www.wikidata.org/prop/statement/P3798> ?char .}", color = blue] ; 
12 -> 13 ; 
14 [label="LogMongoDBEval
people
[]
[formatedName, name]
", color = blue] ; 
8 -> 14 ; 
}

