ANS($x,<http://www4.wiwiss.fu-berlin.de/bizer/bsbm/v01/vocabulary/Product>,<http://www4.wiwiss.fu-berlin.de/bizer/bsbm/v01/vocabulary/productPropertyTextual>,$value) : [V_product\14(X175948249619813711,X175948249619813720,X175948249619813718,X175948249619813717,X175948249619813716,$value,X175948249619813714,X175948249619813713,X175948249619813712,X175948249619813724,X175948249619813723,X175948249619813722,X175948249619813721,$x), V_product-country\2($x,$country), V_country-type-212\1($country)]

ANS($x,<http://www4.wiwiss.fu-berlin.de/bizer/bsbm/v01/vocabulary/Product>,<http://www4.wiwiss.fu-berlin.de/bizer/bsbm/v01/vocabulary/productPropertyTextual>,$value) : [V_product\14(X175948249619815350,X175948249619815352,X175948249619815354,X175948249619815356,X175948249619815357,$value,X175948249619815345,X175948249619815346,X175948249619815347,X175948249619815348,X175948249619815349,X175948249619815351,X175948249619815353,$x), V_product-country\2($x,$country), V_country-type-211\1($country)]

ANS($x,<http://www4.wiwiss.fu-berlin.de/bizer/bsbm/v01/vocabulary/Product>,<http://www4.wiwiss.fu-berlin.de/bizer/bsbm/v01/vocabulary/productPropertyTextual>,$value) : [V_product\14(X175948249619847806,X175948249619847804,X175948249619847802,X175948249619847801,X175948249619847810,$value,X175948249619847808,X175948249619847800,X175948249619847799,X175948249619847798,X175948249619847797,X175948249619847807,X175948249619847805,$x), V_product-country\2($x,$country), V_country-type-222\1($country)]

ANS($x,<http://www4.wiwiss.fu-berlin.de/bizer/bsbm/v01/vocabulary/Product>,<http://www4.wiwiss.fu-berlin.de/bizer/bsbm/v01/vocabulary/productPropertyTextual>,$value) : [V_product\14(X175948249619850094,X175948249619850092,X175948249619850102,X175948249619850104,X175948249619850100,$value,X175948249619850098,X175948249619850099,X175948249619850096,X175948249619850097,X175948249619850093,X175948249619850095,X175948249619850105,$x), V_product-country\2($x,$country), V_country-type-221\1($country)]

ANS($x,<http://www4.wiwiss.fu-berlin.de/bizer/bsbm/v01/vocabulary/Product>,<http://www4.wiwiss.fu-berlin.de/bizer/bsbm/v01/vocabulary/productPropertyNumeric>,$value) : [V_product\14(X175948249619855390,X175948249619855392,X175948249619855394,X175948249619855382,X175948249619855383,X175948249619855384,X175948249619855385,X175948249619855386,$value,X175948249619855388,X175948249619855389,X175948249619855391,X175948249619855393,$x), V_product-country\2($x,$country), V_country-type-211\1($country)]

ANS($x,<http://www4.wiwiss.fu-berlin.de/bizer/bsbm/v01/vocabulary/Product>,<http://www4.wiwiss.fu-berlin.de/bizer/bsbm/v01/vocabulary/productPropertyNumeric>,$value) : [V_product\14(X175948249619858873,X175948249619858875,X175948249619858880,X175948249619858882,X175948249619858879,X175948249619858871,X175948249619858872,X175948249619858869,$value,X175948249619858877,X175948249619858878,X175948249619858874,X175948249619858876,$x), V_product-country\2($x,$country), V_country-type-212\1($country)]

ANS($x,<http://www4.wiwiss.fu-berlin.de/bizer/bsbm/v01/vocabulary/Product>,<http://www4.wiwiss.fu-berlin.de/bizer/bsbm/v01/vocabulary/productPropertyTextual>,$value) : [V_product\14(X175948249619874474,X175948249619874476,X175948249619874471,$value,X175948249619874484,X175948249619874478,X175948249619874479,X175948249619874480,X175948249619874481,X175948249619874472,X175948249619874473,X175948249619874475,X175948249619874477,$x), V_product-country\2($x,$country), V_country-type-212\1($country)]

ANS($x,<http://www4.wiwiss.fu-berlin.de/bizer/bsbm/v01/vocabulary/Product>,<http://www4.wiwiss.fu-berlin.de/bizer/bsbm/v01/vocabulary/productPropertyTextual>,$value) : [V_product\14(X175948249619875270,X175948249619875272,X175948249619875274,$value,X175948249619875266,X175948249619875267,X175948249619875268,X175948249619875269,X175948249619875264,X175948249619875265,X175948249619875277,X175948249619875271,X175948249619875273,$x), V_product-country\2($x,$country), V_country-type-211\1($country)]

ANS($x,<http://xmlns.com/foaf/0.1/Document>,<http://www4.wiwiss.fu-berlin.de/bizer/bsbm/v01/vocabulary/rating>,$value) : [V_review\9(X175948249619876810,X175948249619876807,X175948249619876806,X175948249619876809,$x,X175948249619876803,X175948249619876802,$value,X175948249619876804), V_reviewer\6(X175948249619876872,X175948249619876874,X175948249619876873,X175948249619876878,$x,$country), V_country-type-222\1($country)]

ANS($x,<http://xmlns.com/foaf/0.1/Document>,<http://www4.wiwiss.fu-berlin.de/bizer/bsbm/v01/vocabulary/rating>,$value) : [V_review\9(X175948249619877190,X175948249619877189,X175948249619877186,X175948249619877185,$x,X175948249619877187,X175948249619877184,$value,X175948249619877182), V_reviewer\6(X175948249619878109,X175948249619878107,X175948249619878108,X175948249619878105,$x,$country), V_country-type-221\1($country)]

ANS($x,<http://xmlns.com/foaf/0.1/Document>,<http://www4.wiwiss.fu-berlin.de/bizer/bsbm/v01/vocabulary/rating>,$value) : [V_review\9(X175948249619898688,X175948249619898683,X175948249619898684,X175948249619898681,$x,X175948249619898686,X175948249619898687,$value,X175948249619898689), V_reviewer\6(X175948249619898056,X175948249619898054,X175948249619898055,X175948249619898059,$x,$country), V_country-type-211\1($country)]

ANS($x,<http://xmlns.com/foaf/0.1/Document>,<http://www4.wiwiss.fu-berlin.de/bizer/bsbm/v01/vocabulary/rating>,$value) : [V_review\9(X175948249619899806,X175948249619899807,X175948249619899810,X175948249619899811,$x,X175948249619899809,X175948249619899813,$value,X175948249619899812), V_reviewer\6(X175948249619899975,X175948249619899973,X175948249619899974,X175948249619899976,$x,$country), V_country-type-212\1($country)]

ANS($x,<http://www4.wiwiss.fu-berlin.de/bizer/bsbm/v01/vocabulary/Product>,<http://www4.wiwiss.fu-berlin.de/bizer/bsbm/v01/vocabulary/productPropertyTextual>,$value) : [V_product\14(X175948249619930487,X175948249619930499,X175948249619930497,$value,X175948249619930495,X175948249619930494,X175948249619930493,X175948249619930492,X175948249619930491,X175948249619930490,X175948249619930489,X175948249619930488,X175948249619930500,$x), V_product-country\2($x,$country), V_country-type-222\1($country)]

ANS($x,<http://www4.wiwiss.fu-berlin.de/bizer/bsbm/v01/vocabulary/Product>,<http://www4.wiwiss.fu-berlin.de/bizer/bsbm/v01/vocabulary/productPropertyTextual>,$value) : [V_product\14(X175948249619934250,X175948249619934252,X175948249619934254,$value,X175948249619934257,X175948249619934258,X175948249619934259,X175948249619934260,X175948249619934261,X175948249619934262,X175948249619934263,X175948249619934251,X175948249619934253,$x), V_product-country\2($x,$country), V_country-type-221\1($country)]

ANS($x,<http://www4.wiwiss.fu-berlin.de/bizer/bsbm/v01/vocabulary/Product>,<http://www4.wiwiss.fu-berlin.de/bizer/bsbm/v01/vocabulary/productPropertyTextual>,$value) : [V_product\14(X175948249619941281,$value,X175948249619941274,X175948249619941273,X175948249619941277,X175948249619941276,X175948249619941284,X175948249619941283,X175948249619941286,X175948249619941285,X175948249619941282,X175948249619941280,X175948249619941279,$x), V_product-country\2($x,$country), V_country-type-222\1($country)]

ANS($x,<http://www4.wiwiss.fu-berlin.de/bizer/bsbm/v01/vocabulary/Product>,<http://www4.wiwiss.fu-berlin.de/bizer/bsbm/v01/vocabulary/productPropertyTextual>,$value) : [V_product\14(X175948249619942249,$value,X175948249619942247,X175948249619942244,X175948249619942241,X175948249619942242,X175948249619942253,X175948249619942254,X175948249619942251,X175948249619942252,X175948249619942248,X175948249619942250,X175948249619942246,$x), V_product-country\2($x,$country), V_country-type-221\1($country)]

ANS($x,<http://www4.wiwiss.fu-berlin.de/bizer/bsbm/v01/vocabulary/Product>,<http://www4.wiwiss.fu-berlin.de/bizer/bsbm/v01/vocabulary/productPropertyTextual>,$value) : [V_product\14(X175948249619989852,$value,X175948249619989854,X175948249619989843,X175948249619989842,X175948249619989845,X175948249619989844,X175948249619989847,X175948249619989846,X175948249619989849,X175948249619989848,X175948249619989853,X175948249619989851,$x), V_product-country\2($x,$country), V_country-type-212\1($country)]

ANS($x,<http://www4.wiwiss.fu-berlin.de/bizer/bsbm/v01/vocabulary/Product>,<http://www4.wiwiss.fu-berlin.de/bizer/bsbm/v01/vocabulary/productPropertyTextual>,$value) : [V_product\14(X175948249619990872,$value,X175948249619990868,X175948249619990878,X175948249619990877,X175948249619990876,X175948249619990875,X175948249619990867,X175948249619990866,X175948249619990865,X175948249619990874,X175948249619990873,X175948249619990871,$x), V_product-country\2($x,$country), V_country-type-211\1($country)]

ANS($x,<http://www4.wiwiss.fu-berlin.de/bizer/bsbm/v01/vocabulary/Product>,<http://www4.wiwiss.fu-berlin.de/bizer/bsbm/v01/vocabulary/productPropertyTextual>,$value) : [V_product\14($value,X175948249620022099,X175948249620022096,X175948249620022095,X175948249620022094,X175948249620022093,X175948249620022092,X175948249620022105,X175948249620022104,X175948249620022103,X175948249620022102,X175948249620022101,X175948249620022098,$x), V_product-country\2($x,$country), V_country-type-221\1($country)]

ANS($x,<http://www4.wiwiss.fu-berlin.de/bizer/bsbm/v01/vocabulary/Product>,<http://www4.wiwiss.fu-berlin.de/bizer/bsbm/v01/vocabulary/productPropertyTextual>,$value) : [V_product\14($value,X175948249620025408,X175948249620025409,X175948249620025413,X175948249620025414,X175948249620025415,X175948249620025416,X175948249620025417,X175948249620025418,X175948249620025419,X175948249620025420,X175948249620025410,X175948249620025411,$x), V_product-country\2($x,$country), V_country-type-222\1($country)]

ANS($x,<http://www4.wiwiss.fu-berlin.de/bizer/bsbm/v01/vocabulary/Product>,<http://www4.wiwiss.fu-berlin.de/bizer/bsbm/v01/vocabulary/productPropertyTextual>,$value) : [V_product\14($value,X175948249620070819,X175948249620070821,X175948249620070823,X175948249620070824,X175948249620070815,X175948249620070816,X175948249620070817,X175948249620070818,X175948249620070825,X175948249620070826,X175948249620070828,X175948249620070820,$x), V_product-country\2($x,$country), V_country-type-212\1($country)]

ANS($x,<http://www4.wiwiss.fu-berlin.de/bizer/bsbm/v01/vocabulary/Product>,<http://www4.wiwiss.fu-berlin.de/bizer/bsbm/v01/vocabulary/productPropertyTextual>,$value) : [V_product\14($value,X175948249620071761,X175948249620071759,X175948249620071764,X175948249620071763,X175948249620071758,X175948249620071757,X175948249620071770,X175948249620071766,X175948249620071765,X175948249620071769,X175948249620071768,X175948249620071762,$x), V_product-country\2($x,$country), V_country-type-211\1($country)]

ANS($x,<http://purl.org/stuff/rev#Review>,<http://www4.wiwiss.fu-berlin.de/bizer/bsbm/v01/vocabulary/rating>,$value) : [V_review\9(X175948249620125142,X175948249620125138,X175948249620125137,X175948249620125140,$x,X175948249620125134,$value,X175948249620125135,X175948249620125141), V_reviewer\6(X175948249620124192,X175948249620124189,X175948249620124191,X175948249620124190,$x,$country), V_country-type-221\1($country)]

ANS($x,<http://purl.org/stuff/rev#Review>,<http://www4.wiwiss.fu-berlin.de/bizer/bsbm/v01/vocabulary/rating>,$value) : [V_review\9(X175948249620127417,X175948249620127418,X175948249620127415,X175948249620127416,$x,X175948249620127414,$value,X175948249620127412,X175948249620127410), V_reviewer\6(X175948249620126480,X175948249620126478,X175948249620126479,X175948249620126477,$x,$country), V_country-type-222\1($country)]

ANS($x,<http://purl.org/stuff/rev#Review>,<http://www4.wiwiss.fu-berlin.de/bizer/bsbm/v01/vocabulary/rating>,$value) : [V_review\9(X175948249620141132,X175948249620141140,X175948249620141139,X175948249620141138,$x,X175948249620141136,$value,X175948249620141134,X175948249620141133), V_reviewer\6(X175948249620141867,X175948249620141866,X175948249620141865,X175948249620141864,$x,$country), V_country-type-211\1($country)]

ANS($x,<http://purl.org/stuff/rev#Review>,<http://www4.wiwiss.fu-berlin.de/bizer/bsbm/v01/vocabulary/rating>,$value) : [V_review\9(X175948249620142179,X175948249620142180,X175948249620142181,X175948249620142182,$x,X175948249620142175,$value,X175948249620142177,X175948249620142178), V_reviewer\6(X175948249620142984,X175948249620142978,X175948249620142979,X175948249620142980,$x,$country), V_country-type-212\1($country)]

ANS($x,<http://xmlns.com/foaf/0.1/Document>,<http://www4.wiwiss.fu-berlin.de/bizer/bsbm/v01/vocabulary/rating>,$value) : [V_review\9(X175948249620209180,X175948249620209181,X175948249620209182,X175948249620209183,$x,X175948249620209185,$value,X175948249620209178,X175948249620209179), V_reviewer\6(X175948249620209230,X175948249620209231,X175948249620209232,X175948249620209233,$x,$country), V_country-type-221\1($country)]

ANS($x,<http://xmlns.com/foaf/0.1/Document>,<http://www4.wiwiss.fu-berlin.de/bizer/bsbm/v01/vocabulary/rating>,$value) : [V_review\9(X175948249620210614,X175948249620210612,X175948249620210613,X175948249620210617,$x,X175948249620210615,$value,X175948249620210610,X175948249620210611), V_reviewer\6(X175948249620210825,X175948249620210826,X175948249620210824,X175948249620210829,$x,$country), V_country-type-222\1($country)]

ANS($x,<http://www4.wiwiss.fu-berlin.de/bizer/bsbm/v01/vocabulary/Product>,<http://www4.wiwiss.fu-berlin.de/bizer/bsbm/v01/vocabulary/productPropertyNumeric>,$value) : [V_product\14(X175948249620220150,X175948249620220152,X175948249620220154,X175948249620220142,X175948249620220143,X175948249620220144,X175948249620220145,X175948249620220146,X175948249620220147,$value,X175948249620220149,X175948249620220151,X175948249620220153,$x), V_product-country\2($x,$country), V_country-type-221\1($country)]

ANS($x,<http://www4.wiwiss.fu-berlin.de/bizer/bsbm/v01/vocabulary/Product>,<http://www4.wiwiss.fu-berlin.de/bizer/bsbm/v01/vocabulary/productPropertyNumeric>,$value) : [V_product\14(X175948249620221286,X175948249620221288,X175948249620221290,X175948249620221292,X175948249620221293,X175948249620221294,X175948249620221281,X175948249620221282,X175948249620221283,$value,X175948249620221285,X175948249620221287,X175948249620221289,$x), V_product-country\2($x,$country), V_country-type-222\1($country)]

ANS($x,<http://xmlns.com/foaf/0.1/Document>,<http://www4.wiwiss.fu-berlin.de/bizer/bsbm/v01/vocabulary/rating>,$value) : [V_review\9(X175948249620222334,X175948249620222336,X175948249620222335,X175948249620222338,$x,X175948249620222340,$value,X175948249620222332,X175948249620222333), V_reviewer\6(X175948249620222235,X175948249620222234,X175948249620222237,X175948249620222236,$x,$country), V_country-type-211\1($country)]

ANS($x,<http://xmlns.com/foaf/0.1/Document>,<http://www4.wiwiss.fu-berlin.de/bizer/bsbm/v01/vocabulary/rating>,$value) : [V_review\9(X175948249620223802,X175948249620223804,X175948249620223803,X175948249620223806,$x,X175948249620223808,$value,X175948249620223810,X175948249620223809), V_reviewer\6(X175948249620223413,X175948249620223412,X175948249620223415,X175948249620223414,$x,$country), V_country-type-212\1($country)]

ANS($x,<http://www4.wiwiss.fu-berlin.de/bizer/bsbm/v01/vocabulary/Product>,<http://www4.wiwiss.fu-berlin.de/bizer/bsbm/v01/vocabulary/productPropertyTextual>,$value) : [V_product\14(X175948249620230196,X175948249620230191,X175948249620230193,X175948249620230189,X175948249620230190,X175948249620230187,X175948249620230188,X175948249620230200,X175948249620230198,X175948249620230199,X175948249620230195,X175948249620230197,$value,$x), V_product-country\2($x,$country), V_country-type-212\1($country)]

ANS($x,<http://www4.wiwiss.fu-berlin.de/bizer/bsbm/v01/vocabulary/Product>,<http://www4.wiwiss.fu-berlin.de/bizer/bsbm/v01/vocabulary/productPropertyTextual>,$value) : [V_product\14(X175948249620231553,X175948249620231555,X175948249620231550,X175948249620231552,X175948249620231548,X175948249620231549,X175948249620231547,X175948249620231559,X175948249620231560,X175948249620231557,X175948249620231558,X175948249620231554,$value,$x), V_product-country\2($x,$country), V_country-type-211\1($country)]

ANS($x,<http://www4.wiwiss.fu-berlin.de/bizer/bsbm/v01/vocabulary/Product>,<http://www4.wiwiss.fu-berlin.de/bizer/bsbm/v01/vocabulary/productPropertyTextual>,$value) : [V_product\14(X175948249620243592,X175948249620243597,X175948249620243595,X175948249620243591,X175948249620243590,X175948249620243589,X175948249620243600,X175948249620243599,X175948249620243602,X175948249620243601,X175948249620243594,X175948249620243593,$value,$x), V_product-country\2($x,$country), V_country-type-222\1($country)]

ANS($x,<http://www4.wiwiss.fu-berlin.de/bizer/bsbm/v01/vocabulary/Product>,<http://www4.wiwiss.fu-berlin.de/bizer/bsbm/v01/vocabulary/productPropertyTextual>,$value) : [V_product\14(X175948249620245554,X175948249620245565,X175948249620245561,X175948249620245563,X175948249620245559,X175948249620245560,X175948249620245557,X175948249620245558,X175948249620245555,X175948249620245556,X175948249620245553,X175948249620245564,$value,$x), V_product-country\2($x,$country), V_country-type-221\1($country)]

ANS($x,<http://www4.wiwiss.fu-berlin.de/bizer/bsbm/v01/vocabulary/Product>,<http://www4.wiwiss.fu-berlin.de/bizer/bsbm/v01/vocabulary/productPropertyTextual>,$value) : [V_product\14(X175948249620262692,X175948249620262697,X175948249620262695,X175948249620262686,X175948249620262685,X175948249620262688,X175948249620262687,$value,X175948249620262689,X175948249620262691,X175948249620262694,X175948249620262693,X175948249620262698,$x), V_product-country\2($x,$country), V_country-type-212\1($country)]

ANS($x,<http://www4.wiwiss.fu-berlin.de/bizer/bsbm/v01/vocabulary/Product>,<http://www4.wiwiss.fu-berlin.de/bizer/bsbm/v01/vocabulary/productPropertyTextual>,$value) : [V_product\14(X175948249620265341,X175948249620265343,X175948249620265347,X175948249620265348,X175948249620265349,X175948249620265353,X175948249620265354,$value,X175948249620265352,X175948249620265345,X175948249620265346,X175948249620265342,X175948249620265344,$x), V_product-country\2($x,$country), V_country-type-211\1($country)]

ANS($x,<http://www4.wiwiss.fu-berlin.de/bizer/bsbm/v01/vocabulary/Product>,<http://www4.wiwiss.fu-berlin.de/bizer/bsbm/v01/vocabulary/productPropertyNumeric>,$value) : [V_product\14(X175948249620282919,X175948249620282924,X175948249620282922,X175948249620282931,X175948249620282930,X175948249620282932,X175948249620282927,X175948249620282926,$value,X175948249620282928,X175948249620282921,X175948249620282920,X175948249620282925,$x), V_product-country\2($x,$country), V_country-type-222\1($country)]

ANS($x,<http://www4.wiwiss.fu-berlin.de/bizer/bsbm/v01/vocabulary/Product>,<http://www4.wiwiss.fu-berlin.de/bizer/bsbm/v01/vocabulary/productPropertyNumeric>,$value) : [V_product\14(X175948249620285407,X175948249620285402,X175948249620285404,X175948249620285400,X175948249620285401,X175948249620285411,X175948249620285398,X175948249620285399,$value,X175948249620285410,X175948249620285406,X175948249620285408,X175948249620285403,$x), V_product-country\2($x,$country), V_country-type-221\1($country)]

ANS($x,<http://purl.org/stuff/rev#Review>,<http://www4.wiwiss.fu-berlin.de/bizer/bsbm/v01/vocabulary/rating>,$value) : [V_review\9(X175948249620311178,X175948249620311177,X175948249620311176,X175948249620311175,$x,X175948249620311182,X175948249620311181,$value,X175948249620311179), V_reviewer\6(X175948249620311113,X175948249620311112,X175948249620311111,X175948249620311110,$x,$country), V_country-type-221\1($country)]

ANS($x,<http://purl.org/stuff/rev#Review>,<http://www4.wiwiss.fu-berlin.de/bizer/bsbm/v01/vocabulary/rating>,$value) : [V_review\9(X175948249620313405,X175948249620313406,X175948249620313407,X175948249620313408,$x,X175948249620313410,X175948249620313411,$value,X175948249620313413), V_reviewer\6(X175948249620313309,X175948249620313310,X175948249620313311,X175948249620313312,$x,$country), V_country-type-222\1($country)]

ANS($x,<http://purl.org/stuff/rev#Review>,<http://www4.wiwiss.fu-berlin.de/bizer/bsbm/v01/vocabulary/rating>,$value) : [V_review\9(X175948249620323522,X175948249620323523,X175948249620323529,X175948249620323530,$x,X175948249620323528,X175948249620323526,$value,X175948249620323525), V_reviewer\6(X175948249620323982,X175948249620323983,X175948249620323987,X175948249620323988,$x,$country), V_country-type-212\1($country)]

ANS($x,<http://www4.wiwiss.fu-berlin.de/bizer/bsbm/v01/vocabulary/Product>,<http://www4.wiwiss.fu-berlin.de/bizer/bsbm/v01/vocabulary/productPropertyTextual>,$value) : [V_product\14(X175948249620334503,X175948249620334515,X175948249620334516,X175948249620334511,X175948249620334512,X175948249620334513,X175948249620334514,$value,X175948249620334508,X175948249620334509,X175948249620334510,X175948249620334504,X175948249620334505,$x), V_product-country\2($x,$country), V_country-type-221\1($country)]

ANS($x,<http://purl.org/stuff/rev#Review>,<http://www4.wiwiss.fu-berlin.de/bizer/bsbm/v01/vocabulary/rating>,$value) : [V_review\9(X175948249620336496,X175948249620336495,X175948249620336498,X175948249620336497,$x,X175948249620336492,X175948249620336494,$value,X175948249620336499), V_reviewer\6(X175948249620336402,X175948249620336401,X175948249620336404,X175948249620336403,$x,$country), V_country-type-211\1($country)]

ANS($x,<http://www4.wiwiss.fu-berlin.de/bizer/bsbm/v01/vocabulary/Product>,<http://www4.wiwiss.fu-berlin.de/bizer/bsbm/v01/vocabulary/productPropertyTextual>,$value) : [V_product\14(X175948249620338352,X175948249620338354,X175948249620338351,X175948249620338362,X175948249620338363,X175948249620338360,X175948249620338361,$value,X175948249620338359,X175948249620338356,X175948249620338357,X175948249620338353,X175948249620338355,$x), V_product-country\2($x,$country), V_country-type-222\1($country)]

ANS($x,<http://www4.wiwiss.fu-berlin.de/bizer/bsbm/v01/vocabulary/Product>,<http://www4.wiwiss.fu-berlin.de/bizer/bsbm/v01/vocabulary/productPropertyNumeric>,$value) : [V_product\14(X175948249620344256,X175948249620344244,X175948249620344248,X175948249620344250,X175948249620344246,X175948249620344247,X175948249620344253,X175948249620344254,X175948249620344251,$value,X175948249620344255,X175948249620344243,X175948249620344245,$x), V_product-country\2($x,$country), V_country-type-211\1($country)]

ANS($x,<http://www4.wiwiss.fu-berlin.de/bizer/bsbm/v01/vocabulary/Product>,<http://www4.wiwiss.fu-berlin.de/bizer/bsbm/v01/vocabulary/productPropertyNumeric>,$value) : [V_product\14(X175948249620345392,X175948249620345390,X175948249620345388,X175948249620345398,X175948249620345397,X175948249620345396,X175948249620345395,X175948249620345399,X175948249620345387,$value,X175948249620345394,X175948249620345393,X175948249620345391,$x), V_product-country\2($x,$country), V_country-type-212\1($country)]

