digraph  g{ graph[label = "16:12:14.991"]
node [shape=rectangle, color=black, fontcolor=black, style=bold] edge [color=black] 0 [label="BindAccessEval", color = yellow] ; 
1 [label="SQLQuery
SELECT tab_39.id, tab_40.info 
FROM movie_info AS tab_40, title AS tab_38, title AS tab_39  
WHERE tab_39.kind_id = 1 AND tab_38.title = 'Finding Nemo' AND tab_39.id = tab_38.id AND tab_40.info_type_id = 105 AND tab_39.id = tab_40.movie_id AND tab_38.id = tab_40.movie_id
1", color = yellow] ; 
0 -> 1 ; 
2 [label="FunctionCallBindAccess
(<http://www.imdb.com/title/{0}>, \"{1}\")", color = yellow] ; 
0 -> 2 ; 
}

