digraph  g{
node [shape=rectangle, color=black, fontcolor=black, style=bold]
0 [label="LogProj
[9,3,5,11,10]" , color = blue] ; 
1 [label="Join\n [5PREDICATE_EQUAL15] ", color = blue] ; 
0 -> 1 ; 
2 [label="LogSkolemFunctionCall
(\"{6}\", \"{5}\", <http://www4.wiwiss.fu-berlin.de/bizer/bsbm/v01/instances/dataFromVendor{9}/Vendor{9}>, <{8}>, \"{10}\", <http://www4.wiwiss.fu-berlin.de/bizer/bsbm/v01/instances/dataFromVendor{3}/Vendor{3}>, \"{4}\", \"{7}\", <http://www4.wiwiss.fu-berlin.de/bizer/bsbm/v01/instances/dataFromProducer{2}/Product{1}>, <http://www4.wiwiss.fu-berlin.de/bizer/bsbm/v01/instances/dataFromVendor{3}/Offer{0}>)" , color = blue] ; 
1 -> 2 ; 
3 [label="LogSQLEval 
SELECT nr, product, producer, vendor, price, validFrom, validTo, deliveryDays, offerWebpage, publisher, publishDate FROM Offer", color = blue] ; 
2 -> 3 ; 
4 [label="LogSkolemFunctionCall
(<{3}>, \"{1}\", \"{2}\", <http://www4.wiwiss.fu-berlin.de/bizer/bsbm/v01/instances/dataFromVendor{4}/Vendor{4}>, \"{5}\", <http://www4.wiwiss.fu-berlin.de/bizer/bsbm/v01/instances/dataFromVendor{0}/Vendor{0}>)" , color = blue] ; 
1 -> 4 ; 
5 [label="LogSQLEval 
SELECT nr, label, comment, homepage, publisher, publishDate FROM Vendor", color = blue] ; 
4 -> 5 ; 
}

