ANS($review,$product,$rating) : [V_review\9(X3055028502586343,X3055028502586342,X3055028502586341,X3055028502586340,$review,X3055028502586338,X3055028502586337,$rating,$product), V_reviewer\6(X3055028502586193,X3055028502586192,X3055028502586191,X3055028502586190,$review,X3055028502586188)]

ANS($review,$product,$rating) : [V_review\9(X3055028502587905,X3055028502587913,X3055028502587912,X3055028502587911,$review,X3055028502587907,$rating,X3055028502587909,$product), V_reviewer\6(X3055028502587811,X3055028502587810,X3055028502587809,X3055028502587808,$review,X3055028502587806)]

