<$offer,$offerURL,$price,$deliveryDays,$value> :- 
	triple($offer,<113324>,$offerURL),
	triple($offer,<338086>,$price),
	triple($offer,<149870>,$deliveryDays),
	triple($offer,<351465>,$product),
	triple($product,<443584>,$productFeature),
	triple($productFeature,<64561>,"518715"),
	triple($product,<247060>,<473361>),
	triple($product,<547137>,$value),
	triple($product,<382211>,$producer),
	triple($producer,<37704>,$country),
	triple($country,<247060>,<207269>);

<$offer,$offerURL,$price,$deliveryDays,$value> :- 
	triple($offer,<113324>,$offerURL),
	triple($offer,<338086>,$price),
	triple($offer,<149870>,$deliveryDays),
	triple($offer,<351465>,$product),
	triple($product,<443584>,$productFeature),
	triple($productFeature,<64561>,"518715"),
	triple($product,<247060>,<230156>),
	triple($product,<547137>,$value),
	triple($product,<382211>,$producer),
	triple($producer,<37704>,$country),
	triple($country,<247060>,<369950>);

<$offer,$offerURL,$price,$deliveryDays,$value> :- 
	triple($offer,<113324>,$offerURL),
	triple($offer,<338086>,$price),
	triple($offer,<149870>,$deliveryDays),
	triple($offer,<351465>,$product),
	triple($product,<443584>,$productFeature),
	triple($productFeature,<64561>,"518715"),
	triple($product,<247060>,<473361>),
	triple($product,<199803>,$value),
	triple($product,<382211>,$producer),
	triple($producer,<37704>,$country),
	triple($country,<247060>,<223771>);

<$offer,$offerURL,$price,$deliveryDays,$value> :- 
	triple($offer,<113324>,$offerURL),
	triple($offer,<338086>,$price),
	triple($offer,<149870>,$deliveryDays),
	triple($offer,<351465>,$product),
	triple($product,<443584>,$productFeature),
	triple($productFeature,<64561>,"518715"),
	triple($product,<247060>,<473361>),
	triple($product,<463228>,$value),
	triple($product,<382211>,$producer),
	triple($producer,<37704>,$country),
	triple($country,<247060>,<369950>);

<$offer,$offerURL,$price,$deliveryDays,$value> :- 
	triple($offer,<113324>,$offerURL),
	triple($offer,<338086>,$price),
	triple($offer,<149870>,$deliveryDays),
	triple($offer,<351465>,$product),
	triple($product,<443584>,$productFeature),
	triple($productFeature,<64561>,"518715"),
	triple($product,<247060>,<230156>),
	triple($product,<463228>,$value),
	triple($product,<382211>,$producer),
	triple($producer,<37704>,$country),
	triple($country,<247060>,<369950>);

<$offer,$offerURL,$price,$deliveryDays,$value> :- 
	triple($offer,<113324>,$offerURL),
	triple($offer,<338086>,$price),
	triple($offer,<149870>,$deliveryDays),
	triple($offer,<351465>,$product),
	triple($product,<443584>,$productFeature),
	triple($productFeature,<64561>,"518715"),
	triple($product,<247060>,<218494>),
	triple($product,<127477>,$value),
	triple($product,<382211>,$producer),
	triple($producer,<37704>,$country),
	triple($country,<247060>,<223771>);

<$offer,$offerURL,$price,$deliveryDays,$value> :- 
	triple($offer,<113324>,$offerURL),
	triple($offer,<338086>,$price),
	triple($offer,<149870>,$deliveryDays),
	triple($offer,<351465>,$product),
	triple($product,<443584>,$productFeature),
	triple($productFeature,<64561>,"518715"),
	triple($product,<247060>,<473361>),
	triple($product,<42051>,$value),
	triple($product,<382211>,$producer),
	triple($producer,<37704>,$country),
	triple($country,<247060>,<369950>);

<$offer,$offerURL,$price,$deliveryDays,$value> :- 
	triple($offer,<113324>,$offerURL),
	triple($offer,<338086>,$price),
	triple($offer,<149870>,$deliveryDays),
	triple($offer,<351465>,$product),
	triple($product,<443584>,$productFeature),
	triple($productFeature,<64561>,"518715"),
	triple($product,<247060>,<218494>),
	triple($product,<331230>,$value),
	triple($product,<382211>,$producer),
	triple($producer,<37704>,$country),
	triple($country,<247060>,<223771>);

<$offer,$offerURL,$price,$deliveryDays,$value> :- 
	triple($offer,<113324>,$offerURL),
	triple($offer,<338086>,$price),
	triple($offer,<149870>,$deliveryDays),
	triple($offer,<351465>,$product),
	triple($product,<443584>,$productFeature),
	triple($productFeature,<64561>,"518715"),
	triple($product,<247060>,<473361>),
	triple($product,<547137>,$value),
	triple($product,<382211>,$producer),
	triple($producer,<37704>,$country),
	triple($country,<247060>,<369950>);

<$offer,$offerURL,$price,$deliveryDays,$value> :- 
	triple($offer,<113324>,$offerURL),
	triple($offer,<338086>,$price),
	triple($offer,<149870>,$deliveryDays),
	triple($offer,<351465>,$product),
	triple($product,<443584>,$productFeature),
	triple($productFeature,<64561>,"518715"),
	triple($product,<247060>,<473361>),
	triple($product,<42051>,$value),
	triple($product,<382211>,$producer),
	triple($producer,<37704>,$country),
	triple($country,<247060>,<207269>);

<$offer,$offerURL,$price,$deliveryDays,$value> :- 
	triple($offer,<113324>,$offerURL),
	triple($offer,<338086>,$price),
	triple($offer,<149870>,$deliveryDays),
	triple($offer,<351465>,$product),
	triple($product,<443584>,$productFeature),
	triple($productFeature,<64561>,"518715"),
	triple($product,<247060>,<473361>),
	triple($product,<263347>,$value),
	triple($product,<382211>,$producer),
	triple($producer,<37704>,$country),
	triple($country,<247060>,<369950>);

<$offer,$offerURL,$price,$deliveryDays,$value> :- 
	triple($offer,<113324>,$offerURL),
	triple($offer,<338086>,$price),
	triple($offer,<149870>,$deliveryDays),
	triple($offer,<351465>,$product),
	triple($product,<443584>,$productFeature),
	triple($productFeature,<64561>,"518715"),
	triple($product,<247060>,<218494>),
	triple($product,<199803>,$value),
	triple($product,<382211>,$producer),
	triple($producer,<37704>,$country),
	triple($country,<247060>,<369950>);

<$offer,$offerURL,$price,$deliveryDays,$value> :- 
	triple($offer,<113324>,$offerURL),
	triple($offer,<338086>,$price),
	triple($offer,<149870>,$deliveryDays),
	triple($offer,<351465>,$product),
	triple($product,<443584>,$productFeature),
	triple($productFeature,<64561>,"518715"),
	triple($product,<247060>,<230156>),
	triple($product,<263347>,$value),
	triple($product,<382211>,$producer),
	triple($producer,<37704>,$country),
	triple($country,<247060>,<369950>);

<$offer,$offerURL,$price,$deliveryDays,$value> :- 
	triple($offer,<113324>,$offerURL),
	triple($offer,<338086>,$price),
	triple($offer,<149870>,$deliveryDays),
	triple($offer,<351465>,$product),
	triple($product,<443584>,$productFeature),
	triple($productFeature,<64561>,"518715"),
	triple($product,<247060>,<230156>),
	triple($product,<463228>,$value),
	triple($product,<382211>,$producer),
	triple($producer,<37704>,$country),
	triple($country,<247060>,<207269>);

<$offer,$offerURL,$price,$deliveryDays,$value> :- 
	triple($offer,<113324>,$offerURL),
	triple($offer,<338086>,$price),
	triple($offer,<149870>,$deliveryDays),
	triple($offer,<351465>,$product),
	triple($product,<443584>,$productFeature),
	triple($productFeature,<64561>,"518715"),
	triple($product,<247060>,<230156>),
	triple($product,<547137>,$value),
	triple($product,<382211>,$producer),
	triple($producer,<37704>,$country),
	triple($country,<247060>,<207269>);

<$offer,$offerURL,$price,$deliveryDays,$value> :- 
	triple($offer,<113324>,$offerURL),
	triple($offer,<338086>,$price),
	triple($offer,<149870>,$deliveryDays),
	triple($offer,<351465>,$product),
	triple($product,<443584>,$productFeature),
	triple($productFeature,<64561>,"518715"),
	triple($product,<247060>,<473361>),
	triple($product,<463228>,$value),
	triple($product,<382211>,$producer),
	triple($producer,<37704>,$country),
	triple($country,<247060>,<207269>);

<$offer,$offerURL,$price,$deliveryDays,$value> :- 
	triple($offer,<113324>,$offerURL),
	triple($offer,<338086>,$price),
	triple($offer,<149870>,$deliveryDays),
	triple($offer,<351465>,$product),
	triple($product,<443584>,$productFeature),
	triple($productFeature,<64561>,"518715"),
	triple($product,<247060>,<230156>),
	triple($product,<42051>,$value),
	triple($product,<382211>,$producer),
	triple($producer,<37704>,$country),
	triple($country,<247060>,<223771>);

<$offer,$offerURL,$price,$deliveryDays,$value> :- 
	triple($offer,<113324>,$offerURL),
	triple($offer,<338086>,$price),
	triple($offer,<149870>,$deliveryDays),
	triple($offer,<351465>,$product),
	triple($product,<443584>,$productFeature),
	triple($productFeature,<64561>,"518715"),
	triple($product,<247060>,<473361>),
	triple($product,<331230>,$value),
	triple($product,<382211>,$producer),
	triple($producer,<37704>,$country),
	triple($country,<247060>,<223771>);

<$offer,$offerURL,$price,$deliveryDays,$value> :- 
	triple($offer,<113324>,$offerURL),
	triple($offer,<338086>,$price),
	triple($offer,<149870>,$deliveryDays),
	triple($offer,<351465>,$product),
	triple($product,<443584>,$productFeature),
	triple($productFeature,<64561>,"518715"),
	triple($product,<247060>,<473361>),
	triple($product,<42051>,$value),
	triple($product,<382211>,$producer),
	triple($producer,<37704>,$country),
	triple($country,<247060>,<223771>);

<$offer,$offerURL,$price,$deliveryDays,$value> :- 
	triple($offer,<113324>,$offerURL),
	triple($offer,<338086>,$price),
	triple($offer,<149870>,$deliveryDays),
	triple($offer,<351465>,$product),
	triple($product,<443584>,$productFeature),
	triple($productFeature,<64561>,"518715"),
	triple($product,<247060>,<230156>),
	triple($product,<331230>,$value),
	triple($product,<382211>,$producer),
	triple($producer,<37704>,$country),
	triple($country,<247060>,<207269>);

<$offer,$offerURL,$price,$deliveryDays,$value> :- 
	triple($offer,<113324>,$offerURL),
	triple($offer,<338086>,$price),
	triple($offer,<149870>,$deliveryDays),
	triple($offer,<351465>,$product),
	triple($product,<443584>,$productFeature),
	triple($productFeature,<64561>,"518715"),
	triple($product,<247060>,<230156>),
	triple($product,<331230>,$value),
	triple($product,<382211>,$producer),
	triple($producer,<37704>,$country),
	triple($country,<247060>,<369950>);

<$offer,$offerURL,$price,$deliveryDays,$value> :- 
	triple($offer,<113324>,$offerURL),
	triple($offer,<338086>,$price),
	triple($offer,<149870>,$deliveryDays),
	triple($offer,<351465>,$product),
	triple($product,<443584>,$productFeature),
	triple($productFeature,<64561>,"518715"),
	triple($product,<247060>,<473361>),
	triple($product,<127477>,$value),
	triple($product,<382211>,$producer),
	triple($producer,<37704>,$country),
	triple($country,<247060>,<207269>);

<$offer,$offerURL,$price,$deliveryDays,$value> :- 
	triple($offer,<113324>,$offerURL),
	triple($offer,<338086>,$price),
	triple($offer,<149870>,$deliveryDays),
	triple($offer,<351465>,$product),
	triple($product,<443584>,$productFeature),
	triple($productFeature,<64561>,"518715"),
	triple($product,<247060>,<218494>),
	triple($product,<463228>,$value),
	triple($product,<382211>,$producer),
	triple($producer,<37704>,$country),
	triple($country,<247060>,<369950>);

<$offer,$offerURL,$price,$deliveryDays,$value> :- 
	triple($offer,<113324>,$offerURL),
	triple($offer,<338086>,$price),
	triple($offer,<149870>,$deliveryDays),
	triple($offer,<351465>,$product),
	triple($product,<443584>,$productFeature),
	triple($productFeature,<64561>,"518715"),
	triple($product,<247060>,<218494>),
	triple($product,<199803>,$value),
	triple($product,<382211>,$producer),
	triple($producer,<37704>,$country),
	triple($country,<247060>,<223771>);

<$offer,$offerURL,$price,$deliveryDays,$value> :- 
	triple($offer,<113324>,$offerURL),
	triple($offer,<338086>,$price),
	triple($offer,<149870>,$deliveryDays),
	triple($offer,<351465>,$product),
	triple($product,<443584>,$productFeature),
	triple($productFeature,<64561>,"518715"),
	triple($product,<247060>,<473361>),
	triple($product,<127477>,$value),
	triple($product,<382211>,$producer),
	triple($producer,<37704>,$country),
	triple($country,<247060>,<223771>);

<$offer,$offerURL,$price,$deliveryDays,$value> :- 
	triple($offer,<113324>,$offerURL),
	triple($offer,<338086>,$price),
	triple($offer,<149870>,$deliveryDays),
	triple($offer,<351465>,$product),
	triple($product,<443584>,$productFeature),
	triple($productFeature,<64561>,"518715"),
	triple($product,<247060>,<218494>),
	triple($product,<263347>,$value),
	triple($product,<382211>,$producer),
	triple($producer,<37704>,$country),
	triple($country,<247060>,<207269>);

<$offer,$offerURL,$price,$deliveryDays,$value> :- 
	triple($offer,<113324>,$offerURL),
	triple($offer,<338086>,$price),
	triple($offer,<149870>,$deliveryDays),
	triple($offer,<351465>,$product),
	triple($product,<443584>,$productFeature),
	triple($productFeature,<64561>,"518715"),
	triple($product,<247060>,<230156>),
	triple($product,<199803>,$value),
	triple($product,<382211>,$producer),
	triple($producer,<37704>,$country),
	triple($country,<247060>,<223771>);

<$offer,$offerURL,$price,$deliveryDays,$value> :- 
	triple($offer,<113324>,$offerURL),
	triple($offer,<338086>,$price),
	triple($offer,<149870>,$deliveryDays),
	triple($offer,<351465>,$product),
	triple($product,<443584>,$productFeature),
	triple($productFeature,<64561>,"518715"),
	triple($product,<247060>,<218494>),
	triple($product,<199803>,$value),
	triple($product,<382211>,$producer),
	triple($producer,<37704>,$country),
	triple($country,<247060>,<207269>);

<$offer,$offerURL,$price,$deliveryDays,$value> :- 
	triple($offer,<113324>,$offerURL),
	triple($offer,<338086>,$price),
	triple($offer,<149870>,$deliveryDays),
	triple($offer,<351465>,$product),
	triple($product,<443584>,$productFeature),
	triple($productFeature,<64561>,"518715"),
	triple($product,<247060>,<473361>),
	triple($product,<331230>,$value),
	triple($product,<382211>,$producer),
	triple($producer,<37704>,$country),
	triple($country,<247060>,<369950>);

<$offer,$offerURL,$price,$deliveryDays,$value> :- 
	triple($offer,<113324>,$offerURL),
	triple($offer,<338086>,$price),
	triple($offer,<149870>,$deliveryDays),
	triple($offer,<351465>,$product),
	triple($product,<443584>,$productFeature),
	triple($productFeature,<64561>,"518715"),
	triple($product,<247060>,<218494>),
	triple($product,<547137>,$value),
	triple($product,<382211>,$producer),
	triple($producer,<37704>,$country),
	triple($country,<247060>,<207269>);

<$offer,$offerURL,$price,$deliveryDays,$value> :- 
	triple($offer,<113324>,$offerURL),
	triple($offer,<338086>,$price),
	triple($offer,<149870>,$deliveryDays),
	triple($offer,<351465>,$product),
	triple($product,<443584>,$productFeature),
	triple($productFeature,<64561>,"518715"),
	triple($product,<247060>,<230156>),
	triple($product,<127477>,$value),
	triple($product,<382211>,$producer),
	triple($producer,<37704>,$country),
	triple($country,<247060>,<207269>);

<$offer,$offerURL,$price,$deliveryDays,$value> :- 
	triple($offer,<113324>,$offerURL),
	triple($offer,<338086>,$price),
	triple($offer,<149870>,$deliveryDays),
	triple($offer,<351465>,$product),
	triple($product,<443584>,$productFeature),
	triple($productFeature,<64561>,"518715"),
	triple($product,<247060>,<218494>),
	triple($product,<547137>,$value),
	triple($product,<382211>,$producer),
	triple($producer,<37704>,$country),
	triple($country,<247060>,<223771>);

<$offer,$offerURL,$price,$deliveryDays,$value> :- 
	triple($offer,<113324>,$offerURL),
	triple($offer,<338086>,$price),
	triple($offer,<149870>,$deliveryDays),
	triple($offer,<351465>,$product),
	triple($product,<443584>,$productFeature),
	triple($productFeature,<64561>,"518715"),
	triple($product,<247060>,<230156>),
	triple($product,<331230>,$value),
	triple($product,<382211>,$producer),
	triple($producer,<37704>,$country),
	triple($country,<247060>,<223771>);

<$offer,$offerURL,$price,$deliveryDays,$value> :- 
	triple($offer,<113324>,$offerURL),
	triple($offer,<338086>,$price),
	triple($offer,<149870>,$deliveryDays),
	triple($offer,<351465>,$product),
	triple($product,<443584>,$productFeature),
	triple($productFeature,<64561>,"518715"),
	triple($product,<247060>,<473361>),
	triple($product,<331230>,$value),
	triple($product,<382211>,$producer),
	triple($producer,<37704>,$country),
	triple($country,<247060>,<207269>);

<$offer,$offerURL,$price,$deliveryDays,$value> :- 
	triple($offer,<113324>,$offerURL),
	triple($offer,<338086>,$price),
	triple($offer,<149870>,$deliveryDays),
	triple($offer,<351465>,$product),
	triple($product,<443584>,$productFeature),
	triple($productFeature,<64561>,"518715"),
	triple($product,<247060>,<230156>),
	triple($product,<127477>,$value),
	triple($product,<382211>,$producer),
	triple($producer,<37704>,$country),
	triple($country,<247060>,<369950>);

<$offer,$offerURL,$price,$deliveryDays,$value> :- 
	triple($offer,<113324>,$offerURL),
	triple($offer,<338086>,$price),
	triple($offer,<149870>,$deliveryDays),
	triple($offer,<351465>,$product),
	triple($product,<443584>,$productFeature),
	triple($productFeature,<64561>,"518715"),
	triple($product,<247060>,<473361>),
	triple($product,<199803>,$value),
	triple($product,<382211>,$producer),
	triple($producer,<37704>,$country),
	triple($country,<247060>,<369950>);

<$offer,$offerURL,$price,$deliveryDays,$value> :- 
	triple($offer,<113324>,$offerURL),
	triple($offer,<338086>,$price),
	triple($offer,<149870>,$deliveryDays),
	triple($offer,<351465>,$product),
	triple($product,<443584>,$productFeature),
	triple($productFeature,<64561>,"518715"),
	triple($product,<247060>,<218494>),
	triple($product,<263347>,$value),
	triple($product,<382211>,$producer),
	triple($producer,<37704>,$country),
	triple($country,<247060>,<369950>);

<$offer,$offerURL,$price,$deliveryDays,$value> :- 
	triple($offer,<113324>,$offerURL),
	triple($offer,<338086>,$price),
	triple($offer,<149870>,$deliveryDays),
	triple($offer,<351465>,$product),
	triple($product,<443584>,$productFeature),
	triple($productFeature,<64561>,"518715"),
	triple($product,<247060>,<218494>),
	triple($product,<463228>,$value),
	triple($product,<382211>,$producer),
	triple($producer,<37704>,$country),
	triple($country,<247060>,<223771>);

<$offer,$offerURL,$price,$deliveryDays,$value> :- 
	triple($offer,<113324>,$offerURL),
	triple($offer,<338086>,$price),
	triple($offer,<149870>,$deliveryDays),
	triple($offer,<351465>,$product),
	triple($product,<443584>,$productFeature),
	triple($productFeature,<64561>,"518715"),
	triple($product,<247060>,<473361>),
	triple($product,<127477>,$value),
	triple($product,<382211>,$producer),
	triple($producer,<37704>,$country),
	triple($country,<247060>,<369950>);

<$offer,$offerURL,$price,$deliveryDays,$value> :- 
	triple($offer,<113324>,$offerURL),
	triple($offer,<338086>,$price),
	triple($offer,<149870>,$deliveryDays),
	triple($offer,<351465>,$product),
	triple($product,<443584>,$productFeature),
	triple($productFeature,<64561>,"518715"),
	triple($product,<247060>,<230156>),
	triple($product,<199803>,$value),
	triple($product,<382211>,$producer),
	triple($producer,<37704>,$country),
	triple($country,<247060>,<369950>);

<$offer,$offerURL,$price,$deliveryDays,$value> :- 
	triple($offer,<113324>,$offerURL),
	triple($offer,<338086>,$price),
	triple($offer,<149870>,$deliveryDays),
	triple($offer,<351465>,$product),
	triple($product,<443584>,$productFeature),
	triple($productFeature,<64561>,"518715"),
	triple($product,<247060>,<218494>),
	triple($product,<463228>,$value),
	triple($product,<382211>,$producer),
	triple($producer,<37704>,$country),
	triple($country,<247060>,<207269>);

<$offer,$offerURL,$price,$deliveryDays,$value> :- 
	triple($offer,<113324>,$offerURL),
	triple($offer,<338086>,$price),
	triple($offer,<149870>,$deliveryDays),
	triple($offer,<351465>,$product),
	triple($product,<443584>,$productFeature),
	triple($productFeature,<64561>,"518715"),
	triple($product,<247060>,<473361>),
	triple($product,<547137>,$value),
	triple($product,<382211>,$producer),
	triple($producer,<37704>,$country),
	triple($country,<247060>,<223771>);

<$offer,$offerURL,$price,$deliveryDays,$value> :- 
	triple($offer,<113324>,$offerURL),
	triple($offer,<338086>,$price),
	triple($offer,<149870>,$deliveryDays),
	triple($offer,<351465>,$product),
	triple($product,<443584>,$productFeature),
	triple($productFeature,<64561>,"518715"),
	triple($product,<247060>,<218494>),
	triple($product,<547137>,$value),
	triple($product,<382211>,$producer),
	triple($producer,<37704>,$country),
	triple($country,<247060>,<369950>);

<$offer,$offerURL,$price,$deliveryDays,$value> :- 
	triple($offer,<113324>,$offerURL),
	triple($offer,<338086>,$price),
	triple($offer,<149870>,$deliveryDays),
	triple($offer,<351465>,$product),
	triple($product,<443584>,$productFeature),
	triple($productFeature,<64561>,"518715"),
	triple($product,<247060>,<230156>),
	triple($product,<127477>,$value),
	triple($product,<382211>,$producer),
	triple($producer,<37704>,$country),
	triple($country,<247060>,<223771>);

<$offer,$offerURL,$price,$deliveryDays,$value> :- 
	triple($offer,<113324>,$offerURL),
	triple($offer,<338086>,$price),
	triple($offer,<149870>,$deliveryDays),
	triple($offer,<351465>,$product),
	triple($product,<443584>,$productFeature),
	triple($productFeature,<64561>,"518715"),
	triple($product,<247060>,<218494>),
	triple($product,<263347>,$value),
	triple($product,<382211>,$producer),
	triple($producer,<37704>,$country),
	triple($country,<247060>,<223771>);

<$offer,$offerURL,$price,$deliveryDays,$value> :- 
	triple($offer,<113324>,$offerURL),
	triple($offer,<338086>,$price),
	triple($offer,<149870>,$deliveryDays),
	triple($offer,<351465>,$product),
	triple($product,<443584>,$productFeature),
	triple($productFeature,<64561>,"518715"),
	triple($product,<247060>,<230156>),
	triple($product,<199803>,$value),
	triple($product,<382211>,$producer),
	triple($producer,<37704>,$country),
	triple($country,<247060>,<207269>);

<$offer,$offerURL,$price,$deliveryDays,$value> :- 
	triple($offer,<113324>,$offerURL),
	triple($offer,<338086>,$price),
	triple($offer,<149870>,$deliveryDays),
	triple($offer,<351465>,$product),
	triple($product,<443584>,$productFeature),
	triple($productFeature,<64561>,"518715"),
	triple($product,<247060>,<218494>),
	triple($product,<127477>,$value),
	triple($product,<382211>,$producer),
	triple($producer,<37704>,$country),
	triple($country,<247060>,<207269>);

<$offer,$offerURL,$price,$deliveryDays,$value> :- 
	triple($offer,<113324>,$offerURL),
	triple($offer,<338086>,$price),
	triple($offer,<149870>,$deliveryDays),
	triple($offer,<351465>,$product),
	triple($product,<443584>,$productFeature),
	triple($productFeature,<64561>,"518715"),
	triple($product,<247060>,<473361>),
	triple($product,<199803>,$value),
	triple($product,<382211>,$producer),
	triple($producer,<37704>,$country),
	triple($country,<247060>,<207269>);

<$offer,$offerURL,$price,$deliveryDays,$value> :- 
	triple($offer,<113324>,$offerURL),
	triple($offer,<338086>,$price),
	triple($offer,<149870>,$deliveryDays),
	triple($offer,<351465>,$product),
	triple($product,<443584>,$productFeature),
	triple($productFeature,<64561>,"518715"),
	triple($product,<247060>,<230156>),
	triple($product,<547137>,$value),
	triple($product,<382211>,$producer),
	triple($producer,<37704>,$country),
	triple($country,<247060>,<223771>);

<$offer,$offerURL,$price,$deliveryDays,$value> :- 
	triple($offer,<113324>,$offerURL),
	triple($offer,<338086>,$price),
	triple($offer,<149870>,$deliveryDays),
	triple($offer,<351465>,$product),
	triple($product,<443584>,$productFeature),
	triple($productFeature,<64561>,"518715"),
	triple($product,<247060>,<218494>),
	triple($product,<331230>,$value),
	triple($product,<382211>,$producer),
	triple($producer,<37704>,$country),
	triple($country,<247060>,<207269>);

<$offer,$offerURL,$price,$deliveryDays,$value> :- 
	triple($offer,<113324>,$offerURL),
	triple($offer,<338086>,$price),
	triple($offer,<149870>,$deliveryDays),
	triple($offer,<351465>,$product),
	triple($product,<443584>,$productFeature),
	triple($productFeature,<64561>,"518715"),
	triple($product,<247060>,<473361>),
	triple($product,<463228>,$value),
	triple($product,<382211>,$producer),
	triple($producer,<37704>,$country),
	triple($country,<247060>,<223771>);

<$offer,$offerURL,$price,$deliveryDays,$value> :- 
	triple($offer,<113324>,$offerURL),
	triple($offer,<338086>,$price),
	triple($offer,<149870>,$deliveryDays),
	triple($offer,<351465>,$product),
	triple($product,<443584>,$productFeature),
	triple($productFeature,<64561>,"518715"),
	triple($product,<247060>,<230156>),
	triple($product,<463228>,$value),
	triple($product,<382211>,$producer),
	triple($producer,<37704>,$country),
	triple($country,<247060>,<223771>);

<$offer,$offerURL,$price,$deliveryDays,$value> :- 
	triple($offer,<113324>,$offerURL),
	triple($offer,<338086>,$price),
	triple($offer,<149870>,$deliveryDays),
	triple($offer,<351465>,$product),
	triple($product,<443584>,$productFeature),
	triple($productFeature,<64561>,"518715"),
	triple($product,<247060>,<218494>),
	triple($product,<127477>,$value),
	triple($product,<382211>,$producer),
	triple($producer,<37704>,$country),
	triple($country,<247060>,<369950>);

<$offer,$offerURL,$price,$deliveryDays,$value> :- 
	triple($offer,<113324>,$offerURL),
	triple($offer,<338086>,$price),
	triple($offer,<149870>,$deliveryDays),
	triple($offer,<351465>,$product),
	triple($product,<443584>,$productFeature),
	triple($productFeature,<64561>,"518715"),
	triple($product,<247060>,<218494>),
	triple($product,<331230>,$value),
	triple($product,<382211>,$producer),
	triple($producer,<37704>,$country),
	triple($country,<247060>,<369950>);

<$offer,$offerURL,$price,$deliveryDays,$value> :- 
	triple($offer,<113324>,$offerURL),
	triple($offer,<338086>,$price),
	triple($offer,<149870>,$deliveryDays),
	triple($offer,<351465>,$product),
	triple($product,<443584>,$productFeature),
	triple($productFeature,<64561>,"518715"),
	triple($product,<247060>,<218494>),
	triple($product,<42051>,$value),
	triple($product,<382211>,$producer),
	triple($producer,<37704>,$country),
	triple($country,<247060>,<369950>);

<$offer,$offerURL,$price,$deliveryDays,$value> :- 
	triple($offer,<113324>,$offerURL),
	triple($offer,<338086>,$price),
	triple($offer,<149870>,$deliveryDays),
	triple($offer,<351465>,$product),
	triple($product,<443584>,$productFeature),
	triple($productFeature,<64561>,"518715"),
	triple($product,<247060>,<230156>),
	triple($product,<42051>,$value),
	triple($product,<382211>,$producer),
	triple($producer,<37704>,$country),
	triple($country,<247060>,<207269>);

<$offer,$offerURL,$price,$deliveryDays,$value> :- 
	triple($offer,<113324>,$offerURL),
	triple($offer,<338086>,$price),
	triple($offer,<149870>,$deliveryDays),
	triple($offer,<351465>,$product),
	triple($product,<443584>,$productFeature),
	triple($productFeature,<64561>,"518715"),
	triple($product,<247060>,<473361>),
	triple($product,<263347>,$value),
	triple($product,<382211>,$producer),
	triple($producer,<37704>,$country),
	triple($country,<247060>,<223771>);

<$offer,$offerURL,$price,$deliveryDays,$value> :- 
	triple($offer,<113324>,$offerURL),
	triple($offer,<338086>,$price),
	triple($offer,<149870>,$deliveryDays),
	triple($offer,<351465>,$product),
	triple($product,<443584>,$productFeature),
	triple($productFeature,<64561>,"518715"),
	triple($product,<247060>,<230156>),
	triple($product,<263347>,$value),
	triple($product,<382211>,$producer),
	triple($producer,<37704>,$country),
	triple($country,<247060>,<223771>);

<$offer,$offerURL,$price,$deliveryDays,$value> :- 
	triple($offer,<113324>,$offerURL),
	triple($offer,<338086>,$price),
	triple($offer,<149870>,$deliveryDays),
	triple($offer,<351465>,$product),
	triple($product,<443584>,$productFeature),
	triple($productFeature,<64561>,"518715"),
	triple($product,<247060>,<473361>),
	triple($product,<263347>,$value),
	triple($product,<382211>,$producer),
	triple($producer,<37704>,$country),
	triple($country,<247060>,<207269>);

<$offer,$offerURL,$price,$deliveryDays,$value> :- 
	triple($offer,<113324>,$offerURL),
	triple($offer,<338086>,$price),
	triple($offer,<149870>,$deliveryDays),
	triple($offer,<351465>,$product),
	triple($product,<443584>,$productFeature),
	triple($productFeature,<64561>,"518715"),
	triple($product,<247060>,<230156>),
	triple($product,<263347>,$value),
	triple($product,<382211>,$producer),
	triple($producer,<37704>,$country),
	triple($country,<247060>,<207269>);

<$offer,$offerURL,$price,$deliveryDays,$value> :- 
	triple($offer,<113324>,$offerURL),
	triple($offer,<338086>,$price),
	triple($offer,<149870>,$deliveryDays),
	triple($offer,<351465>,$product),
	triple($product,<443584>,$productFeature),
	triple($productFeature,<64561>,"518715"),
	triple($product,<247060>,<230156>),
	triple($product,<42051>,$value),
	triple($product,<382211>,$producer),
	triple($producer,<37704>,$country),
	triple($country,<247060>,<369950>);

<$offer,$offerURL,$price,$deliveryDays,$value> :- 
	triple($offer,<113324>,$offerURL),
	triple($offer,<338086>,$price),
	triple($offer,<149870>,$deliveryDays),
	triple($offer,<351465>,$product),
	triple($product,<443584>,$productFeature),
	triple($productFeature,<64561>,"518715"),
	triple($product,<247060>,<218494>),
	triple($product,<42051>,$value),
	triple($product,<382211>,$producer),
	triple($producer,<37704>,$country),
	triple($country,<247060>,<223771>);

<$offer,$offerURL,$price,$deliveryDays,$value> :- 
	triple($offer,<113324>,$offerURL),
	triple($offer,<338086>,$price),
	triple($offer,<149870>,$deliveryDays),
	triple($offer,<351465>,$product),
	triple($product,<443584>,$productFeature),
	triple($productFeature,<64561>,"518715"),
	triple($product,<247060>,<218494>),
	triple($product,<42051>,$value),
	triple($product,<382211>,$producer),
	triple($producer,<37704>,$country),
	triple($country,<247060>,<207269>);

