digraph  g{
node [shape=rectangle, color=black, fontcolor=black, style=bold]
0 [label="LogProj
[0,5]" , color = blue] ; 
1 [label="Join\n [0PREDICATE_EQUAL4,1PREDICATE_EQUAL4] ", color = blue] ; 
0 -> 1 ; 
2 [label="Join\n [0PREDICATE_EQUAL1] ", color = blue] ; 
1 -> 2 ; 
3 [label="LogSkolemFunctionCall
(<http://www.imdb.com/title/{0}>)" , color = blue] ; 
2 -> 3 ; 
4 [label="LogSQLEval 
select id from title where kind_id = 2", color = blue] ; 
3 -> 4 ; 
5 [label="LogSel
[[2PREDICATE_EQUAL\"\"24\"\"]]" , color = blue] ; 
2 -> 5 ; 
6 [label="LogSkolemFunctionCall
(<http://www.imdb.com/title/{0}>, \"{2}\", \"{1}\")" , color = blue] ; 
5 -> 6 ; 
7 [label="LogSQLEval 
select id, title, production_year from title", color = blue] ; 
6 -> 7 ; 
8 [label="LogSkolemFunctionCall
(<http://www.imdb.com/title/{0}>, <http://www.imdb.com/genre/{0}>)" , color = blue] ; 
1 -> 8 ; 
9 [label="LogSQLEval 
select movie_info.movie_id as title_id from movie_info where movie_info.info_type_id = 3", color = blue] ; 
8 -> 9 ; 
}

