digraph  g{
node [shape=rectangle, color=black, fontcolor=black, style=bold]
0 [label="LogProj
[18,13,10,25,14]" , color = blue] ; 
1 [label="Join\n [18PREDICATE_EQUAL27] ", color = blue] ; 
0 -> 1 ; 
2 [label="Join\n [13PREDICATE_EQUAL22] ", color = blue] ; 
1 -> 2 ; 
3 [label="LogSkolemFunctionCall
(\"{11}\", \"{10}\", \"{2}\", \"{9}\", <http://www4.wiwiss.fu-berlin.de/bizer/bsbm/v01/instances/dataFromProducer{3}/Producer{3}>, \"{8}\", <http://www4.wiwiss.fu-berlin.de/bizer/bsbm/v01/instances/dataFromProducer{3}/Producer{3}>, \"{7}\", \"{5}\", \"{4}\", \"{1}\", \"{13}\", \"{6}\", <http://www4.wiwiss.fu-berlin.de/bizer/bsbm/v01/instances/dataFromProducer{3}/Product{0}>)" , color = blue] ; 
2 -> 3 ; 
4 [label="LogSQLEval 
SELECT nr, label, comment, producer, propertyNum1, propertyNum2, propertyTex1, propertyTex2, propertyTex3, propertyTex4, propertyTex5, propertyTex6, publisher, publishDate FROM Product", color = blue] ; 
3 -> 4 ; 
5 [label="LogSkolemFunctionCall
(\"{5}\", \"{6}\", <http://www4.wiwiss.fu-berlin.de/bizer/bsbm/v01/instances/dataFromRatingSite{10}/RatingSite{10}>, \"{11}\", <http://www4.wiwiss.fu-berlin.de/bizer/bsbm/v01/instances/dataFromRatingSite{10}/Review{0}>, \"{4}\", \"{9}\", \"{8}\", <http://www4.wiwiss.fu-berlin.de/bizer/bsbm/v01/instances/dataFromProducer{2}/Product{1}>)" , color = blue] ; 
2 -> 5 ; 
6 [label="LogSQLEval 
SELECT nr, product, producer, person, reviewDate, title, text, language, rating1, rating2,  publisher, publishDate FROM Review", color = blue] ; 
5 -> 6 ; 
7 [label="LogSkolemFunctionCall
(\"{2}\", <http://www4.wiwiss.fu-berlin.de/bizer/bsbm/v01/instances/dataFromRatingSite{4}/RatingSite{4}>, \"{1}\", \"{5}\", <http://www4.wiwiss.fu-berlin.de/bizer/bsbm/v01/instances/dataFromRatingSite{4}/Review{0}>, <http://downlode.org/rdf/iso-3166/countries#{3}>)" , color = blue] ; 
1 -> 7 ; 
8 [label="LogSQLEval 
SELECT R.nr AS nr, P.name AS name, P.mbox_sha1sum AS mbox_sha1sum, P.country AS country, P.publisher AS publisher, P.publishDate AS publishDate FROM Person AS P, Review AS R WHERE R.person = P.nr", color = blue] ; 
7 -> 8 ; 
}

