digraph  g{
node [shape=rectangle, color=black, fontcolor=black, style=bold]
0 [label="LogSkolemFunctionCall
(<http://www4.wiwiss.fu-berlin.de/bizer/bsbm/v01/instances/dataFromRatingSite{0}/Review{1}>, <http://www4.wiwiss.fu-berlin.de/bizer/bsbm/v01/instances/dataFromProducer{2}/Product{3}>, \"{4}\")" , color = blue] ; 
1 [label="LogSQLEval 
SELECT tab_3530.publisher, tab_3530.nr, tab_3530.producer, tab_3530.product, tab_3530.rating2 FROM Producer AS tab_3528, Person AS tab_3532, Review AS tab_3530, Product AS tab_3529, Review AS tab_3531, CountryType AS tab_3533 WHERE tab_3531.person = tab_3532.nr AND tab_3530.publisher = tab_3532.publisher AND tab_3530.nr = tab_3531.nr AND tab_3529.producer = tab_3528.nr AND tab_3530.producer = tab_3529.producer AND tab_3530.product = tab_3529.nr AND tab_3533.countryType = 222 AND tab_3528.country = tab_3533.country UNION SELECT tab_3487.publisher, tab_3487.nr, tab_3487.producer, tab_3487.product, tab_3487.rating1 FROM Person AS tab_3488, CountryType AS tab_3491, Review AS tab_3486, Product AS tab_3490, Review AS tab_3487, Producer AS tab_3489 WHERE tab_3486.person = tab_3488.nr AND tab_3487.publisher = tab_3488.publisher AND tab_3487.nr = tab_3486.nr AND tab_3490.producer = tab_3489.nr AND tab_3487.producer = tab_3490.producer AND tab_3487.product = tab_3490.nr AND tab_3491.countryType = 222 AND tab_3489.country = tab_3491.country UNION SELECT tab_3559.publisher, tab_3559.nr, tab_3559.producer, tab_3559.product, tab_3559.rating2 FROM Product AS tab_3556, Producer AS tab_3560, CountryType AS tab_3561, Review AS tab_3558, Review AS tab_3559, Person AS tab_3557 WHERE tab_3558.person = tab_3557.nr AND tab_3559.publisher = tab_3557.publisher AND tab_3559.nr = tab_3558.nr AND tab_3556.producer = tab_3560.nr AND tab_3559.producer = tab_3556.producer AND tab_3559.product = tab_3556.nr AND tab_3561.countryType = 212 AND tab_3560.country = tab_3561.country UNION SELECT tab_3475.publisher, tab_3475.nr, tab_3475.producer, tab_3475.product, tab_3475.rating1 FROM Producer AS tab_3473, Person AS tab_3472, Review AS tab_3475, Review AS tab_3476, CountryType AS tab_3477, Product AS tab_3474 WHERE tab_3476.person = tab_3472.nr AND tab_3475.publisher = tab_3472.publisher AND tab_3475.nr = tab_3476.nr AND tab_3474.producer = tab_3473.nr AND tab_3475.producer = tab_3474.producer AND tab_3475.product = tab_3474.nr AND tab_3477.countryType = 212 AND tab_3473.country = tab_3477.country UNION SELECT tab_3516.publisher, tab_3516.nr, tab_3516.producer, tab_3516.product, tab_3516.rating1 FROM Review AS tab_3517, Producer AS tab_3518, CountryType AS tab_3519, Product AS tab_3515, Person AS tab_3514, Review AS tab_3516 WHERE tab_3517.person = tab_3514.nr AND tab_3516.publisher = tab_3514.publisher AND tab_3516.nr = tab_3517.nr AND tab_3515.producer = tab_3518.nr AND tab_3516.producer = tab_3515.producer AND tab_3516.product = tab_3515.nr AND tab_3519.countryType = 211 AND tab_3518.country = tab_3519.country UNION SELECT tab_3572.publisher, tab_3572.nr, tab_3572.producer, tab_3572.product, tab_3572.rating2 FROM Review AS tab_3572, Person AS tab_3570, Review AS tab_3573, CountryType AS tab_3575, Product AS tab_3571, Producer AS tab_3574 WHERE tab_3573.person = tab_3570.nr AND tab_3572.publisher = tab_3570.publisher AND tab_3572.nr = tab_3573.nr AND tab_3571.producer = tab_3574.nr AND tab_3572.producer = tab_3571.producer AND tab_3572.product = tab_3571.nr AND tab_3575.countryType = 211 AND tab_3574.country = tab_3575.country UNION SELECT tab_3545.publisher, tab_3545.nr, tab_3545.producer, tab_3545.product, tab_3545.rating2 FROM Product AS tab_3544, Person AS tab_3542, Producer AS tab_3543, Review AS tab_3545, Review AS tab_3546, CountryType AS tab_3547 WHERE tab_3546.person = tab_3542.nr AND tab_3545.publisher = tab_3542.publisher AND tab_3545.nr = tab_3546.nr AND tab_3544.producer = tab_3543.nr AND tab_3545.producer = tab_3544.producer AND tab_3545.product = tab_3544.nr AND tab_3547.countryType = 221 AND tab_3543.country = tab_3547.country UNION SELECT tab_3501.publisher, tab_3501.nr, tab_3501.producer, tab_3501.product, tab_3501.rating1 FROM Person AS tab_3500, Product AS tab_3504, Review AS tab_3501, Review AS tab_3502, Producer AS tab_3503, CountryType AS tab_3505 WHERE tab_3502.person = tab_3500.nr AND tab_3501.publisher = tab_3500.publisher AND tab_3501.nr = tab_3502.nr AND tab_3504.producer = tab_3503.nr AND tab_3501.producer = tab_3504.producer AND tab_3501.product = tab_3504.nr AND tab_3505.countryType = 221 AND tab_3503.country = tab_3505.country", color = blue] ; 
0 -> 1 ; 
}

