digraph  g{ graph[label = "0:6:40.705"]
node [shape=rectangle, color=black, fontcolor=black, style=bold] edge [color=black] 0 [label="HashDistinct", color = yellow] ; 
1 [label="Union", color = yellow] ; 
0 -> 1 ; 
2 [label="BindAccessEval", color = yellow] ; 
1 -> 2 ; 
3 [label="BindAccessEval", color = yellow] ; 
2 -> 3 ; 
4 [label="Project
[1, 2, 3]", color = yellow] ; 
3 -> 4 ; 
5 [label="RightBindJoin 
[[0]]
3933", color = yellow] ; 
4 -> 5 ; 
6 [label="PhyMongoDBEval
countrytype
[{\"$match\":{\"countrytype\":122}}]
[country]
2", color = yellow] ; 
5 -> 6 ; 
7 [label="SQLQuery
SELECT tab_3355.nr, tab_3355.rating2, tab_3355.publisher, tab_3356.country 
FROM Person AS tab_3356, Review AS tab_3355, Review AS tab_3357 
WHERE tab_3356.country = ? AND tab_3357.person = tab_3356.nr AND tab_3355.publisher = tab_3356.publisher AND tab_3355.nr = tab_3357.nr
3933", color = yellow] ; 
5 -> 7 ; 
8 [label="FunctionCallBindAccess
(<http://www4.wiwiss.fu-berlin.de/bizer/bsbm/v01/instances/dataFromRatingSite{2}/Review{0}>, \"{1}\")", color = yellow] ; 
3 -> 8 ; 
9 [label="FunctionCallBindAccess
AddConstant{1=(\"<http://purl.org/stuff/rev#Review>\", \"<http://www4.wiwiss.fu-berlin.de/bizer/bsbm/v01/vocabulary/rating>\")}", color = yellow] ; 
2 -> 9 ; 
11 [label="BindAccessEval", color = yellow] ; 
1 -> 11 ; 
12 [label="BindAccessEval", color = yellow] ; 
11 -> 12 ; 
13 [label="Project
[1, 2, 3]", color = yellow] ; 
12 -> 13 ; 
14 [label="RightBindJoin 
[[0]]
4310", color = yellow] ; 
13 -> 14 ; 
15 [label="PhyMongoDBEval
countrytype
[{\"$match\":{\"countrytype\":121}}]
[country]
2", color = yellow] ; 
14 -> 15 ; 
16 [label="SQLQuery
SELECT tab_3358.nr, tab_3358.rating2, tab_3358.publisher, tab_3359.country 
FROM Review AS tab_3360, Review AS tab_3358, Person AS tab_3359 
WHERE tab_3359.country = ? AND tab_3360.person = tab_3359.nr AND tab_3358.publisher = tab_3359.publisher AND tab_3358.nr = tab_3360.nr
4310", color = yellow] ; 
14 -> 16 ; 
17 [label="FunctionCallBindAccess
(<http://www4.wiwiss.fu-berlin.de/bizer/bsbm/v01/instances/dataFromRatingSite{2}/Review{0}>, \"{1}\")", color = yellow] ; 
12 -> 17 ; 
18 [label="FunctionCallBindAccess
AddConstant{1=(\"<http://purl.org/stuff/rev#Review>\", \"<http://www4.wiwiss.fu-berlin.de/bizer/bsbm/v01/vocabulary/rating>\")}", color = yellow] ; 
11 -> 18 ; 
20 [label="BindAccessEval", color = yellow] ; 
1 -> 20 ; 
21 [label="BindAccessEval", color = yellow] ; 
20 -> 21 ; 
22 [label="Project
[2, 3, 4]", color = yellow] ; 
21 -> 22 ; 
23 [label="RightBindJoin 
[[1, 0]]
477", color = yellow] ; 
22 -> 23 ; 
24 [label="PhyMongoDBEval
countrytype
[{\"$match\":{\"countrytype\":122}},
{$lookup: { from: \"productproducercountry\", let: { \"country\": \"$country\"}, pipeline: [ { $match: {$expr: {$eq: [\"$$country\", \"$country\"] } } } ], as: \"mongojoin989\"}},
{$unwind: \"$mongojoin989\"}]
[mongojoin989.nr, mongojoin989.producer]
477", color = yellow] ; 
23 -> 24 ; 
25 [label="SQLQuery
SELECT nr, producer, propertyTex2 
FROM Product 
WHERE producer = ? AND nr = ?
477", color = yellow] ; 
23 -> 25 ; 
26 [label="FunctionCallBindAccess
(<http://www4.wiwiss.fu-berlin.de/bizer/bsbm/v01/instances/dataFromProducer{1}/Product{0}>, \"{2}\")", color = yellow] ; 
21 -> 26 ; 
27 [label="FunctionCallBindAccess
AddConstant{1=(\"<http://www4.wiwiss.fu-berlin.de/bizer/bsbm/v01/vocabulary/Product>\", \"<http://www4.wiwiss.fu-berlin.de/bizer/bsbm/v01/vocabulary/productPropertyTextual>\")}", color = yellow] ; 
20 -> 27 ; 
29 [label="BindAccessEval", color = yellow] ; 
1 -> 29 ; 
30 [label="BindAccessEval", color = yellow] ; 
29 -> 30 ; 
31 [label="Project
[2, 3, 4]", color = yellow] ; 
30 -> 31 ; 
32 [label="RightBindJoin 
[[1, 0]]
553", color = yellow] ; 
31 -> 32 ; 
33 [label="PhyMongoDBEval
countrytype
[{\"$match\":{\"countrytype\":121}},
{$lookup: { from: \"productproducercountry\", let: { \"country\": \"$country\"}, pipeline: [ { $match: {$expr: {$eq: [\"$$country\", \"$country\"] } } } ], as: \"mongojoin990\"}},
{$unwind: \"$mongojoin990\"}]
[mongojoin990.nr, mongojoin990.producer]
553", color = yellow] ; 
32 -> 33 ; 
34 [label="SQLQuery
SELECT nr, producer, propertyTex2 
FROM Product 
WHERE producer = ? AND nr = ?
553", color = yellow] ; 
32 -> 34 ; 
35 [label="FunctionCallBindAccess
(<http://www4.wiwiss.fu-berlin.de/bizer/bsbm/v01/instances/dataFromProducer{1}/Product{0}>, \"{2}\")", color = yellow] ; 
30 -> 35 ; 
36 [label="FunctionCallBindAccess
AddConstant{1=(\"<http://www4.wiwiss.fu-berlin.de/bizer/bsbm/v01/vocabulary/Product>\", \"<http://www4.wiwiss.fu-berlin.de/bizer/bsbm/v01/vocabulary/productPropertyTextual>\")}", color = yellow] ; 
29 -> 36 ; 
38 [label="BindAccessEval", color = yellow] ; 
1 -> 38 ; 
39 [label="BindAccessEval", color = yellow] ; 
38 -> 39 ; 
40 [label="Project
[2, 3, 4]", color = yellow] ; 
39 -> 40 ; 
41 [label="RightBindJoin 
[[1, 0]]
477", color = yellow] ; 
40 -> 41 ; 
42 [label="PhyMongoDBEval
countrytype
[{\"$match\":{\"countrytype\":122}},
{$lookup: { from: \"productproducercountry\", let: { \"country\": \"$country\"}, pipeline: [ { $match: {$expr: {$eq: [\"$$country\", \"$country\"] } } } ], as: \"mongojoin991\"}},
{$unwind: \"$mongojoin991\"}]
[mongojoin991.nr, mongojoin991.producer]
477", color = yellow] ; 
41 -> 42 ; 
43 [label="SQLQuery
SELECT nr, producer, propertyTex1 
FROM Product 
WHERE producer = ? AND nr = ?
477", color = yellow] ; 
41 -> 43 ; 
44 [label="FunctionCallBindAccess
(<http://www4.wiwiss.fu-berlin.de/bizer/bsbm/v01/instances/dataFromProducer{1}/Product{0}>, \"{2}\")", color = yellow] ; 
39 -> 44 ; 
45 [label="FunctionCallBindAccess
AddConstant{1=(\"<http://www4.wiwiss.fu-berlin.de/bizer/bsbm/v01/vocabulary/Product>\", \"<http://www4.wiwiss.fu-berlin.de/bizer/bsbm/v01/vocabulary/productPropertyTextual>\")}", color = yellow] ; 
38 -> 45 ; 
47 [label="BindAccessEval", color = yellow] ; 
1 -> 47 ; 
48 [label="BindAccessEval", color = yellow] ; 
47 -> 48 ; 
49 [label="Project
[2, 3, 4]", color = yellow] ; 
48 -> 49 ; 
50 [label="RightBindJoin 
[[0, 1]]
553", color = yellow] ; 
49 -> 50 ; 
51 [label="PhyMongoDBEval
countrytype
[{\"$match\":{\"countrytype\":121}},
{$lookup: { from: \"productproducercountry\", let: { \"country\": \"$country\"}, pipeline: [ { $match: {$expr: {$eq: [\"$$country\", \"$country\"] } } } ], as: \"mongojoin992\"}},
{$unwind: \"$mongojoin992\"}]
[mongojoin992.nr, mongojoin992.producer]
553", color = yellow] ; 
50 -> 51 ; 
52 [label="SQLQuery
SELECT nr, producer, propertyTex1 
FROM Product 
WHERE nr = ? AND producer = ?
553", color = yellow] ; 
50 -> 52 ; 
53 [label="FunctionCallBindAccess
(<http://www4.wiwiss.fu-berlin.de/bizer/bsbm/v01/instances/dataFromProducer{1}/Product{0}>, \"{2}\")", color = yellow] ; 
48 -> 53 ; 
54 [label="FunctionCallBindAccess
AddConstant{1=(\"<http://www4.wiwiss.fu-berlin.de/bizer/bsbm/v01/vocabulary/Product>\", \"<http://www4.wiwiss.fu-berlin.de/bizer/bsbm/v01/vocabulary/productPropertyTextual>\")}", color = yellow] ; 
47 -> 54 ; 
56 [label="BindAccessEval", color = yellow] ; 
1 -> 56 ; 
57 [label="BindAccessEval", color = yellow] ; 
56 -> 57 ; 
58 [label="Project
[1, 2, 3]", color = yellow] ; 
57 -> 58 ; 
59 [label="RightBindJoin 
[[0]]
3933", color = yellow] ; 
58 -> 59 ; 
60 [label="PhyMongoDBEval
countrytype
[{\"$match\":{\"countrytype\":122}}]
[country]
2", color = yellow] ; 
59 -> 60 ; 
61 [label="SQLQuery
SELECT tab_3361.nr, tab_3361.rating1, tab_3361.publisher, tab_3362.country 
FROM Review AS tab_3361, Person AS tab_3362, Review AS tab_3363 
WHERE tab_3362.country = ? AND tab_3363.person = tab_3362.nr AND tab_3361.publisher = tab_3362.publisher AND tab_3361.nr = tab_3363.nr
3933", color = yellow] ; 
59 -> 61 ; 
62 [label="FunctionCallBindAccess
(<http://www4.wiwiss.fu-berlin.de/bizer/bsbm/v01/instances/dataFromRatingSite{2}/Review{0}>, \"{1}\")", color = yellow] ; 
57 -> 62 ; 
63 [label="FunctionCallBindAccess
AddConstant{1=(\"<http://xmlns.com/foaf/0.1/Document>\", \"<http://www4.wiwiss.fu-berlin.de/bizer/bsbm/v01/vocabulary/rating>\")}", color = yellow] ; 
56 -> 63 ; 
65 [label="BindAccessEval", color = yellow] ; 
1 -> 65 ; 
66 [label="BindAccessEval", color = yellow] ; 
65 -> 66 ; 
67 [label="Project
[1, 2, 3]", color = yellow] ; 
66 -> 67 ; 
68 [label="RightBindJoin 
[[0]]
4310", color = yellow] ; 
67 -> 68 ; 
69 [label="PhyMongoDBEval
countrytype
[{\"$match\":{\"countrytype\":121}}]
[country]
2", color = yellow] ; 
68 -> 69 ; 
70 [label="SQLQuery
SELECT tab_3364.nr, tab_3364.rating1, tab_3364.publisher, tab_3365.country 
FROM Person AS tab_3365, Review AS tab_3364, Review AS tab_3366 
WHERE tab_3365.country = ? AND tab_3366.person = tab_3365.nr AND tab_3364.publisher = tab_3365.publisher AND tab_3364.nr = tab_3366.nr
4310", color = yellow] ; 
68 -> 70 ; 
71 [label="FunctionCallBindAccess
(<http://www4.wiwiss.fu-berlin.de/bizer/bsbm/v01/instances/dataFromRatingSite{2}/Review{0}>, \"{1}\")", color = yellow] ; 
66 -> 71 ; 
72 [label="FunctionCallBindAccess
AddConstant{1=(\"<http://xmlns.com/foaf/0.1/Document>\", \"<http://www4.wiwiss.fu-berlin.de/bizer/bsbm/v01/vocabulary/rating>\")}", color = yellow] ; 
65 -> 72 ; 
74 [label="BindAccessEval", color = yellow] ; 
1 -> 74 ; 
75 [label="BindAccessEval", color = yellow] ; 
74 -> 75 ; 
76 [label="Project
[2, 3, 4]", color = yellow] ; 
75 -> 76 ; 
77 [label="RightBindJoin 
[[1, 0]]
553", color = yellow] ; 
76 -> 77 ; 
78 [label="PhyMongoDBEval
countrytype
[{\"$match\":{\"countrytype\":121}},
{$lookup: { from: \"productproducercountry\", let: { \"country\": \"$country\"}, pipeline: [ { $match: {$expr: {$eq: [\"$$country\", \"$country\"] } } } ], as: \"mongojoin993\"}},
{$unwind: \"$mongojoin993\"}]
[mongojoin993.nr, mongojoin993.producer]
553", color = yellow] ; 
77 -> 78 ; 
79 [label="SQLQuery
SELECT nr, producer, propertyTex4 
FROM Product 
WHERE producer = ? AND nr = ?
553", color = yellow] ; 
77 -> 79 ; 
80 [label="FunctionCallBindAccess
(<http://www4.wiwiss.fu-berlin.de/bizer/bsbm/v01/instances/dataFromProducer{1}/Product{0}>, \"{2}\")", color = yellow] ; 
75 -> 80 ; 
81 [label="FunctionCallBindAccess
AddConstant{1=(\"<http://www4.wiwiss.fu-berlin.de/bizer/bsbm/v01/vocabulary/Product>\", \"<http://www4.wiwiss.fu-berlin.de/bizer/bsbm/v01/vocabulary/productPropertyTextual>\")}", color = yellow] ; 
74 -> 81 ; 
83 [label="BindAccessEval", color = yellow] ; 
1 -> 83 ; 
84 [label="BindAccessEval", color = yellow] ; 
83 -> 84 ; 
85 [label="Project
[2, 3, 4]", color = yellow] ; 
84 -> 85 ; 
86 [label="RightBindJoin 
[[1, 0]]
477", color = yellow] ; 
85 -> 86 ; 
87 [label="PhyMongoDBEval
countrytype
[{\"$match\":{\"countrytype\":122}},
{$lookup: { from: \"productproducercountry\", let: { \"country\": \"$country\"}, pipeline: [ { $match: {$expr: {$eq: [\"$$country\", \"$country\"] } } } ], as: \"mongojoin994\"}},
{$unwind: \"$mongojoin994\"}]
[mongojoin994.nr, mongojoin994.producer]
477", color = yellow] ; 
86 -> 87 ; 
88 [label="SQLQuery
SELECT nr, producer, propertyTex4 
FROM Product 
WHERE producer = ? AND nr = ?
477", color = yellow] ; 
86 -> 88 ; 
89 [label="FunctionCallBindAccess
(<http://www4.wiwiss.fu-berlin.de/bizer/bsbm/v01/instances/dataFromProducer{1}/Product{0}>, \"{2}\")", color = yellow] ; 
84 -> 89 ; 
90 [label="FunctionCallBindAccess
AddConstant{1=(\"<http://www4.wiwiss.fu-berlin.de/bizer/bsbm/v01/vocabulary/Product>\", \"<http://www4.wiwiss.fu-berlin.de/bizer/bsbm/v01/vocabulary/productPropertyTextual>\")}", color = yellow] ; 
83 -> 90 ; 
92 [label="BindAccessEval", color = yellow] ; 
1 -> 92 ; 
93 [label="BindAccessEval", color = yellow] ; 
92 -> 93 ; 
94 [label="Project
[1, 2, 3]", color = yellow] ; 
93 -> 94 ; 
95 [label="RightBindJoin 
[[0]]
3933", color = yellow] ; 
94 -> 95 ; 
96 [label="PhyMongoDBEval
countrytype
[{\"$match\":{\"countrytype\":122}}]
[country]
2", color = yellow] ; 
95 -> 96 ; 
97 [label="SQLQuery
SELECT tab_3367.nr, tab_3367.rating1, tab_3367.publisher, tab_3368.country 
FROM Person AS tab_3368, Review AS tab_3367, Review AS tab_3369 
WHERE tab_3368.country = ? AND tab_3369.person = tab_3368.nr AND tab_3367.publisher = tab_3368.publisher AND tab_3367.nr = tab_3369.nr
3933", color = yellow] ; 
95 -> 97 ; 
98 [label="FunctionCallBindAccess
(<http://www4.wiwiss.fu-berlin.de/bizer/bsbm/v01/instances/dataFromRatingSite{2}/Review{0}>, \"{1}\")", color = yellow] ; 
93 -> 98 ; 
99 [label="FunctionCallBindAccess
AddConstant{1=(\"<http://purl.org/stuff/rev#Review>\", \"<http://www4.wiwiss.fu-berlin.de/bizer/bsbm/v01/vocabulary/rating>\")}", color = yellow] ; 
92 -> 99 ; 
101 [label="BindAccessEval", color = yellow] ; 
1 -> 101 ; 
102 [label="BindAccessEval", color = yellow] ; 
101 -> 102 ; 
103 [label="Project
[1, 2, 3]", color = yellow] ; 
102 -> 103 ; 
104 [label="RightBindJoin 
[[0]]
4310", color = yellow] ; 
103 -> 104 ; 
105 [label="PhyMongoDBEval
countrytype
[{\"$match\":{\"countrytype\":121}}]
[country]
2", color = yellow] ; 
104 -> 105 ; 
106 [label="SQLQuery
SELECT tab_3370.nr, tab_3370.rating1, tab_3370.publisher, tab_3371.country 
FROM Review AS tab_3370, Review AS tab_3372, Person AS tab_3371 
WHERE tab_3371.country = ? AND tab_3372.person = tab_3371.nr AND tab_3370.publisher = tab_3371.publisher AND tab_3370.nr = tab_3372.nr
4310", color = yellow] ; 
104 -> 106 ; 
107 [label="FunctionCallBindAccess
(<http://www4.wiwiss.fu-berlin.de/bizer/bsbm/v01/instances/dataFromRatingSite{2}/Review{0}>, \"{1}\")", color = yellow] ; 
102 -> 107 ; 
108 [label="FunctionCallBindAccess
AddConstant{1=(\"<http://purl.org/stuff/rev#Review>\", \"<http://www4.wiwiss.fu-berlin.de/bizer/bsbm/v01/vocabulary/rating>\")}", color = yellow] ; 
101 -> 108 ; 
110 [label="BindAccessEval", color = yellow] ; 
1 -> 110 ; 
111 [label="BindAccessEval", color = yellow] ; 
110 -> 111 ; 
112 [label="Project
[1, 2, 3]", color = yellow] ; 
111 -> 112 ; 
113 [label="RightBindJoin 
[[0]]
3933", color = yellow] ; 
112 -> 113 ; 
114 [label="PhyMongoDBEval
countrytype
[{\"$match\":{\"countrytype\":122}}]
[country]
2", color = yellow] ; 
113 -> 114 ; 
115 [label="SQLQuery
SELECT tab_3373.nr, tab_3373.rating2, tab_3373.publisher, tab_3374.country 
FROM Review AS tab_3373, Review AS tab_3375, Person AS tab_3374 
WHERE tab_3374.country = ? AND tab_3375.person = tab_3374.nr AND tab_3373.publisher = tab_3374.publisher AND tab_3373.nr = tab_3375.nr
3933", color = yellow] ; 
113 -> 115 ; 
116 [label="FunctionCallBindAccess
(<http://www4.wiwiss.fu-berlin.de/bizer/bsbm/v01/instances/dataFromRatingSite{2}/Review{0}>, \"{1}\")", color = yellow] ; 
111 -> 116 ; 
117 [label="FunctionCallBindAccess
AddConstant{1=(\"<http://xmlns.com/foaf/0.1/Document>\", \"<http://www4.wiwiss.fu-berlin.de/bizer/bsbm/v01/vocabulary/rating>\")}", color = yellow] ; 
110 -> 117 ; 
119 [label="BindAccessEval", color = yellow] ; 
1 -> 119 ; 
120 [label="BindAccessEval", color = yellow] ; 
119 -> 120 ; 
121 [label="Project
[1, 2, 3]", color = yellow] ; 
120 -> 121 ; 
122 [label="RightBindJoin 
[[0]]
4310", color = yellow] ; 
121 -> 122 ; 
123 [label="PhyMongoDBEval
countrytype
[{\"$match\":{\"countrytype\":121}}]
[country]
2", color = yellow] ; 
122 -> 123 ; 
124 [label="SQLQuery
SELECT tab_3376.nr, tab_3376.rating2, tab_3376.publisher, tab_3377.country 
FROM Person AS tab_3377, Review AS tab_3376, Review AS tab_3378 
WHERE tab_3377.country = ? AND tab_3378.person = tab_3377.nr AND tab_3376.publisher = tab_3377.publisher AND tab_3376.nr = tab_3378.nr
4310", color = yellow] ; 
122 -> 124 ; 
125 [label="FunctionCallBindAccess
(<http://www4.wiwiss.fu-berlin.de/bizer/bsbm/v01/instances/dataFromRatingSite{2}/Review{0}>, \"{1}\")", color = yellow] ; 
120 -> 125 ; 
126 [label="FunctionCallBindAccess
AddConstant{1=(\"<http://xmlns.com/foaf/0.1/Document>\", \"<http://www4.wiwiss.fu-berlin.de/bizer/bsbm/v01/vocabulary/rating>\")}", color = yellow] ; 
119 -> 126 ; 
128 [label="BindAccessEval", color = yellow] ; 
1 -> 128 ; 
129 [label="BindAccessEval", color = yellow] ; 
128 -> 129 ; 
130 [label="Project
[2, 3, 4]", color = yellow] ; 
129 -> 130 ; 
131 [label="RightBindJoin 
[[0, 1]]
553", color = yellow] ; 
130 -> 131 ; 
132 [label="PhyMongoDBEval
countrytype
[{\"$match\":{\"countrytype\":121}},
{$lookup: { from: \"productproducercountry\", let: { \"country\": \"$country\"}, pipeline: [ { $match: {$expr: {$eq: [\"$$country\", \"$country\"] } } } ], as: \"mongojoin995\"}},
{$unwind: \"$mongojoin995\"}]
[mongojoin995.nr, mongojoin995.producer]
553", color = yellow] ; 
131 -> 132 ; 
133 [label="SQLQuery
SELECT nr, producer, propertyTex3 
FROM Product 
WHERE nr = ? AND producer = ?
553", color = yellow] ; 
131 -> 133 ; 
134 [label="FunctionCallBindAccess
(<http://www4.wiwiss.fu-berlin.de/bizer/bsbm/v01/instances/dataFromProducer{1}/Product{0}>, \"{2}\")", color = yellow] ; 
129 -> 134 ; 
135 [label="FunctionCallBindAccess
AddConstant{1=(\"<http://www4.wiwiss.fu-berlin.de/bizer/bsbm/v01/vocabulary/Product>\", \"<http://www4.wiwiss.fu-berlin.de/bizer/bsbm/v01/vocabulary/productPropertyTextual>\")}", color = yellow] ; 
128 -> 135 ; 
137 [label="BindAccessEval", color = yellow] ; 
1 -> 137 ; 
138 [label="BindAccessEval", color = yellow] ; 
137 -> 138 ; 
139 [label="Project
[2, 3, 4]", color = yellow] ; 
138 -> 139 ; 
140 [label="RightBindJoin 
[[1, 0]]
477", color = yellow] ; 
139 -> 140 ; 
141 [label="PhyMongoDBEval
countrytype
[{\"$match\":{\"countrytype\":122}},
{$lookup: { from: \"productproducercountry\", let: { \"country\": \"$country\"}, pipeline: [ { $match: {$expr: {$eq: [\"$$country\", \"$country\"] } } } ], as: \"mongojoin996\"}},
{$unwind: \"$mongojoin996\"}]
[mongojoin996.nr, mongojoin996.producer]
477", color = yellow] ; 
140 -> 141 ; 
142 [label="SQLQuery
SELECT nr, producer, propertyTex3 
FROM Product 
WHERE producer = ? AND nr = ?
477", color = yellow] ; 
140 -> 142 ; 
143 [label="FunctionCallBindAccess
(<http://www4.wiwiss.fu-berlin.de/bizer/bsbm/v01/instances/dataFromProducer{1}/Product{0}>, \"{2}\")", color = yellow] ; 
138 -> 143 ; 
144 [label="FunctionCallBindAccess
AddConstant{1=(\"<http://www4.wiwiss.fu-berlin.de/bizer/bsbm/v01/vocabulary/Product>\", \"<http://www4.wiwiss.fu-berlin.de/bizer/bsbm/v01/vocabulary/productPropertyTextual>\")}", color = yellow] ; 
137 -> 144 ; 
146 [label="BindAccessEval", color = yellow] ; 
1 -> 146 ; 
147 [label="BindAccessEval", color = yellow] ; 
146 -> 147 ; 
148 [label="Project
[2, 3, 4]", color = yellow] ; 
147 -> 148 ; 
149 [label="RightBindJoin 
[[1, 0]]
553", color = yellow] ; 
148 -> 149 ; 
150 [label="PhyMongoDBEval
countrytype
[{\"$match\":{\"countrytype\":121}},
{$lookup: { from: \"productproducercountry\", let: { \"country\": \"$country\"}, pipeline: [ { $match: {$expr: {$eq: [\"$$country\", \"$country\"] } } } ], as: \"mongojoin997\"}},
{$unwind: \"$mongojoin997\"}]
[mongojoin997.nr, mongojoin997.producer]
553", color = yellow] ; 
149 -> 150 ; 
151 [label="SQLQuery
SELECT nr, producer, propertyTex6 
FROM Product 
WHERE producer = ? AND nr = ?
553", color = yellow] ; 
149 -> 151 ; 
152 [label="FunctionCallBindAccess
(<http://www4.wiwiss.fu-berlin.de/bizer/bsbm/v01/instances/dataFromProducer{1}/Product{0}>, \"{2}\")", color = yellow] ; 
147 -> 152 ; 
153 [label="FunctionCallBindAccess
AddConstant{1=(\"<http://www4.wiwiss.fu-berlin.de/bizer/bsbm/v01/vocabulary/Product>\", \"<http://www4.wiwiss.fu-berlin.de/bizer/bsbm/v01/vocabulary/productPropertyTextual>\")}", color = yellow] ; 
146 -> 153 ; 
155 [label="BindAccessEval", color = yellow] ; 
1 -> 155 ; 
156 [label="BindAccessEval", color = yellow] ; 
155 -> 156 ; 
157 [label="Project
[2, 3, 4]", color = yellow] ; 
156 -> 157 ; 
158 [label="RightBindJoin 
[[0, 1]]
477", color = yellow] ; 
157 -> 158 ; 
159 [label="PhyMongoDBEval
countrytype
[{\"$match\":{\"countrytype\":122}},
{$lookup: { from: \"productproducercountry\", let: { \"country\": \"$country\"}, pipeline: [ { $match: {$expr: {$eq: [\"$$country\", \"$country\"] } } } ], as: \"mongojoin998\"}},
{$unwind: \"$mongojoin998\"}]
[mongojoin998.nr, mongojoin998.producer]
477", color = yellow] ; 
158 -> 159 ; 
160 [label="SQLQuery
SELECT nr, producer, propertyTex6 
FROM Product 
WHERE nr = ? AND producer = ?
477", color = yellow] ; 
158 -> 160 ; 
161 [label="FunctionCallBindAccess
(<http://www4.wiwiss.fu-berlin.de/bizer/bsbm/v01/instances/dataFromProducer{1}/Product{0}>, \"{2}\")", color = yellow] ; 
156 -> 161 ; 
162 [label="FunctionCallBindAccess
AddConstant{1=(\"<http://www4.wiwiss.fu-berlin.de/bizer/bsbm/v01/vocabulary/Product>\", \"<http://www4.wiwiss.fu-berlin.de/bizer/bsbm/v01/vocabulary/productPropertyTextual>\")}", color = yellow] ; 
155 -> 162 ; 
164 [label="BindAccessEval", color = yellow] ; 
1 -> 164 ; 
165 [label="BindAccessEval", color = yellow] ; 
164 -> 165 ; 
166 [label="Project
[2, 3, 4]", color = yellow] ; 
165 -> 166 ; 
167 [label="RightBindJoin 
[[1, 0]]
477", color = yellow] ; 
166 -> 167 ; 
168 [label="PhyMongoDBEval
countrytype
[{\"$match\":{\"countrytype\":122}},
{$lookup: { from: \"productproducercountry\", let: { \"country\": \"$country\"}, pipeline: [ { $match: {$expr: {$eq: [\"$$country\", \"$country\"] } } } ], as: \"mongojoin999\"}},
{$unwind: \"$mongojoin999\"}]
[mongojoin999.nr, mongojoin999.producer]
477", color = yellow] ; 
167 -> 168 ; 
169 [label="SQLQuery
SELECT nr, producer, propertyNum2 
FROM Product 
WHERE producer = ? AND nr = ?
477", color = yellow] ; 
167 -> 169 ; 
170 [label="FunctionCallBindAccess
(<http://www4.wiwiss.fu-berlin.de/bizer/bsbm/v01/instances/dataFromProducer{1}/Product{0}>, \"{2}\")", color = yellow] ; 
165 -> 170 ; 
171 [label="FunctionCallBindAccess
AddConstant{1=(\"<http://www4.wiwiss.fu-berlin.de/bizer/bsbm/v01/vocabulary/Product>\", \"<http://www4.wiwiss.fu-berlin.de/bizer/bsbm/v01/vocabulary/productPropertyNumeric>\")}", color = yellow] ; 
164 -> 171 ; 
173 [label="BindAccessEval", color = yellow] ; 
1 -> 173 ; 
174 [label="BindAccessEval", color = yellow] ; 
173 -> 174 ; 
175 [label="Project
[2, 3, 4]", color = yellow] ; 
174 -> 175 ; 
176 [label="RightBindJoin 
[[0, 1]]
553", color = yellow] ; 
175 -> 176 ; 
177 [label="PhyMongoDBEval
countrytype
[{\"$match\":{\"countrytype\":121}},
{$lookup: { from: \"productproducercountry\", let: { \"country\": \"$country\"}, pipeline: [ { $match: {$expr: {$eq: [\"$$country\", \"$country\"] } } } ], as: \"mongojoin1000\"}},
{$unwind: \"$mongojoin1000\"}]
[mongojoin1000.nr, mongojoin1000.producer]
553", color = yellow] ; 
176 -> 177 ; 
178 [label="SQLQuery
SELECT nr, producer, propertyNum2 
FROM Product 
WHERE nr = ? AND producer = ?
553", color = yellow] ; 
176 -> 178 ; 
179 [label="FunctionCallBindAccess
(<http://www4.wiwiss.fu-berlin.de/bizer/bsbm/v01/instances/dataFromProducer{1}/Product{0}>, \"{2}\")", color = yellow] ; 
174 -> 179 ; 
180 [label="FunctionCallBindAccess
AddConstant{1=(\"<http://www4.wiwiss.fu-berlin.de/bizer/bsbm/v01/vocabulary/Product>\", \"<http://www4.wiwiss.fu-berlin.de/bizer/bsbm/v01/vocabulary/productPropertyNumeric>\")}", color = yellow] ; 
173 -> 180 ; 
182 [label="BindAccessEval", color = yellow] ; 
1 -> 182 ; 
183 [label="BindAccessEval", color = yellow] ; 
182 -> 183 ; 
184 [label="Project
[2, 3, 4]", color = yellow] ; 
183 -> 184 ; 
185 [label="RightBindJoin 
[[0, 1]]
477", color = yellow] ; 
184 -> 185 ; 
186 [label="PhyMongoDBEval
countrytype
[{\"$match\":{\"countrytype\":122}},
{$lookup: { from: \"productproducercountry\", let: { \"country\": \"$country\"}, pipeline: [ { $match: {$expr: {$eq: [\"$$country\", \"$country\"] } } } ], as: \"mongojoin1001\"}},
{$unwind: \"$mongojoin1001\"}]
[mongojoin1001.nr, mongojoin1001.producer]
477", color = yellow] ; 
185 -> 186 ; 
187 [label="SQLQuery
SELECT nr, producer, propertyTex5 
FROM Product 
WHERE nr = ? AND producer = ?
477", color = yellow] ; 
185 -> 187 ; 
188 [label="FunctionCallBindAccess
(<http://www4.wiwiss.fu-berlin.de/bizer/bsbm/v01/instances/dataFromProducer{1}/Product{0}>, \"{2}\")", color = yellow] ; 
183 -> 188 ; 
189 [label="FunctionCallBindAccess
AddConstant{1=(\"<http://www4.wiwiss.fu-berlin.de/bizer/bsbm/v01/vocabulary/Product>\", \"<http://www4.wiwiss.fu-berlin.de/bizer/bsbm/v01/vocabulary/productPropertyTextual>\")}", color = yellow] ; 
182 -> 189 ; 
191 [label="BindAccessEval", color = yellow] ; 
1 -> 191 ; 
192 [label="BindAccessEval", color = yellow] ; 
191 -> 192 ; 
193 [label="Project
[2, 3, 4]", color = yellow] ; 
192 -> 193 ; 
194 [label="RightBindJoin 
[[0, 1]]
553", color = yellow] ; 
193 -> 194 ; 
195 [label="PhyMongoDBEval
countrytype
[{\"$match\":{\"countrytype\":121}},
{$lookup: { from: \"productproducercountry\", let: { \"country\": \"$country\"}, pipeline: [ { $match: {$expr: {$eq: [\"$$country\", \"$country\"] } } } ], as: \"mongojoin1002\"}},
{$unwind: \"$mongojoin1002\"}]
[mongojoin1002.nr, mongojoin1002.producer]
553", color = yellow] ; 
194 -> 195 ; 
196 [label="SQLQuery
SELECT nr, producer, propertyTex5 
FROM Product 
WHERE nr = ? AND producer = ?
553", color = yellow] ; 
194 -> 196 ; 
197 [label="FunctionCallBindAccess
(<http://www4.wiwiss.fu-berlin.de/bizer/bsbm/v01/instances/dataFromProducer{1}/Product{0}>, \"{2}\")", color = yellow] ; 
192 -> 197 ; 
198 [label="FunctionCallBindAccess
AddConstant{1=(\"<http://www4.wiwiss.fu-berlin.de/bizer/bsbm/v01/vocabulary/Product>\", \"<http://www4.wiwiss.fu-berlin.de/bizer/bsbm/v01/vocabulary/productPropertyTextual>\")}", color = yellow] ; 
191 -> 198 ; 
200 [label="BindAccessEval", color = yellow] ; 
1 -> 200 ; 
201 [label="BindAccessEval", color = yellow] ; 
200 -> 201 ; 
202 [label="Project
[2, 3, 4]", color = yellow] ; 
201 -> 202 ; 
203 [label="RightBindJoin 
[[1, 0]]
553", color = yellow] ; 
202 -> 203 ; 
204 [label="PhyMongoDBEval
countrytype
[{\"$match\":{\"countrytype\":121}},
{$lookup: { from: \"productproducercountry\", let: { \"country\": \"$country\"}, pipeline: [ { $match: {$expr: {$eq: [\"$$country\", \"$country\"] } } } ], as: \"mongojoin1003\"}},
{$unwind: \"$mongojoin1003\"}]
[mongojoin1003.nr, mongojoin1003.producer]
553", color = yellow] ; 
203 -> 204 ; 
205 [label="SQLQuery
SELECT nr, producer, propertyNum1 
FROM Product 
WHERE producer = ? AND nr = ?
553", color = yellow] ; 
203 -> 205 ; 
206 [label="FunctionCallBindAccess
(<http://www4.wiwiss.fu-berlin.de/bizer/bsbm/v01/instances/dataFromProducer{1}/Product{0}>, \"{2}\")", color = yellow] ; 
201 -> 206 ; 
207 [label="FunctionCallBindAccess
AddConstant{1=(\"<http://www4.wiwiss.fu-berlin.de/bizer/bsbm/v01/vocabulary/Product>\", \"<http://www4.wiwiss.fu-berlin.de/bizer/bsbm/v01/vocabulary/productPropertyNumeric>\")}", color = yellow] ; 
200 -> 207 ; 
209 [label="BindAccessEval", color = yellow] ; 
1 -> 209 ; 
210 [label="BindAccessEval", color = yellow] ; 
209 -> 210 ; 
211 [label="Project
[2, 3, 4]", color = yellow] ; 
210 -> 211 ; 
212 [label="RightBindJoin 
[[0, 1]]
477", color = yellow] ; 
211 -> 212 ; 
213 [label="PhyMongoDBEval
countrytype
[{\"$match\":{\"countrytype\":122}},
{$lookup: { from: \"productproducercountry\", let: { \"country\": \"$country\"}, pipeline: [ { $match: {$expr: {$eq: [\"$$country\", \"$country\"] } } } ], as: \"mongojoin1004\"}},
{$unwind: \"$mongojoin1004\"}]
[mongojoin1004.nr, mongojoin1004.producer]
477", color = yellow] ; 
212 -> 213 ; 
214 [label="SQLQuery
SELECT nr, producer, propertyNum1 
FROM Product 
WHERE nr = ? AND producer = ?
477", color = yellow] ; 
212 -> 214 ; 
215 [label="FunctionCallBindAccess
(<http://www4.wiwiss.fu-berlin.de/bizer/bsbm/v01/instances/dataFromProducer{1}/Product{0}>, \"{2}\")", color = yellow] ; 
210 -> 215 ; 
216 [label="FunctionCallBindAccess
AddConstant{1=(\"<http://www4.wiwiss.fu-berlin.de/bizer/bsbm/v01/vocabulary/Product>\", \"<http://www4.wiwiss.fu-berlin.de/bizer/bsbm/v01/vocabulary/productPropertyNumeric>\")}", color = yellow] ; 
209 -> 216 ; 
}

