<$label,<359338>,$country> :- 
	triple($x,<69473>,$label),
	triple($x,<359338>,$org),
	triple($org,<40607>,$country),
	triple($country,<265794>,<111213>);

<$label,<411213>,$country> :- 
	triple($x,<69473>,$label),
	triple($x,<411213>,$org),
	triple($org,<40607>,$country),
	triple($country,<265794>,<497374>);

<$label,<411213>,$country> :- 
	triple($x,<69473>,$label),
	triple($x,<411213>,$org),
	triple($org,<40607>,$country),
	triple($country,<265794>,<111213>);

<$label,<359338>,$country> :- 
	triple($x,<69473>,$label),
	triple($x,<359338>,$org),
	triple($org,<40607>,$country),
	triple($country,<265794>,<497374>);

<$label,<359338>,$country> :- 
	triple($x,<69473>,$label),
	triple($x,<359338>,$org),
	triple($org,<40607>,$country),
	triple($country,<265794>,<510121>);

<$label,<411213>,$country> :- 
	triple($x,<69473>,$label),
	triple($x,<411213>,$org),
	triple($org,<40607>,$country),
	triple($country,<265794>,<510121>);

