digraph  g{
node [shape=rectangle, color=black, fontcolor=black, style=bold]
0 [label="LogSkolemFunctionCall
(\"{0}\", \"{1}\", <http://downlode.org/rdf/iso-3166/countries#{2}>)" , color = blue] ; 
1 [label="LogSQLEval 
SELECT tab_606.label, tab_606.propertyNum2, tab_602.country FROM Producer AS tab_602, Product AS tab_606, Product AS tab_605, PRODUCTTYPEPRODUCT AS tab_604, PRODUCT AS tab_603, CountryType AS tab_607 WHERE tab_604.producttype = 56 AND tab_604.product = tab_603.nr AND tab_606.producer = tab_603.producer AND tab_606.nr = tab_603.nr AND tab_605.producer = tab_602.nr AND tab_606.producer = tab_605.producer AND tab_606.nr = tab_605.nr AND tab_603.producer = tab_605.producer AND tab_603.nr = tab_605.nr AND tab_607.countryType = 111 AND tab_602.country = tab_607.country UNION SELECT tab_549.label, tab_549.propertyNum2, tab_546.country FROM Product AS tab_549, Producer AS tab_546, CountryType AS tab_551, Product AS tab_550, PRODUCTTYPEPRODUCT AS tab_548, PRODUCT AS tab_547 WHERE tab_548.producttype = 57 AND tab_548.product = tab_547.nr AND tab_549.producer = tab_547.producer AND tab_549.nr = tab_547.nr AND tab_550.producer = tab_546.nr AND tab_549.producer = tab_550.producer AND tab_549.nr = tab_550.nr AND tab_547.producer = tab_550.producer AND tab_547.nr = tab_550.nr AND tab_551.countryType = 112 AND tab_546.country = tab_551.country UNION SELECT tab_630.label, tab_630.propertyNum2, tab_634.country FROM PRODUCT AS tab_633, Producer AS tab_634, PRODUCTTYPEPRODUCT AS tab_632, CountryType AS tab_635, Product AS tab_631, Product AS tab_630 WHERE tab_632.producttype = 56 AND tab_632.product = tab_633.nr AND tab_630.producer = tab_633.producer AND tab_630.nr = tab_633.nr AND tab_631.producer = tab_634.nr AND tab_630.producer = tab_631.producer AND tab_630.nr = tab_631.nr AND tab_633.producer = tab_631.producer AND tab_633.nr = tab_631.nr AND tab_635.countryType = 121 AND tab_634.country = tab_635.country UNION SELECT tab_519.label, tab_519.propertyNum2, tab_521.country FROM PRODUCT AS tab_522, Product AS tab_519, PRODUCTTYPEPRODUCT AS tab_520, Product AS tab_518, Producer AS tab_521, CountryType AS tab_523 WHERE tab_520.producttype = 56 AND tab_520.product = tab_522.nr AND tab_519.producer = tab_522.producer AND tab_519.nr = tab_522.nr AND tab_518.producer = tab_521.nr AND tab_519.producer = tab_518.producer AND tab_519.nr = tab_518.nr AND tab_522.producer = tab_518.producer AND tab_522.nr = tab_518.nr AND tab_523.countryType = 112 AND tab_521.country = tab_523.country UNION SELECT tab_690.label, tab_690.propertyNum2, tab_688.country FROM Producer AS tab_688, PRODUCT AS tab_687, Product AS tab_689, Product AS tab_690, PRODUCTTYPEPRODUCT AS tab_686, CountryType AS tab_691 WHERE tab_686.producttype = 57 AND tab_686.product = tab_687.nr AND tab_690.producer = tab_687.producer AND tab_690.nr = tab_687.nr AND tab_689.producer = tab_688.nr AND tab_690.producer = tab_689.producer AND tab_690.nr = tab_689.nr AND tab_687.producer = tab_689.producer AND tab_687.nr = tab_689.nr AND tab_691.countryType = 122 AND tab_688.country = tab_691.country UNION SELECT tab_532.label, tab_532.propertyNum2, tab_533.country FROM Producer AS tab_533, CountryType AS tab_537, PRODUCTTYPEPRODUCT AS tab_536, Product AS tab_534, Product AS tab_532, PRODUCT AS tab_535 WHERE tab_536.producttype = 57 AND tab_536.product = tab_535.nr AND tab_532.producer = tab_535.producer AND tab_532.nr = tab_535.nr AND tab_534.producer = tab_533.nr AND tab_532.producer = tab_534.producer AND tab_532.nr = tab_534.nr AND tab_535.producer = tab_534.producer AND tab_535.nr = tab_534.nr AND tab_537.countryType = 111 AND tab_533.country = tab_537.country UNION SELECT tab_618.label, tab_618.propertyNum2, tab_619.country FROM PRODUCT AS tab_620, Product AS tab_618, CountryType AS tab_621, Product AS tab_616, Producer AS tab_619, PRODUCTTYPEPRODUCT AS tab_617 WHERE tab_617.producttype = 56 AND tab_617.product = tab_620.nr AND tab_618.producer = tab_620.producer AND tab_618.nr = tab_620.nr AND tab_616.producer = tab_619.nr AND tab_618.producer = tab_616.producer AND tab_618.nr = tab_616.nr AND tab_620.producer = tab_616.producer AND tab_620.nr = tab_616.nr AND tab_621.countryType = 122 AND tab_619.country = tab_621.country UNION SELECT tab_717.label, tab_717.propertyNum1, tab_716.country FROM Product AS tab_717, Product AS tab_715, PRODUCT AS tab_718, PRODUCTTYPEPRODUCT AS tab_714, Producer AS tab_716, CountryType AS tab_719 WHERE tab_714.producttype = 57 AND tab_714.product = tab_718.nr AND tab_717.producer = tab_718.producer AND tab_717.nr = tab_718.nr AND tab_715.producer = tab_716.nr AND tab_717.producer = tab_715.producer AND tab_717.nr = tab_715.nr AND tab_718.producer = tab_715.producer AND tab_718.nr = tab_715.nr AND tab_719.countryType = 111 AND tab_716.country = tab_719.country UNION SELECT tab_728.label, tab_728.propertyNum2, tab_732.country FROM Producer AS tab_732, PRODUCT AS tab_731, Product AS tab_729, Product AS tab_728, PRODUCTTYPEPRODUCT AS tab_730, CountryType AS tab_733 WHERE tab_730.producttype = 57 AND tab_730.product = tab_731.nr AND tab_728.producer = tab_731.producer AND tab_728.nr = tab_731.nr AND tab_729.producer = tab_732.nr AND tab_728.producer = tab_729.producer AND tab_728.nr = tab_729.nr AND tab_731.producer = tab_729.producer AND tab_731.nr = tab_729.nr AND tab_733.countryType = 121 AND tab_732.country = tab_733.country UNION SELECT tab_591.label, tab_591.propertyNum1, tab_590.country FROM PRODUCT AS tab_589, Product AS tab_592, Product AS tab_591, PRODUCTTYPEPRODUCT AS tab_588, Producer AS tab_590, CountryType AS tab_593 WHERE tab_588.producttype = 56 AND tab_588.product = tab_589.nr AND tab_591.producer = tab_589.producer AND tab_591.nr = tab_589.nr AND tab_592.producer = tab_590.nr AND tab_591.producer = tab_592.producer AND tab_591.nr = tab_592.nr AND tab_589.producer = tab_592.producer AND tab_589.nr = tab_592.nr AND tab_593.countryType = 112 AND tab_590.country = tab_593.country UNION SELECT tab_562.label, tab_562.propertyNum1, tab_563.country FROM Producer AS tab_563, CountryType AS tab_565, PRODUCTTYPEPRODUCT AS tab_564, PRODUCT AS tab_560, Product AS tab_562, Product AS tab_561 WHERE tab_564.producttype = 56 AND tab_564.product = tab_560.nr AND tab_562.producer = tab_560.producer AND tab_562.nr = tab_560.nr AND tab_561.producer = tab_563.nr AND tab_562.producer = tab_561.producer AND tab_562.nr = tab_561.nr AND tab_560.producer = tab_561.producer AND tab_560.nr = tab_561.nr AND tab_565.countryType = 121 AND tab_563.country = tab_565.country UNION SELECT tab_576.label, tab_576.propertyNum1, tab_577.country FROM PRODUCT AS tab_578, PRODUCTTYPEPRODUCT AS tab_574, Producer AS tab_577, CountryType AS tab_579, Product AS tab_576, Product AS tab_575 WHERE tab_574.producttype = 57 AND tab_574.product = tab_578.nr AND tab_576.producer = tab_578.producer AND tab_576.nr = tab_578.nr AND tab_575.producer = tab_577.nr AND tab_576.producer = tab_575.producer AND tab_576.nr = tab_575.nr AND tab_578.producer = tab_575.producer AND tab_578.nr = tab_575.nr AND tab_579.countryType = 112 AND tab_577.country = tab_579.country UNION SELECT tab_646.label, tab_646.propertyNum1, tab_647.country FROM PRODUCT AS tab_644, Product AS tab_648, Product AS tab_646, Producer AS tab_647, PRODUCTTYPEPRODUCT AS tab_645, CountryType AS tab_649 WHERE tab_645.producttype = 57 AND tab_645.product = tab_644.nr AND tab_646.producer = tab_644.producer AND tab_646.nr = tab_644.nr AND tab_648.producer = tab_647.nr AND tab_646.producer = tab_648.producer AND tab_646.nr = tab_648.nr AND tab_644.producer = tab_648.producer AND tab_644.nr = tab_648.nr AND tab_649.countryType = 122 AND tab_647.country = tab_649.country UNION SELECT tab_662.label, tab_662.propertyNum1, tab_659.country FROM PRODUCTTYPEPRODUCT AS tab_661, CountryType AS tab_663, Product AS tab_662, Product AS tab_660, Producer AS tab_659, PRODUCT AS tab_658 WHERE tab_661.producttype = 56 AND tab_661.product = tab_658.nr AND tab_662.producer = tab_658.producer AND tab_662.nr = tab_658.nr AND tab_660.producer = tab_659.nr AND tab_662.producer = tab_660.producer AND tab_662.nr = tab_660.nr AND tab_658.producer = tab_660.producer AND tab_658.nr = tab_660.nr AND tab_663.countryType = 111 AND tab_659.country = tab_663.country UNION SELECT tab_672.label, tab_672.propertyNum1, tab_674.country FROM PRODUCT AS tab_676, PRODUCTTYPEPRODUCT AS tab_673, Producer AS tab_674, CountryType AS tab_677, Product AS tab_672, Product AS tab_675 WHERE tab_673.producttype = 56 AND tab_673.product = tab_676.nr AND tab_672.producer = tab_676.producer AND tab_672.nr = tab_676.nr AND tab_675.producer = tab_674.nr AND tab_672.producer = tab_675.producer AND tab_672.nr = tab_675.nr AND tab_676.producer = tab_675.producer AND tab_676.nr = tab_675.nr AND tab_677.countryType = 122 AND tab_674.country = tab_677.country UNION SELECT tab_704.label, tab_704.propertyNum1, tab_700.country FROM Product AS tab_703, Producer AS tab_700, Product AS tab_704, PRODUCTTYPEPRODUCT AS tab_702, CountryType AS tab_705, PRODUCT AS tab_701 WHERE tab_702.producttype = 57 AND tab_702.product = tab_701.nr AND tab_704.producer = tab_701.producer AND tab_704.nr = tab_701.nr AND tab_703.producer = tab_700.nr AND tab_704.producer = tab_703.producer AND tab_704.nr = tab_703.nr AND tab_701.producer = tab_703.producer AND tab_701.nr = tab_703.nr AND tab_705.countryType = 121 AND tab_700.country = tab_705.country", color = blue] ; 
0 -> 1 ; 
}

