ANS($label,$value,$country) : [V_product\14(X20823516617123,X20823516617125,X20823516617120,X20823516617122,X20823516617118,X20823516617119,X20823516617131,X20823516617129,$value,X20823516617127,$label,X20823516617124,X20823516617126,$product), V_M32\1($product), V_product-country\2($product,$country), V_country-type-112\1($country)]

ANS($label,$value,$country) : [V_product\14(X20823516617123,X20823516617125,X20823516617120,X20823516617122,X20823516617118,X20823516617119,X20823516617131,X20823516617129,$value,X20823516617127,$label,X20823516617124,X20823516617126,$product), V_M60\1($product), V_product-country\2($product,$country), V_country-type-111\1($country)]

ANS($label,$value,$country) : [V_product\14(X20823516617123,X20823516617125,X20823516617120,X20823516617122,X20823516617118,X20823516617119,X20823516617131,X20823516617129,$value,X20823516617127,$label,X20823516617124,X20823516617126,$product), V_M60\1($product), V_product-country\2($product,$country), V_country-type-112\1($country)]

ANS($label,$value,$country) : [V_product\14(X20823516617123,X20823516617125,X20823516617120,X20823516617122,X20823516617118,X20823516617119,X20823516617131,X20823516617129,X20823516617130,$value,$label,X20823516617124,X20823516617126,$product), V_M32\1($product), V_product-country\2($product,$country), V_country-type-121\1($country)]

ANS($label,$value,$country) : [V_product\14(X20823516617123,X20823516617125,X20823516617120,X20823516617122,X20823516617118,X20823516617119,X20823516617131,X20823516617129,X20823516617130,$value,$label,X20823516617124,X20823516617126,$product), V_M60\1($product), V_product-country\2($product,$country), V_country-type-112\1($country)]

ANS($label,$value,$country) : [V_product\14(X20823516617123,X20823516617125,X20823516617120,X20823516617122,X20823516617118,X20823516617119,X20823516617131,X20823516617129,X20823516617130,$value,$label,X20823516617124,X20823516617126,$product), V_M32\1($product), V_product-country\2($product,$country), V_country-type-112\1($country)]

ANS($label,$value,$country) : [V_product\14(X20823516617123,X20823516617125,X20823516617120,X20823516617122,X20823516617118,X20823516617119,X20823516617131,X20823516617129,$value,X20823516617127,$label,X20823516617124,X20823516617126,$product), V_M32\1($product), V_product-country\2($product,$country), V_country-type-111\1($country)]

ANS($label,$value,$country) : [V_product\14(X20823516617123,X20823516617125,X20823516617120,X20823516617122,X20823516617118,X20823516617119,X20823516617131,X20823516617129,$value,X20823516617127,$label,X20823516617124,X20823516617126,$product), V_M32\1($product), V_product-country\2($product,$country), V_country-type-122\1($country)]

ANS($label,$value,$country) : [V_product\14(X20823516617123,X20823516617125,X20823516617120,X20823516617122,X20823516617118,X20823516617119,X20823516617131,X20823516617129,$value,X20823516617127,$label,X20823516617124,X20823516617126,$product), V_M32\1($product), V_product-country\2($product,$country), V_country-type-121\1($country)]

ANS($label,$value,$country) : [V_product\14(X20823516617123,X20823516617125,X20823516617120,X20823516617122,X20823516617118,X20823516617119,X20823516617131,X20823516617129,X20823516617130,$value,$label,X20823516617124,X20823516617126,$product), V_M60\1($product), V_product-country\2($product,$country), V_country-type-122\1($country)]

ANS($label,$value,$country) : [V_product\14(X20823516617123,X20823516617125,X20823516617120,X20823516617122,X20823516617118,X20823516617119,X20823516617131,X20823516617129,X20823516617130,$value,$label,X20823516617124,X20823516617126,$product), V_M32\1($product), V_product-country\2($product,$country), V_country-type-111\1($country)]

ANS($label,$value,$country) : [V_product\14(X20823516617123,X20823516617125,X20823516617120,X20823516617122,X20823516617118,X20823516617119,X20823516617131,X20823516617129,X20823516617130,$value,$label,X20823516617124,X20823516617126,$product), V_M32\1($product), V_product-country\2($product,$country), V_country-type-122\1($country)]

ANS($label,$value,$country) : [V_product\14(X20823516617123,X20823516617125,X20823516617120,X20823516617122,X20823516617118,X20823516617119,X20823516617131,X20823516617129,$value,X20823516617127,$label,X20823516617124,X20823516617126,$product), V_M60\1($product), V_product-country\2($product,$country), V_country-type-122\1($country)]

ANS($label,$value,$country) : [V_product\14(X20823516617123,X20823516617125,X20823516617120,X20823516617122,X20823516617118,X20823516617119,X20823516617131,X20823516617129,X20823516617130,$value,$label,X20823516617124,X20823516617126,$product), V_M60\1($product), V_product-country\2($product,$country), V_country-type-121\1($country)]

ANS($label,$value,$country) : [V_product\14(X20823516617123,X20823516617125,X20823516617120,X20823516617122,X20823516617118,X20823516617119,X20823516617131,X20823516617129,X20823516617130,$value,$label,X20823516617124,X20823516617126,$product), V_M60\1($product), V_product-country\2($product,$country), V_country-type-111\1($country)]

ANS($label,$value,$country) : [V_product\14(X20823516617123,X20823516617125,X20823516617120,X20823516617122,X20823516617118,X20823516617119,X20823516617131,X20823516617129,$value,X20823516617127,$label,X20823516617124,X20823516617126,$product), V_M60\1($product), V_product-country\2($product,$country), V_country-type-121\1($country)]

