digraph  g{
node [shape=rectangle, color=black, fontcolor=black, style=bold]
0 [label="LogDistinct" , color = blue] ; 
1 [label="Union", color = blue] ; 
0 -> 1 ; 
2 [label="LogProj
[9,3,6,7,11]" , color = blue] ; 
1 -> 2 ; 
3 [label="Join\n [12PREDICATE_EQUAL14] ", color = blue] ; 
2 -> 3 ; 
4 [label="Join\n [9PREDICATE_EQUAL13] ", color = blue] ; 
3 -> 4 ; 
5 [label="LogSkolemFunctionCall
(\"{6}\", \"{5}\", <http://www4.wiwiss.fu-berlin.de/bizer/bsbm/v01/instances/dataFromVendor{9}/Vendor{9}>, <{8}>, \"{10}\", <http://www4.wiwiss.fu-berlin.de/bizer/bsbm/v01/instances/dataFromVendor{3}/Vendor{3}>, \"{4}\", \"{7}\", <http://www4.wiwiss.fu-berlin.de/bizer/bsbm/v01/instances/dataFromProducer{2}/Product{1}>, <http://www4.wiwiss.fu-berlin.de/bizer/bsbm/v01/instances/dataFromVendor{3}/Offer{0}>)" , color = blue] ; 
4 -> 5 ; 
6 [label="LogMongoDBEval
offer
[]
[nr, product, producer, vendor, price, validfrom, validto, deliverydays, offerwebpage, publisher, publishdate]
", color = blue] ; 
5 -> 6 ; 
7 [label="LogSkolemFunctionCall
(\"{3}\", \"{2}\", <http://downlode.org/rdf/iso-3166/countries#{4}>, <http://www4.wiwiss.fu-berlin.de/bizer/bsbm/v01/instances/dataFromVendor{1}/Offer{0}>)" , color = blue] ; 
4 -> 7 ; 
8 [label="LogSQLEval 
SELECT O.nr AS offer, O.vendor AS vendor, P.propertyNum3 AS propertyNum3, P.propertyNum4 AS propertyNum4, PR.country AS country FROM Offer AS O, Product AS P, Producer AS PR, PRODUCTTYPEPRODUCT AS PTP WHERE P.nr = O.product AND PR.nr = P.producer AND P.nr = PTP.product AND PTP.producttype=56", color = blue] ; 
7 -> 8 ; 
9 [label="LogSkolemFunctionCall
(<http://downlode.org/rdf/iso-3166/countries#{0}>)" , color = blue] ; 
3 -> 9 ; 
10 [label="LogMongoDBEval
countrytype
[{\"$match\":{\"countrytype\":122}}]
[country]
", color = blue] ; 
9 -> 10 ; 
12 [label="LogProj
[9,3,6,7,10]" , color = blue] ; 
1 -> 12 ; 
13 [label="Join\n [12PREDICATE_EQUAL14] ", color = blue] ; 
12 -> 13 ; 
14 [label="Join\n [9PREDICATE_EQUAL13] ", color = blue] ; 
13 -> 14 ; 
15 [label="LogSkolemFunctionCall
(\"{6}\", \"{5}\", <http://www4.wiwiss.fu-berlin.de/bizer/bsbm/v01/instances/dataFromVendor{9}/Vendor{9}>, <{8}>, \"{10}\", <http://www4.wiwiss.fu-berlin.de/bizer/bsbm/v01/instances/dataFromVendor{3}/Vendor{3}>, \"{4}\", \"{7}\", <http://www4.wiwiss.fu-berlin.de/bizer/bsbm/v01/instances/dataFromProducer{2}/Product{1}>, <http://www4.wiwiss.fu-berlin.de/bizer/bsbm/v01/instances/dataFromVendor{3}/Offer{0}>)" , color = blue] ; 
14 -> 15 ; 
16 [label="LogMongoDBEval
offer
[]
[nr, product, producer, vendor, price, validfrom, validto, deliverydays, offerwebpage, publisher, publishdate]
", color = blue] ; 
15 -> 16 ; 
17 [label="LogSkolemFunctionCall
(\"{3}\", \"{2}\", <http://downlode.org/rdf/iso-3166/countries#{4}>, <http://www4.wiwiss.fu-berlin.de/bizer/bsbm/v01/instances/dataFromVendor{1}/Offer{0}>)" , color = blue] ; 
14 -> 17 ; 
18 [label="LogSQLEval 
SELECT O.nr AS offer, O.vendor AS vendor, P.propertyNum3 AS propertyNum3, P.propertyNum4 AS propertyNum4, PR.country AS country FROM Offer AS O, Product AS P, Producer AS PR, PRODUCTTYPEPRODUCT AS PTP WHERE P.nr = O.product AND PR.nr = P.producer AND P.nr = PTP.product AND PTP.producttype=57", color = blue] ; 
17 -> 18 ; 
19 [label="LogSkolemFunctionCall
(<http://downlode.org/rdf/iso-3166/countries#{0}>)" , color = blue] ; 
13 -> 19 ; 
20 [label="LogMongoDBEval
countrytype
[{\"$match\":{\"countrytype\":122}}]
[country]
", color = blue] ; 
19 -> 20 ; 
22 [label="LogProj
[9,3,6,7,11]" , color = blue] ; 
1 -> 22 ; 
23 [label="Join\n [12PREDICATE_EQUAL14] ", color = blue] ; 
22 -> 23 ; 
24 [label="Join\n [9PREDICATE_EQUAL13] ", color = blue] ; 
23 -> 24 ; 
25 [label="LogSkolemFunctionCall
(\"{6}\", \"{5}\", <http://www4.wiwiss.fu-berlin.de/bizer/bsbm/v01/instances/dataFromVendor{9}/Vendor{9}>, <{8}>, \"{10}\", <http://www4.wiwiss.fu-berlin.de/bizer/bsbm/v01/instances/dataFromVendor{3}/Vendor{3}>, \"{4}\", \"{7}\", <http://www4.wiwiss.fu-berlin.de/bizer/bsbm/v01/instances/dataFromProducer{2}/Product{1}>, <http://www4.wiwiss.fu-berlin.de/bizer/bsbm/v01/instances/dataFromVendor{3}/Offer{0}>)" , color = blue] ; 
24 -> 25 ; 
26 [label="LogMongoDBEval
offer
[]
[nr, product, producer, vendor, price, validfrom, validto, deliverydays, offerwebpage, publisher, publishdate]
", color = blue] ; 
25 -> 26 ; 
27 [label="LogSkolemFunctionCall
(\"{3}\", \"{2}\", <http://downlode.org/rdf/iso-3166/countries#{4}>, <http://www4.wiwiss.fu-berlin.de/bizer/bsbm/v01/instances/dataFromVendor{1}/Offer{0}>)" , color = blue] ; 
24 -> 27 ; 
28 [label="LogSQLEval 
SELECT O.nr AS offer, O.vendor AS vendor, P.propertyNum3 AS propertyNum3, P.propertyNum4 AS propertyNum4, PR.country AS country FROM Offer AS O, Product AS P, Producer AS PR, PRODUCTTYPEPRODUCT AS PTP WHERE P.nr = O.product AND PR.nr = P.producer AND P.nr = PTP.product AND PTP.producttype=57", color = blue] ; 
27 -> 28 ; 
29 [label="LogSkolemFunctionCall
(<http://downlode.org/rdf/iso-3166/countries#{0}>)" , color = blue] ; 
23 -> 29 ; 
30 [label="LogMongoDBEval
countrytype
[{\"$match\":{\"countrytype\":122}}]
[country]
", color = blue] ; 
29 -> 30 ; 
32 [label="LogProj
[9,3,6,7,11]" , color = blue] ; 
1 -> 32 ; 
33 [label="Join\n [12PREDICATE_EQUAL14] ", color = blue] ; 
32 -> 33 ; 
34 [label="Join\n [9PREDICATE_EQUAL13] ", color = blue] ; 
33 -> 34 ; 
35 [label="LogSkolemFunctionCall
(\"{6}\", \"{5}\", <http://www4.wiwiss.fu-berlin.de/bizer/bsbm/v01/instances/dataFromVendor{9}/Vendor{9}>, <{8}>, \"{10}\", <http://www4.wiwiss.fu-berlin.de/bizer/bsbm/v01/instances/dataFromVendor{3}/Vendor{3}>, \"{4}\", \"{7}\", <http://www4.wiwiss.fu-berlin.de/bizer/bsbm/v01/instances/dataFromProducer{2}/Product{1}>, <http://www4.wiwiss.fu-berlin.de/bizer/bsbm/v01/instances/dataFromVendor{3}/Offer{0}>)" , color = blue] ; 
34 -> 35 ; 
36 [label="LogMongoDBEval
offer
[]
[nr, product, producer, vendor, price, validfrom, validto, deliverydays, offerwebpage, publisher, publishdate]
", color = blue] ; 
35 -> 36 ; 
37 [label="LogSkolemFunctionCall
(\"{3}\", \"{2}\", <http://downlode.org/rdf/iso-3166/countries#{4}>, <http://www4.wiwiss.fu-berlin.de/bizer/bsbm/v01/instances/dataFromVendor{1}/Offer{0}>)" , color = blue] ; 
34 -> 37 ; 
38 [label="LogSQLEval 
SELECT O.nr AS offer, O.vendor AS vendor, P.propertyNum3 AS propertyNum3, P.propertyNum4 AS propertyNum4, PR.country AS country FROM Offer AS O, Product AS P, Producer AS PR, PRODUCTTYPEPRODUCT AS PTP WHERE P.nr = O.product AND PR.nr = P.producer AND P.nr = PTP.product AND PTP.producttype=57", color = blue] ; 
37 -> 38 ; 
39 [label="LogSkolemFunctionCall
(<http://downlode.org/rdf/iso-3166/countries#{0}>)" , color = blue] ; 
33 -> 39 ; 
40 [label="LogMongoDBEval
countrytype
[{\"$match\":{\"countrytype\":121}}]
[country]
", color = blue] ; 
39 -> 40 ; 
42 [label="LogProj
[9,3,6,7,10]" , color = blue] ; 
1 -> 42 ; 
43 [label="Join\n [12PREDICATE_EQUAL14] ", color = blue] ; 
42 -> 43 ; 
44 [label="Join\n [9PREDICATE_EQUAL13] ", color = blue] ; 
43 -> 44 ; 
45 [label="LogSkolemFunctionCall
(\"{6}\", \"{5}\", <http://www4.wiwiss.fu-berlin.de/bizer/bsbm/v01/instances/dataFromVendor{9}/Vendor{9}>, <{8}>, \"{10}\", <http://www4.wiwiss.fu-berlin.de/bizer/bsbm/v01/instances/dataFromVendor{3}/Vendor{3}>, \"{4}\", \"{7}\", <http://www4.wiwiss.fu-berlin.de/bizer/bsbm/v01/instances/dataFromProducer{2}/Product{1}>, <http://www4.wiwiss.fu-berlin.de/bizer/bsbm/v01/instances/dataFromVendor{3}/Offer{0}>)" , color = blue] ; 
44 -> 45 ; 
46 [label="LogMongoDBEval
offer
[]
[nr, product, producer, vendor, price, validfrom, validto, deliverydays, offerwebpage, publisher, publishdate]
", color = blue] ; 
45 -> 46 ; 
47 [label="LogSkolemFunctionCall
(\"{3}\", \"{2}\", <http://downlode.org/rdf/iso-3166/countries#{4}>, <http://www4.wiwiss.fu-berlin.de/bizer/bsbm/v01/instances/dataFromVendor{1}/Offer{0}>)" , color = blue] ; 
44 -> 47 ; 
48 [label="LogSQLEval 
SELECT O.nr AS offer, O.vendor AS vendor, P.propertyNum3 AS propertyNum3, P.propertyNum4 AS propertyNum4, PR.country AS country FROM Offer AS O, Product AS P, Producer AS PR, PRODUCTTYPEPRODUCT AS PTP WHERE P.nr = O.product AND PR.nr = P.producer AND P.nr = PTP.product AND PTP.producttype=56", color = blue] ; 
47 -> 48 ; 
49 [label="LogSkolemFunctionCall
(<http://downlode.org/rdf/iso-3166/countries#{0}>)" , color = blue] ; 
43 -> 49 ; 
50 [label="LogMongoDBEval
countrytype
[{\"$match\":{\"countrytype\":122}}]
[country]
", color = blue] ; 
49 -> 50 ; 
52 [label="LogProj
[9,3,6,7,10]" , color = blue] ; 
1 -> 52 ; 
53 [label="Join\n [12PREDICATE_EQUAL14] ", color = blue] ; 
52 -> 53 ; 
54 [label="Join\n [9PREDICATE_EQUAL13] ", color = blue] ; 
53 -> 54 ; 
55 [label="LogSkolemFunctionCall
(\"{6}\", \"{5}\", <http://www4.wiwiss.fu-berlin.de/bizer/bsbm/v01/instances/dataFromVendor{9}/Vendor{9}>, <{8}>, \"{10}\", <http://www4.wiwiss.fu-berlin.de/bizer/bsbm/v01/instances/dataFromVendor{3}/Vendor{3}>, \"{4}\", \"{7}\", <http://www4.wiwiss.fu-berlin.de/bizer/bsbm/v01/instances/dataFromProducer{2}/Product{1}>, <http://www4.wiwiss.fu-berlin.de/bizer/bsbm/v01/instances/dataFromVendor{3}/Offer{0}>)" , color = blue] ; 
54 -> 55 ; 
56 [label="LogMongoDBEval
offer
[]
[nr, product, producer, vendor, price, validfrom, validto, deliverydays, offerwebpage, publisher, publishdate]
", color = blue] ; 
55 -> 56 ; 
57 [label="LogSkolemFunctionCall
(\"{3}\", \"{2}\", <http://downlode.org/rdf/iso-3166/countries#{4}>, <http://www4.wiwiss.fu-berlin.de/bizer/bsbm/v01/instances/dataFromVendor{1}/Offer{0}>)" , color = blue] ; 
54 -> 57 ; 
58 [label="LogSQLEval 
SELECT O.nr AS offer, O.vendor AS vendor, P.propertyNum3 AS propertyNum3, P.propertyNum4 AS propertyNum4, PR.country AS country FROM Offer AS O, Product AS P, Producer AS PR, PRODUCTTYPEPRODUCT AS PTP WHERE P.nr = O.product AND PR.nr = P.producer AND P.nr = PTP.product AND PTP.producttype=57", color = blue] ; 
57 -> 58 ; 
59 [label="LogSkolemFunctionCall
(<http://downlode.org/rdf/iso-3166/countries#{0}>)" , color = blue] ; 
53 -> 59 ; 
60 [label="LogMongoDBEval
countrytype
[{\"$match\":{\"countrytype\":121}}]
[country]
", color = blue] ; 
59 -> 60 ; 
62 [label="LogProj
[9,3,6,7,11]" , color = blue] ; 
1 -> 62 ; 
63 [label="Join\n [12PREDICATE_EQUAL14] ", color = blue] ; 
62 -> 63 ; 
64 [label="Join\n [9PREDICATE_EQUAL13] ", color = blue] ; 
63 -> 64 ; 
65 [label="LogSkolemFunctionCall
(\"{6}\", \"{5}\", <http://www4.wiwiss.fu-berlin.de/bizer/bsbm/v01/instances/dataFromVendor{9}/Vendor{9}>, <{8}>, \"{10}\", <http://www4.wiwiss.fu-berlin.de/bizer/bsbm/v01/instances/dataFromVendor{3}/Vendor{3}>, \"{4}\", \"{7}\", <http://www4.wiwiss.fu-berlin.de/bizer/bsbm/v01/instances/dataFromProducer{2}/Product{1}>, <http://www4.wiwiss.fu-berlin.de/bizer/bsbm/v01/instances/dataFromVendor{3}/Offer{0}>)" , color = blue] ; 
64 -> 65 ; 
66 [label="LogMongoDBEval
offer
[]
[nr, product, producer, vendor, price, validfrom, validto, deliverydays, offerwebpage, publisher, publishdate]
", color = blue] ; 
65 -> 66 ; 
67 [label="LogSkolemFunctionCall
(\"{3}\", \"{2}\", <http://downlode.org/rdf/iso-3166/countries#{4}>, <http://www4.wiwiss.fu-berlin.de/bizer/bsbm/v01/instances/dataFromVendor{1}/Offer{0}>)" , color = blue] ; 
64 -> 67 ; 
68 [label="LogSQLEval 
SELECT O.nr AS offer, O.vendor AS vendor, P.propertyNum3 AS propertyNum3, P.propertyNum4 AS propertyNum4, PR.country AS country FROM Offer AS O, Product AS P, Producer AS PR, PRODUCTTYPEPRODUCT AS PTP WHERE P.nr = O.product AND PR.nr = P.producer AND P.nr = PTP.product AND PTP.producttype=56", color = blue] ; 
67 -> 68 ; 
69 [label="LogSkolemFunctionCall
(<http://downlode.org/rdf/iso-3166/countries#{0}>)" , color = blue] ; 
63 -> 69 ; 
70 [label="LogMongoDBEval
countrytype
[{\"$match\":{\"countrytype\":121}}]
[country]
", color = blue] ; 
69 -> 70 ; 
72 [label="LogProj
[9,3,6,7,10]" , color = blue] ; 
1 -> 72 ; 
73 [label="Join\n [12PREDICATE_EQUAL14] ", color = blue] ; 
72 -> 73 ; 
74 [label="Join\n [9PREDICATE_EQUAL13] ", color = blue] ; 
73 -> 74 ; 
75 [label="LogSkolemFunctionCall
(\"{6}\", \"{5}\", <http://www4.wiwiss.fu-berlin.de/bizer/bsbm/v01/instances/dataFromVendor{9}/Vendor{9}>, <{8}>, \"{10}\", <http://www4.wiwiss.fu-berlin.de/bizer/bsbm/v01/instances/dataFromVendor{3}/Vendor{3}>, \"{4}\", \"{7}\", <http://www4.wiwiss.fu-berlin.de/bizer/bsbm/v01/instances/dataFromProducer{2}/Product{1}>, <http://www4.wiwiss.fu-berlin.de/bizer/bsbm/v01/instances/dataFromVendor{3}/Offer{0}>)" , color = blue] ; 
74 -> 75 ; 
76 [label="LogMongoDBEval
offer
[]
[nr, product, producer, vendor, price, validfrom, validto, deliverydays, offerwebpage, publisher, publishdate]
", color = blue] ; 
75 -> 76 ; 
77 [label="LogSkolemFunctionCall
(\"{3}\", \"{2}\", <http://downlode.org/rdf/iso-3166/countries#{4}>, <http://www4.wiwiss.fu-berlin.de/bizer/bsbm/v01/instances/dataFromVendor{1}/Offer{0}>)" , color = blue] ; 
74 -> 77 ; 
78 [label="LogSQLEval 
SELECT O.nr AS offer, O.vendor AS vendor, P.propertyNum3 AS propertyNum3, P.propertyNum4 AS propertyNum4, PR.country AS country FROM Offer AS O, Product AS P, Producer AS PR, PRODUCTTYPEPRODUCT AS PTP WHERE P.nr = O.product AND PR.nr = P.producer AND P.nr = PTP.product AND PTP.producttype=56", color = blue] ; 
77 -> 78 ; 
79 [label="LogSkolemFunctionCall
(<http://downlode.org/rdf/iso-3166/countries#{0}>)" , color = blue] ; 
73 -> 79 ; 
80 [label="LogMongoDBEval
countrytype
[{\"$match\":{\"countrytype\":121}}]
[country]
", color = blue] ; 
79 -> 80 ; 
82 [label="LogProj
[9,3,6,7,20]" , color = blue] ; 
1 -> 82 ; 
83 [label="Join\n [26PREDICATE_EQUAL27] ", color = blue] ; 
82 -> 83 ; 
84 [label="Join\n [8PREDICATE_EQUAL25,10PREDICATE_EQUAL25,24PREDICATE_EQUAL25] ", color = blue] ; 
83 -> 84 ; 
85 [label="Join\n [8PREDICATE_EQUAL24,10PREDICATE_EQUAL24] ", color = blue] ; 
84 -> 85 ; 
86 [label="Join\n [8PREDICATE_EQUAL10] ", color = blue] ; 
85 -> 86 ; 
87 [label="LogSkolemFunctionCall
(\"{6}\", \"{5}\", <http://www4.wiwiss.fu-berlin.de/bizer/bsbm/v01/instances/dataFromVendor{9}/Vendor{9}>, <{8}>, \"{10}\", <http://www4.wiwiss.fu-berlin.de/bizer/bsbm/v01/instances/dataFromVendor{3}/Vendor{3}>, \"{4}\", \"{7}\", <http://www4.wiwiss.fu-berlin.de/bizer/bsbm/v01/instances/dataFromProducer{2}/Product{1}>, <http://www4.wiwiss.fu-berlin.de/bizer/bsbm/v01/instances/dataFromVendor{3}/Offer{0}>)" , color = blue] ; 
86 -> 87 ; 
88 [label="LogMongoDBEval
offer
[]
[nr, product, producer, vendor, price, validfrom, validto, deliverydays, offerwebpage, publisher, publishdate]
", color = blue] ; 
87 -> 88 ; 
89 [label="LogSkolemFunctionCall
(<http://www4.wiwiss.fu-berlin.de/bizer/bsbm/v01/instances/dataFromProducer{1}/Product{0}>)" , color = blue] ; 
86 -> 89 ; 
90 [label="LogSQLEval 
SELECT P.nr AS nr, P.producer AS producer FROM PRODUCT AS P, PRODUCTTYPEPRODUCT AS PT WHERE PT.producttype = 57 AND PT.product = P.nr", color = blue] ; 
89 -> 90 ; 
91 [label="LogSkolemFunctionCall
(\"{11}\", \"{10}\", \"{2}\", \"{9}\", <http://www4.wiwiss.fu-berlin.de/bizer/bsbm/v01/instances/dataFromProducer{3}/Producer{3}>, \"{8}\", <http://www4.wiwiss.fu-berlin.de/bizer/bsbm/v01/instances/dataFromProducer{3}/Producer{3}>, \"{7}\", \"{5}\", \"{4}\", \"{1}\", \"{13}\", \"{6}\", <http://www4.wiwiss.fu-berlin.de/bizer/bsbm/v01/instances/dataFromProducer{3}/Product{0}>)" , color = blue] ; 
85 -> 91 ; 
92 [label="LogSQLEval 
SELECT nr, label, comment, producer, propertyNum1, propertyNum2, propertyTex1, propertyTex2, propertyTex3, propertyTex4, propertyTex5, propertyTex6, publisher, publishDate FROM Product", color = blue] ; 
91 -> 92 ; 
93 [label="LogSkolemFunctionCall
(<http://www4.wiwiss.fu-berlin.de/bizer/bsbm/v01/instances/dataFromProducer{1}/Product{0}>, <http://downlode.org/rdf/iso-3166/countries#{2}>)" , color = blue] ; 
84 -> 93 ; 
94 [label="LogMongoDBEval
productproducercountry
[]
[nr, producer, country]
", color = blue] ; 
93 -> 94 ; 
95 [label="LogSkolemFunctionCall
(<http://downlode.org/rdf/iso-3166/countries#{0}>)" , color = blue] ; 
83 -> 95 ; 
96 [label="LogMongoDBEval
countrytype
[{\"$match\":{\"countrytype\":122}}]
[country]
", color = blue] ; 
95 -> 96 ; 
98 [label="LogProj
[9,3,6,7,19]" , color = blue] ; 
1 -> 98 ; 
99 [label="Join\n [26PREDICATE_EQUAL27] ", color = blue] ; 
98 -> 99 ; 
100 [label="Join\n [8PREDICATE_EQUAL25,10PREDICATE_EQUAL25,24PREDICATE_EQUAL25] ", color = blue] ; 
99 -> 100 ; 
101 [label="Join\n [8PREDICATE_EQUAL24,10PREDICATE_EQUAL24] ", color = blue] ; 
100 -> 101 ; 
102 [label="Join\n [8PREDICATE_EQUAL10] ", color = blue] ; 
101 -> 102 ; 
103 [label="LogSkolemFunctionCall
(\"{6}\", \"{5}\", <http://www4.wiwiss.fu-berlin.de/bizer/bsbm/v01/instances/dataFromVendor{9}/Vendor{9}>, <{8}>, \"{10}\", <http://www4.wiwiss.fu-berlin.de/bizer/bsbm/v01/instances/dataFromVendor{3}/Vendor{3}>, \"{4}\", \"{7}\", <http://www4.wiwiss.fu-berlin.de/bizer/bsbm/v01/instances/dataFromProducer{2}/Product{1}>, <http://www4.wiwiss.fu-berlin.de/bizer/bsbm/v01/instances/dataFromVendor{3}/Offer{0}>)" , color = blue] ; 
102 -> 103 ; 
104 [label="LogMongoDBEval
offer
[]
[nr, product, producer, vendor, price, validfrom, validto, deliverydays, offerwebpage, publisher, publishdate]
", color = blue] ; 
103 -> 104 ; 
105 [label="LogSkolemFunctionCall
(<http://www4.wiwiss.fu-berlin.de/bizer/bsbm/v01/instances/dataFromProducer{1}/Product{0}>)" , color = blue] ; 
102 -> 105 ; 
106 [label="LogSQLEval 
SELECT P.nr AS nr, P.producer AS producer FROM PRODUCT AS P, PRODUCTTYPEPRODUCT AS PT WHERE PT.producttype = 57 AND PT.product = P.nr", color = blue] ; 
105 -> 106 ; 
107 [label="LogSkolemFunctionCall
(\"{11}\", \"{10}\", \"{2}\", \"{9}\", <http://www4.wiwiss.fu-berlin.de/bizer/bsbm/v01/instances/dataFromProducer{3}/Producer{3}>, \"{8}\", <http://www4.wiwiss.fu-berlin.de/bizer/bsbm/v01/instances/dataFromProducer{3}/Producer{3}>, \"{7}\", \"{5}\", \"{4}\", \"{1}\", \"{13}\", \"{6}\", <http://www4.wiwiss.fu-berlin.de/bizer/bsbm/v01/instances/dataFromProducer{3}/Product{0}>)" , color = blue] ; 
101 -> 107 ; 
108 [label="LogSQLEval 
SELECT nr, label, comment, producer, propertyNum1, propertyNum2, propertyTex1, propertyTex2, propertyTex3, propertyTex4, propertyTex5, propertyTex6, publisher, publishDate FROM Product", color = blue] ; 
107 -> 108 ; 
109 [label="LogSkolemFunctionCall
(<http://www4.wiwiss.fu-berlin.de/bizer/bsbm/v01/instances/dataFromProducer{1}/Product{0}>, <http://downlode.org/rdf/iso-3166/countries#{2}>)" , color = blue] ; 
100 -> 109 ; 
110 [label="LogMongoDBEval
productproducercountry
[]
[nr, producer, country]
", color = blue] ; 
109 -> 110 ; 
111 [label="LogSkolemFunctionCall
(<http://downlode.org/rdf/iso-3166/countries#{0}>)" , color = blue] ; 
99 -> 111 ; 
112 [label="LogMongoDBEval
countrytype
[{\"$match\":{\"countrytype\":121}}]
[country]
", color = blue] ; 
111 -> 112 ; 
114 [label="LogProj
[9,3,6,7,19]" , color = blue] ; 
1 -> 114 ; 
115 [label="Join\n [26PREDICATE_EQUAL27] ", color = blue] ; 
114 -> 115 ; 
116 [label="Join\n [8PREDICATE_EQUAL25,10PREDICATE_EQUAL25,24PREDICATE_EQUAL25] ", color = blue] ; 
115 -> 116 ; 
117 [label="Join\n [8PREDICATE_EQUAL24,10PREDICATE_EQUAL24] ", color = blue] ; 
116 -> 117 ; 
118 [label="Join\n [8PREDICATE_EQUAL10] ", color = blue] ; 
117 -> 118 ; 
119 [label="LogSkolemFunctionCall
(\"{6}\", \"{5}\", <http://www4.wiwiss.fu-berlin.de/bizer/bsbm/v01/instances/dataFromVendor{9}/Vendor{9}>, <{8}>, \"{10}\", <http://www4.wiwiss.fu-berlin.de/bizer/bsbm/v01/instances/dataFromVendor{3}/Vendor{3}>, \"{4}\", \"{7}\", <http://www4.wiwiss.fu-berlin.de/bizer/bsbm/v01/instances/dataFromProducer{2}/Product{1}>, <http://www4.wiwiss.fu-berlin.de/bizer/bsbm/v01/instances/dataFromVendor{3}/Offer{0}>)" , color = blue] ; 
118 -> 119 ; 
120 [label="LogMongoDBEval
offer
[]
[nr, product, producer, vendor, price, validfrom, validto, deliverydays, offerwebpage, publisher, publishdate]
", color = blue] ; 
119 -> 120 ; 
121 [label="LogSkolemFunctionCall
(<http://www4.wiwiss.fu-berlin.de/bizer/bsbm/v01/instances/dataFromProducer{1}/Product{0}>)" , color = blue] ; 
118 -> 121 ; 
122 [label="LogSQLEval 
SELECT P.nr AS nr, P.producer AS producer FROM PRODUCT AS P, PRODUCTTYPEPRODUCT AS PT WHERE PT.producttype = 56 AND PT.product = P.nr", color = blue] ; 
121 -> 122 ; 
123 [label="LogSkolemFunctionCall
(\"{11}\", \"{10}\", \"{2}\", \"{9}\", <http://www4.wiwiss.fu-berlin.de/bizer/bsbm/v01/instances/dataFromProducer{3}/Producer{3}>, \"{8}\", <http://www4.wiwiss.fu-berlin.de/bizer/bsbm/v01/instances/dataFromProducer{3}/Producer{3}>, \"{7}\", \"{5}\", \"{4}\", \"{1}\", \"{13}\", \"{6}\", <http://www4.wiwiss.fu-berlin.de/bizer/bsbm/v01/instances/dataFromProducer{3}/Product{0}>)" , color = blue] ; 
117 -> 123 ; 
124 [label="LogSQLEval 
SELECT nr, label, comment, producer, propertyNum1, propertyNum2, propertyTex1, propertyTex2, propertyTex3, propertyTex4, propertyTex5, propertyTex6, publisher, publishDate FROM Product", color = blue] ; 
123 -> 124 ; 
125 [label="LogSkolemFunctionCall
(<http://www4.wiwiss.fu-berlin.de/bizer/bsbm/v01/instances/dataFromProducer{1}/Product{0}>, <http://downlode.org/rdf/iso-3166/countries#{2}>)" , color = blue] ; 
116 -> 125 ; 
126 [label="LogMongoDBEval
productproducercountry
[]
[nr, producer, country]
", color = blue] ; 
125 -> 126 ; 
127 [label="LogSkolemFunctionCall
(<http://downlode.org/rdf/iso-3166/countries#{0}>)" , color = blue] ; 
115 -> 127 ; 
128 [label="LogMongoDBEval
countrytype
[{\"$match\":{\"countrytype\":122}}]
[country]
", color = blue] ; 
127 -> 128 ; 
130 [label="LogProj
[9,3,6,7,20]" , color = blue] ; 
1 -> 130 ; 
131 [label="Join\n [26PREDICATE_EQUAL27] ", color = blue] ; 
130 -> 131 ; 
132 [label="Join\n [8PREDICATE_EQUAL25,10PREDICATE_EQUAL25,24PREDICATE_EQUAL25] ", color = blue] ; 
131 -> 132 ; 
133 [label="Join\n [8PREDICATE_EQUAL24,10PREDICATE_EQUAL24] ", color = blue] ; 
132 -> 133 ; 
134 [label="Join\n [8PREDICATE_EQUAL10] ", color = blue] ; 
133 -> 134 ; 
135 [label="LogSkolemFunctionCall
(\"{6}\", \"{5}\", <http://www4.wiwiss.fu-berlin.de/bizer/bsbm/v01/instances/dataFromVendor{9}/Vendor{9}>, <{8}>, \"{10}\", <http://www4.wiwiss.fu-berlin.de/bizer/bsbm/v01/instances/dataFromVendor{3}/Vendor{3}>, \"{4}\", \"{7}\", <http://www4.wiwiss.fu-berlin.de/bizer/bsbm/v01/instances/dataFromProducer{2}/Product{1}>, <http://www4.wiwiss.fu-berlin.de/bizer/bsbm/v01/instances/dataFromVendor{3}/Offer{0}>)" , color = blue] ; 
134 -> 135 ; 
136 [label="LogMongoDBEval
offer
[]
[nr, product, producer, vendor, price, validfrom, validto, deliverydays, offerwebpage, publisher, publishdate]
", color = blue] ; 
135 -> 136 ; 
137 [label="LogSkolemFunctionCall
(<http://www4.wiwiss.fu-berlin.de/bizer/bsbm/v01/instances/dataFromProducer{1}/Product{0}>)" , color = blue] ; 
134 -> 137 ; 
138 [label="LogSQLEval 
SELECT P.nr AS nr, P.producer AS producer FROM PRODUCT AS P, PRODUCTTYPEPRODUCT AS PT WHERE PT.producttype = 57 AND PT.product = P.nr", color = blue] ; 
137 -> 138 ; 
139 [label="LogSkolemFunctionCall
(\"{11}\", \"{10}\", \"{2}\", \"{9}\", <http://www4.wiwiss.fu-berlin.de/bizer/bsbm/v01/instances/dataFromProducer{3}/Producer{3}>, \"{8}\", <http://www4.wiwiss.fu-berlin.de/bizer/bsbm/v01/instances/dataFromProducer{3}/Producer{3}>, \"{7}\", \"{5}\", \"{4}\", \"{1}\", \"{13}\", \"{6}\", <http://www4.wiwiss.fu-berlin.de/bizer/bsbm/v01/instances/dataFromProducer{3}/Product{0}>)" , color = blue] ; 
133 -> 139 ; 
140 [label="LogSQLEval 
SELECT nr, label, comment, producer, propertyNum1, propertyNum2, propertyTex1, propertyTex2, propertyTex3, propertyTex4, propertyTex5, propertyTex6, publisher, publishDate FROM Product", color = blue] ; 
139 -> 140 ; 
141 [label="LogSkolemFunctionCall
(<http://www4.wiwiss.fu-berlin.de/bizer/bsbm/v01/instances/dataFromProducer{1}/Product{0}>, <http://downlode.org/rdf/iso-3166/countries#{2}>)" , color = blue] ; 
132 -> 141 ; 
142 [label="LogMongoDBEval
productproducercountry
[]
[nr, producer, country]
", color = blue] ; 
141 -> 142 ; 
143 [label="LogSkolemFunctionCall
(<http://downlode.org/rdf/iso-3166/countries#{0}>)" , color = blue] ; 
131 -> 143 ; 
144 [label="LogMongoDBEval
countrytype
[{\"$match\":{\"countrytype\":121}}]
[country]
", color = blue] ; 
143 -> 144 ; 
146 [label="LogProj
[9,3,6,7,20]" , color = blue] ; 
1 -> 146 ; 
147 [label="Join\n [26PREDICATE_EQUAL27] ", color = blue] ; 
146 -> 147 ; 
148 [label="Join\n [8PREDICATE_EQUAL25,10PREDICATE_EQUAL25,24PREDICATE_EQUAL25] ", color = blue] ; 
147 -> 148 ; 
149 [label="Join\n [8PREDICATE_EQUAL24,10PREDICATE_EQUAL24] ", color = blue] ; 
148 -> 149 ; 
150 [label="Join\n [8PREDICATE_EQUAL10] ", color = blue] ; 
149 -> 150 ; 
151 [label="LogSkolemFunctionCall
(\"{6}\", \"{5}\", <http://www4.wiwiss.fu-berlin.de/bizer/bsbm/v01/instances/dataFromVendor{9}/Vendor{9}>, <{8}>, \"{10}\", <http://www4.wiwiss.fu-berlin.de/bizer/bsbm/v01/instances/dataFromVendor{3}/Vendor{3}>, \"{4}\", \"{7}\", <http://www4.wiwiss.fu-berlin.de/bizer/bsbm/v01/instances/dataFromProducer{2}/Product{1}>, <http://www4.wiwiss.fu-berlin.de/bizer/bsbm/v01/instances/dataFromVendor{3}/Offer{0}>)" , color = blue] ; 
150 -> 151 ; 
152 [label="LogMongoDBEval
offer
[]
[nr, product, producer, vendor, price, validfrom, validto, deliverydays, offerwebpage, publisher, publishdate]
", color = blue] ; 
151 -> 152 ; 
153 [label="LogSkolemFunctionCall
(<http://www4.wiwiss.fu-berlin.de/bizer/bsbm/v01/instances/dataFromProducer{1}/Product{0}>)" , color = blue] ; 
150 -> 153 ; 
154 [label="LogSQLEval 
SELECT P.nr AS nr, P.producer AS producer FROM PRODUCT AS P, PRODUCTTYPEPRODUCT AS PT WHERE PT.producttype = 56 AND PT.product = P.nr", color = blue] ; 
153 -> 154 ; 
155 [label="LogSkolemFunctionCall
(\"{11}\", \"{10}\", \"{2}\", \"{9}\", <http://www4.wiwiss.fu-berlin.de/bizer/bsbm/v01/instances/dataFromProducer{3}/Producer{3}>, \"{8}\", <http://www4.wiwiss.fu-berlin.de/bizer/bsbm/v01/instances/dataFromProducer{3}/Producer{3}>, \"{7}\", \"{5}\", \"{4}\", \"{1}\", \"{13}\", \"{6}\", <http://www4.wiwiss.fu-berlin.de/bizer/bsbm/v01/instances/dataFromProducer{3}/Product{0}>)" , color = blue] ; 
149 -> 155 ; 
156 [label="LogSQLEval 
SELECT nr, label, comment, producer, propertyNum1, propertyNum2, propertyTex1, propertyTex2, propertyTex3, propertyTex4, propertyTex5, propertyTex6, publisher, publishDate FROM Product", color = blue] ; 
155 -> 156 ; 
157 [label="LogSkolemFunctionCall
(<http://www4.wiwiss.fu-berlin.de/bizer/bsbm/v01/instances/dataFromProducer{1}/Product{0}>, <http://downlode.org/rdf/iso-3166/countries#{2}>)" , color = blue] ; 
148 -> 157 ; 
158 [label="LogMongoDBEval
productproducercountry
[]
[nr, producer, country]
", color = blue] ; 
157 -> 158 ; 
159 [label="LogSkolemFunctionCall
(<http://downlode.org/rdf/iso-3166/countries#{0}>)" , color = blue] ; 
147 -> 159 ; 
160 [label="LogMongoDBEval
countrytype
[{\"$match\":{\"countrytype\":121}}]
[country]
", color = blue] ; 
159 -> 160 ; 
162 [label="LogProj
[9,3,6,7,20]" , color = blue] ; 
1 -> 162 ; 
163 [label="Join\n [26PREDICATE_EQUAL27] ", color = blue] ; 
162 -> 163 ; 
164 [label="Join\n [8PREDICATE_EQUAL25,10PREDICATE_EQUAL25,24PREDICATE_EQUAL25] ", color = blue] ; 
163 -> 164 ; 
165 [label="Join\n [8PREDICATE_EQUAL24,10PREDICATE_EQUAL24] ", color = blue] ; 
164 -> 165 ; 
166 [label="Join\n [8PREDICATE_EQUAL10] ", color = blue] ; 
165 -> 166 ; 
167 [label="LogSkolemFunctionCall
(\"{6}\", \"{5}\", <http://www4.wiwiss.fu-berlin.de/bizer/bsbm/v01/instances/dataFromVendor{9}/Vendor{9}>, <{8}>, \"{10}\", <http://www4.wiwiss.fu-berlin.de/bizer/bsbm/v01/instances/dataFromVendor{3}/Vendor{3}>, \"{4}\", \"{7}\", <http://www4.wiwiss.fu-berlin.de/bizer/bsbm/v01/instances/dataFromProducer{2}/Product{1}>, <http://www4.wiwiss.fu-berlin.de/bizer/bsbm/v01/instances/dataFromVendor{3}/Offer{0}>)" , color = blue] ; 
166 -> 167 ; 
168 [label="LogMongoDBEval
offer
[]
[nr, product, producer, vendor, price, validfrom, validto, deliverydays, offerwebpage, publisher, publishdate]
", color = blue] ; 
167 -> 168 ; 
169 [label="LogSkolemFunctionCall
(<http://www4.wiwiss.fu-berlin.de/bizer/bsbm/v01/instances/dataFromProducer{1}/Product{0}>)" , color = blue] ; 
166 -> 169 ; 
170 [label="LogSQLEval 
SELECT P.nr AS nr, P.producer AS producer FROM PRODUCT AS P, PRODUCTTYPEPRODUCT AS PT WHERE PT.producttype = 56 AND PT.product = P.nr", color = blue] ; 
169 -> 170 ; 
171 [label="LogSkolemFunctionCall
(\"{11}\", \"{10}\", \"{2}\", \"{9}\", <http://www4.wiwiss.fu-berlin.de/bizer/bsbm/v01/instances/dataFromProducer{3}/Producer{3}>, \"{8}\", <http://www4.wiwiss.fu-berlin.de/bizer/bsbm/v01/instances/dataFromProducer{3}/Producer{3}>, \"{7}\", \"{5}\", \"{4}\", \"{1}\", \"{13}\", \"{6}\", <http://www4.wiwiss.fu-berlin.de/bizer/bsbm/v01/instances/dataFromProducer{3}/Product{0}>)" , color = blue] ; 
165 -> 171 ; 
172 [label="LogSQLEval 
SELECT nr, label, comment, producer, propertyNum1, propertyNum2, propertyTex1, propertyTex2, propertyTex3, propertyTex4, propertyTex5, propertyTex6, publisher, publishDate FROM Product", color = blue] ; 
171 -> 172 ; 
173 [label="LogSkolemFunctionCall
(<http://www4.wiwiss.fu-berlin.de/bizer/bsbm/v01/instances/dataFromProducer{1}/Product{0}>, <http://downlode.org/rdf/iso-3166/countries#{2}>)" , color = blue] ; 
164 -> 173 ; 
174 [label="LogMongoDBEval
productproducercountry
[]
[nr, producer, country]
", color = blue] ; 
173 -> 174 ; 
175 [label="LogSkolemFunctionCall
(<http://downlode.org/rdf/iso-3166/countries#{0}>)" , color = blue] ; 
163 -> 175 ; 
176 [label="LogMongoDBEval
countrytype
[{\"$match\":{\"countrytype\":122}}]
[country]
", color = blue] ; 
175 -> 176 ; 
178 [label="LogProj
[9,3,6,7,19]" , color = blue] ; 
1 -> 178 ; 
179 [label="Join\n [26PREDICATE_EQUAL27] ", color = blue] ; 
178 -> 179 ; 
180 [label="Join\n [8PREDICATE_EQUAL25,10PREDICATE_EQUAL25,24PREDICATE_EQUAL25] ", color = blue] ; 
179 -> 180 ; 
181 [label="Join\n [8PREDICATE_EQUAL24,10PREDICATE_EQUAL24] ", color = blue] ; 
180 -> 181 ; 
182 [label="Join\n [8PREDICATE_EQUAL10] ", color = blue] ; 
181 -> 182 ; 
183 [label="LogSkolemFunctionCall
(\"{6}\", \"{5}\", <http://www4.wiwiss.fu-berlin.de/bizer/bsbm/v01/instances/dataFromVendor{9}/Vendor{9}>, <{8}>, \"{10}\", <http://www4.wiwiss.fu-berlin.de/bizer/bsbm/v01/instances/dataFromVendor{3}/Vendor{3}>, \"{4}\", \"{7}\", <http://www4.wiwiss.fu-berlin.de/bizer/bsbm/v01/instances/dataFromProducer{2}/Product{1}>, <http://www4.wiwiss.fu-berlin.de/bizer/bsbm/v01/instances/dataFromVendor{3}/Offer{0}>)" , color = blue] ; 
182 -> 183 ; 
184 [label="LogMongoDBEval
offer
[]
[nr, product, producer, vendor, price, validfrom, validto, deliverydays, offerwebpage, publisher, publishdate]
", color = blue] ; 
183 -> 184 ; 
185 [label="LogSkolemFunctionCall
(<http://www4.wiwiss.fu-berlin.de/bizer/bsbm/v01/instances/dataFromProducer{1}/Product{0}>)" , color = blue] ; 
182 -> 185 ; 
186 [label="LogSQLEval 
SELECT P.nr AS nr, P.producer AS producer FROM PRODUCT AS P, PRODUCTTYPEPRODUCT AS PT WHERE PT.producttype = 57 AND PT.product = P.nr", color = blue] ; 
185 -> 186 ; 
187 [label="LogSkolemFunctionCall
(\"{11}\", \"{10}\", \"{2}\", \"{9}\", <http://www4.wiwiss.fu-berlin.de/bizer/bsbm/v01/instances/dataFromProducer{3}/Producer{3}>, \"{8}\", <http://www4.wiwiss.fu-berlin.de/bizer/bsbm/v01/instances/dataFromProducer{3}/Producer{3}>, \"{7}\", \"{5}\", \"{4}\", \"{1}\", \"{13}\", \"{6}\", <http://www4.wiwiss.fu-berlin.de/bizer/bsbm/v01/instances/dataFromProducer{3}/Product{0}>)" , color = blue] ; 
181 -> 187 ; 
188 [label="LogSQLEval 
SELECT nr, label, comment, producer, propertyNum1, propertyNum2, propertyTex1, propertyTex2, propertyTex3, propertyTex4, propertyTex5, propertyTex6, publisher, publishDate FROM Product", color = blue] ; 
187 -> 188 ; 
189 [label="LogSkolemFunctionCall
(<http://www4.wiwiss.fu-berlin.de/bizer/bsbm/v01/instances/dataFromProducer{1}/Product{0}>, <http://downlode.org/rdf/iso-3166/countries#{2}>)" , color = blue] ; 
180 -> 189 ; 
190 [label="LogMongoDBEval
productproducercountry
[]
[nr, producer, country]
", color = blue] ; 
189 -> 190 ; 
191 [label="LogSkolemFunctionCall
(<http://downlode.org/rdf/iso-3166/countries#{0}>)" , color = blue] ; 
179 -> 191 ; 
192 [label="LogMongoDBEval
countrytype
[{\"$match\":{\"countrytype\":122}}]
[country]
", color = blue] ; 
191 -> 192 ; 
194 [label="LogProj
[9,3,6,7,19]" , color = blue] ; 
1 -> 194 ; 
195 [label="Join\n [26PREDICATE_EQUAL27] ", color = blue] ; 
194 -> 195 ; 
196 [label="Join\n [8PREDICATE_EQUAL25,10PREDICATE_EQUAL25,24PREDICATE_EQUAL25] ", color = blue] ; 
195 -> 196 ; 
197 [label="Join\n [8PREDICATE_EQUAL24,10PREDICATE_EQUAL24] ", color = blue] ; 
196 -> 197 ; 
198 [label="Join\n [8PREDICATE_EQUAL10] ", color = blue] ; 
197 -> 198 ; 
199 [label="LogSkolemFunctionCall
(\"{6}\", \"{5}\", <http://www4.wiwiss.fu-berlin.de/bizer/bsbm/v01/instances/dataFromVendor{9}/Vendor{9}>, <{8}>, \"{10}\", <http://www4.wiwiss.fu-berlin.de/bizer/bsbm/v01/instances/dataFromVendor{3}/Vendor{3}>, \"{4}\", \"{7}\", <http://www4.wiwiss.fu-berlin.de/bizer/bsbm/v01/instances/dataFromProducer{2}/Product{1}>, <http://www4.wiwiss.fu-berlin.de/bizer/bsbm/v01/instances/dataFromVendor{3}/Offer{0}>)" , color = blue] ; 
198 -> 199 ; 
200 [label="LogMongoDBEval
offer
[]
[nr, product, producer, vendor, price, validfrom, validto, deliverydays, offerwebpage, publisher, publishdate]
", color = blue] ; 
199 -> 200 ; 
201 [label="LogSkolemFunctionCall
(<http://www4.wiwiss.fu-berlin.de/bizer/bsbm/v01/instances/dataFromProducer{1}/Product{0}>)" , color = blue] ; 
198 -> 201 ; 
202 [label="LogSQLEval 
SELECT P.nr AS nr, P.producer AS producer FROM PRODUCT AS P, PRODUCTTYPEPRODUCT AS PT WHERE PT.producttype = 56 AND PT.product = P.nr", color = blue] ; 
201 -> 202 ; 
203 [label="LogSkolemFunctionCall
(\"{11}\", \"{10}\", \"{2}\", \"{9}\", <http://www4.wiwiss.fu-berlin.de/bizer/bsbm/v01/instances/dataFromProducer{3}/Producer{3}>, \"{8}\", <http://www4.wiwiss.fu-berlin.de/bizer/bsbm/v01/instances/dataFromProducer{3}/Producer{3}>, \"{7}\", \"{5}\", \"{4}\", \"{1}\", \"{13}\", \"{6}\", <http://www4.wiwiss.fu-berlin.de/bizer/bsbm/v01/instances/dataFromProducer{3}/Product{0}>)" , color = blue] ; 
197 -> 203 ; 
204 [label="LogSQLEval 
SELECT nr, label, comment, producer, propertyNum1, propertyNum2, propertyTex1, propertyTex2, propertyTex3, propertyTex4, propertyTex5, propertyTex6, publisher, publishDate FROM Product", color = blue] ; 
203 -> 204 ; 
205 [label="LogSkolemFunctionCall
(<http://www4.wiwiss.fu-berlin.de/bizer/bsbm/v01/instances/dataFromProducer{1}/Product{0}>, <http://downlode.org/rdf/iso-3166/countries#{2}>)" , color = blue] ; 
196 -> 205 ; 
206 [label="LogMongoDBEval
productproducercountry
[]
[nr, producer, country]
", color = blue] ; 
205 -> 206 ; 
207 [label="LogSkolemFunctionCall
(<http://downlode.org/rdf/iso-3166/countries#{0}>)" , color = blue] ; 
195 -> 207 ; 
208 [label="LogMongoDBEval
countrytype
[{\"$match\":{\"countrytype\":121}}]
[country]
", color = blue] ; 
207 -> 208 ; 
}

