digraph  g{ graph[label = "10:56:10.32"]
node [shape=rectangle, color=black, fontcolor=black, style=bold] edge [color=black] 0 [label="HashDistinct", color = yellow] ; 
1 [label="Union", color = yellow] ; 
0 -> 1 ; 
2 [label="BindAccessEval", color = yellow] ; 
1 -> 2 ; 
3 [label="PhyMongoDBEval
vendor
[]
[nr, label, homepage]
30", color = yellow] ; 
2 -> 3 ; 
4 [label="FunctionCallBindAccess
(<http://www4.wiwiss.fu-berlin.de/bizer/bsbm/v01/instances/dataFromVendor{0}/Vendor{0}>, \"{1}\", <{2}>)", color = yellow] ; 
2 -> 4 ; 
6 [label="BindAccessEval", color = yellow] ; 
1 -> 6 ; 
7 [label="SQLQuery
SELECT nr, label, homepage 
FROM Producer
61", color = yellow] ; 
6 -> 7 ; 
8 [label="FunctionCallBindAccess
(<http://www4.wiwiss.fu-berlin.de/bizer/bsbm/v01/instances/dataFromProducer{0}/Producer{0}>, \"{1}\", <{2}>)", color = yellow] ; 
6 -> 8 ; 
}

