digraph  g{
node [shape=rectangle, color=black, fontcolor=black, style=bold]
0 [label="LogDistinct" , color = blue] ; 
1 [label="Union", color = blue] ; 
0 -> 1 ; 
2 [label="LogProj
[13,9]" , color = blue] ; 
1 -> 2 ; 
3 [label="LogSkolemFunctionCall
(\"{11}\", \"{10}\", \"{2}\", \"{9}\", <http://www4.wiwiss.fu-berlin.de/bizer/bsbm/v01/instances/dataFromProducer{3}/Producer{3}>, \"{8}\", <http://www4.wiwiss.fu-berlin.de/bizer/bsbm/v01/instances/dataFromProducer{3}/Producer{3}>, \"{7}\", \"{5}\", \"{4}\", \"{1}\", \"{13}\", \"{6}\", <http://www4.wiwiss.fu-berlin.de/bizer/bsbm/v01/instances/dataFromProducer{3}/Product{0}>)" , color = blue] ; 
2 -> 3 ; 
4 [label="LogSQLEval 
SELECT nr, label, comment, producer, propertyNum1, propertyNum2, propertyTex1, propertyTex2, propertyTex3, propertyTex4, propertyTex5, propertyTex6, publisher, publishDate FROM Product", color = blue] ; 
3 -> 4 ; 
6 [label="LogProj
[13,8]" , color = blue] ; 
1 -> 6 ; 
7 [label="LogSkolemFunctionCall
(\"{11}\", \"{10}\", \"{2}\", \"{9}\", <http://www4.wiwiss.fu-berlin.de/bizer/bsbm/v01/instances/dataFromProducer{3}/Producer{3}>, \"{8}\", <http://www4.wiwiss.fu-berlin.de/bizer/bsbm/v01/instances/dataFromProducer{3}/Producer{3}>, \"{7}\", \"{5}\", \"{4}\", \"{1}\", \"{13}\", \"{6}\", <http://www4.wiwiss.fu-berlin.de/bizer/bsbm/v01/instances/dataFromProducer{3}/Product{0}>)" , color = blue] ; 
6 -> 7 ; 
8 [label="LogSQLEval 
SELECT nr, label, comment, producer, propertyNum1, propertyNum2, propertyTex1, propertyTex2, propertyTex3, propertyTex4, propertyTex5, propertyTex6, publisher, publishDate FROM Product", color = blue] ; 
7 -> 8 ; 
}

