digraph  g{
node [shape=rectangle, color=black, fontcolor=black, style=bold]
0 [label="LogSkolemFunctionCall
(<http://www.imdb.com/name/{0}>)" , color = blue] ; 
1 [label="LogSQLEval 
SELECT tab_2.person_id FROM cast_info AS tab_2, name AS tab_3 WHERE tab_2.role_id = 2 AND tab_3.name = 'Pfeiffer, Michelle' AND tab_2.person_id = tab_3.id UNION SELECT tab_0.person_id FROM cast_info AS tab_0, name AS tab_1 WHERE tab_0.role_id = 2 AND tab_1.name = 'Pfeiffer, Michelle' AND tab_0.person_id = tab_1.id", color = blue] ; 
0 -> 1 ; 
}

