digraph  g{ graph[label = "11:36:17.304"]
node [shape=rectangle, color=black, fontcolor=black, style=bold] edge [color=black] 0 [label="BindAccessEval", color = yellow] ; 
1 [label="SQLQuery
SELECT tab_5.label, tab_8.label, tab_5.propertyNum1 
FROM Product AS tab_6, ProductFeature AS tab_8, Product AS tab_5, PRODUCT AS tab_3, PRODUCTTYPEPRODUCT AS tab_4, ProductFeatureProduct AS tab_7 
WHERE tab_4.producttype = 110 AND tab_4.product = tab_3.nr AND tab_5.producer = tab_3.producer AND tab_5.nr = tab_3.nr AND tab_6.nr = tab_7.product AND tab_7.productFeature = tab_8.nr AND tab_5.producer = tab_6.producer AND tab_5.nr = tab_6.nr AND tab_3.producer = tab_6.producer AND tab_3.nr = tab_6.nr 
UNION
SELECT tab_14.label, tab_17.label, tab_14.propertyNum2 
FROM ProductFeature AS tab_17, PRODUCTTYPEPRODUCT AS tab_13, PRODUCT AS tab_12, Product AS tab_14, ProductFeatureProduct AS tab_16, Product AS tab_15 
WHERE tab_13.producttype = 110 AND tab_13.product = tab_12.nr AND tab_14.producer = tab_12.producer AND tab_14.nr = tab_12.nr AND tab_15.nr = tab_16.product AND tab_16.productFeature = tab_17.nr AND tab_14.producer = tab_15.producer AND tab_14.nr = tab_15.nr AND tab_12.producer = tab_15.producer AND tab_12.nr = tab_15.nr
1272", color = yellow] ; 
0 -> 1 ; 
2 [label="FunctionCallBindAccess
(\"{0}\", \"{1}\", \"{2}\")", color = yellow] ; 
0 -> 2 ; 
}

