digraph  g{
node [shape=rectangle, color=black, fontcolor=black, style=bold]
0 [label="LogDistinct" , color = blue] ; 
1 [label="Union", color = blue] ; 
0 -> 1 ; 
2 [label="LogProj
[10,15,9]" , color = blue] ; 
1 -> 2 ; 
3 [label="Join\n [13PREDICATE_EQUAL19,14PREDICATE_EQUAL19] ", color = blue] ; 
2 -> 3 ; 
4 [label="Join\n [13PREDICATE_EQUAL14] ", color = blue] ; 
3 -> 4 ; 
5 [label="LogSkolemFunctionCall
(\"{11}\", \"{10}\", \"{2}\", \"{9}\", <http://www4.wiwiss.fu-berlin.de/bizer/bsbm/v01/instances/dataFromProducer{3}/Producer{3}>, \"{8}\", <http://www4.wiwiss.fu-berlin.de/bizer/bsbm/v01/instances/dataFromProducer{3}/Producer{3}>, \"{7}\", \"{5}\", \"{4}\", \"{1}\", \"{13}\", \"{6}\", <http://www4.wiwiss.fu-berlin.de/bizer/bsbm/v01/instances/dataFromProducer{3}/Product{0}>)" , color = blue] ; 
4 -> 5 ; 
6 [label="LogSQLEval 
SELECT nr, label, comment, producer, propertyNum1, propertyNum2, propertyTex1, propertyTex2, propertyTex3, propertyTex4, propertyTex5, propertyTex6, publisher, publishDate FROM Product", color = blue] ; 
5 -> 6 ; 
7 [label="LogSkolemFunctionCall
(<http://www4.wiwiss.fu-berlin.de/bizer/bsbm/v01/instances/dataFromProducer{1}/Product{0}>)" , color = blue] ; 
4 -> 7 ; 
8 [label="LogSQLEval 
SELECT P.nr AS nr, P.producer AS producer FROM PRODUCT AS P, PRODUCTTYPEPRODUCT AS PT WHERE PT.producttype = 110 AND PT.product = P.nr", color = blue] ; 
7 -> 8 ; 
9 [label="LogSkolemFunctionCall
(\"{2}\", \"{3}\", <http://www4.wiwiss.fu-berlin.de/bizer/bsbm/v01/instances/StandardizationInstitution{4}>, \"{5}\", <http://www4.wiwiss.fu-berlin.de/bizer/bsbm/v01/instances/dataFromProducer{1}/Product{0}>)" , color = blue] ; 
3 -> 9 ; 
10 [label="LogSQLEval 
SELECT P.nr AS nr, P.producer AS producer, PF.label AS label, PF.comment AS comment, PF.publisher AS publisher, PF.publishDate AS publishDate FROM Product AS P, ProductFeatureProduct AS PFP, ProductFeature AS PF WHERE P.nr = PFP.product AND PFP.productFeature = PF.nr", color = blue] ; 
9 -> 10 ; 
12 [label="LogProj
[10,15,8]" , color = blue] ; 
1 -> 12 ; 
13 [label="Join\n [13PREDICATE_EQUAL19,14PREDICATE_EQUAL19] ", color = blue] ; 
12 -> 13 ; 
14 [label="Join\n [13PREDICATE_EQUAL14] ", color = blue] ; 
13 -> 14 ; 
15 [label="LogSkolemFunctionCall
(\"{11}\", \"{10}\", \"{2}\", \"{9}\", <http://www4.wiwiss.fu-berlin.de/bizer/bsbm/v01/instances/dataFromProducer{3}/Producer{3}>, \"{8}\", <http://www4.wiwiss.fu-berlin.de/bizer/bsbm/v01/instances/dataFromProducer{3}/Producer{3}>, \"{7}\", \"{5}\", \"{4}\", \"{1}\", \"{13}\", \"{6}\", <http://www4.wiwiss.fu-berlin.de/bizer/bsbm/v01/instances/dataFromProducer{3}/Product{0}>)" , color = blue] ; 
14 -> 15 ; 
16 [label="LogSQLEval 
SELECT nr, label, comment, producer, propertyNum1, propertyNum2, propertyTex1, propertyTex2, propertyTex3, propertyTex4, propertyTex5, propertyTex6, publisher, publishDate FROM Product", color = blue] ; 
15 -> 16 ; 
17 [label="LogSkolemFunctionCall
(<http://www4.wiwiss.fu-berlin.de/bizer/bsbm/v01/instances/dataFromProducer{1}/Product{0}>)" , color = blue] ; 
14 -> 17 ; 
18 [label="LogSQLEval 
SELECT P.nr AS nr, P.producer AS producer FROM PRODUCT AS P, PRODUCTTYPEPRODUCT AS PT WHERE PT.producttype = 110 AND PT.product = P.nr", color = blue] ; 
17 -> 18 ; 
19 [label="LogSkolemFunctionCall
(\"{2}\", \"{3}\", <http://www4.wiwiss.fu-berlin.de/bizer/bsbm/v01/instances/StandardizationInstitution{4}>, \"{5}\", <http://www4.wiwiss.fu-berlin.de/bizer/bsbm/v01/instances/dataFromProducer{1}/Product{0}>)" , color = blue] ; 
13 -> 19 ; 
20 [label="LogSQLEval 
SELECT P.nr AS nr, P.producer AS producer, PF.label AS label, PF.comment AS comment, PF.publisher AS publisher, PF.publishDate AS publishDate FROM Product AS P, ProductFeatureProduct AS PFP, ProductFeature AS PF WHERE P.nr = PFP.product AND PFP.productFeature = PF.nr", color = blue] ; 
19 -> 20 ; 
}

