ANS($label,$featureLabel,$value) : [V_product\14(X2082351661214,X2082351661215,X2082351661212,X2082351661213,X2082351661218,X2082351661219,X2082351661216,X2082351661217,X2082351661208,$value,$label,X2082351661207,X2082351661210,$product), V_M52\1($product), V_pfeature-label-comment\5($featureLabel,X2082351661791,X2082351661792,X2082351661789,$product)]

ANS($label,$featureLabel,$value) : [V_product\14(X2082351661214,X2082351661215,X2082351661212,X2082351661213,X2082351661218,X2082351661219,X2082351661216,X2082351661217,$value,X2082351661209,$label,X2082351661207,X2082351661210,$product), V_M52\1($product), V_pfeature-label-comment\5($featureLabel,X2082351661791,X2082351661792,X2082351661789,$product)]

