digraph  g{
node [shape=rectangle, color=black, fontcolor=black, style=bold]
0 [label="LogSkolemFunctionCall
(<{0}>)" , color = blue] ; 
1 [label="LogProj
[1]" , color = blue] ; 
0 -> 1 ; 
2 [label="LogAQLEval 
SELECT ?char ?org ?nconst WHERE { ?c <http://www.wikidata.org/prop/P463> ?stat1.
?stat1 <http://www.wikidata.org/prop/statement/P463> ?org.
?c <http://www.wikidata.org/prop/P175> ?stat2 .
?stat2 <http://www.wikidata.org/prop/statement/P175> ?actor .
?actor <http://www.wikidata.org/prop/P345> ?stat4 .
?stat4 <http://www.wikidata.org/prop/statement/P345> ?nconst .
?c <http://www.wikidata.org/prop/P3798> ?stat3 .
?stat3 <http://www.wikidata.org/prop/statement/P3798> ?char .}", color = blue] ; 
1 -> 2 ; 
}

