INPUT	N_ANS	N_TRI	N_REF	N_REW	N_CLASH	N_COVER	T_REF	T_REW	T_CLASH	T_COVER	T_CORE	T_OP	T_QEV	T_TOTAL
Q01	15514	5	1	16	12	4	0	711	0	1	37	3	357	1109
Q01a	111793	5	1	128	96	32	0	479	0	9	299	14	2600	3401
Q01b	863729	5	1	1024	768	256	0	515	1	71	2417	162	21610	24776
Q02	124	6	1	32	24	8	0	642	0	1	53	4	703	1403
Q02a	598	6	1	64	48	16	0	716	0	3	124	7	1498	2348
Q02b	1058	6	1	256	192	64	0	661	0	12	389	32	5397	6491
Q02c	1570	6	1	512	384	128	0	978	1	39	1094	60	10925	13097
Q02d	8842	6	1	2048	1536	512	1	721	4	234	3080	336	43832	48208
Q02e	35130	6	1	4096	3072	1024	0	753	7	839	6838	1486	87847	97770
Q03	5	5	1	1024	N/A	512	1	503	2	359	9248	818	6646	17577
Q04	4487	2	1	8	6	2	0	122	0	0	2	0	33	157
Q05	3000000	4	1	8	7	1	0	127	0	0	3	1	55001	55132
Q05a	1793489	4	1	2	N/A	2	0	361	0	0	1	2	290181	290545
Q05b	2454945	4	1	4	N/A	4	0	378	0	0	4	2	449571	449955
Q06	2790902	3	1	2	N/A	2	0	225	0	0	4	3	13734	13966
Q07	2	3	1	2562	N/A	2562	0	448	3	2806	218	3437	87843	94755
Q07a	3	3	1	5124	N/A	5124	0	453	6	10142	459	11710	175736	198506
Q08	3000000	3	1	1	N/A	1	0	130	0	0	5	1	34808	34944
Q09	299902	1	1	2	N/A	2	0	282	0	0	4	2	863	1151
Q10	10	3	1	7690	N/A	7690	0	1126	13	27153	796	27161	269105	325354
Q10a	15	3	1	15380	N/A	15380	0	1270	25	163649	1650	158075	556306	880975
Q10b	25	3	1	30760	N/A	30760	0	1398	43	856335	4895	792326	1127505	2782502
Q11	14571	5	7329	16	14	1	110	1883234	46	12	2	2	1905	1885311
Q12	14571	5	2	8	7	1	386	755	0	0	2	1	1864	3008
Q12a	31322	5	2	16	14	2	376	752	1	0	3	1	5798	6931
Q12b	117426	5	2	32	28	4	371	756	0	0	8	3	16966	18104
Q13	167760	4	16	50	N/A	42	12	3693	2	29	90	29	4557	8412
Q13a	4416946	4	16	3200	N/A	2688	3	3876	5	5531	6150	5030	165090	185685
Q13b	10049829	4	16	3200	N/A	2688	4	3623	2	5406	6003	5390	290938	311366
Q14	2998904	3	1	1	N/A	1	0	429	0	0	4	1	64263	64697
Q15	1500000	5	1	4	3	1	0	280	0	0	4	1	13291	13576
Q16	249004	4	1	128	N/A	128	0	286	0	10	426	47	7550	8319
Q17	2790902	2	1	2	N/A	2	1	200	0	0	3	1	10873	11078
Q18	3000000	4	1	4	3	1	1	250	0	0	6	1	63783	64041
Q19	39826	9	1	448	N/A	128	0	1114	1	1169	946	78	14651	17959
Q19a	60834	9	1	896	N/A	256	0	1153	3	2302	2160	217	28068	33903
Q20	904	11	1	8	N/A	8	0	1398	0	89	79	7	1037	2610
Q20a	7818	11	1	64	N/A	64	0	1437	0	700	653	65	7968	10823
Q20b	10486	11	1	128	N/A	128	0	1508	0	1456	1274	147	15904	20289
Q20c	51988	11	1	512	N/A	512	1	1659	2	5955	5281	727	63967	77592
Q20d	201747	11	1	1024	N/A	1024	0	1581	8	12865	11628	1569	131885	159536
Q21	37176	3	1	12865	6459	6401	0	807	15	17088	804	18715	318561	355990
Q22	1528	4	24	32	N/A	32	0	1939	0	1	4	4	2218	4166
Q22a	18588	4	200	384	N/A	384	3	15300	5	116	50	119	26702	42295
Q23	1329887	7	64	80	56	24	723	22810	0	8	35	14	67794	91384
Q23a	2008985	7	64	160	112	48	762	24409	5	24	113	26	125573	150912
Q01	15514	5	1	16	12	4	0	477	0	1	24	4	343	849
Q01a	111793	5	1	128	96	32	1	460	0	5	177	14	2637	3294
Q01b	863729	5	1	1024	768	256	0	483	2	73	1458	133	21607	23756
Q02	124	6	1	32	24	8	0	639	0	2	54	5	705	1405
Q02a	598	6	1	64	48	16	0	642	1	2	92	7	1450	2194
Q02b	1058	6	1	256	192	64	0	723	1	14	431	29	5458	6656
Q02c	1570	6	1	512	384	128	0	785	1	30	739	64	10859	12478
Q02d	8842	6	1	2048	1536	512	0	703	2	228	3072	354	43785	48144
Q02e	35130	6	1	4096	3072	1024	0	740	7	755	6587	1009	88544	97642
Q03	5	5	1	1024	N/A	512	0	501	2	310	8872	663	6653	17001
Q04	4487	2	1	8	6	2	1	148	0	0	1	1	32	183
Q05	3000000	4	1	8	7	1	1	116	0	0	3	0	50024	50144
Q05a	1793489	4	1	2	N/A	2	1	366	0	0	2	1	293807	294177
Q05b	2454945	4	1	4	N/A	4	1	365	0	0	3	4	443688	444061
Q06	2790902	3	1	2	N/A	2	1	228	0	0	4	3	13552	13788
Q07	2	3	1	2562	N/A	2562	0	456	3	2744	221	3001	87478	93903
Q07a	3	3	1	5124	N/A	5124	0	475	7	11666	475	11921	176216	200760
Q08	3000000	3	1	1	N/A	1	0	109	0	0	5	0	31263	31377
Q09	299902	1	1	2	N/A	2	0	226	0	0	4	1	1116	1347
Q10	10	3	1	7690	N/A	7690	1	1321	11	23309	800	25949	269222	320613
Q10a	15	3	1	15380	N/A	15380	0	2594	24	162668	1585	143106	552055	862032
Q10b	25	3	1	30760	N/A	30760	0	1454	58	698837	4025	690505	1131696	2526575
Q11	14571	5	7329	16	14	1	101	1863115	25	14	2	1	1893	1865151
Q12	14571	5	2	8	7	1	368	763	0	0	2	1	1931	3065
Q12a	31322	5	2	16	14	2	357	680	0	0	3	1	5957	6998
Q12b	117426	5	2	32	28	4	355	704	0	0	7	2	17198	18266
Q13	167760	4	16	50	N/A	42	3	3076	0	30	78	26	4420	7633
Q13a	4416946	4	16	3200	N/A	2688	3	3337	3	5287	5874	5279	162687	182470
Q13b	10049829	4	16	3200	N/A	2688	3	3342	2	5618	5116	6226	317587	337894
Q14	2998904	3	1	1	N/A	1	0	351	0	0	4	1	65935	66291
Q15	1500000	5	1	4	3	1	0	342	0	0	6	2	13146	13496
Q16	249004	4	1	128	N/A	128	0	266	0	9	416	48	7413	8152
Q17	2790902	2	1	2	N/A	2	0	211	0	0	3	1	14271	14486
Q18	3000000	4	1	4	3	1	1	247	0	0	7	0	66425	66680
Q19	39826	9	1	448	N/A	128	0	1158	1	1161	919	78	14445	17762
Q19a	60834	9	1	896	N/A	256	1	1162	2	2344	1805	182	28012	33508
Q20	904	11	1	8	N/A	8	0	1440	0	92	81	9	1054	2676
Q20a	7818	11	1	64	N/A	64	0	1472	1	734	841	81	8036	11165
Q20b	10486	11	1	128	N/A	128	0	2462	2	1588	1866	133	15824	21875
Q20c	51988	11	1	512	N/A	512	0	2476	4	5967	5150	657	62808	77062
Q20d	201747	11	1	1024	N/A	1024	0	1742	5	13938	11696	1656	130622	159659
Q21	37176	3	1	12865	6459	6401	0	793	16	18752	795	17449	314880	352685
Q22	1528	4	24	32	N/A	32	1	1840	0	1	5	4	2200	4051
Q22a	18588	4	200	384	N/A	384	2	14086	4	112	48	107	26185	40544
Q23	1329887	7	64	80	56	24	705	23804	0	9	34	13	71169	95734
Q23a	2008985	7	64	160	112	48	695	24198	1	17	67	24	130506	155508
Q01	15514	5	1	16	12	4	0	450	0	0	22	2	368	842
Q01a	111793	5	1	128	96	32	0	479	1	5	183	12	2573	3253
Q01b	863729	5	1	1024	768	256	0	504	1	76	1837	134	21318	23870
Q02	124	6	1	32	24	8	0	679	0	1	52	4	698	1434
Q02a	598	6	1	64	48	16	0	628	1	2	94	7	1408	2140
Q02b	1058	6	1	256	192	64	0	676	0	14	381	29	5594	6694
Q02c	1570	6	1	512	384	128	0	893	1	29	995	93	10963	12974
Q02d	8842	6	1	2048	1536	512	0	717	2	230	3099	439	43771	48258
Q02e	35130	6	1	4096	3072	1024	0	735	6	819	9525	1017	87139	99241
Q03	5	5	1	1024	N/A	512	0	516	2	363	9565	1251	6684	18381
Q04	4487	2	1	8	6	2	1	157	0	0	2	0	31	191
Q05	3000000	4	1	8	7	1	1	111	0	0	3	0	51936	52051
Q05a	1793489	4	1	2	N/A	2	1	506	0	0	3	2	300664	301176
Q05b	2454945	4	1	4	N/A	4	1	409	0	0	3	2	452975	453390
Q06	2790902	3	1	2	N/A	2	0	216	0	1	3	2	14922	15144
Q07	2	3	1	2562	N/A	2562	1	444	3	2814	215	3135	87328	93940
Q07a	3	3	1	5124	N/A	5124	0	464	7	12919	457	13067	177461	204375
Q08	3000000	3	1	1	N/A	1	0	137	0	0	6	0	43441	43584
Q09	299902	1	1	2	N/A	2	0	230	0	0	4	0	927	1161
Q10	10	3	1	7690	N/A	7690	0	1159	14	26873	818	29743	271206	329813
Q10a	15	3	1	15380	N/A	15380	0	1354	31	186958	1586	155094	555802	900825
Q10b	25	3	1	30760	N/A	30760	0	1604	46	844979	3505	743079	1131341	2724554
Q11	14571	5	7329	16	14	1	110	1905889	31	9	2	1	1945	1907987
Q12	14571	5	2	8	7	1	393	745	0	0	2	0	1861	3001
Q12a	31322	5	2	16	14	2	359	697	0	0	4	1	5887	6948
Q12b	117426	5	2	32	28	4	407	759	1	0	8	2	16838	18015
Q13	167760	4	16	50	N/A	42	4	3184	0	27	79	26	4588	7908
Q13a	4416946	4	16	3200	N/A	2688	3	3852	5	5650	6828	6111	161486	183935
Q13b	10049829	4	16	3200	N/A	2688	6	3655	3	5660	5448	6089	291328	312189
Q14	2998978	3	1	1	N/A	1	0	420	0	0	4	0	64892	65316
Q15	1500000	5	1	4	3	1	0	264	0	0	4	1	13998	14267
Q16	249004	4	1	128	N/A	128	0	320	0	13	485	49	7486	8353
Q17	2790902	2	1	2	N/A	2	1	194	0	0	4	1	11369	11569
Q18	3000000	4	1	4	3	1	0	272	0	0	6	1	62176	62455
Q19	39826	9	1	448	N/A	128	0	1115	1	1145	919	77	14560	17817
Q19a	60834	9	1	896	N/A	256	1	1659	3	2426	2472	164	28234	34959
Q20	904	11	1	8	N/A	8	0	1474	0	96	81	8	1002	2661
Q20a	7818	11	1	64	N/A	64	0	1450	0	720	652	57	8070	10949
Q20b	10486	11	1	128	N/A	128	0	1452	1	1460	1281	128	15906	20228
Q20c	51988	11	1	512	N/A	512	0	1978	3	6097	6585	818	63819	79300
Q20d	201747	11	1	1024	N/A	1024	0	1556	8	13332	12057	1919	131135	160007
Q21	37176	3	1	12865	6459	6401	0	815	18	17877	801	18157	316383	354051
Q22	1528	4	24	32	N/A	32	0	1512	1	1	4	4	2230	3752
Q22a	18588	4	200	384	N/A	384	3	12792	1	90	48	107	26531	39572
Q23	1329887	7	64	80	56	24	677	22935	2	9	34	13	70163	93833
Q23a	2008985	7	64	160	112	48	727	25141	0	18	73	26	128215	154200
Q01	15514	5	1	16	12	4	1	507	0	0	23	2	348	881
Q01a	111793	5	1	128	96	32	0	471	0	5	176	12	2908	3572
Q01b	863729	5	1	1024	768	256	0	647	1	78	1553	120	21596	23995
Q02	124	6	1	32	24	8	0	631	1	1	42	3	708	1386
Q02a	598	6	1	64	48	16	0	619	0	3	102	6	1435	2165
Q02b	1058	6	1	256	192	64	0	816	1	12	460	26	5533	6848
Q02c	1570	6	1	512	384	128	0	699	1	29	775	68	10888	12460
Q02d	8842	6	1	2048	1536	512	0	784	4	272	3247	368	44150	48825
Q02e	35130	6	1	4096	3072	1024	0	750	7	837	6804	955	88078	97431
Q03	5	5	1	1024	N/A	512	0	505	2	363	8612	667	6637	16786
Q04	4487	2	1	8	6	2	0	137	0	0	1	0	33	171
Q05	3000000	4	1	8	7	1	0	108	0	0	3	1	51678	51790
Q05a	1793489	4	1	2	N/A	2	1	368	0	0	1	2	296939	297311
Q05b	2454945	4	1	4	N/A	4	0	353	0	0	3	1	450821	451178
Q06	2790902	3	1	2	N/A	2	0	227	0	1	4	1	14821	15054
Q07	2	3	1	2562	N/A	2562	0	445	3	2657	211	3126	87077	93519
Q07a	3	3	1	5124	N/A	5124	0	561	7	11800	432	11410	175629	199839
Q08	3000000	3	1	1	N/A	1	0	127	0	0	6	0	30061	30194
Q09	299902	1	1	2	N/A	2	0	250	0	0	4	0	889	1143
Q10	10	3	1	7690	N/A	7690	1	1091	11	24836	901	28420	270353	325613
Q10a	15	3	1	15380	N/A	15380	0	1622	24	154491	1723	143126	551692	852678
Q10b	25	3	1	30760	N/A	30760	0	1464	42	723387	4860	782921	1120902	2633576
Q11	14571	5	7329	16	14	1	115	1869823	25	9	2	1	1857	1871832
Q12	14571	5	2	8	7	1	367	705	0	0	1	1	1931	3005
Q12a	31322	5	2	16	14	2	365	720	0	0	4	1	5875	6965
Q12b	117426	5	2	32	28	4	348	743	0	0	6	2	16850	17949
Q13	167760	4	16	50	N/A	42	4	3573	0	28	89	66	4423	8183
Q13a	4416946	4	16	3200	N/A	2688	4	3414	3	5228	5585	5103	168600	187937
Q13b	10049829	4	16	3200	N/A	2688	4	3334	1	5458	5648	5226	303516	323187
Q14	2998978	3	1	1	N/A	1	0	388	0	0	4	1	64010	64403
Q15	1500000	5	1	4	3	1	0	290	0	0	4	2	14885	15181
Q16	249004	4	1	128	N/A	128	0	359	1	9	724	73	7794	8960
Q17	2790902	2	1	2	N/A	2	0	194	0	0	3	1	12775	12973
Q18	3000000	4	1	4	3	1	1	365	0	0	7	1	60893	61267
Q19	39826	9	1	448	N/A	128	0	1109	1	1153	873	71	14772	17979
Q19a	60834	9	1	896	N/A	256	0	2269	3	2720	3031	163	28048	36234
Q20	904	11	1	8	N/A	8	0	2855	0	113	297	27	1069	4361
Q20a	7818	11	1	64	N/A	64	0	2028	0	799	1248	90	8226	12391
Q20b	10486	11	1	128	N/A	128	1	1667	1	1612	1580	121	16056	21038
Q20c	51988	11	1	512	N/A	512	0	1529	2	5959	9705	621	62800	80616
Q20d	201747	11	1	1024	N/A	1024	0	1527	4	14158	12198	1600	131828	161315
Q21	37176	3	1	12865	6459	6401	0	810	16	17446	797	19357	324296	362722
Q22	1528	4	24	32	N/A	32	0	1698	0	3	4	4	2278	3987
Q22a	18588	4	200	384	N/A	384	2	15448	5	99	48	106	27032	42740
Q23	1329887	7	64	80	56	24	686	25711	1	12	33	12	69542	95997
Q23a	2008985	7	64	160	112	48	1097	26465	1	22	67	24	132282	159958
Q01	15514	5	1	16	12	4	0	470	0	1	24	2	349	846
Q01a	111793	5	1	128	96	32	1	508	0	5	185	12	2661	3372
Q01b	863729	5	1	1024	768	256	0	490	1	75	1600	123	22834	25123
Q02	124	6	1	32	24	8	0	673	0	1	45	4	708	1431
Q02a	598	6	1	64	48	16	0	875	0	3	131	11	1595	2615
Q02b	1058	6	1	256	192	64	0	682	0	12	389	31	5441	6555
Q02c	1570	6	1	512	384	128	0	990	1	45	2223	102	11357	14718
Q02d	8842	6	1	2048	1536	512	0	767	3	419	4484	342	44141	50156
Q02e	35130	6	1	4096	3072	1024	0	803	7	884	12859	1080	88053	103686
Q03	5	5	1	1024	N/A	512	0	673	4	544	12212	720	6622	20775
Q04	4487	2	1	8	6	2	1	114	0	0	2	0	37	154
Q05	3000000	4	1	8	7	1	0	131	0	0	3	1	61942	62077
Q05a	1793489	4	1	2	N/A	2	1	355	0	0	1	1	301567	301925
Q05b	2454945	4	1	4	N/A	4	0	484	0	0	5	2	453988	454479
Q06	2790902	3	1	2	N/A	2	1	217	0	0	5	1	13502	13726
Q07	2	3	1	2562	N/A	2562	0	459	3	2614	210	2849	86812	92947
Q07a	3	3	1	5124	N/A	5124	0	479	6	10028	424	10845	175533	197315
Q08	3000000	3	1	1	N/A	1	0	104	0	0	5	0	33432	33541
Q09	299902	1	1	2	N/A	2	0	247	0	0	4	1	874	1126
Q10	10	3	1	7690	N/A	7690	0	1075	10	28435	842	35358	268646	334366
Q10a	15	3	1	15380	N/A	15380	1	1291	26	158770	2045	172684	557922	892739
Q10b	25	3	1	30760	N/A	30760	0	1464	44	795644	4364	737236	1130050	2668802
Q11	14571	5	7329	16	14	1	107	1861580	29	8	12	1	1869	1863606
Q12	14571	5	2	8	7	1	345	677	0	0	2	1	1946	2971
Q12a	31322	5	2	16	14	2	353	704	0	0	4	1	5864	6926
Q12b	117426	5	2	32	28	4	395	760	0	0	7	2	16943	18107
Q13	167760	4	16	50	N/A	42	4	3264	0	25	120	26	4544	7983
Q13a	4416946	4	16	3200	N/A	2688	3	4203	5	5850	6267	6147	164998	187473
Q13b	10049829	4	16	3200	N/A	2688	3	3984	6	6402	6398	9273	297607	323673
Q14	2998978	3	1	1	N/A	1	1	359	0	0	5	0	61962	62327
Q15	1500000	5	1	4	3	1	0	278	0	0	4	1	13201	13484
Q16	249004	4	1	128	N/A	128	0	306	0	10	471	45	8438	9270
Q17	2790902	2	1	2	N/A	2	0	191	0	0	4	1	12749	12945
Q18	3000000	4	1	4	3	1	0	247	0	0	7	0	63493	63747
Q19	39826	9	1	448	N/A	128	0	1154	1	1160	945	77	14490	17827
Q19a	60834	9	1	896	N/A	256	0	1174	2	2351	1971	237	28252	33987
Q20	904	11	1	8	N/A	8	0	1710	0	90	102	11	1026	2939
Q20a	7818	11	1	64	N/A	64	1	2086	1	742	997	80	8052	11959
Q20b	10486	11	1	128	N/A	128	0	1600	1	1462	1600	152	15958	20773
Q20c	51988	11	1	512	N/A	512	0	1618	3	5938	5590	1143	63801	78093
Q20d	201747	11	1	1024	N/A	1024	0	1494	5	12482	11868	2122	130957	158928
Q21	37176	3	1	12865	6459	6401	0	804	18	17329	803	18468	317092	354514
Q22	1528	4	24	32	N/A	32	1	1836	0	1	4	4	2226	4072
Q22a	18588	4	200	384	N/A	384	2	16467	4	93	48	107	26935	43656
Q23	1329887	7	64	80	56	24	718	23437	2	9	53	13	72149	96381
Q23a	2008985	7	64	160	112	48	727	24346	1	18	67	23	127212	152394
