ANS($label,$featureLabel,$value) : [V_product\14(X20823516611555,X20823516611557,X20823516611548,X20823516611550,X20823516611551,X20823516611552,X20823516611547,X20823516611559,X20823516611560,$value,$label,X20823516611556,X20823516611558,$product), V_M60\1($product), V_pfeature-label-comment\5($featureLabel,X20823516612049,X20823516612050,X20823516612051,$product)]

ANS($label,$featureLabel,$value) : [V_product\14(X20823516611555,X20823516611557,X20823516611548,X20823516611550,X20823516611551,X20823516611552,X20823516611547,X20823516611559,$value,X20823516611553,$label,X20823516611556,X20823516611558,$product), V_M60\1($product), V_pfeature-label-comment\5($featureLabel,X20823516612049,X20823516612050,X20823516612051,$product)]

ANS($label,$featureLabel,$value) : [V_product\14(X20823516611555,X20823516611557,X20823516611548,X20823516611550,X20823516611551,X20823516611552,X20823516611547,X20823516611559,X20823516611560,$value,$label,X20823516611556,X20823516611558,$product), V_M32\1($product), V_pfeature-label-comment\5($featureLabel,X20823516612049,X20823516612050,X20823516612051,$product)]

ANS($label,$featureLabel,$value) : [V_product\14(X20823516611555,X20823516611557,X20823516611548,X20823516611550,X20823516611551,X20823516611552,X20823516611547,X20823516611559,$value,X20823516611553,$label,X20823516611556,X20823516611558,$product), V_M32\1($product), V_pfeature-label-comment\5($featureLabel,X20823516612049,X20823516612050,X20823516612051,$product)]

