digraph  g{ graph[label = "16:13:14.231"]
node [shape=rectangle, color=black, fontcolor=black, style=bold] edge [color=black] 0 [label="BindAccessEval", color = yellow] ; 
1 [label="SQLQuery
SELECT tab_18.person_id 
FROM name AS tab_19, cast_info AS tab_18 
WHERE tab_18.role_id = 8 AND tab_19.name = 'Tarantino, Quentin' AND tab_18.person_id = tab_19.id 
UNION
SELECT tab_20.person_id 
FROM cast_info AS tab_20, name AS tab_21 
WHERE tab_20.role_id = 8 AND tab_21.name = 'Tarantino, Quentin' AND tab_20.person_id = tab_21.id
1", color = yellow] ; 
0 -> 1 ; 
2 [label="FunctionCallBindAccess
(<http://www.imdb.com/name/{0}>)", color = yellow] ; 
0 -> 2 ; 
}

