digraph  g{
node [shape=rectangle, color=black, fontcolor=black, style=bold]
0 [label="LogDistinct" , color = blue] ; 
1 [label="Union", color = blue] ; 
0 -> 1 ; 
2 [label="LogFunctionCall
AddConstant{1=(\"<http://purl.org/stuff/rev#Review>\", \"<http://www4.wiwiss.fu-berlin.de/bizer/bsbm/v01/vocabulary/rating>\")}" , color = blue] ; 
1 -> 2 ; 
3 [label="LogProj
[4,6]" , color = blue] ; 
2 -> 3 ; 
4 [label="Join\n [14PREDICATE_EQUAL15] ", color = blue] ; 
3 -> 4 ; 
5 [label="Join\n [4PREDICATE_EQUAL13] ", color = blue] ; 
4 -> 5 ; 
6 [label="LogSkolemFunctionCall
(\"{5}\", \"{6}\", <http://www4.wiwiss.fu-berlin.de/bizer/bsbm/v01/instances/dataFromRatingSite{10}/RatingSite{10}>, \"{11}\", <http://www4.wiwiss.fu-berlin.de/bizer/bsbm/v01/instances/dataFromRatingSite{10}/Review{0}>, \"{4}\", \"{9}\", \"{8}\", <http://www4.wiwiss.fu-berlin.de/bizer/bsbm/v01/instances/dataFromProducer{2}/Product{1}>)" , color = blue] ; 
5 -> 6 ; 
7 [label="LogSQLEval 
SELECT nr, product, producer, person, reviewDate, title, text, language, rating1, rating2,  publisher, publishDate FROM Review", color = blue] ; 
6 -> 7 ; 
8 [label="LogSkolemFunctionCall
(\"{2}\", <http://www4.wiwiss.fu-berlin.de/bizer/bsbm/v01/instances/dataFromRatingSite{4}/RatingSite{4}>, \"{1}\", \"{5}\", <http://www4.wiwiss.fu-berlin.de/bizer/bsbm/v01/instances/dataFromRatingSite{4}/Review{0}>, <http://downlode.org/rdf/iso-3166/countries#{3}>)" , color = blue] ; 
5 -> 8 ; 
9 [label="LogSQLEval 
SELECT R.nr AS nr, P.name AS name, P.mbox_sha1sum AS mbox_sha1sum, P.country AS country, P.publisher AS publisher, P.publishDate AS publishDate FROM Person AS P, Review AS R WHERE R.person = P.nr", color = blue] ; 
8 -> 9 ; 
10 [label="LogSkolemFunctionCall
(<http://downlode.org/rdf/iso-3166/countries#{0}>)" , color = blue] ; 
4 -> 10 ; 
11 [label="LogSQLEval 
SELECT country FROM CountryType AS C WHERE C.countryType=122", color = blue] ; 
10 -> 11 ; 
13 [label="LogFunctionCall
AddConstant{1=(\"<http://purl.org/stuff/rev#Review>\", \"<http://www4.wiwiss.fu-berlin.de/bizer/bsbm/v01/vocabulary/rating>\")}" , color = blue] ; 
1 -> 13 ; 
14 [label="LogProj
[4,6]" , color = blue] ; 
13 -> 14 ; 
15 [label="Join\n [14PREDICATE_EQUAL15] ", color = blue] ; 
14 -> 15 ; 
16 [label="Join\n [4PREDICATE_EQUAL13] ", color = blue] ; 
15 -> 16 ; 
17 [label="LogSkolemFunctionCall
(\"{5}\", \"{6}\", <http://www4.wiwiss.fu-berlin.de/bizer/bsbm/v01/instances/dataFromRatingSite{10}/RatingSite{10}>, \"{11}\", <http://www4.wiwiss.fu-berlin.de/bizer/bsbm/v01/instances/dataFromRatingSite{10}/Review{0}>, \"{4}\", \"{9}\", \"{8}\", <http://www4.wiwiss.fu-berlin.de/bizer/bsbm/v01/instances/dataFromProducer{2}/Product{1}>)" , color = blue] ; 
16 -> 17 ; 
18 [label="LogSQLEval 
SELECT nr, product, producer, person, reviewDate, title, text, language, rating1, rating2,  publisher, publishDate FROM Review", color = blue] ; 
17 -> 18 ; 
19 [label="LogSkolemFunctionCall
(\"{2}\", <http://www4.wiwiss.fu-berlin.de/bizer/bsbm/v01/instances/dataFromRatingSite{4}/RatingSite{4}>, \"{1}\", \"{5}\", <http://www4.wiwiss.fu-berlin.de/bizer/bsbm/v01/instances/dataFromRatingSite{4}/Review{0}>, <http://downlode.org/rdf/iso-3166/countries#{3}>)" , color = blue] ; 
16 -> 19 ; 
20 [label="LogSQLEval 
SELECT R.nr AS nr, P.name AS name, P.mbox_sha1sum AS mbox_sha1sum, P.country AS country, P.publisher AS publisher, P.publishDate AS publishDate FROM Person AS P, Review AS R WHERE R.person = P.nr", color = blue] ; 
19 -> 20 ; 
21 [label="LogSkolemFunctionCall
(<http://downlode.org/rdf/iso-3166/countries#{0}>)" , color = blue] ; 
15 -> 21 ; 
22 [label="LogSQLEval 
SELECT country FROM CountryType AS C WHERE C.countryType=121", color = blue] ; 
21 -> 22 ; 
24 [label="LogFunctionCall
AddConstant{1=(\"<http://www4.wiwiss.fu-berlin.de/bizer/bsbm/v01/vocabulary/Product>\", \"<http://www4.wiwiss.fu-berlin.de/bizer/bsbm/v01/vocabulary/productPropertyTextual>\")}" , color = blue] ; 
1 -> 24 ; 
25 [label="LogProj
[13,7]" , color = blue] ; 
24 -> 25 ; 
26 [label="Join\n [15PREDICATE_EQUAL16] ", color = blue] ; 
25 -> 26 ; 
27 [label="Join\n [13PREDICATE_EQUAL14] ", color = blue] ; 
26 -> 27 ; 
28 [label="LogSkolemFunctionCall
(\"{11}\", \"{10}\", \"{2}\", \"{9}\", <http://www4.wiwiss.fu-berlin.de/bizer/bsbm/v01/instances/dataFromProducer{3}/Producer{3}>, \"{8}\", <http://www4.wiwiss.fu-berlin.de/bizer/bsbm/v01/instances/dataFromProducer{3}/Producer{3}>, \"{7}\", \"{5}\", \"{4}\", \"{1}\", \"{13}\", \"{6}\", <http://www4.wiwiss.fu-berlin.de/bizer/bsbm/v01/instances/dataFromProducer{3}/Product{0}>)" , color = blue] ; 
27 -> 28 ; 
29 [label="LogSQLEval 
SELECT nr, label, comment, producer, propertyNum1, propertyNum2, propertyTex1, propertyTex2, propertyTex3, propertyTex4, propertyTex5, propertyTex6, publisher, publishDate FROM Product", color = blue] ; 
28 -> 29 ; 
30 [label="LogSkolemFunctionCall
(<http://www4.wiwiss.fu-berlin.de/bizer/bsbm/v01/instances/dataFromProducer{1}/Product{0}>, <http://downlode.org/rdf/iso-3166/countries#{2}>)" , color = blue] ; 
27 -> 30 ; 
31 [label="LogSQLEval 
SELECT P.nr AS nr, P.producer AS producer, PR.country AS country FROM Product AS P, Producer AS PR WHERE P.producer = PR.nr", color = blue] ; 
30 -> 31 ; 
32 [label="LogSkolemFunctionCall
(<http://downlode.org/rdf/iso-3166/countries#{0}>)" , color = blue] ; 
26 -> 32 ; 
33 [label="LogSQLEval 
SELECT country FROM CountryType AS C WHERE C.countryType=121", color = blue] ; 
32 -> 33 ; 
35 [label="LogFunctionCall
AddConstant{1=(\"<http://www4.wiwiss.fu-berlin.de/bizer/bsbm/v01/vocabulary/Product>\", \"<http://www4.wiwiss.fu-berlin.de/bizer/bsbm/v01/vocabulary/productPropertyTextual>\")}" , color = blue] ; 
1 -> 35 ; 
36 [label="LogProj
[13,7]" , color = blue] ; 
35 -> 36 ; 
37 [label="Join\n [15PREDICATE_EQUAL16] ", color = blue] ; 
36 -> 37 ; 
38 [label="Join\n [13PREDICATE_EQUAL14] ", color = blue] ; 
37 -> 38 ; 
39 [label="LogSkolemFunctionCall
(\"{11}\", \"{10}\", \"{2}\", \"{9}\", <http://www4.wiwiss.fu-berlin.de/bizer/bsbm/v01/instances/dataFromProducer{3}/Producer{3}>, \"{8}\", <http://www4.wiwiss.fu-berlin.de/bizer/bsbm/v01/instances/dataFromProducer{3}/Producer{3}>, \"{7}\", \"{5}\", \"{4}\", \"{1}\", \"{13}\", \"{6}\", <http://www4.wiwiss.fu-berlin.de/bizer/bsbm/v01/instances/dataFromProducer{3}/Product{0}>)" , color = blue] ; 
38 -> 39 ; 
40 [label="LogSQLEval 
SELECT nr, label, comment, producer, propertyNum1, propertyNum2, propertyTex1, propertyTex2, propertyTex3, propertyTex4, propertyTex5, propertyTex6, publisher, publishDate FROM Product", color = blue] ; 
39 -> 40 ; 
41 [label="LogSkolemFunctionCall
(<http://www4.wiwiss.fu-berlin.de/bizer/bsbm/v01/instances/dataFromProducer{1}/Product{0}>, <http://downlode.org/rdf/iso-3166/countries#{2}>)" , color = blue] ; 
38 -> 41 ; 
42 [label="LogSQLEval 
SELECT P.nr AS nr, P.producer AS producer, PR.country AS country FROM Product AS P, Producer AS PR WHERE P.producer = PR.nr", color = blue] ; 
41 -> 42 ; 
43 [label="LogSkolemFunctionCall
(<http://downlode.org/rdf/iso-3166/countries#{0}>)" , color = blue] ; 
37 -> 43 ; 
44 [label="LogSQLEval 
SELECT country FROM CountryType AS C WHERE C.countryType=122", color = blue] ; 
43 -> 44 ; 
46 [label="LogFunctionCall
AddConstant{1=(\"<http://www4.wiwiss.fu-berlin.de/bizer/bsbm/v01/vocabulary/Product>\", \"<http://www4.wiwiss.fu-berlin.de/bizer/bsbm/v01/vocabulary/productPropertyTextual>\")}" , color = blue] ; 
1 -> 46 ; 
47 [label="LogProj
[13,12]" , color = blue] ; 
46 -> 47 ; 
48 [label="Join\n [15PREDICATE_EQUAL16] ", color = blue] ; 
47 -> 48 ; 
49 [label="Join\n [13PREDICATE_EQUAL14] ", color = blue] ; 
48 -> 49 ; 
50 [label="LogSkolemFunctionCall
(\"{11}\", \"{10}\", \"{2}\", \"{9}\", <http://www4.wiwiss.fu-berlin.de/bizer/bsbm/v01/instances/dataFromProducer{3}/Producer{3}>, \"{8}\", <http://www4.wiwiss.fu-berlin.de/bizer/bsbm/v01/instances/dataFromProducer{3}/Producer{3}>, \"{7}\", \"{5}\", \"{4}\", \"{1}\", \"{13}\", \"{6}\", <http://www4.wiwiss.fu-berlin.de/bizer/bsbm/v01/instances/dataFromProducer{3}/Product{0}>)" , color = blue] ; 
49 -> 50 ; 
51 [label="LogSQLEval 
SELECT nr, label, comment, producer, propertyNum1, propertyNum2, propertyTex1, propertyTex2, propertyTex3, propertyTex4, propertyTex5, propertyTex6, publisher, publishDate FROM Product", color = blue] ; 
50 -> 51 ; 
52 [label="LogSkolemFunctionCall
(<http://www4.wiwiss.fu-berlin.de/bizer/bsbm/v01/instances/dataFromProducer{1}/Product{0}>, <http://downlode.org/rdf/iso-3166/countries#{2}>)" , color = blue] ; 
49 -> 52 ; 
53 [label="LogSQLEval 
SELECT P.nr AS nr, P.producer AS producer, PR.country AS country FROM Product AS P, Producer AS PR WHERE P.producer = PR.nr", color = blue] ; 
52 -> 53 ; 
54 [label="LogSkolemFunctionCall
(<http://downlode.org/rdf/iso-3166/countries#{0}>)" , color = blue] ; 
48 -> 54 ; 
55 [label="LogSQLEval 
SELECT country FROM CountryType AS C WHERE C.countryType=121", color = blue] ; 
54 -> 55 ; 
57 [label="LogFunctionCall
AddConstant{1=(\"<http://www4.wiwiss.fu-berlin.de/bizer/bsbm/v01/vocabulary/Product>\", \"<http://www4.wiwiss.fu-berlin.de/bizer/bsbm/v01/vocabulary/productPropertyTextual>\")}" , color = blue] ; 
1 -> 57 ; 
58 [label="LogProj
[13,12]" , color = blue] ; 
57 -> 58 ; 
59 [label="Join\n [15PREDICATE_EQUAL16] ", color = blue] ; 
58 -> 59 ; 
60 [label="Join\n [13PREDICATE_EQUAL14] ", color = blue] ; 
59 -> 60 ; 
61 [label="LogSkolemFunctionCall
(\"{11}\", \"{10}\", \"{2}\", \"{9}\", <http://www4.wiwiss.fu-berlin.de/bizer/bsbm/v01/instances/dataFromProducer{3}/Producer{3}>, \"{8}\", <http://www4.wiwiss.fu-berlin.de/bizer/bsbm/v01/instances/dataFromProducer{3}/Producer{3}>, \"{7}\", \"{5}\", \"{4}\", \"{1}\", \"{13}\", \"{6}\", <http://www4.wiwiss.fu-berlin.de/bizer/bsbm/v01/instances/dataFromProducer{3}/Product{0}>)" , color = blue] ; 
60 -> 61 ; 
62 [label="LogSQLEval 
SELECT nr, label, comment, producer, propertyNum1, propertyNum2, propertyTex1, propertyTex2, propertyTex3, propertyTex4, propertyTex5, propertyTex6, publisher, publishDate FROM Product", color = blue] ; 
61 -> 62 ; 
63 [label="LogSkolemFunctionCall
(<http://www4.wiwiss.fu-berlin.de/bizer/bsbm/v01/instances/dataFromProducer{1}/Product{0}>, <http://downlode.org/rdf/iso-3166/countries#{2}>)" , color = blue] ; 
60 -> 63 ; 
64 [label="LogSQLEval 
SELECT P.nr AS nr, P.producer AS producer, PR.country AS country FROM Product AS P, Producer AS PR WHERE P.producer = PR.nr", color = blue] ; 
63 -> 64 ; 
65 [label="LogSkolemFunctionCall
(<http://downlode.org/rdf/iso-3166/countries#{0}>)" , color = blue] ; 
59 -> 65 ; 
66 [label="LogSQLEval 
SELECT country FROM CountryType AS C WHERE C.countryType=122", color = blue] ; 
65 -> 66 ; 
68 [label="LogFunctionCall
AddConstant{1=(\"<http://xmlns.com/foaf/0.1/Document>\", \"<http://www4.wiwiss.fu-berlin.de/bizer/bsbm/v01/vocabulary/rating>\")}" , color = blue] ; 
1 -> 68 ; 
69 [label="LogProj
[4,7]" , color = blue] ; 
68 -> 69 ; 
70 [label="Join\n [14PREDICATE_EQUAL15] ", color = blue] ; 
69 -> 70 ; 
71 [label="Join\n [4PREDICATE_EQUAL13] ", color = blue] ; 
70 -> 71 ; 
72 [label="LogSkolemFunctionCall
(\"{5}\", \"{6}\", <http://www4.wiwiss.fu-berlin.de/bizer/bsbm/v01/instances/dataFromRatingSite{10}/RatingSite{10}>, \"{11}\", <http://www4.wiwiss.fu-berlin.de/bizer/bsbm/v01/instances/dataFromRatingSite{10}/Review{0}>, \"{4}\", \"{9}\", \"{8}\", <http://www4.wiwiss.fu-berlin.de/bizer/bsbm/v01/instances/dataFromProducer{2}/Product{1}>)" , color = blue] ; 
71 -> 72 ; 
73 [label="LogSQLEval 
SELECT nr, product, producer, person, reviewDate, title, text, language, rating1, rating2,  publisher, publishDate FROM Review", color = blue] ; 
72 -> 73 ; 
74 [label="LogSkolemFunctionCall
(\"{2}\", <http://www4.wiwiss.fu-berlin.de/bizer/bsbm/v01/instances/dataFromRatingSite{4}/RatingSite{4}>, \"{1}\", \"{5}\", <http://www4.wiwiss.fu-berlin.de/bizer/bsbm/v01/instances/dataFromRatingSite{4}/Review{0}>, <http://downlode.org/rdf/iso-3166/countries#{3}>)" , color = blue] ; 
71 -> 74 ; 
75 [label="LogSQLEval 
SELECT R.nr AS nr, P.name AS name, P.mbox_sha1sum AS mbox_sha1sum, P.country AS country, P.publisher AS publisher, P.publishDate AS publishDate FROM Person AS P, Review AS R WHERE R.person = P.nr", color = blue] ; 
74 -> 75 ; 
76 [label="LogSkolemFunctionCall
(<http://downlode.org/rdf/iso-3166/countries#{0}>)" , color = blue] ; 
70 -> 76 ; 
77 [label="LogSQLEval 
SELECT country FROM CountryType AS C WHERE C.countryType=122", color = blue] ; 
76 -> 77 ; 
79 [label="LogFunctionCall
AddConstant{1=(\"<http://xmlns.com/foaf/0.1/Document>\", \"<http://www4.wiwiss.fu-berlin.de/bizer/bsbm/v01/vocabulary/rating>\")}" , color = blue] ; 
1 -> 79 ; 
80 [label="LogProj
[4,7]" , color = blue] ; 
79 -> 80 ; 
81 [label="Join\n [14PREDICATE_EQUAL15] ", color = blue] ; 
80 -> 81 ; 
82 [label="Join\n [4PREDICATE_EQUAL13] ", color = blue] ; 
81 -> 82 ; 
83 [label="LogSkolemFunctionCall
(\"{5}\", \"{6}\", <http://www4.wiwiss.fu-berlin.de/bizer/bsbm/v01/instances/dataFromRatingSite{10}/RatingSite{10}>, \"{11}\", <http://www4.wiwiss.fu-berlin.de/bizer/bsbm/v01/instances/dataFromRatingSite{10}/Review{0}>, \"{4}\", \"{9}\", \"{8}\", <http://www4.wiwiss.fu-berlin.de/bizer/bsbm/v01/instances/dataFromProducer{2}/Product{1}>)" , color = blue] ; 
82 -> 83 ; 
84 [label="LogSQLEval 
SELECT nr, product, producer, person, reviewDate, title, text, language, rating1, rating2,  publisher, publishDate FROM Review", color = blue] ; 
83 -> 84 ; 
85 [label="LogSkolemFunctionCall
(\"{2}\", <http://www4.wiwiss.fu-berlin.de/bizer/bsbm/v01/instances/dataFromRatingSite{4}/RatingSite{4}>, \"{1}\", \"{5}\", <http://www4.wiwiss.fu-berlin.de/bizer/bsbm/v01/instances/dataFromRatingSite{4}/Review{0}>, <http://downlode.org/rdf/iso-3166/countries#{3}>)" , color = blue] ; 
82 -> 85 ; 
86 [label="LogSQLEval 
SELECT R.nr AS nr, P.name AS name, P.mbox_sha1sum AS mbox_sha1sum, P.country AS country, P.publisher AS publisher, P.publishDate AS publishDate FROM Person AS P, Review AS R WHERE R.person = P.nr", color = blue] ; 
85 -> 86 ; 
87 [label="LogSkolemFunctionCall
(<http://downlode.org/rdf/iso-3166/countries#{0}>)" , color = blue] ; 
81 -> 87 ; 
88 [label="LogSQLEval 
SELECT country FROM CountryType AS C WHERE C.countryType=121", color = blue] ; 
87 -> 88 ; 
90 [label="LogFunctionCall
AddConstant{1=(\"<http://www4.wiwiss.fu-berlin.de/bizer/bsbm/v01/vocabulary/Product>\", \"<http://www4.wiwiss.fu-berlin.de/bizer/bsbm/v01/vocabulary/productPropertyTextual>\")}" , color = blue] ; 
1 -> 90 ; 
91 [label="LogProj
[13,3]" , color = blue] ; 
90 -> 91 ; 
92 [label="Join\n [15PREDICATE_EQUAL16] ", color = blue] ; 
91 -> 92 ; 
93 [label="Join\n [13PREDICATE_EQUAL14] ", color = blue] ; 
92 -> 93 ; 
94 [label="LogSkolemFunctionCall
(\"{11}\", \"{10}\", \"{2}\", \"{9}\", <http://www4.wiwiss.fu-berlin.de/bizer/bsbm/v01/instances/dataFromProducer{3}/Producer{3}>, \"{8}\", <http://www4.wiwiss.fu-berlin.de/bizer/bsbm/v01/instances/dataFromProducer{3}/Producer{3}>, \"{7}\", \"{5}\", \"{4}\", \"{1}\", \"{13}\", \"{6}\", <http://www4.wiwiss.fu-berlin.de/bizer/bsbm/v01/instances/dataFromProducer{3}/Product{0}>)" , color = blue] ; 
93 -> 94 ; 
95 [label="LogSQLEval 
SELECT nr, label, comment, producer, propertyNum1, propertyNum2, propertyTex1, propertyTex2, propertyTex3, propertyTex4, propertyTex5, propertyTex6, publisher, publishDate FROM Product", color = blue] ; 
94 -> 95 ; 
96 [label="LogSkolemFunctionCall
(<http://www4.wiwiss.fu-berlin.de/bizer/bsbm/v01/instances/dataFromProducer{1}/Product{0}>, <http://downlode.org/rdf/iso-3166/countries#{2}>)" , color = blue] ; 
93 -> 96 ; 
97 [label="LogSQLEval 
SELECT P.nr AS nr, P.producer AS producer, PR.country AS country FROM Product AS P, Producer AS PR WHERE P.producer = PR.nr", color = blue] ; 
96 -> 97 ; 
98 [label="LogSkolemFunctionCall
(<http://downlode.org/rdf/iso-3166/countries#{0}>)" , color = blue] ; 
92 -> 98 ; 
99 [label="LogSQLEval 
SELECT country FROM CountryType AS C WHERE C.countryType=122", color = blue] ; 
98 -> 99 ; 
101 [label="LogFunctionCall
AddConstant{1=(\"<http://www4.wiwiss.fu-berlin.de/bizer/bsbm/v01/vocabulary/Product>\", \"<http://www4.wiwiss.fu-berlin.de/bizer/bsbm/v01/vocabulary/productPropertyTextual>\")}" , color = blue] ; 
1 -> 101 ; 
102 [label="LogProj
[13,3]" , color = blue] ; 
101 -> 102 ; 
103 [label="Join\n [15PREDICATE_EQUAL16] ", color = blue] ; 
102 -> 103 ; 
104 [label="Join\n [13PREDICATE_EQUAL14] ", color = blue] ; 
103 -> 104 ; 
105 [label="LogSkolemFunctionCall
(\"{11}\", \"{10}\", \"{2}\", \"{9}\", <http://www4.wiwiss.fu-berlin.de/bizer/bsbm/v01/instances/dataFromProducer{3}/Producer{3}>, \"{8}\", <http://www4.wiwiss.fu-berlin.de/bizer/bsbm/v01/instances/dataFromProducer{3}/Producer{3}>, \"{7}\", \"{5}\", \"{4}\", \"{1}\", \"{13}\", \"{6}\", <http://www4.wiwiss.fu-berlin.de/bizer/bsbm/v01/instances/dataFromProducer{3}/Product{0}>)" , color = blue] ; 
104 -> 105 ; 
106 [label="LogSQLEval 
SELECT nr, label, comment, producer, propertyNum1, propertyNum2, propertyTex1, propertyTex2, propertyTex3, propertyTex4, propertyTex5, propertyTex6, publisher, publishDate FROM Product", color = blue] ; 
105 -> 106 ; 
107 [label="LogSkolemFunctionCall
(<http://www4.wiwiss.fu-berlin.de/bizer/bsbm/v01/instances/dataFromProducer{1}/Product{0}>, <http://downlode.org/rdf/iso-3166/countries#{2}>)" , color = blue] ; 
104 -> 107 ; 
108 [label="LogSQLEval 
SELECT P.nr AS nr, P.producer AS producer, PR.country AS country FROM Product AS P, Producer AS PR WHERE P.producer = PR.nr", color = blue] ; 
107 -> 108 ; 
109 [label="LogSkolemFunctionCall
(<http://downlode.org/rdf/iso-3166/countries#{0}>)" , color = blue] ; 
103 -> 109 ; 
110 [label="LogSQLEval 
SELECT country FROM CountryType AS C WHERE C.countryType=121", color = blue] ; 
109 -> 110 ; 
112 [label="LogFunctionCall
AddConstant{1=(\"<http://purl.org/stuff/rev#Review>\", \"<http://www4.wiwiss.fu-berlin.de/bizer/bsbm/v01/vocabulary/rating>\")}" , color = blue] ; 
1 -> 112 ; 
113 [label="LogProj
[4,7]" , color = blue] ; 
112 -> 113 ; 
114 [label="Join\n [14PREDICATE_EQUAL15] ", color = blue] ; 
113 -> 114 ; 
115 [label="Join\n [4PREDICATE_EQUAL13] ", color = blue] ; 
114 -> 115 ; 
116 [label="LogSkolemFunctionCall
(\"{5}\", \"{6}\", <http://www4.wiwiss.fu-berlin.de/bizer/bsbm/v01/instances/dataFromRatingSite{10}/RatingSite{10}>, \"{11}\", <http://www4.wiwiss.fu-berlin.de/bizer/bsbm/v01/instances/dataFromRatingSite{10}/Review{0}>, \"{4}\", \"{9}\", \"{8}\", <http://www4.wiwiss.fu-berlin.de/bizer/bsbm/v01/instances/dataFromProducer{2}/Product{1}>)" , color = blue] ; 
115 -> 116 ; 
117 [label="LogSQLEval 
SELECT nr, product, producer, person, reviewDate, title, text, language, rating1, rating2,  publisher, publishDate FROM Review", color = blue] ; 
116 -> 117 ; 
118 [label="LogSkolemFunctionCall
(\"{2}\", <http://www4.wiwiss.fu-berlin.de/bizer/bsbm/v01/instances/dataFromRatingSite{4}/RatingSite{4}>, \"{1}\", \"{5}\", <http://www4.wiwiss.fu-berlin.de/bizer/bsbm/v01/instances/dataFromRatingSite{4}/Review{0}>, <http://downlode.org/rdf/iso-3166/countries#{3}>)" , color = blue] ; 
115 -> 118 ; 
119 [label="LogSQLEval 
SELECT R.nr AS nr, P.name AS name, P.mbox_sha1sum AS mbox_sha1sum, P.country AS country, P.publisher AS publisher, P.publishDate AS publishDate FROM Person AS P, Review AS R WHERE R.person = P.nr", color = blue] ; 
118 -> 119 ; 
120 [label="LogSkolemFunctionCall
(<http://downlode.org/rdf/iso-3166/countries#{0}>)" , color = blue] ; 
114 -> 120 ; 
121 [label="LogSQLEval 
SELECT country FROM CountryType AS C WHERE C.countryType=121", color = blue] ; 
120 -> 121 ; 
123 [label="LogFunctionCall
AddConstant{1=(\"<http://purl.org/stuff/rev#Review>\", \"<http://www4.wiwiss.fu-berlin.de/bizer/bsbm/v01/vocabulary/rating>\")}" , color = blue] ; 
1 -> 123 ; 
124 [label="LogProj
[4,7]" , color = blue] ; 
123 -> 124 ; 
125 [label="Join\n [14PREDICATE_EQUAL15] ", color = blue] ; 
124 -> 125 ; 
126 [label="Join\n [4PREDICATE_EQUAL13] ", color = blue] ; 
125 -> 126 ; 
127 [label="LogSkolemFunctionCall
(\"{5}\", \"{6}\", <http://www4.wiwiss.fu-berlin.de/bizer/bsbm/v01/instances/dataFromRatingSite{10}/RatingSite{10}>, \"{11}\", <http://www4.wiwiss.fu-berlin.de/bizer/bsbm/v01/instances/dataFromRatingSite{10}/Review{0}>, \"{4}\", \"{9}\", \"{8}\", <http://www4.wiwiss.fu-berlin.de/bizer/bsbm/v01/instances/dataFromProducer{2}/Product{1}>)" , color = blue] ; 
126 -> 127 ; 
128 [label="LogSQLEval 
SELECT nr, product, producer, person, reviewDate, title, text, language, rating1, rating2,  publisher, publishDate FROM Review", color = blue] ; 
127 -> 128 ; 
129 [label="LogSkolemFunctionCall
(\"{2}\", <http://www4.wiwiss.fu-berlin.de/bizer/bsbm/v01/instances/dataFromRatingSite{4}/RatingSite{4}>, \"{1}\", \"{5}\", <http://www4.wiwiss.fu-berlin.de/bizer/bsbm/v01/instances/dataFromRatingSite{4}/Review{0}>, <http://downlode.org/rdf/iso-3166/countries#{3}>)" , color = blue] ; 
126 -> 129 ; 
130 [label="LogSQLEval 
SELECT R.nr AS nr, P.name AS name, P.mbox_sha1sum AS mbox_sha1sum, P.country AS country, P.publisher AS publisher, P.publishDate AS publishDate FROM Person AS P, Review AS R WHERE R.person = P.nr", color = blue] ; 
129 -> 130 ; 
131 [label="LogSkolemFunctionCall
(<http://downlode.org/rdf/iso-3166/countries#{0}>)" , color = blue] ; 
125 -> 131 ; 
132 [label="LogSQLEval 
SELECT country FROM CountryType AS C WHERE C.countryType=122", color = blue] ; 
131 -> 132 ; 
134 [label="LogFunctionCall
AddConstant{1=(\"<http://xmlns.com/foaf/0.1/Document>\", \"<http://www4.wiwiss.fu-berlin.de/bizer/bsbm/v01/vocabulary/rating>\")}" , color = blue] ; 
1 -> 134 ; 
135 [label="LogProj
[4,6]" , color = blue] ; 
134 -> 135 ; 
136 [label="Join\n [14PREDICATE_EQUAL15] ", color = blue] ; 
135 -> 136 ; 
137 [label="Join\n [4PREDICATE_EQUAL13] ", color = blue] ; 
136 -> 137 ; 
138 [label="LogSkolemFunctionCall
(\"{5}\", \"{6}\", <http://www4.wiwiss.fu-berlin.de/bizer/bsbm/v01/instances/dataFromRatingSite{10}/RatingSite{10}>, \"{11}\", <http://www4.wiwiss.fu-berlin.de/bizer/bsbm/v01/instances/dataFromRatingSite{10}/Review{0}>, \"{4}\", \"{9}\", \"{8}\", <http://www4.wiwiss.fu-berlin.de/bizer/bsbm/v01/instances/dataFromProducer{2}/Product{1}>)" , color = blue] ; 
137 -> 138 ; 
139 [label="LogSQLEval 
SELECT nr, product, producer, person, reviewDate, title, text, language, rating1, rating2,  publisher, publishDate FROM Review", color = blue] ; 
138 -> 139 ; 
140 [label="LogSkolemFunctionCall
(\"{2}\", <http://www4.wiwiss.fu-berlin.de/bizer/bsbm/v01/instances/dataFromRatingSite{4}/RatingSite{4}>, \"{1}\", \"{5}\", <http://www4.wiwiss.fu-berlin.de/bizer/bsbm/v01/instances/dataFromRatingSite{4}/Review{0}>, <http://downlode.org/rdf/iso-3166/countries#{3}>)" , color = blue] ; 
137 -> 140 ; 
141 [label="LogSQLEval 
SELECT R.nr AS nr, P.name AS name, P.mbox_sha1sum AS mbox_sha1sum, P.country AS country, P.publisher AS publisher, P.publishDate AS publishDate FROM Person AS P, Review AS R WHERE R.person = P.nr", color = blue] ; 
140 -> 141 ; 
142 [label="LogSkolemFunctionCall
(<http://downlode.org/rdf/iso-3166/countries#{0}>)" , color = blue] ; 
136 -> 142 ; 
143 [label="LogSQLEval 
SELECT country FROM CountryType AS C WHERE C.countryType=121", color = blue] ; 
142 -> 143 ; 
145 [label="LogFunctionCall
AddConstant{1=(\"<http://xmlns.com/foaf/0.1/Document>\", \"<http://www4.wiwiss.fu-berlin.de/bizer/bsbm/v01/vocabulary/rating>\")}" , color = blue] ; 
1 -> 145 ; 
146 [label="LogProj
[4,6]" , color = blue] ; 
145 -> 146 ; 
147 [label="Join\n [14PREDICATE_EQUAL15] ", color = blue] ; 
146 -> 147 ; 
148 [label="Join\n [4PREDICATE_EQUAL13] ", color = blue] ; 
147 -> 148 ; 
149 [label="LogSkolemFunctionCall
(\"{5}\", \"{6}\", <http://www4.wiwiss.fu-berlin.de/bizer/bsbm/v01/instances/dataFromRatingSite{10}/RatingSite{10}>, \"{11}\", <http://www4.wiwiss.fu-berlin.de/bizer/bsbm/v01/instances/dataFromRatingSite{10}/Review{0}>, \"{4}\", \"{9}\", \"{8}\", <http://www4.wiwiss.fu-berlin.de/bizer/bsbm/v01/instances/dataFromProducer{2}/Product{1}>)" , color = blue] ; 
148 -> 149 ; 
150 [label="LogSQLEval 
SELECT nr, product, producer, person, reviewDate, title, text, language, rating1, rating2,  publisher, publishDate FROM Review", color = blue] ; 
149 -> 150 ; 
151 [label="LogSkolemFunctionCall
(\"{2}\", <http://www4.wiwiss.fu-berlin.de/bizer/bsbm/v01/instances/dataFromRatingSite{4}/RatingSite{4}>, \"{1}\", \"{5}\", <http://www4.wiwiss.fu-berlin.de/bizer/bsbm/v01/instances/dataFromRatingSite{4}/Review{0}>, <http://downlode.org/rdf/iso-3166/countries#{3}>)" , color = blue] ; 
148 -> 151 ; 
152 [label="LogSQLEval 
SELECT R.nr AS nr, P.name AS name, P.mbox_sha1sum AS mbox_sha1sum, P.country AS country, P.publisher AS publisher, P.publishDate AS publishDate FROM Person AS P, Review AS R WHERE R.person = P.nr", color = blue] ; 
151 -> 152 ; 
153 [label="LogSkolemFunctionCall
(<http://downlode.org/rdf/iso-3166/countries#{0}>)" , color = blue] ; 
147 -> 153 ; 
154 [label="LogSQLEval 
SELECT country FROM CountryType AS C WHERE C.countryType=122", color = blue] ; 
153 -> 154 ; 
156 [label="LogFunctionCall
AddConstant{1=(\"<http://www4.wiwiss.fu-berlin.de/bizer/bsbm/v01/vocabulary/Product>\", \"<http://www4.wiwiss.fu-berlin.de/bizer/bsbm/v01/vocabulary/productPropertyTextual>\")}" , color = blue] ; 
1 -> 156 ; 
157 [label="LogProj
[13,5]" , color = blue] ; 
156 -> 157 ; 
158 [label="Join\n [15PREDICATE_EQUAL16] ", color = blue] ; 
157 -> 158 ; 
159 [label="Join\n [13PREDICATE_EQUAL14] ", color = blue] ; 
158 -> 159 ; 
160 [label="LogSkolemFunctionCall
(\"{11}\", \"{10}\", \"{2}\", \"{9}\", <http://www4.wiwiss.fu-berlin.de/bizer/bsbm/v01/instances/dataFromProducer{3}/Producer{3}>, \"{8}\", <http://www4.wiwiss.fu-berlin.de/bizer/bsbm/v01/instances/dataFromProducer{3}/Producer{3}>, \"{7}\", \"{5}\", \"{4}\", \"{1}\", \"{13}\", \"{6}\", <http://www4.wiwiss.fu-berlin.de/bizer/bsbm/v01/instances/dataFromProducer{3}/Product{0}>)" , color = blue] ; 
159 -> 160 ; 
161 [label="LogSQLEval 
SELECT nr, label, comment, producer, propertyNum1, propertyNum2, propertyTex1, propertyTex2, propertyTex3, propertyTex4, propertyTex5, propertyTex6, publisher, publishDate FROM Product", color = blue] ; 
160 -> 161 ; 
162 [label="LogSkolemFunctionCall
(<http://www4.wiwiss.fu-berlin.de/bizer/bsbm/v01/instances/dataFromProducer{1}/Product{0}>, <http://downlode.org/rdf/iso-3166/countries#{2}>)" , color = blue] ; 
159 -> 162 ; 
163 [label="LogSQLEval 
SELECT P.nr AS nr, P.producer AS producer, PR.country AS country FROM Product AS P, Producer AS PR WHERE P.producer = PR.nr", color = blue] ; 
162 -> 163 ; 
164 [label="LogSkolemFunctionCall
(<http://downlode.org/rdf/iso-3166/countries#{0}>)" , color = blue] ; 
158 -> 164 ; 
165 [label="LogSQLEval 
SELECT country FROM CountryType AS C WHERE C.countryType=121", color = blue] ; 
164 -> 165 ; 
167 [label="LogFunctionCall
AddConstant{1=(\"<http://www4.wiwiss.fu-berlin.de/bizer/bsbm/v01/vocabulary/Product>\", \"<http://www4.wiwiss.fu-berlin.de/bizer/bsbm/v01/vocabulary/productPropertyTextual>\")}" , color = blue] ; 
1 -> 167 ; 
168 [label="LogProj
[13,5]" , color = blue] ; 
167 -> 168 ; 
169 [label="Join\n [15PREDICATE_EQUAL16] ", color = blue] ; 
168 -> 169 ; 
170 [label="Join\n [13PREDICATE_EQUAL14] ", color = blue] ; 
169 -> 170 ; 
171 [label="LogSkolemFunctionCall
(\"{11}\", \"{10}\", \"{2}\", \"{9}\", <http://www4.wiwiss.fu-berlin.de/bizer/bsbm/v01/instances/dataFromProducer{3}/Producer{3}>, \"{8}\", <http://www4.wiwiss.fu-berlin.de/bizer/bsbm/v01/instances/dataFromProducer{3}/Producer{3}>, \"{7}\", \"{5}\", \"{4}\", \"{1}\", \"{13}\", \"{6}\", <http://www4.wiwiss.fu-berlin.de/bizer/bsbm/v01/instances/dataFromProducer{3}/Product{0}>)" , color = blue] ; 
170 -> 171 ; 
172 [label="LogSQLEval 
SELECT nr, label, comment, producer, propertyNum1, propertyNum2, propertyTex1, propertyTex2, propertyTex3, propertyTex4, propertyTex5, propertyTex6, publisher, publishDate FROM Product", color = blue] ; 
171 -> 172 ; 
173 [label="LogSkolemFunctionCall
(<http://www4.wiwiss.fu-berlin.de/bizer/bsbm/v01/instances/dataFromProducer{1}/Product{0}>, <http://downlode.org/rdf/iso-3166/countries#{2}>)" , color = blue] ; 
170 -> 173 ; 
174 [label="LogSQLEval 
SELECT P.nr AS nr, P.producer AS producer, PR.country AS country FROM Product AS P, Producer AS PR WHERE P.producer = PR.nr", color = blue] ; 
173 -> 174 ; 
175 [label="LogSkolemFunctionCall
(<http://downlode.org/rdf/iso-3166/countries#{0}>)" , color = blue] ; 
169 -> 175 ; 
176 [label="LogSQLEval 
SELECT country FROM CountryType AS C WHERE C.countryType=122", color = blue] ; 
175 -> 176 ; 
178 [label="LogFunctionCall
AddConstant{1=(\"<http://www4.wiwiss.fu-berlin.de/bizer/bsbm/v01/vocabulary/Product>\", \"<http://www4.wiwiss.fu-berlin.de/bizer/bsbm/v01/vocabulary/productPropertyTextual>\")}" , color = blue] ; 
1 -> 178 ; 
179 [label="LogProj
[13,0]" , color = blue] ; 
178 -> 179 ; 
180 [label="Join\n [15PREDICATE_EQUAL16] ", color = blue] ; 
179 -> 180 ; 
181 [label="Join\n [13PREDICATE_EQUAL14] ", color = blue] ; 
180 -> 181 ; 
182 [label="LogSkolemFunctionCall
(\"{11}\", \"{10}\", \"{2}\", \"{9}\", <http://www4.wiwiss.fu-berlin.de/bizer/bsbm/v01/instances/dataFromProducer{3}/Producer{3}>, \"{8}\", <http://www4.wiwiss.fu-berlin.de/bizer/bsbm/v01/instances/dataFromProducer{3}/Producer{3}>, \"{7}\", \"{5}\", \"{4}\", \"{1}\", \"{13}\", \"{6}\", <http://www4.wiwiss.fu-berlin.de/bizer/bsbm/v01/instances/dataFromProducer{3}/Product{0}>)" , color = blue] ; 
181 -> 182 ; 
183 [label="LogSQLEval 
SELECT nr, label, comment, producer, propertyNum1, propertyNum2, propertyTex1, propertyTex2, propertyTex3, propertyTex4, propertyTex5, propertyTex6, publisher, publishDate FROM Product", color = blue] ; 
182 -> 183 ; 
184 [label="LogSkolemFunctionCall
(<http://www4.wiwiss.fu-berlin.de/bizer/bsbm/v01/instances/dataFromProducer{1}/Product{0}>, <http://downlode.org/rdf/iso-3166/countries#{2}>)" , color = blue] ; 
181 -> 184 ; 
185 [label="LogSQLEval 
SELECT P.nr AS nr, P.producer AS producer, PR.country AS country FROM Product AS P, Producer AS PR WHERE P.producer = PR.nr", color = blue] ; 
184 -> 185 ; 
186 [label="LogSkolemFunctionCall
(<http://downlode.org/rdf/iso-3166/countries#{0}>)" , color = blue] ; 
180 -> 186 ; 
187 [label="LogSQLEval 
SELECT country FROM CountryType AS C WHERE C.countryType=122", color = blue] ; 
186 -> 187 ; 
189 [label="LogFunctionCall
AddConstant{1=(\"<http://www4.wiwiss.fu-berlin.de/bizer/bsbm/v01/vocabulary/Product>\", \"<http://www4.wiwiss.fu-berlin.de/bizer/bsbm/v01/vocabulary/productPropertyTextual>\")}" , color = blue] ; 
1 -> 189 ; 
190 [label="LogProj
[13,0]" , color = blue] ; 
189 -> 190 ; 
191 [label="Join\n [15PREDICATE_EQUAL16] ", color = blue] ; 
190 -> 191 ; 
192 [label="Join\n [13PREDICATE_EQUAL14] ", color = blue] ; 
191 -> 192 ; 
193 [label="LogSkolemFunctionCall
(\"{11}\", \"{10}\", \"{2}\", \"{9}\", <http://www4.wiwiss.fu-berlin.de/bizer/bsbm/v01/instances/dataFromProducer{3}/Producer{3}>, \"{8}\", <http://www4.wiwiss.fu-berlin.de/bizer/bsbm/v01/instances/dataFromProducer{3}/Producer{3}>, \"{7}\", \"{5}\", \"{4}\", \"{1}\", \"{13}\", \"{6}\", <http://www4.wiwiss.fu-berlin.de/bizer/bsbm/v01/instances/dataFromProducer{3}/Product{0}>)" , color = blue] ; 
192 -> 193 ; 
194 [label="LogSQLEval 
SELECT nr, label, comment, producer, propertyNum1, propertyNum2, propertyTex1, propertyTex2, propertyTex3, propertyTex4, propertyTex5, propertyTex6, publisher, publishDate FROM Product", color = blue] ; 
193 -> 194 ; 
195 [label="LogSkolemFunctionCall
(<http://www4.wiwiss.fu-berlin.de/bizer/bsbm/v01/instances/dataFromProducer{1}/Product{0}>, <http://downlode.org/rdf/iso-3166/countries#{2}>)" , color = blue] ; 
192 -> 195 ; 
196 [label="LogSQLEval 
SELECT P.nr AS nr, P.producer AS producer, PR.country AS country FROM Product AS P, Producer AS PR WHERE P.producer = PR.nr", color = blue] ; 
195 -> 196 ; 
197 [label="LogSkolemFunctionCall
(<http://downlode.org/rdf/iso-3166/countries#{0}>)" , color = blue] ; 
191 -> 197 ; 
198 [label="LogSQLEval 
SELECT country FROM CountryType AS C WHERE C.countryType=121", color = blue] ; 
197 -> 198 ; 
200 [label="LogFunctionCall
AddConstant{1=(\"<http://www4.wiwiss.fu-berlin.de/bizer/bsbm/v01/vocabulary/Product>\", \"<http://www4.wiwiss.fu-berlin.de/bizer/bsbm/v01/vocabulary/productPropertyNumeric>\")}" , color = blue] ; 
1 -> 200 ; 
201 [label="LogProj
[13,8]" , color = blue] ; 
200 -> 201 ; 
202 [label="Join\n [15PREDICATE_EQUAL16] ", color = blue] ; 
201 -> 202 ; 
203 [label="Join\n [13PREDICATE_EQUAL14] ", color = blue] ; 
202 -> 203 ; 
204 [label="LogSkolemFunctionCall
(\"{11}\", \"{10}\", \"{2}\", \"{9}\", <http://www4.wiwiss.fu-berlin.de/bizer/bsbm/v01/instances/dataFromProducer{3}/Producer{3}>, \"{8}\", <http://www4.wiwiss.fu-berlin.de/bizer/bsbm/v01/instances/dataFromProducer{3}/Producer{3}>, \"{7}\", \"{5}\", \"{4}\", \"{1}\", \"{13}\", \"{6}\", <http://www4.wiwiss.fu-berlin.de/bizer/bsbm/v01/instances/dataFromProducer{3}/Product{0}>)" , color = blue] ; 
203 -> 204 ; 
205 [label="LogSQLEval 
SELECT nr, label, comment, producer, propertyNum1, propertyNum2, propertyTex1, propertyTex2, propertyTex3, propertyTex4, propertyTex5, propertyTex6, publisher, publishDate FROM Product", color = blue] ; 
204 -> 205 ; 
206 [label="LogSkolemFunctionCall
(<http://www4.wiwiss.fu-berlin.de/bizer/bsbm/v01/instances/dataFromProducer{1}/Product{0}>, <http://downlode.org/rdf/iso-3166/countries#{2}>)" , color = blue] ; 
203 -> 206 ; 
207 [label="LogSQLEval 
SELECT P.nr AS nr, P.producer AS producer, PR.country AS country FROM Product AS P, Producer AS PR WHERE P.producer = PR.nr", color = blue] ; 
206 -> 207 ; 
208 [label="LogSkolemFunctionCall
(<http://downlode.org/rdf/iso-3166/countries#{0}>)" , color = blue] ; 
202 -> 208 ; 
209 [label="LogSQLEval 
SELECT country FROM CountryType AS C WHERE C.countryType=121", color = blue] ; 
208 -> 209 ; 
211 [label="LogFunctionCall
AddConstant{1=(\"<http://www4.wiwiss.fu-berlin.de/bizer/bsbm/v01/vocabulary/Product>\", \"<http://www4.wiwiss.fu-berlin.de/bizer/bsbm/v01/vocabulary/productPropertyNumeric>\")}" , color = blue] ; 
1 -> 211 ; 
212 [label="LogProj
[13,8]" , color = blue] ; 
211 -> 212 ; 
213 [label="Join\n [15PREDICATE_EQUAL16] ", color = blue] ; 
212 -> 213 ; 
214 [label="Join\n [13PREDICATE_EQUAL14] ", color = blue] ; 
213 -> 214 ; 
215 [label="LogSkolemFunctionCall
(\"{11}\", \"{10}\", \"{2}\", \"{9}\", <http://www4.wiwiss.fu-berlin.de/bizer/bsbm/v01/instances/dataFromProducer{3}/Producer{3}>, \"{8}\", <http://www4.wiwiss.fu-berlin.de/bizer/bsbm/v01/instances/dataFromProducer{3}/Producer{3}>, \"{7}\", \"{5}\", \"{4}\", \"{1}\", \"{13}\", \"{6}\", <http://www4.wiwiss.fu-berlin.de/bizer/bsbm/v01/instances/dataFromProducer{3}/Product{0}>)" , color = blue] ; 
214 -> 215 ; 
216 [label="LogSQLEval 
SELECT nr, label, comment, producer, propertyNum1, propertyNum2, propertyTex1, propertyTex2, propertyTex3, propertyTex4, propertyTex5, propertyTex6, publisher, publishDate FROM Product", color = blue] ; 
215 -> 216 ; 
217 [label="LogSkolemFunctionCall
(<http://www4.wiwiss.fu-berlin.de/bizer/bsbm/v01/instances/dataFromProducer{1}/Product{0}>, <http://downlode.org/rdf/iso-3166/countries#{2}>)" , color = blue] ; 
214 -> 217 ; 
218 [label="LogSQLEval 
SELECT P.nr AS nr, P.producer AS producer, PR.country AS country FROM Product AS P, Producer AS PR WHERE P.producer = PR.nr", color = blue] ; 
217 -> 218 ; 
219 [label="LogSkolemFunctionCall
(<http://downlode.org/rdf/iso-3166/countries#{0}>)" , color = blue] ; 
213 -> 219 ; 
220 [label="LogSQLEval 
SELECT country FROM CountryType AS C WHERE C.countryType=122", color = blue] ; 
219 -> 220 ; 
222 [label="LogFunctionCall
AddConstant{1=(\"<http://www4.wiwiss.fu-berlin.de/bizer/bsbm/v01/vocabulary/Product>\", \"<http://www4.wiwiss.fu-berlin.de/bizer/bsbm/v01/vocabulary/productPropertyTextual>\")}" , color = blue] ; 
1 -> 222 ; 
223 [label="LogProj
[13,1]" , color = blue] ; 
222 -> 223 ; 
224 [label="Join\n [15PREDICATE_EQUAL16] ", color = blue] ; 
223 -> 224 ; 
225 [label="Join\n [13PREDICATE_EQUAL14] ", color = blue] ; 
224 -> 225 ; 
226 [label="LogSkolemFunctionCall
(\"{11}\", \"{10}\", \"{2}\", \"{9}\", <http://www4.wiwiss.fu-berlin.de/bizer/bsbm/v01/instances/dataFromProducer{3}/Producer{3}>, \"{8}\", <http://www4.wiwiss.fu-berlin.de/bizer/bsbm/v01/instances/dataFromProducer{3}/Producer{3}>, \"{7}\", \"{5}\", \"{4}\", \"{1}\", \"{13}\", \"{6}\", <http://www4.wiwiss.fu-berlin.de/bizer/bsbm/v01/instances/dataFromProducer{3}/Product{0}>)" , color = blue] ; 
225 -> 226 ; 
227 [label="LogSQLEval 
SELECT nr, label, comment, producer, propertyNum1, propertyNum2, propertyTex1, propertyTex2, propertyTex3, propertyTex4, propertyTex5, propertyTex6, publisher, publishDate FROM Product", color = blue] ; 
226 -> 227 ; 
228 [label="LogSkolemFunctionCall
(<http://www4.wiwiss.fu-berlin.de/bizer/bsbm/v01/instances/dataFromProducer{1}/Product{0}>, <http://downlode.org/rdf/iso-3166/countries#{2}>)" , color = blue] ; 
225 -> 228 ; 
229 [label="LogSQLEval 
SELECT P.nr AS nr, P.producer AS producer, PR.country AS country FROM Product AS P, Producer AS PR WHERE P.producer = PR.nr", color = blue] ; 
228 -> 229 ; 
230 [label="LogSkolemFunctionCall
(<http://downlode.org/rdf/iso-3166/countries#{0}>)" , color = blue] ; 
224 -> 230 ; 
231 [label="LogSQLEval 
SELECT country FROM CountryType AS C WHERE C.countryType=121", color = blue] ; 
230 -> 231 ; 
233 [label="LogFunctionCall
AddConstant{1=(\"<http://www4.wiwiss.fu-berlin.de/bizer/bsbm/v01/vocabulary/Product>\", \"<http://www4.wiwiss.fu-berlin.de/bizer/bsbm/v01/vocabulary/productPropertyTextual>\")}" , color = blue] ; 
1 -> 233 ; 
234 [label="LogProj
[13,1]" , color = blue] ; 
233 -> 234 ; 
235 [label="Join\n [15PREDICATE_EQUAL16] ", color = blue] ; 
234 -> 235 ; 
236 [label="Join\n [13PREDICATE_EQUAL14] ", color = blue] ; 
235 -> 236 ; 
237 [label="LogSkolemFunctionCall
(\"{11}\", \"{10}\", \"{2}\", \"{9}\", <http://www4.wiwiss.fu-berlin.de/bizer/bsbm/v01/instances/dataFromProducer{3}/Producer{3}>, \"{8}\", <http://www4.wiwiss.fu-berlin.de/bizer/bsbm/v01/instances/dataFromProducer{3}/Producer{3}>, \"{7}\", \"{5}\", \"{4}\", \"{1}\", \"{13}\", \"{6}\", <http://www4.wiwiss.fu-berlin.de/bizer/bsbm/v01/instances/dataFromProducer{3}/Product{0}>)" , color = blue] ; 
236 -> 237 ; 
238 [label="LogSQLEval 
SELECT nr, label, comment, producer, propertyNum1, propertyNum2, propertyTex1, propertyTex2, propertyTex3, propertyTex4, propertyTex5, propertyTex6, publisher, publishDate FROM Product", color = blue] ; 
237 -> 238 ; 
239 [label="LogSkolemFunctionCall
(<http://www4.wiwiss.fu-berlin.de/bizer/bsbm/v01/instances/dataFromProducer{1}/Product{0}>, <http://downlode.org/rdf/iso-3166/countries#{2}>)" , color = blue] ; 
236 -> 239 ; 
240 [label="LogSQLEval 
SELECT P.nr AS nr, P.producer AS producer, PR.country AS country FROM Product AS P, Producer AS PR WHERE P.producer = PR.nr", color = blue] ; 
239 -> 240 ; 
241 [label="LogSkolemFunctionCall
(<http://downlode.org/rdf/iso-3166/countries#{0}>)" , color = blue] ; 
235 -> 241 ; 
242 [label="LogSQLEval 
SELECT country FROM CountryType AS C WHERE C.countryType=122", color = blue] ; 
241 -> 242 ; 
244 [label="LogFunctionCall
AddConstant{1=(\"<http://www4.wiwiss.fu-berlin.de/bizer/bsbm/v01/vocabulary/Product>\", \"<http://www4.wiwiss.fu-berlin.de/bizer/bsbm/v01/vocabulary/productPropertyNumeric>\")}" , color = blue] ; 
1 -> 244 ; 
245 [label="LogProj
[13,9]" , color = blue] ; 
244 -> 245 ; 
246 [label="Join\n [15PREDICATE_EQUAL16] ", color = blue] ; 
245 -> 246 ; 
247 [label="Join\n [13PREDICATE_EQUAL14] ", color = blue] ; 
246 -> 247 ; 
248 [label="LogSkolemFunctionCall
(\"{11}\", \"{10}\", \"{2}\", \"{9}\", <http://www4.wiwiss.fu-berlin.de/bizer/bsbm/v01/instances/dataFromProducer{3}/Producer{3}>, \"{8}\", <http://www4.wiwiss.fu-berlin.de/bizer/bsbm/v01/instances/dataFromProducer{3}/Producer{3}>, \"{7}\", \"{5}\", \"{4}\", \"{1}\", \"{13}\", \"{6}\", <http://www4.wiwiss.fu-berlin.de/bizer/bsbm/v01/instances/dataFromProducer{3}/Product{0}>)" , color = blue] ; 
247 -> 248 ; 
249 [label="LogSQLEval 
SELECT nr, label, comment, producer, propertyNum1, propertyNum2, propertyTex1, propertyTex2, propertyTex3, propertyTex4, propertyTex5, propertyTex6, publisher, publishDate FROM Product", color = blue] ; 
248 -> 249 ; 
250 [label="LogSkolemFunctionCall
(<http://www4.wiwiss.fu-berlin.de/bizer/bsbm/v01/instances/dataFromProducer{1}/Product{0}>, <http://downlode.org/rdf/iso-3166/countries#{2}>)" , color = blue] ; 
247 -> 250 ; 
251 [label="LogSQLEval 
SELECT P.nr AS nr, P.producer AS producer, PR.country AS country FROM Product AS P, Producer AS PR WHERE P.producer = PR.nr", color = blue] ; 
250 -> 251 ; 
252 [label="LogSkolemFunctionCall
(<http://downlode.org/rdf/iso-3166/countries#{0}>)" , color = blue] ; 
246 -> 252 ; 
253 [label="LogSQLEval 
SELECT country FROM CountryType AS C WHERE C.countryType=121", color = blue] ; 
252 -> 253 ; 
255 [label="LogFunctionCall
AddConstant{1=(\"<http://www4.wiwiss.fu-berlin.de/bizer/bsbm/v01/vocabulary/Product>\", \"<http://www4.wiwiss.fu-berlin.de/bizer/bsbm/v01/vocabulary/productPropertyNumeric>\")}" , color = blue] ; 
1 -> 255 ; 
256 [label="LogProj
[13,9]" , color = blue] ; 
255 -> 256 ; 
257 [label="Join\n [15PREDICATE_EQUAL16] ", color = blue] ; 
256 -> 257 ; 
258 [label="Join\n [13PREDICATE_EQUAL14] ", color = blue] ; 
257 -> 258 ; 
259 [label="LogSkolemFunctionCall
(\"{11}\", \"{10}\", \"{2}\", \"{9}\", <http://www4.wiwiss.fu-berlin.de/bizer/bsbm/v01/instances/dataFromProducer{3}/Producer{3}>, \"{8}\", <http://www4.wiwiss.fu-berlin.de/bizer/bsbm/v01/instances/dataFromProducer{3}/Producer{3}>, \"{7}\", \"{5}\", \"{4}\", \"{1}\", \"{13}\", \"{6}\", <http://www4.wiwiss.fu-berlin.de/bizer/bsbm/v01/instances/dataFromProducer{3}/Product{0}>)" , color = blue] ; 
258 -> 259 ; 
260 [label="LogSQLEval 
SELECT nr, label, comment, producer, propertyNum1, propertyNum2, propertyTex1, propertyTex2, propertyTex3, propertyTex4, propertyTex5, propertyTex6, publisher, publishDate FROM Product", color = blue] ; 
259 -> 260 ; 
261 [label="LogSkolemFunctionCall
(<http://www4.wiwiss.fu-berlin.de/bizer/bsbm/v01/instances/dataFromProducer{1}/Product{0}>, <http://downlode.org/rdf/iso-3166/countries#{2}>)" , color = blue] ; 
258 -> 261 ; 
262 [label="LogSQLEval 
SELECT P.nr AS nr, P.producer AS producer, PR.country AS country FROM Product AS P, Producer AS PR WHERE P.producer = PR.nr", color = blue] ; 
261 -> 262 ; 
263 [label="LogSkolemFunctionCall
(<http://downlode.org/rdf/iso-3166/countries#{0}>)" , color = blue] ; 
257 -> 263 ; 
264 [label="LogSQLEval 
SELECT country FROM CountryType AS C WHERE C.countryType=122", color = blue] ; 
263 -> 264 ; 
}

