ANS($x,<http://purl.org/stuff/rev#Review>,<http://www4.wiwiss.fu-berlin.de/bizer/bsbm/v01/vocabulary/rating>,$value) : [V_review\9(X208235166111579,X208235166111575,X208235166111576,X208235166111577,$x,X208235166111581,$value,X208235166111583,X208235166111578), V_reviewer\6(X208235166111770,X208235166111771,X208235166111769,X208235166111765,$x,$country), V_country-type-122\1($country)]

ANS($x,<http://purl.org/stuff/rev#Review>,<http://www4.wiwiss.fu-berlin.de/bizer/bsbm/v01/vocabulary/rating>,$value) : [V_review\9(X208235166111579,X208235166111575,X208235166111576,X208235166111577,$x,X208235166111581,$value,X208235166111583,X208235166111578), V_reviewer\6(X208235166111770,X208235166111771,X208235166111769,X208235166111765,$x,$country), V_country-type-121\1($country)]

ANS($x,<http://www4.wiwiss.fu-berlin.de/bizer/bsbm/v01/vocabulary/Product>,<http://www4.wiwiss.fu-berlin.de/bizer/bsbm/v01/vocabulary/productPropertyTextual>,$value) : [V_product\14(X208235166118082,X208235166118080,X208235166118078,X208235166118077,X208235166118090,X208235166118089,X208235166118088,$value,X208235166118086,X208235166118085,X208235166118084,X208235166118083,X208235166118081,$x), V_product-country\2($x,$country), V_country-type-121\1($country)]

ANS($x,<http://www4.wiwiss.fu-berlin.de/bizer/bsbm/v01/vocabulary/Product>,<http://www4.wiwiss.fu-berlin.de/bizer/bsbm/v01/vocabulary/productPropertyTextual>,$value) : [V_product\14(X208235166118082,X208235166118080,X208235166118078,X208235166118077,X208235166118090,X208235166118089,X208235166118088,$value,X208235166118086,X208235166118085,X208235166118084,X208235166118083,X208235166118081,$x), V_product-country\2($x,$country), V_country-type-122\1($country)]

ANS($x,<http://www4.wiwiss.fu-berlin.de/bizer/bsbm/v01/vocabulary/Product>,<http://www4.wiwiss.fu-berlin.de/bizer/bsbm/v01/vocabulary/productPropertyTextual>,$value) : [V_product\14(X208235166124963,X208235166124965,X208235166124957,X208235166124959,X208235166124960,X208235166124952,X208235166124953,X208235166124954,X208235166124955,X208235166124961,X208235166124962,X208235166124964,$value,$x), V_product-country\2($x,$country), V_country-type-121\1($country)]

ANS($x,<http://www4.wiwiss.fu-berlin.de/bizer/bsbm/v01/vocabulary/Product>,<http://www4.wiwiss.fu-berlin.de/bizer/bsbm/v01/vocabulary/productPropertyTextual>,$value) : [V_product\14(X208235166124963,X208235166124965,X208235166124957,X208235166124959,X208235166124960,X208235166124952,X208235166124953,X208235166124954,X208235166124955,X208235166124961,X208235166124962,X208235166124964,$value,$x), V_product-country\2($x,$country), V_country-type-122\1($country)]

ANS($x,<http://xmlns.com/foaf/0.1/Document>,<http://www4.wiwiss.fu-berlin.de/bizer/bsbm/v01/vocabulary/rating>,$value) : [V_review\9(X208235166137210,X208235166137209,X208235166137208,X208235166137214,$x,X208235166137212,X208235166137211,$value,X208235166137206), V_reviewer\6(X208235166136851,X208235166136850,X208235166136849,X208235166136848,$x,$country), V_country-type-122\1($country)]

ANS($x,<http://xmlns.com/foaf/0.1/Document>,<http://www4.wiwiss.fu-berlin.de/bizer/bsbm/v01/vocabulary/rating>,$value) : [V_review\9(X208235166137210,X208235166137209,X208235166137208,X208235166137214,$x,X208235166137212,X208235166137211,$value,X208235166137206), V_reviewer\6(X208235166136851,X208235166136850,X208235166136849,X208235166136848,$x,$country), V_country-type-121\1($country)]

ANS($x,<http://www4.wiwiss.fu-berlin.de/bizer/bsbm/v01/vocabulary/Product>,<http://www4.wiwiss.fu-berlin.de/bizer/bsbm/v01/vocabulary/productPropertyTextual>,$value) : [V_product\14(X208235166138901,X208235166138903,X208235166138905,$value,X208235166138912,X208235166138913,X208235166138914,X208235166138907,X208235166138908,X208235166138909,X208235166138910,X208235166138902,X208235166138904,$x), V_product-country\2($x,$country), V_country-type-122\1($country)]

ANS($x,<http://www4.wiwiss.fu-berlin.de/bizer/bsbm/v01/vocabulary/Product>,<http://www4.wiwiss.fu-berlin.de/bizer/bsbm/v01/vocabulary/productPropertyTextual>,$value) : [V_product\14(X208235166138901,X208235166138903,X208235166138905,$value,X208235166138912,X208235166138913,X208235166138914,X208235166138907,X208235166138908,X208235166138909,X208235166138910,X208235166138902,X208235166138904,$x), V_product-country\2($x,$country), V_country-type-121\1($country)]

ANS($x,<http://purl.org/stuff/rev#Review>,<http://www4.wiwiss.fu-berlin.de/bizer/bsbm/v01/vocabulary/rating>,$value) : [V_review\9(X208235166142492,X208235166142491,X208235166142490,X208235166142489,$x,X208235166142487,X208235166142486,$value,X208235166142484), V_reviewer\6(X208235166142380,X208235166142379,X208235166142378,X208235166142384,$x,$country), V_country-type-121\1($country)]

ANS($x,<http://purl.org/stuff/rev#Review>,<http://www4.wiwiss.fu-berlin.de/bizer/bsbm/v01/vocabulary/rating>,$value) : [V_review\9(X208235166142492,X208235166142491,X208235166142490,X208235166142489,$x,X208235166142487,X208235166142486,$value,X208235166142484), V_reviewer\6(X208235166142380,X208235166142379,X208235166142378,X208235166142384,$x,$country), V_country-type-122\1($country)]

ANS($x,<http://xmlns.com/foaf/0.1/Document>,<http://www4.wiwiss.fu-berlin.de/bizer/bsbm/v01/vocabulary/rating>,$value) : [V_review\9(X208235166143491,X208235166143490,X208235166143489,X208235166143488,$x,X208235166143486,$value,X208235166143484,X208235166143483), V_reviewer\6(X208235166143369,X208235166143368,X208235166143367,X208235166143366,$x,$country), V_country-type-121\1($country)]

ANS($x,<http://xmlns.com/foaf/0.1/Document>,<http://www4.wiwiss.fu-berlin.de/bizer/bsbm/v01/vocabulary/rating>,$value) : [V_review\9(X208235166143491,X208235166143490,X208235166143489,X208235166143488,$x,X208235166143486,$value,X208235166143484,X208235166143483), V_reviewer\6(X208235166143369,X208235166143368,X208235166143367,X208235166143366,$x,$country), V_country-type-122\1($country)]

ANS($x,<http://www4.wiwiss.fu-berlin.de/bizer/bsbm/v01/vocabulary/Product>,<http://www4.wiwiss.fu-berlin.de/bizer/bsbm/v01/vocabulary/productPropertyTextual>,$value) : [V_product\14(X208235166146712,X208235166146711,X208235166146714,X208235166146713,X208235166146717,$value,X208235166146719,X208235166146718,X208235166146721,X208235166146720,X208235166146723,X208235166146722,X208235166146724,$x), V_product-country\2($x,$country), V_country-type-121\1($country)]

ANS($x,<http://www4.wiwiss.fu-berlin.de/bizer/bsbm/v01/vocabulary/Product>,<http://www4.wiwiss.fu-berlin.de/bizer/bsbm/v01/vocabulary/productPropertyTextual>,$value) : [V_product\14(X208235166146712,X208235166146711,X208235166146714,X208235166146713,X208235166146717,$value,X208235166146719,X208235166146718,X208235166146721,X208235166146720,X208235166146723,X208235166146722,X208235166146724,$x), V_product-country\2($x,$country), V_country-type-122\1($country)]

ANS($x,<http://www4.wiwiss.fu-berlin.de/bizer/bsbm/v01/vocabulary/Product>,<http://www4.wiwiss.fu-berlin.de/bizer/bsbm/v01/vocabulary/productPropertyTextual>,$value) : [V_product\14($value,X208235166152299,X208235166152307,X208235166152306,X208235166152310,X208235166152309,X208235166152305,X208235166152304,X208235166152303,X208235166152298,X208235166152297,X208235166152302,X208235166152300,$x), V_product-country\2($x,$country), V_country-type-122\1($country)]

ANS($x,<http://www4.wiwiss.fu-berlin.de/bizer/bsbm/v01/vocabulary/Product>,<http://www4.wiwiss.fu-berlin.de/bizer/bsbm/v01/vocabulary/productPropertyTextual>,$value) : [V_product\14($value,X208235166152299,X208235166152307,X208235166152306,X208235166152310,X208235166152309,X208235166152305,X208235166152304,X208235166152303,X208235166152298,X208235166152297,X208235166152302,X208235166152300,$x), V_product-country\2($x,$country), V_country-type-121\1($country)]

ANS($x,<http://www4.wiwiss.fu-berlin.de/bizer/bsbm/v01/vocabulary/Product>,<http://www4.wiwiss.fu-berlin.de/bizer/bsbm/v01/vocabulary/productPropertyNumeric>,$value) : [V_product\14(X208235166157825,X208235166157823,X208235166157821,X208235166157820,X208235166157819,X208235166157818,X208235166157817,X208235166157816,$value,X208235166157814,X208235166157827,X208235166157826,X208235166157824,$x), V_product-country\2($x,$country), V_country-type-121\1($country)]

ANS($x,<http://www4.wiwiss.fu-berlin.de/bizer/bsbm/v01/vocabulary/Product>,<http://www4.wiwiss.fu-berlin.de/bizer/bsbm/v01/vocabulary/productPropertyNumeric>,$value) : [V_product\14(X208235166157825,X208235166157823,X208235166157821,X208235166157820,X208235166157819,X208235166157818,X208235166157817,X208235166157816,$value,X208235166157814,X208235166157827,X208235166157826,X208235166157824,$x), V_product-country\2($x,$country), V_country-type-122\1($country)]

ANS($x,<http://www4.wiwiss.fu-berlin.de/bizer/bsbm/v01/vocabulary/Product>,<http://www4.wiwiss.fu-berlin.de/bizer/bsbm/v01/vocabulary/productPropertyTextual>,$value) : [V_product\14(X208235166162389,$value,X208235166162385,X208235166162380,X208235166162393,X208235166162392,X208235166162384,X208235166162383,X208235166162382,X208235166162381,X208235166162391,X208235166162390,X208235166162388,$x), V_product-country\2($x,$country), V_country-type-121\1($country)]

ANS($x,<http://www4.wiwiss.fu-berlin.de/bizer/bsbm/v01/vocabulary/Product>,<http://www4.wiwiss.fu-berlin.de/bizer/bsbm/v01/vocabulary/productPropertyTextual>,$value) : [V_product\14(X208235166162389,$value,X208235166162385,X208235166162380,X208235166162393,X208235166162392,X208235166162384,X208235166162383,X208235166162382,X208235166162381,X208235166162391,X208235166162390,X208235166162388,$x), V_product-country\2($x,$country), V_country-type-122\1($country)]

ANS($x,<http://www4.wiwiss.fu-berlin.de/bizer/bsbm/v01/vocabulary/Product>,<http://www4.wiwiss.fu-berlin.de/bizer/bsbm/v01/vocabulary/productPropertyNumeric>,$value) : [V_product\14(X208235166170256,X208235166170258,X208235166170246,X208235166170248,X208235166170249,X208235166170250,X208235166170251,X208235166170252,X208235166170253,$value,X208235166170255,X208235166170257,X208235166170259,$x), V_product-country\2($x,$country), V_country-type-121\1($country)]

ANS($x,<http://www4.wiwiss.fu-berlin.de/bizer/bsbm/v01/vocabulary/Product>,<http://www4.wiwiss.fu-berlin.de/bizer/bsbm/v01/vocabulary/productPropertyNumeric>,$value) : [V_product\14(X208235166170256,X208235166170258,X208235166170246,X208235166170248,X208235166170249,X208235166170250,X208235166170251,X208235166170252,X208235166170253,$value,X208235166170255,X208235166170257,X208235166170259,$x), V_product-country\2($x,$country), V_country-type-122\1($country)]

