INPUT	N_ANS	N_TRI	N_REF	N_REW	N_CLASH	N_COVER	T_REF	T_REW	T_CLASH	T_COVER	T_CORE	T_OP	T_QEV	T_TOTAL
Q01	1272	5	7	8	6	2	15	102	1	4	51	109	72	355
Q01a	4376	5	21	16	12	4	21	154	0	3	45	13	47	283
Q01b	22738	5	175	128	96	32	190	895	0	22	255	70	496	1932
Q02	16	6	21	16	12	4	3	451	0	1	24	8	15	502
Q02a	56	6	49	32	24	8	19	1102	0	4	48	14	28	1216
Q02b	174	6	147	64	48	16	61	2806	0	7	98	30	60	3064
Q02c	1342	6	1225	512	384	128	3665	22532	6	65	1007	304	396	27991
Q03	19	5	525	128	0	64	748	6914	1	43	1019	109	165	9008
Q04	91	2	1	8	6	2	0	3	0	0	1	0	12	16
Q05	56200	4	1	8	7	1	0	1	0	0	5	1	274	281
Q05a	33089	4	3	2	0	2	0	26	0	0	1	2	185	214
Q05b	50958	4	7	4	0	4	0	68	0	0	3	20	258	349
Q06	52208	3	5	2	0	2	0	23	1	0	4	1	487	516
Q06a	29377	6	15	4	0	4	1	304	0	0	8	5	206	525
Q06b	17815	6	35	8	0	8	4	688	0	2	15	7	178	894
Q07	2	3	5	194	0	194	1	42	1	16	36	62	159	329
Q07a	3	3	15	388	0	388	1	112	0	48	29	120	364	722
Q08	56200	3	1	1	0	1	0	1	0	0	5	0	461	467
Q09	5617	1	7	2	0	2	1	14	0	0	3	1	19	38
Q10	9	3	484	588	0	586	468	3138	1	144	63	99	2960	7008
Q10a	14	3	1452	1176	0	1172	2814	9358	4	567	119	175	6141	19902
Q10b	24	3	3388	2352	0	2344	15294	21407	5	2148	507	298	12978	54434
Q11	116	5	5085	16	14	1	50630	34170	3	9	2	1	5	84820
Q14	56200	3	1	1	0	1	0	10	0	0	4	1	196	211
Q15	28100	5	1	4	3	1	0	8	0	0	3	1	177	189
Q16	8114	4	25	16	0	16	2	134	0	0	55	6	183	380
Q17	52208	2	5	2	0	2	0	18	0	0	3	0	179	200
Q18	56200	4	1	4	3	1	0	7	0	0	7	0	323	337
Q19	2015	9	63	56	0	16	30	2420	0	126	115	16	92	2800
Q19a	3515	9	147	112	0	32	120	5646	1	257	232	33	172	6464
Q19b	15511	9	525	448	0	128	1540	20538	3	1078	973	121	713	24985
Q20	0	11	21	4	0	4	4	1108	0	56	40	10	547	1766
Q20a	236	11	63	8	0	8	31	3274	0	113	78	17	1103	4617
Q20b	2312	11	525	64	0	64	2012	27641	0	913	695	168	9228	40668
Q20c	7564	11	1225	128	0	128	11112	64419	5	1831	1360	292	97271	176317
Q21	1085	3	476	940	555	385	417	434	1	93	189	62	2617	3874
Q22	28	4	2	2	0	2	2	7	0	0	0	1	20	30
Q22a	434	4	40	32	0	32	5	71	1	2	7	8	300	395
Q23	25803	7	192	80	56	24	82	2483	0	17	44	14	1007	3652
Q23a	38258	7	448	160	112	48	344	5169	1	23	109	21	1489	7167
