ANS($product,$value) : [V_product\14(X208235166122160,X208235166122169,X208235166122167,X208235166122166,X208235166122165,X208235166122171,X208235166122159,X208235166122158,$value,X208235166122163,X208235166122162,X208235166122161,X208235166122170,$product)]

ANS($product,$value) : [V_product\14(X208235166122443,X208235166122442,X208235166122436,X208235166122435,X208235166122434,X208235166122433,X208235166122441,X208235166122440,X208235166122439,$value,X208235166122445,X208235166122444,X208235166122432,$product)]

