ANS($review,$product,$title,$text) : [V_review\9($title,$text,X1447353473109131,X1447353473109132,$review,X1447353473109135,X1447353473109136,X1447353473109137,$product), V_M83\1($product)]

ANS($review,$product,$title,$text) : [V_review\9($title,$text,X1447353473109131,X1447353473109132,$review,X1447353473109135,X1447353473109136,X1447353473109137,$product), V_M61\1($product)]

ANS($review,$product,$title,$text) : [V_review\9($title,$text,X1447353473109131,X1447353473109132,$review,X1447353473109135,X1447353473109136,X1447353473109137,$product), V_M34\1($product)]

ANS($review,$product,$title,$text) : [V_review\9($title,$text,X1447353473109131,X1447353473109132,$review,X1447353473109135,X1447353473109136,X1447353473109137,$product), V_M12\1($product)]

ANS($review,$product,$title,$text) : [V_review\9($title,$text,X1447353473109131,X1447353473109132,$review,X1447353473109135,X1447353473109136,X1447353473109137,$product), V_M32\1($product)]

ANS($review,$product,$title,$text) : [V_review\9($title,$text,X1447353473109131,X1447353473109132,$review,X1447353473109135,X1447353473109136,X1447353473109137,$product), V_M18\1($product)]

ANS($review,$product,$title,$text) : [V_review\9($title,$text,X1447353473109131,X1447353473109132,$review,X1447353473109135,X1447353473109136,X1447353473109137,$product), V_M55\1($product)]

ANS($review,$product,$title,$text) : [V_review\9($title,$text,X1447353473109131,X1447353473109132,$review,X1447353473109135,X1447353473109136,X1447353473109137,$product), V_M57\1($product)]

ANS($review,$product,$title,$text) : [V_review\9($title,$text,X1447353473109131,X1447353473109132,$review,X1447353473109135,X1447353473109136,X1447353473109137,$product), V_M58\1($product)]

ANS($review,$product,$title,$text) : [V_review\9($title,$text,X1447353473109131,X1447353473109132,$review,X1447353473109135,X1447353473109136,X1447353473109137,$product), V_M33\1($product)]

ANS($review,$product,$title,$text) : [V_review\9($title,$text,X1447353473109131,X1447353473109132,$review,X1447353473109135,X1447353473109136,X1447353473109137,$product), V_M80\1($product)]

ANS($review,$product,$title,$text) : [V_review\9($title,$text,X1447353473109131,X1447353473109132,$review,X1447353473109135,X1447353473109136,X1447353473109137,$product), V_M87\1($product)]

ANS($review,$product,$title,$text) : [V_review\9($title,$text,X1447353473109131,X1447353473109132,$review,X1447353473109135,X1447353473109136,X1447353473109137,$product), V_M8\1($product)]

ANS($review,$product,$title,$text) : [V_review\9($title,$text,X1447353473109131,X1447353473109132,$review,X1447353473109135,X1447353473109136,X1447353473109137,$product), V_M38\1($product)]

ANS($review,$product,$title,$text) : [V_review\9($title,$text,X1447353473109131,X1447353473109132,$review,X1447353473109135,X1447353473109136,X1447353473109137,$product), V_M16\1($product)]

ANS($review,$product,$title,$text) : [V_review\9($title,$text,X1447353473109131,X1447353473109132,$review,X1447353473109135,X1447353473109136,X1447353473109137,$product), V_M86\1($product)]

