digraph  g{
node [shape=rectangle, color=black, fontcolor=black, style=bold]
0 [label="LogDistinct" , color = blue] ; 
1 [label="Union", color = blue] ; 
0 -> 1 ; 
2 [label="LogProj
[3,8]" , color = blue] ; 
1 -> 2 ; 
3 [label="Join\n [5PREDICATE_EQUAL7] ", color = blue] ; 
2 -> 3 ; 
4 [label="Join\n [1PREDICATE_EQUAL6] ", color = blue] ; 
3 -> 4 ; 
5 [label="Join\n [2PREDICATE_EQUAL4] ", color = blue] ; 
4 -> 5 ; 
6 [label="LogSkolemFunctionCall
(<{1}>, <https://www.starwars.com/databank/{0}>, <http://www.imdb.com/name/{2}>)" , color = blue] ; 
5 -> 6 ; 
7 [label="LogAQLEval 
SELECT ?char ?org ?nconst WHERE { ?c <http://www.wikidata.org/prop/P463> ?stat1.
?stat1 <http://www.wikidata.org/prop/statement/P463> ?org.
?c <http://www.wikidata.org/prop/P175> ?stat2 .
?stat2 <http://www.wikidata.org/prop/statement/P175> ?actor .
?actor <http://www.wikidata.org/prop/P345> ?stat4 .
?stat4 <http://www.wikidata.org/prop/statement/P345> ?nconst .
?c <http://www.wikidata.org/prop/P3798> ?stat3 .
?stat3 <http://www.wikidata.org/prop/statement/P3798> ?char .}", color = blue] ; 
6 -> 7 ; 
8 [label="LogSkolemFunctionCall
(\"{1}\", <http://www.imdb.com/name/{0}>)" , color = blue] ; 
5 -> 8 ; 
9 [label="LogSQLEval 
select nconst, primaryname from swperson", color = blue] ; 
8 -> 9 ; 
10 [label="LogSkolemFunctionCall
(<{1}>, <https://www.starwars.com/databank/{0}>)" , color = blue] ; 
4 -> 10 ; 
11 [label="LogMongoDBEval
starships
[{\"$unwind\":\"$pilots\"},
{\"$lookup\":{\"localField\":\"pilots\",\"as\":\"pilot\",\"foreignField\":\"url\",\"from\":\"people\"}},
{\"$unwind\":\"$pilot\"}]
[pilot.formatedName, url]
", color = blue] ; 
10 -> 11 ; 
12 [label="LogSkolemFunctionCall
(<{0}>, \"{1}\")" , color = blue] ; 
3 -> 12 ; 
13 [label="LogMongoDBEval
vehicles
[]
[url, name]
", color = blue] ; 
12 -> 13 ; 
15 [label="LogProj
[3,7]" , color = blue] ; 
1 -> 15 ; 
16 [label="Join\n [5PREDICATE_EQUAL8] ", color = blue] ; 
15 -> 16 ; 
17 [label="Join\n [1PREDICATE_EQUAL6] ", color = blue] ; 
16 -> 17 ; 
18 [label="Join\n [2PREDICATE_EQUAL4] ", color = blue] ; 
17 -> 18 ; 
19 [label="LogSkolemFunctionCall
(<{1}>, <https://www.starwars.com/databank/{0}>, <http://www.imdb.com/name/{2}>)" , color = blue] ; 
18 -> 19 ; 
20 [label="LogAQLEval 
SELECT ?char ?org ?nconst WHERE { ?c <http://www.wikidata.org/prop/P463> ?stat1.
?stat1 <http://www.wikidata.org/prop/statement/P463> ?org.
?c <http://www.wikidata.org/prop/P175> ?stat2 .
?stat2 <http://www.wikidata.org/prop/statement/P175> ?actor .
?actor <http://www.wikidata.org/prop/P345> ?stat4 .
?stat4 <http://www.wikidata.org/prop/statement/P345> ?nconst .
?c <http://www.wikidata.org/prop/P3798> ?stat3 .
?stat3 <http://www.wikidata.org/prop/statement/P3798> ?char .}", color = blue] ; 
19 -> 20 ; 
21 [label="LogSkolemFunctionCall
(\"{1}\", <http://www.imdb.com/name/{0}>)" , color = blue] ; 
18 -> 21 ; 
22 [label="LogSQLEval 
select nconst, primaryname from swperson", color = blue] ; 
21 -> 22 ; 
23 [label="LogSkolemFunctionCall
(<{1}>, <https://www.starwars.com/databank/{0}>)" , color = blue] ; 
17 -> 23 ; 
24 [label="LogMongoDBEval
vehicles
[{\"$unwind\":\"$pilots\"},
{\"$lookup\":{\"localField\":\"pilots\",\"as\":\"pilot\",\"foreignField\":\"url\",\"from\":\"people\"}},
{\"$unwind\":\"$pilot\"}]
[pilot.formatedName, url]
", color = blue] ; 
23 -> 24 ; 
25 [label="LogSkolemFunctionCall
(\"{1}\", <{0}>)" , color = blue] ; 
16 -> 25 ; 
26 [label="LogMongoDBEval
starships
[]
[url, name]
", color = blue] ; 
25 -> 26 ; 
28 [label="LogProj
[3,8]" , color = blue] ; 
1 -> 28 ; 
29 [label="Join\n [5PREDICATE_EQUAL7] ", color = blue] ; 
28 -> 29 ; 
30 [label="Join\n [1PREDICATE_EQUAL6] ", color = blue] ; 
29 -> 30 ; 
31 [label="Join\n [2PREDICATE_EQUAL4] ", color = blue] ; 
30 -> 31 ; 
32 [label="LogSkolemFunctionCall
(<{1}>, <https://www.starwars.com/databank/{0}>, <http://www.imdb.com/name/{2}>)" , color = blue] ; 
31 -> 32 ; 
33 [label="LogAQLEval 
SELECT ?char ?org ?nconst WHERE { ?c <http://www.wikidata.org/prop/P463> ?stat1.
?stat1 <http://www.wikidata.org/prop/statement/P463> ?org.
?c <http://www.wikidata.org/prop/P175> ?stat2 .
?stat2 <http://www.wikidata.org/prop/statement/P175> ?actor .
?actor <http://www.wikidata.org/prop/P345> ?stat4 .
?stat4 <http://www.wikidata.org/prop/statement/P345> ?nconst .
?c <http://www.wikidata.org/prop/P3798> ?stat3 .
?stat3 <http://www.wikidata.org/prop/statement/P3798> ?char .}", color = blue] ; 
32 -> 33 ; 
34 [label="LogSkolemFunctionCall
(\"{1}\", <http://www.imdb.com/name/{0}>)" , color = blue] ; 
31 -> 34 ; 
35 [label="LogSQLEval 
select nconst, primaryname from swperson", color = blue] ; 
34 -> 35 ; 
36 [label="LogSkolemFunctionCall
(<{1}>, <https://www.starwars.com/databank/{0}>)" , color = blue] ; 
30 -> 36 ; 
37 [label="LogMongoDBEval
vehicles
[{\"$unwind\":\"$pilots\"},
{\"$lookup\":{\"localField\":\"pilots\",\"as\":\"pilot\",\"foreignField\":\"url\",\"from\":\"people\"}},
{\"$unwind\":\"$pilot\"}]
[pilot.formatedName, url]
", color = blue] ; 
36 -> 37 ; 
38 [label="LogSkolemFunctionCall
(<{0}>, \"{1}\")" , color = blue] ; 
29 -> 38 ; 
39 [label="LogMongoDBEval
vehicles
[]
[url, name]
", color = blue] ; 
38 -> 39 ; 
41 [label="LogProj
[3,7]" , color = blue] ; 
1 -> 41 ; 
42 [label="Join\n [5PREDICATE_EQUAL8] ", color = blue] ; 
41 -> 42 ; 
43 [label="Join\n [1PREDICATE_EQUAL6] ", color = blue] ; 
42 -> 43 ; 
44 [label="Join\n [2PREDICATE_EQUAL4] ", color = blue] ; 
43 -> 44 ; 
45 [label="LogSkolemFunctionCall
(<{1}>, <https://www.starwars.com/databank/{0}>, <http://www.imdb.com/name/{2}>)" , color = blue] ; 
44 -> 45 ; 
46 [label="LogAQLEval 
SELECT ?char ?org ?nconst WHERE { ?c <http://www.wikidata.org/prop/P463> ?stat1.
?stat1 <http://www.wikidata.org/prop/statement/P463> ?org.
?c <http://www.wikidata.org/prop/P175> ?stat2 .
?stat2 <http://www.wikidata.org/prop/statement/P175> ?actor .
?actor <http://www.wikidata.org/prop/P345> ?stat4 .
?stat4 <http://www.wikidata.org/prop/statement/P345> ?nconst .
?c <http://www.wikidata.org/prop/P3798> ?stat3 .
?stat3 <http://www.wikidata.org/prop/statement/P3798> ?char .}", color = blue] ; 
45 -> 46 ; 
47 [label="LogSkolemFunctionCall
(\"{1}\", <http://www.imdb.com/name/{0}>)" , color = blue] ; 
44 -> 47 ; 
48 [label="LogSQLEval 
select nconst, primaryname from swperson", color = blue] ; 
47 -> 48 ; 
49 [label="LogSkolemFunctionCall
(<{1}>, <https://www.starwars.com/databank/{0}>)" , color = blue] ; 
43 -> 49 ; 
50 [label="LogMongoDBEval
starships
[{\"$unwind\":\"$pilots\"},
{\"$lookup\":{\"localField\":\"pilots\",\"as\":\"pilot\",\"foreignField\":\"url\",\"from\":\"people\"}},
{\"$unwind\":\"$pilot\"}]
[pilot.formatedName, url]
", color = blue] ; 
49 -> 50 ; 
51 [label="LogSkolemFunctionCall
(\"{1}\", <{0}>)" , color = blue] ; 
42 -> 51 ; 
52 [label="LogMongoDBEval
starships
[]
[url, name]
", color = blue] ; 
51 -> 52 ; 
}

