"battled"	"1040"	<http://downlode.org/rdf/iso-3166/countries#DE>	
"sophisms pixie"	"456"	<http://downlode.org/rdf/iso-3166/countries#US>	
"disgustingly ensamples indigoes"	"1016"	<http://downlode.org/rdf/iso-3166/countries#US>	
"essayers rilling"	"1603"	<http://downlode.org/rdf/iso-3166/countries#US>	
"disgustingly ensamples indigoes"	"1252"	<http://downlode.org/rdf/iso-3166/countries#US>	
"transcendency"	"1117"	<http://downlode.org/rdf/iso-3166/countries#FR>	
"eatings supplementals"	"1317"	<http://downlode.org/rdf/iso-3166/countries#US>	
"onlookers"	"384"	<http://downlode.org/rdf/iso-3166/countries#GB>	
"pennoned affiliated"	"378"	<http://downlode.org/rdf/iso-3166/countries#GB>	
"linesman otoscope growlingly"	"685"	<http://downlode.org/rdf/iso-3166/countries#US>	
"linesman otoscope growlingly"	"433"	<http://downlode.org/rdf/iso-3166/countries#US>	
"gaiting laddie"	"548"	<http://downlode.org/rdf/iso-3166/countries#US>	
"pennoned affiliated"	"593"	<http://downlode.org/rdf/iso-3166/countries#GB>	
"onlookers"	"307"	<http://downlode.org/rdf/iso-3166/countries#GB>	
"battled"	"1891"	<http://downlode.org/rdf/iso-3166/countries#DE>	
"gaiting laddie"	"1380"	<http://downlode.org/rdf/iso-3166/countries#US>	
"misnumbering ogresses"	"336"	<http://downlode.org/rdf/iso-3166/countries#FR>	
"baddy buncos"	"1231"	<http://downlode.org/rdf/iso-3166/countries#ES>	
"underpinnings tubercle"	"131"	<http://downlode.org/rdf/iso-3166/countries#US>	
"hemisection snidely"	"672"	<http://downlode.org/rdf/iso-3166/countries#GB>	
"sophisms pixie"	"1652"	<http://downlode.org/rdf/iso-3166/countries#US>	
"mesmerized mistrustingly scimitars"	"214"	<http://downlode.org/rdf/iso-3166/countries#US>	
"catafalque polydactyly"	"680"	<http://downlode.org/rdf/iso-3166/countries#US>	
"underpinnings tubercle"	"13"	<http://downlode.org/rdf/iso-3166/countries#US>	
"ozonizes conniptions effaced"	"157"	<http://downlode.org/rdf/iso-3166/countries#CN>	
"cons"	"2"	<http://downlode.org/rdf/iso-3166/countries#FR>	
"remotest beefing"	"1054"	<http://downlode.org/rdf/iso-3166/countries#US>	
"misnumbering ogresses"	"359"	<http://downlode.org/rdf/iso-3166/countries#FR>	
"cons"	"736"	<http://downlode.org/rdf/iso-3166/countries#FR>	
"mesmerized mistrustingly scimitars"	"950"	<http://downlode.org/rdf/iso-3166/countries#US>	
"posthumously nifty groomer"	"209"	<http://downlode.org/rdf/iso-3166/countries#KR>	
"posthumously nifty groomer"	"1176"	<http://downlode.org/rdf/iso-3166/countries#KR>	
"circler convolutely miscalculations"	"783"	<http://downlode.org/rdf/iso-3166/countries#US>	
"refulgently motleyer hardbought"	"2"	<http://downlode.org/rdf/iso-3166/countries#US>	
"catafalque polydactyly"	"81"	<http://downlode.org/rdf/iso-3166/countries#US>	
"remotest beefing"	"1374"	<http://downlode.org/rdf/iso-3166/countries#US>	
"subsegment played"	"1427"	<http://downlode.org/rdf/iso-3166/countries#US>	
"sadomasochism"	"1017"	<http://downlode.org/rdf/iso-3166/countries#KR>	
"hovels acutest charting"	"199"	<http://downlode.org/rdf/iso-3166/countries#US>	
"circler convolutely miscalculations"	"280"	<http://downlode.org/rdf/iso-3166/countries#US>	
"shirting unpopularly resalable"	"1878"	<http://downlode.org/rdf/iso-3166/countries#US>	
"refulgently motleyer hardbought"	"872"	<http://downlode.org/rdf/iso-3166/countries#US>	
"rambunctiousness moneybags"	"1479"	<http://downlode.org/rdf/iso-3166/countries#GB>	
"subsegment played"	"821"	<http://downlode.org/rdf/iso-3166/countries#US>	
"hemisection snidely"	"1028"	<http://downlode.org/rdf/iso-3166/countries#GB>	
"essayers rilling"	"270"	<http://downlode.org/rdf/iso-3166/countries#US>	
"eatings supplementals"	"1056"	<http://downlode.org/rdf/iso-3166/countries#US>	
"shirting unpopularly resalable"	"882"	<http://downlode.org/rdf/iso-3166/countries#US>	
"ozonizes conniptions effaced"	"130"	<http://downlode.org/rdf/iso-3166/countries#CN>	
"hovels acutest charting"	"55"	<http://downlode.org/rdf/iso-3166/countries#US>	
"baddy buncos"	"315"	<http://downlode.org/rdf/iso-3166/countries#ES>	
"sadomasochism"	"1378"	<http://downlode.org/rdf/iso-3166/countries#KR>	
"unisons laten ligated"	"389"	<http://downlode.org/rdf/iso-3166/countries#KR>	
"rambunctiousness moneybags"	"601"	<http://downlode.org/rdf/iso-3166/countries#GB>	
"unisons laten ligated"	"942"	<http://downlode.org/rdf/iso-3166/countries#KR>	
"transcendency"	"787"	<http://downlode.org/rdf/iso-3166/countries#FR>	
