<$label,$value,$country> :- 
	triple($product,<69473>,$label),
	triple($product,<265794>,<614865>),
	triple($product,<283327>,$value),
	triple($product,<411213>,$producer),
	triple($producer,<40607>,$country),
	triple($country,<265794>,<240748>);

<$label,$value,$country> :- 
	triple($product,<69473>,$label),
	triple($product,<265794>,<614865>),
	triple($product,<283327>,$value),
	triple($product,<411213>,$producer),
	triple($producer,<40607>,$country),
	triple($country,<265794>,<492441>);

<$label,$value,$country> :- 
	triple($product,<69473>,$label),
	triple($product,<265794>,<614865>),
	triple($product,<498405>,$value),
	triple($product,<411213>,$producer),
	triple($producer,<40607>,$country),
	triple($country,<265794>,<240748>);

<$label,$value,$country> :- 
	triple($product,<69473>,$label),
	triple($product,<265794>,<614865>),
	triple($product,<356327>,$value),
	triple($product,<411213>,$producer),
	triple($producer,<40607>,$country),
	triple($country,<265794>,<414661>);

<$label,$value,$country> :- 
	triple($product,<69473>,$label),
	triple($product,<265794>,<614865>),
	triple($product,<498405>,$value),
	triple($product,<411213>,$producer),
	triple($producer,<40607>,$country),
	triple($country,<265794>,<492441>);

<$label,$value,$country> :- 
	triple($product,<69473>,$label),
	triple($product,<265794>,<614865>),
	triple($product,<45263>,$value),
	triple($product,<411213>,$producer),
	triple($producer,<40607>,$country),
	triple($country,<265794>,<176226>);

<$label,$value,$country> :- 
	triple($product,<69473>,$label),
	triple($product,<265794>,<614865>),
	triple($product,<356327>,$value),
	triple($product,<411213>,$producer),
	triple($producer,<40607>,$country),
	triple($country,<265794>,<398017>);

<$label,$value,$country> :- 
	triple($product,<69473>,$label),
	triple($product,<265794>,<614865>),
	triple($product,<45263>,$value),
	triple($product,<411213>,$producer),
	triple($producer,<40607>,$country),
	triple($country,<265794>,<498048>);

<$label,$value,$country> :- 
	triple($product,<69473>,$label),
	triple($product,<265794>,<614865>),
	triple($product,<137298>,$value),
	triple($product,<411213>,$producer),
	triple($producer,<40607>,$country),
	triple($country,<265794>,<492441>);

<$label,$value,$country> :- 
	triple($product,<69473>,$label),
	triple($product,<265794>,<614865>),
	triple($product,<356327>,$value),
	triple($product,<411213>,$producer),
	triple($producer,<40607>,$country),
	triple($country,<265794>,<223004>);

<$label,$value,$country> :- 
	triple($product,<69473>,$label),
	triple($product,<265794>,<614865>),
	triple($product,<214992>,$value),
	triple($product,<411213>,$producer),
	triple($producer,<40607>,$country),
	triple($country,<265794>,<498048>);

<$label,$value,$country> :- 
	triple($product,<69473>,$label),
	triple($product,<265794>,<614865>),
	triple($product,<137298>,$value),
	triple($product,<411213>,$producer),
	triple($producer,<40607>,$country),
	triple($country,<265794>,<414661>);

<$label,$value,$country> :- 
	triple($product,<69473>,$label),
	triple($product,<265794>,<614865>),
	triple($product,<45263>,$value),
	triple($product,<411213>,$producer),
	triple($producer,<40607>,$country),
	triple($country,<265794>,<492441>);

<$label,$value,$country> :- 
	triple($product,<69473>,$label),
	triple($product,<265794>,<614865>),
	triple($product,<356327>,$value),
	triple($product,<411213>,$producer),
	triple($producer,<40607>,$country),
	triple($country,<265794>,<240748>);

<$label,$value,$country> :- 
	triple($product,<69473>,$label),
	triple($product,<265794>,<614865>),
	triple($product,<588756>,$value),
	triple($product,<411213>,$producer),
	triple($producer,<40607>,$country),
	triple($country,<265794>,<398017>);

<$label,$value,$country> :- 
	triple($product,<69473>,$label),
	triple($product,<265794>,<614865>),
	triple($product,<137298>,$value),
	triple($product,<411213>,$producer),
	triple($producer,<40607>,$country),
	triple($country,<265794>,<398017>);

<$label,$value,$country> :- 
	triple($product,<69473>,$label),
	triple($product,<265794>,<614865>),
	triple($product,<137298>,$value),
	triple($product,<411213>,$producer),
	triple($producer,<40607>,$country),
	triple($country,<265794>,<176226>);

<$label,$value,$country> :- 
	triple($product,<69473>,$label),
	triple($product,<265794>,<614865>),
	triple($product,<588756>,$value),
	triple($product,<411213>,$producer),
	triple($producer,<40607>,$country),
	triple($country,<265794>,<240748>);

<$label,$value,$country> :- 
	triple($product,<69473>,$label),
	triple($product,<265794>,<614865>),
	triple($product,<356327>,$value),
	triple($product,<411213>,$producer),
	triple($producer,<40607>,$country),
	triple($country,<265794>,<498048>);

<$label,$value,$country> :- 
	triple($product,<69473>,$label),
	triple($product,<265794>,<614865>),
	triple($product,<45263>,$value),
	triple($product,<411213>,$producer),
	triple($producer,<40607>,$country),
	triple($country,<265794>,<398017>);

<$label,$value,$country> :- 
	triple($product,<69473>,$label),
	triple($product,<265794>,<614865>),
	triple($product,<214992>,$value),
	triple($product,<411213>,$producer),
	triple($producer,<40607>,$country),
	triple($country,<265794>,<223004>);

<$label,$value,$country> :- 
	triple($product,<69473>,$label),
	triple($product,<265794>,<614865>),
	triple($product,<588756>,$value),
	triple($product,<411213>,$producer),
	triple($producer,<40607>,$country),
	triple($country,<265794>,<492441>);

<$label,$value,$country> :- 
	triple($product,<69473>,$label),
	triple($product,<265794>,<614865>),
	triple($product,<283327>,$value),
	triple($product,<411213>,$producer),
	triple($producer,<40607>,$country),
	triple($country,<265794>,<398017>);

<$label,$value,$country> :- 
	triple($product,<69473>,$label),
	triple($product,<265794>,<614865>),
	triple($product,<283327>,$value),
	triple($product,<411213>,$producer),
	triple($producer,<40607>,$country),
	triple($country,<265794>,<414661>);

<$label,$value,$country> :- 
	triple($product,<69473>,$label),
	triple($product,<265794>,<614865>),
	triple($product,<137298>,$value),
	triple($product,<411213>,$producer),
	triple($producer,<40607>,$country),
	triple($country,<265794>,<240748>);

<$label,$value,$country> :- 
	triple($product,<69473>,$label),
	triple($product,<265794>,<614865>),
	triple($product,<45263>,$value),
	triple($product,<411213>,$producer),
	triple($producer,<40607>,$country),
	triple($country,<265794>,<240748>);

<$label,$value,$country> :- 
	triple($product,<69473>,$label),
	triple($product,<265794>,<614865>),
	triple($product,<588756>,$value),
	triple($product,<411213>,$producer),
	triple($producer,<40607>,$country),
	triple($country,<265794>,<414661>);

<$label,$value,$country> :- 
	triple($product,<69473>,$label),
	triple($product,<265794>,<614865>),
	triple($product,<498405>,$value),
	triple($product,<411213>,$producer),
	triple($producer,<40607>,$country),
	triple($country,<265794>,<223004>);

<$label,$value,$country> :- 
	triple($product,<69473>,$label),
	triple($product,<265794>,<614865>),
	triple($product,<214992>,$value),
	triple($product,<411213>,$producer),
	triple($producer,<40607>,$country),
	triple($country,<265794>,<176226>);

<$label,$value,$country> :- 
	triple($product,<69473>,$label),
	triple($product,<265794>,<614865>),
	triple($product,<283327>,$value),
	triple($product,<411213>,$producer),
	triple($producer,<40607>,$country),
	triple($country,<265794>,<498048>);

<$label,$value,$country> :- 
	triple($product,<69473>,$label),
	triple($product,<265794>,<614865>),
	triple($product,<45263>,$value),
	triple($product,<411213>,$producer),
	triple($producer,<40607>,$country),
	triple($country,<265794>,<414661>);

<$label,$value,$country> :- 
	triple($product,<69473>,$label),
	triple($product,<265794>,<614865>),
	triple($product,<356327>,$value),
	triple($product,<411213>,$producer),
	triple($producer,<40607>,$country),
	triple($country,<265794>,<176226>);

<$label,$value,$country> :- 
	triple($product,<69473>,$label),
	triple($product,<265794>,<614865>),
	triple($product,<45263>,$value),
	triple($product,<411213>,$producer),
	triple($producer,<40607>,$country),
	triple($country,<265794>,<223004>);

<$label,$value,$country> :- 
	triple($product,<69473>,$label),
	triple($product,<265794>,<614865>),
	triple($product,<498405>,$value),
	triple($product,<411213>,$producer),
	triple($producer,<40607>,$country),
	triple($country,<265794>,<498048>);

<$label,$value,$country> :- 
	triple($product,<69473>,$label),
	triple($product,<265794>,<614865>),
	triple($product,<588756>,$value),
	triple($product,<411213>,$producer),
	triple($producer,<40607>,$country),
	triple($country,<265794>,<176226>);

<$label,$value,$country> :- 
	triple($product,<69473>,$label),
	triple($product,<265794>,<614865>),
	triple($product,<137298>,$value),
	triple($product,<411213>,$producer),
	triple($producer,<40607>,$country),
	triple($country,<265794>,<498048>);

<$label,$value,$country> :- 
	triple($product,<69473>,$label),
	triple($product,<265794>,<614865>),
	triple($product,<283327>,$value),
	triple($product,<411213>,$producer),
	triple($producer,<40607>,$country),
	triple($country,<265794>,<176226>);

<$label,$value,$country> :- 
	triple($product,<69473>,$label),
	triple($product,<265794>,<614865>),
	triple($product,<356327>,$value),
	triple($product,<411213>,$producer),
	triple($producer,<40607>,$country),
	triple($country,<265794>,<492441>);

<$label,$value,$country> :- 
	triple($product,<69473>,$label),
	triple($product,<265794>,<614865>),
	triple($product,<214992>,$value),
	triple($product,<411213>,$producer),
	triple($producer,<40607>,$country),
	triple($country,<265794>,<240748>);

<$label,$value,$country> :- 
	triple($product,<69473>,$label),
	triple($product,<265794>,<614865>),
	triple($product,<588756>,$value),
	triple($product,<411213>,$producer),
	triple($producer,<40607>,$country),
	triple($country,<265794>,<223004>);

<$label,$value,$country> :- 
	triple($product,<69473>,$label),
	triple($product,<265794>,<614865>),
	triple($product,<137298>,$value),
	triple($product,<411213>,$producer),
	triple($producer,<40607>,$country),
	triple($country,<265794>,<223004>);

<$label,$value,$country> :- 
	triple($product,<69473>,$label),
	triple($product,<265794>,<614865>),
	triple($product,<498405>,$value),
	triple($product,<411213>,$producer),
	triple($producer,<40607>,$country),
	triple($country,<265794>,<176226>);

<$label,$value,$country> :- 
	triple($product,<69473>,$label),
	triple($product,<265794>,<614865>),
	triple($product,<214992>,$value),
	triple($product,<411213>,$producer),
	triple($producer,<40607>,$country),
	triple($country,<265794>,<398017>);

<$label,$value,$country> :- 
	triple($product,<69473>,$label),
	triple($product,<265794>,<614865>),
	triple($product,<498405>,$value),
	triple($product,<411213>,$producer),
	triple($producer,<40607>,$country),
	triple($country,<265794>,<414661>);

<$label,$value,$country> :- 
	triple($product,<69473>,$label),
	triple($product,<265794>,<614865>),
	triple($product,<588756>,$value),
	triple($product,<411213>,$producer),
	triple($producer,<40607>,$country),
	triple($country,<265794>,<498048>);

<$label,$value,$country> :- 
	triple($product,<69473>,$label),
	triple($product,<265794>,<614865>),
	triple($product,<283327>,$value),
	triple($product,<411213>,$producer),
	triple($producer,<40607>,$country),
	triple($country,<265794>,<223004>);

<$label,$value,$country> :- 
	triple($product,<69473>,$label),
	triple($product,<265794>,<614865>),
	triple($product,<498405>,$value),
	triple($product,<411213>,$producer),
	triple($producer,<40607>,$country),
	triple($country,<265794>,<398017>);

<$label,$value,$country> :- 
	triple($product,<69473>,$label),
	triple($product,<265794>,<614865>),
	triple($product,<214992>,$value),
	triple($product,<411213>,$producer),
	triple($producer,<40607>,$country),
	triple($country,<265794>,<492441>);

<$label,$value,$country> :- 
	triple($product,<69473>,$label),
	triple($product,<265794>,<614865>),
	triple($product,<214992>,$value),
	triple($product,<411213>,$producer),
	triple($producer,<40607>,$country),
	triple($country,<265794>,<414661>);

