digraph  g{
node [shape=rectangle, color=black, fontcolor=black, style=bold]
0 [label="LogFunctionCall
AddConstant{1=(\"<http://www4.wiwiss.fu-berlin.de/bizer/bsbm/v01/vocabulary/producer>\")}" , color = blue] ; 
1 [label="LogSkolemFunctionCall
(\"{0}\", <http://downlode.org/rdf/iso-3166/countries#{1}>)" , color = blue] ; 
0 -> 1 ; 
2 [label="LogProj
[4,2]" , color = blue] ; 
1 -> 2 ; 
3 [label="Join\n [0PREDICATE_EQUAL3,1PREDICATE_EQUAL5] ", color = blue] ; 
2 -> 3 ; 
4 [label="LogMongoDBEval
countrytype
[{\"$match\":{\"countrytype\":222}},
{$lookup: { from: \"productproducercountry\", let: { \"country\": \"$country\"}, pipeline: [ { $match: {$expr: {$eq: [\"$$country\", \"$country\"] } } } ], as: \"mongojoin193\"}},
{$unwind: \"$mongojoin193\"}]
[mongojoin193.nr, mongojoin193.producer, mongojoin193.country]
", color = blue] ; 
3 -> 4 ; 
5 [label="LogSQLEval 
SELECT nr, label, producer FROM Product", color = blue] ; 
3 -> 5 ; 
}

