digraph  g{
node [shape=rectangle, color=black, fontcolor=black, style=bold]
0 [label="LogDistinct" , color = blue] ; 
1 [label="Union", color = blue] ; 
0 -> 1 ; 
2 [label="LogProj
[10,9,16]" , color = blue] ; 
1 -> 2 ; 
3 [label="Join\n [16PREDICATE_EQUAL17] ", color = blue] ; 
2 -> 3 ; 
4 [label="Join\n [13PREDICATE_EQUAL15,14PREDICATE_EQUAL15] ", color = blue] ; 
3 -> 4 ; 
5 [label="Join\n [13PREDICATE_EQUAL14] ", color = blue] ; 
4 -> 5 ; 
6 [label="LogSkolemFunctionCall
(\"{11}\", \"{10}\", \"{2}\", \"{9}\", <http://www4.wiwiss.fu-berlin.de/bizer/bsbm/v01/instances/dataFromProducer{3}/Producer{3}>, \"{8}\", <http://www4.wiwiss.fu-berlin.de/bizer/bsbm/v01/instances/dataFromProducer{3}/Producer{3}>, \"{7}\", \"{5}\", \"{4}\", \"{1}\", \"{13}\", \"{6}\", <http://www4.wiwiss.fu-berlin.de/bizer/bsbm/v01/instances/dataFromProducer{3}/Product{0}>)" , color = blue] ; 
5 -> 6 ; 
7 [label="LogSQLEval 
SELECT nr, label, comment, producer, propertyNum1, propertyNum2, propertyTex1, propertyTex2, propertyTex3, propertyTex4, propertyTex5, propertyTex6, publisher, publishDate FROM Product", color = blue] ; 
6 -> 7 ; 
8 [label="LogSkolemFunctionCall
(<http://www4.wiwiss.fu-berlin.de/bizer/bsbm/v01/instances/dataFromProducer{1}/Product{0}>)" , color = blue] ; 
5 -> 8 ; 
9 [label="LogSQLEval 
SELECT P.nr AS nr, P.producer AS producer FROM PRODUCT AS P, PRODUCTTYPEPRODUCT AS PT WHERE PT.producttype = 110 AND PT.product = P.nr", color = blue] ; 
8 -> 9 ; 
10 [label="LogSkolemFunctionCall
(<http://www4.wiwiss.fu-berlin.de/bizer/bsbm/v01/instances/dataFromProducer{1}/Product{0}>, <http://downlode.org/rdf/iso-3166/countries#{2}>)" , color = blue] ; 
4 -> 10 ; 
11 [label="LogMongoDBEval
productproducercountry
[]
[nr, producer, country]
", color = blue] ; 
10 -> 11 ; 
12 [label="LogSkolemFunctionCall
(<http://downlode.org/rdf/iso-3166/countries#{0}>)" , color = blue] ; 
3 -> 12 ; 
13 [label="LogMongoDBEval
countrytype
[{\"$match\":{\"countrytype\":122}}]
[country]
", color = blue] ; 
12 -> 13 ; 
15 [label="LogProj
[10,8,16]" , color = blue] ; 
1 -> 15 ; 
16 [label="Join\n [16PREDICATE_EQUAL17] ", color = blue] ; 
15 -> 16 ; 
17 [label="Join\n [13PREDICATE_EQUAL15,14PREDICATE_EQUAL15] ", color = blue] ; 
16 -> 17 ; 
18 [label="Join\n [13PREDICATE_EQUAL14] ", color = blue] ; 
17 -> 18 ; 
19 [label="LogSkolemFunctionCall
(\"{11}\", \"{10}\", \"{2}\", \"{9}\", <http://www4.wiwiss.fu-berlin.de/bizer/bsbm/v01/instances/dataFromProducer{3}/Producer{3}>, \"{8}\", <http://www4.wiwiss.fu-berlin.de/bizer/bsbm/v01/instances/dataFromProducer{3}/Producer{3}>, \"{7}\", \"{5}\", \"{4}\", \"{1}\", \"{13}\", \"{6}\", <http://www4.wiwiss.fu-berlin.de/bizer/bsbm/v01/instances/dataFromProducer{3}/Product{0}>)" , color = blue] ; 
18 -> 19 ; 
20 [label="LogSQLEval 
SELECT nr, label, comment, producer, propertyNum1, propertyNum2, propertyTex1, propertyTex2, propertyTex3, propertyTex4, propertyTex5, propertyTex6, publisher, publishDate FROM Product", color = blue] ; 
19 -> 20 ; 
21 [label="LogSkolemFunctionCall
(<http://www4.wiwiss.fu-berlin.de/bizer/bsbm/v01/instances/dataFromProducer{1}/Product{0}>)" , color = blue] ; 
18 -> 21 ; 
22 [label="LogSQLEval 
SELECT P.nr AS nr, P.producer AS producer FROM PRODUCT AS P, PRODUCTTYPEPRODUCT AS PT WHERE PT.producttype = 110 AND PT.product = P.nr", color = blue] ; 
21 -> 22 ; 
23 [label="LogSkolemFunctionCall
(<http://www4.wiwiss.fu-berlin.de/bizer/bsbm/v01/instances/dataFromProducer{1}/Product{0}>, <http://downlode.org/rdf/iso-3166/countries#{2}>)" , color = blue] ; 
17 -> 23 ; 
24 [label="LogMongoDBEval
productproducercountry
[]
[nr, producer, country]
", color = blue] ; 
23 -> 24 ; 
25 [label="LogSkolemFunctionCall
(<http://downlode.org/rdf/iso-3166/countries#{0}>)" , color = blue] ; 
16 -> 25 ; 
26 [label="LogMongoDBEval
countrytype
[{\"$match\":{\"countrytype\":121}}]
[country]
", color = blue] ; 
25 -> 26 ; 
28 [label="LogProj
[10,9,16]" , color = blue] ; 
1 -> 28 ; 
29 [label="Join\n [16PREDICATE_EQUAL17] ", color = blue] ; 
28 -> 29 ; 
30 [label="Join\n [13PREDICATE_EQUAL15,14PREDICATE_EQUAL15] ", color = blue] ; 
29 -> 30 ; 
31 [label="Join\n [13PREDICATE_EQUAL14] ", color = blue] ; 
30 -> 31 ; 
32 [label="LogSkolemFunctionCall
(\"{11}\", \"{10}\", \"{2}\", \"{9}\", <http://www4.wiwiss.fu-berlin.de/bizer/bsbm/v01/instances/dataFromProducer{3}/Producer{3}>, \"{8}\", <http://www4.wiwiss.fu-berlin.de/bizer/bsbm/v01/instances/dataFromProducer{3}/Producer{3}>, \"{7}\", \"{5}\", \"{4}\", \"{1}\", \"{13}\", \"{6}\", <http://www4.wiwiss.fu-berlin.de/bizer/bsbm/v01/instances/dataFromProducer{3}/Product{0}>)" , color = blue] ; 
31 -> 32 ; 
33 [label="LogSQLEval 
SELECT nr, label, comment, producer, propertyNum1, propertyNum2, propertyTex1, propertyTex2, propertyTex3, propertyTex4, propertyTex5, propertyTex6, publisher, publishDate FROM Product", color = blue] ; 
32 -> 33 ; 
34 [label="LogSkolemFunctionCall
(<http://www4.wiwiss.fu-berlin.de/bizer/bsbm/v01/instances/dataFromProducer{1}/Product{0}>)" , color = blue] ; 
31 -> 34 ; 
35 [label="LogSQLEval 
SELECT P.nr AS nr, P.producer AS producer FROM PRODUCT AS P, PRODUCTTYPEPRODUCT AS PT WHERE PT.producttype = 110 AND PT.product = P.nr", color = blue] ; 
34 -> 35 ; 
36 [label="LogSkolemFunctionCall
(<http://www4.wiwiss.fu-berlin.de/bizer/bsbm/v01/instances/dataFromProducer{1}/Product{0}>, <http://downlode.org/rdf/iso-3166/countries#{2}>)" , color = blue] ; 
30 -> 36 ; 
37 [label="LogMongoDBEval
productproducercountry
[]
[nr, producer, country]
", color = blue] ; 
36 -> 37 ; 
38 [label="LogSkolemFunctionCall
(<http://downlode.org/rdf/iso-3166/countries#{0}>)" , color = blue] ; 
29 -> 38 ; 
39 [label="LogMongoDBEval
countrytype
[{\"$match\":{\"countrytype\":121}}]
[country]
", color = blue] ; 
38 -> 39 ; 
41 [label="LogProj
[10,8,16]" , color = blue] ; 
1 -> 41 ; 
42 [label="Join\n [16PREDICATE_EQUAL17] ", color = blue] ; 
41 -> 42 ; 
43 [label="Join\n [13PREDICATE_EQUAL15,14PREDICATE_EQUAL15] ", color = blue] ; 
42 -> 43 ; 
44 [label="Join\n [13PREDICATE_EQUAL14] ", color = blue] ; 
43 -> 44 ; 
45 [label="LogSkolemFunctionCall
(\"{11}\", \"{10}\", \"{2}\", \"{9}\", <http://www4.wiwiss.fu-berlin.de/bizer/bsbm/v01/instances/dataFromProducer{3}/Producer{3}>, \"{8}\", <http://www4.wiwiss.fu-berlin.de/bizer/bsbm/v01/instances/dataFromProducer{3}/Producer{3}>, \"{7}\", \"{5}\", \"{4}\", \"{1}\", \"{13}\", \"{6}\", <http://www4.wiwiss.fu-berlin.de/bizer/bsbm/v01/instances/dataFromProducer{3}/Product{0}>)" , color = blue] ; 
44 -> 45 ; 
46 [label="LogSQLEval 
SELECT nr, label, comment, producer, propertyNum1, propertyNum2, propertyTex1, propertyTex2, propertyTex3, propertyTex4, propertyTex5, propertyTex6, publisher, publishDate FROM Product", color = blue] ; 
45 -> 46 ; 
47 [label="LogSkolemFunctionCall
(<http://www4.wiwiss.fu-berlin.de/bizer/bsbm/v01/instances/dataFromProducer{1}/Product{0}>)" , color = blue] ; 
44 -> 47 ; 
48 [label="LogSQLEval 
SELECT P.nr AS nr, P.producer AS producer FROM PRODUCT AS P, PRODUCTTYPEPRODUCT AS PT WHERE PT.producttype = 110 AND PT.product = P.nr", color = blue] ; 
47 -> 48 ; 
49 [label="LogSkolemFunctionCall
(<http://www4.wiwiss.fu-berlin.de/bizer/bsbm/v01/instances/dataFromProducer{1}/Product{0}>, <http://downlode.org/rdf/iso-3166/countries#{2}>)" , color = blue] ; 
43 -> 49 ; 
50 [label="LogMongoDBEval
productproducercountry
[]
[nr, producer, country]
", color = blue] ; 
49 -> 50 ; 
51 [label="LogSkolemFunctionCall
(<http://downlode.org/rdf/iso-3166/countries#{0}>)" , color = blue] ; 
42 -> 51 ; 
52 [label="LogMongoDBEval
countrytype
[{\"$match\":{\"countrytype\":122}}]
[country]
", color = blue] ; 
51 -> 52 ; 
}

