ANS($vendor,$vendorLabel,$vendorHomepage) : [V_producer\6($vendorHomepage,$vendorLabel,X17594824962573242,$vendor,X17594824962573238,X17594824962573237)]

ANS($vendor,$vendorLabel,$vendorHomepage) : [V_vendor\6($vendorHomepage,$vendorLabel,X17594824962573180,X17594824962573183,X17594824962573182,$vendor)]

