digraph  g{
node [shape=rectangle, color=black, fontcolor=black, style=bold]
0 [label="LogSkolemFunctionCall
(<http://www4.wiwiss.fu-berlin.de/bizer/bsbm/v01/instances/dataFromVendor{0}/Offer{1}>, <{2}>, \"{3}\", \"{4}\", \"{5}\")" , color = blue] ; 
1 [label="LogSQLEval 
SELECT tab_29787.vendor, tab_29787.nr, tab_29787.offerWebpage, tab_29787.price, tab_29787.deliveryDays, tab_29786.propertyNum2 FROM ProductFeature AS tab_29789, Product AS tab_29790, PRODUCTTYPEPRODUCT AS tab_29793, ProductFeatureProduct AS tab_29792, CountryType AS tab_29794, Product AS tab_29786, Producer AS tab_29791, Product AS tab_29788, PRODUCT AS tab_29785, Offer AS tab_29787 WHERE tab_29790.nr = tab_29792.product AND tab_29792.productFeature = tab_29789.nr AND tab_29789.label = 'biographies' AND tab_29787.producer = tab_29790.producer AND tab_29787.product = tab_29790.nr AND tab_29793.producttype = 110 AND tab_29793.product = tab_29785.nr AND tab_29787.producer = tab_29785.producer AND tab_29787.product = tab_29785.nr AND tab_29790.producer = tab_29785.producer AND tab_29790.nr = tab_29785.nr AND tab_29787.producer = tab_29786.producer AND tab_29787.product = tab_29786.nr AND tab_29790.producer = tab_29786.producer AND tab_29790.nr = tab_29786.nr AND tab_29785.producer = tab_29786.producer AND tab_29785.nr = tab_29786.nr AND tab_29788.producer = tab_29791.nr AND tab_29787.producer = tab_29788.producer AND tab_29787.product = tab_29788.nr AND tab_29790.producer = tab_29788.producer AND tab_29790.nr = tab_29788.nr AND tab_29785.producer = tab_29788.producer AND tab_29785.nr = tab_29788.nr AND tab_29786.producer = tab_29788.producer AND tab_29786.nr = tab_29788.nr AND tab_29794.countryType = 121 AND tab_29791.country = tab_29794.country UNION SELECT tab_29721.vendor, tab_29721.nr, tab_29721.offerWebpage, tab_29721.price, tab_29721.deliveryDays, tab_29713.propertyNum2 FROM ProductFeature AS tab_29716, PRODUCT AS tab_29714, Producer AS tab_29719, Product AS tab_29720, PRODUCTTYPEPRODUCT AS tab_29715, Product AS tab_29713, ProductFeatureProduct AS tab_29718, CountryType AS tab_29722, Product AS tab_29717, Offer AS tab_29721 WHERE tab_29720.nr = tab_29718.product AND tab_29718.productFeature = tab_29716.nr AND tab_29716.label = 'biographies' AND tab_29721.producer = tab_29720.producer AND tab_29721.product = tab_29720.nr AND tab_29715.producttype = 110 AND tab_29715.product = tab_29714.nr AND tab_29721.producer = tab_29714.producer AND tab_29721.product = tab_29714.nr AND tab_29720.producer = tab_29714.producer AND tab_29720.nr = tab_29714.nr AND tab_29721.producer = tab_29713.producer AND tab_29721.product = tab_29713.nr AND tab_29720.producer = tab_29713.producer AND tab_29720.nr = tab_29713.nr AND tab_29714.producer = tab_29713.producer AND tab_29714.nr = tab_29713.nr AND tab_29717.producer = tab_29719.nr AND tab_29721.producer = tab_29717.producer AND tab_29721.product = tab_29717.nr AND tab_29720.producer = tab_29717.producer AND tab_29720.nr = tab_29717.nr AND tab_29714.producer = tab_29717.producer AND tab_29714.nr = tab_29717.nr AND tab_29713.producer = tab_29717.producer AND tab_29713.nr = tab_29717.nr AND tab_29722.countryType = 122 AND tab_29719.country = tab_29722.country UNION SELECT tab_29682.vendor, tab_29682.nr, tab_29682.offerWebpage, tab_29682.price, tab_29682.deliveryDays, tab_29678.propertyNum1 FROM Offer AS tab_29682, CountryType AS tab_29686, PRODUCTTYPEPRODUCT AS tab_29681, ProductFeatureProduct AS tab_29684, Product AS tab_29677, Product AS tab_29678, Producer AS tab_29683, Product AS tab_29679, ProductFeature AS tab_29680, PRODUCT AS tab_29685 WHERE tab_29677.nr = tab_29684.product AND tab_29684.productFeature = tab_29680.nr AND tab_29680.label = 'biographies' AND tab_29682.producer = tab_29677.producer AND tab_29682.product = tab_29677.nr AND tab_29681.producttype = 110 AND tab_29681.product = tab_29685.nr AND tab_29682.producer = tab_29685.producer AND tab_29682.product = tab_29685.nr AND tab_29677.producer = tab_29685.producer AND tab_29677.nr = tab_29685.nr AND tab_29682.producer = tab_29678.producer AND tab_29682.product = tab_29678.nr AND tab_29677.producer = tab_29678.producer AND tab_29677.nr = tab_29678.nr AND tab_29685.producer = tab_29678.producer AND tab_29685.nr = tab_29678.nr AND tab_29679.producer = tab_29683.nr AND tab_29682.producer = tab_29679.producer AND tab_29682.product = tab_29679.nr AND tab_29677.producer = tab_29679.producer AND tab_29677.nr = tab_29679.nr AND tab_29685.producer = tab_29679.producer AND tab_29685.nr = tab_29679.nr AND tab_29678.producer = tab_29679.producer AND tab_29678.nr = tab_29679.nr AND tab_29686.countryType = 122 AND tab_29683.country = tab_29686.country UNION SELECT tab_29751.vendor, tab_29751.nr, tab_29751.offerWebpage, tab_29751.price, tab_29751.deliveryDays, tab_29752.propertyNum1 FROM ProductFeature AS tab_29756, Producer AS tab_29749, Product AS tab_29750, Product AS tab_29752, Product AS tab_29754, PRODUCTTYPEPRODUCT AS tab_29757, Offer AS tab_29751, ProductFeatureProduct AS tab_29755, PRODUCT AS tab_29753, CountryType AS tab_29758 WHERE tab_29750.nr = tab_29755.product AND tab_29755.productFeature = tab_29756.nr AND tab_29756.label = 'biographies' AND tab_29751.producer = tab_29750.producer AND tab_29751.product = tab_29750.nr AND tab_29757.producttype = 110 AND tab_29757.product = tab_29753.nr AND tab_29751.producer = tab_29753.producer AND tab_29751.product = tab_29753.nr AND tab_29750.producer = tab_29753.producer AND tab_29750.nr = tab_29753.nr AND tab_29751.producer = tab_29752.producer AND tab_29751.product = tab_29752.nr AND tab_29750.producer = tab_29752.producer AND tab_29750.nr = tab_29752.nr AND tab_29753.producer = tab_29752.producer AND tab_29753.nr = tab_29752.nr AND tab_29754.producer = tab_29749.nr AND tab_29751.producer = tab_29754.producer AND tab_29751.product = tab_29754.nr AND tab_29750.producer = tab_29754.producer AND tab_29750.nr = tab_29754.nr AND tab_29753.producer = tab_29754.producer AND tab_29753.nr = tab_29754.nr AND tab_29752.producer = tab_29754.producer AND tab_29752.nr = tab_29754.nr AND tab_29758.countryType = 121 AND tab_29749.country = tab_29758.country", color = blue] ; 
0 -> 1 ; 
}

