ANS($label,$value,$country) : [V_product\14(X175948249692740,X175948249692738,X175948249692736,X175948249692735,X175948249692745,X175948249692744,X175948249692743,X175948249692742,$value,X175948249692747,$label,X175948249692741,X175948249692739,$product), V_M7\1($product), V_product-country\2($product,$country), V_country-type-121\1($country)]

ANS($label,$value,$country) : [V_product\14(X175948249694620,X175948249694621,X175948249694622,X175948249694616,X175948249694617,X175948249694618,X175948249694619,X175948249694612,$value,X175948249694614,$label,X175948249694609,X175948249694610,$product), V_M7\1($product), V_product-country\2($product,$country), V_country-type-122\1($country)]

ANS($label,$value,$country) : [V_product\14(X1759482496107603,X1759482496107600,X1759482496107598,X1759482496107597,X1759482496107593,X1759482496107592,X1759482496107595,X1759482496107594,X1759482496107602,$value,$label,X1759482496107604,X1759482496107596,$product), V_M7\1($product), V_product-country\2($product,$country), V_country-type-121\1($country)]

ANS($label,$value,$country) : [V_product\14(X1759482496108852,X1759482496108861,X1759482496108859,X1759482496108863,X1759482496108856,X1759482496108855,X1759482496108858,X1759482496108857,X1759482496108851,$value,$label,X1759482496108853,X1759482496108862,$product), V_M7\1($product), V_product-country\2($product,$country), V_country-type-122\1($country)]

