ANS($vendor,$vendorLabel,$vendorHomepage) : [V_vendor\6($vendorHomepage,$vendorLabel,X3055028502573188,X3055028502573187,X3055028502573186,$vendor)]

ANS($vendor,$vendorLabel,$vendorHomepage) : [V_producer\6($vendorHomepage,$vendorLabel,X3055028502573160,$vendor,X3055028502573158,X3055028502573157)]

