$label	$p	$country
"vouchee"	<http://www4.wiwiss.fu-berlin.de/bizer/bsbm/v01/vocabulary/producer>	<http://downlode.org/rdf/iso-3166/countries#ES>	
"chapeaus"	<http://www4.wiwiss.fu-berlin.de/bizer/bsbm/v01/vocabulary/producer>	<http://downlode.org/rdf/iso-3166/countries#ES>	
"imbalming cycloid"	<http://www4.wiwiss.fu-berlin.de/bizer/bsbm/v01/vocabulary/producer>	<http://downlode.org/rdf/iso-3166/countries#ES>	
"cooling"	<http://www4.wiwiss.fu-berlin.de/bizer/bsbm/v01/vocabulary/producer>	<http://downlode.org/rdf/iso-3166/countries#ES>	
"monetarists chromiums overprinting"	<http://www4.wiwiss.fu-berlin.de/bizer/bsbm/v01/vocabulary/producer>	<http://downlode.org/rdf/iso-3166/countries#ES>	
"gamester salvaging recast"	<http://www4.wiwiss.fu-berlin.de/bizer/bsbm/v01/vocabulary/producer>	<http://downlode.org/rdf/iso-3166/countries#ES>	
"busyness"	<http://www4.wiwiss.fu-berlin.de/bizer/bsbm/v01/vocabulary/producer>	<http://downlode.org/rdf/iso-3166/countries#ES>	
"popinjays"	<http://www4.wiwiss.fu-berlin.de/bizer/bsbm/v01/vocabulary/producer>	<http://downlode.org/rdf/iso-3166/countries#ES>	
"incubational"	<http://www4.wiwiss.fu-berlin.de/bizer/bsbm/v01/vocabulary/producer>	<http://downlode.org/rdf/iso-3166/countries#ES>	
"brininess"	<http://www4.wiwiss.fu-berlin.de/bizer/bsbm/v01/vocabulary/producer>	<http://downlode.org/rdf/iso-3166/countries#ES>	
"scintillates lucubrates smacking"	<http://www4.wiwiss.fu-berlin.de/bizer/bsbm/v01/vocabulary/producer>	<http://downlode.org/rdf/iso-3166/countries#ES>	
"discerns regularizes"	<http://www4.wiwiss.fu-berlin.de/bizer/bsbm/v01/vocabulary/producer>	<http://downlode.org/rdf/iso-3166/countries#ES>	
"susurration playboys praiseworthiness"	<http://www4.wiwiss.fu-berlin.de/bizer/bsbm/v01/vocabulary/producer>	<http://downlode.org/rdf/iso-3166/countries#ES>	
"centers stoves"	<http://www4.wiwiss.fu-berlin.de/bizer/bsbm/v01/vocabulary/producer>	<http://downlode.org/rdf/iso-3166/countries#ES>	
"intransigence balers youthens"	<http://www4.wiwiss.fu-berlin.de/bizer/bsbm/v01/vocabulary/producer>	<http://downlode.org/rdf/iso-3166/countries#ES>	
"started prinked"	<http://www4.wiwiss.fu-berlin.de/bizer/bsbm/v01/vocabulary/producer>	<http://downlode.org/rdf/iso-3166/countries#ES>	
"overgrazes"	<http://www4.wiwiss.fu-berlin.de/bizer/bsbm/v01/vocabulary/producer>	<http://downlode.org/rdf/iso-3166/countries#ES>	
"desisting citify successes"	<http://www4.wiwiss.fu-berlin.de/bizer/bsbm/v01/vocabulary/producer>	<http://downlode.org/rdf/iso-3166/countries#ES>	
"resonators conveyer"	<http://www4.wiwiss.fu-berlin.de/bizer/bsbm/v01/vocabulary/producer>	<http://downlode.org/rdf/iso-3166/countries#ES>	
"rubbings"	<http://www4.wiwiss.fu-berlin.de/bizer/bsbm/v01/vocabulary/producer>	<http://downlode.org/rdf/iso-3166/countries#ES>	
"libelers"	<http://www4.wiwiss.fu-berlin.de/bizer/bsbm/v01/vocabulary/producer>	<http://downlode.org/rdf/iso-3166/countries#ES>	
"castigated ekistics"	<http://www4.wiwiss.fu-berlin.de/bizer/bsbm/v01/vocabulary/producer>	<http://downlode.org/rdf/iso-3166/countries#ES>	
"rallyist trimonthly stupider"	<http://www4.wiwiss.fu-berlin.de/bizer/bsbm/v01/vocabulary/producer>	<http://downlode.org/rdf/iso-3166/countries#ES>	
"backbenchers vagabondage hastened"	<http://www4.wiwiss.fu-berlin.de/bizer/bsbm/v01/vocabulary/producer>	<http://downlode.org/rdf/iso-3166/countries#ES>	
"merci"	<http://www4.wiwiss.fu-berlin.de/bizer/bsbm/v01/vocabulary/producer>	<http://downlode.org/rdf/iso-3166/countries#ES>	
"onerosities chirped internships"	<http://www4.wiwiss.fu-berlin.de/bizer/bsbm/v01/vocabulary/producer>	<http://downlode.org/rdf/iso-3166/countries#ES>	
"loyalisms vacuities"	<http://www4.wiwiss.fu-berlin.de/bizer/bsbm/v01/vocabulary/producer>	<http://downlode.org/rdf/iso-3166/countries#ES>	
"organically imbalmers"	<http://www4.wiwiss.fu-berlin.de/bizer/bsbm/v01/vocabulary/producer>	<http://downlode.org/rdf/iso-3166/countries#ES>	
"slickered emirs reappraiser"	<http://www4.wiwiss.fu-berlin.de/bizer/bsbm/v01/vocabulary/producer>	<http://downlode.org/rdf/iso-3166/countries#ES>	
"dutifully"	<http://www4.wiwiss.fu-berlin.de/bizer/bsbm/v01/vocabulary/producer>	<http://downlode.org/rdf/iso-3166/countries#ES>	
"chubs besmear"	<http://www4.wiwiss.fu-berlin.de/bizer/bsbm/v01/vocabulary/producer>	<http://downlode.org/rdf/iso-3166/countries#ES>	
"baddy buncos"	<http://www4.wiwiss.fu-berlin.de/bizer/bsbm/v01/vocabulary/producer>	<http://downlode.org/rdf/iso-3166/countries#ES>	
"wising predepression anthems"	<http://www4.wiwiss.fu-berlin.de/bizer/bsbm/v01/vocabulary/producer>	<http://downlode.org/rdf/iso-3166/countries#ES>	
"goofiness"	<http://www4.wiwiss.fu-berlin.de/bizer/bsbm/v01/vocabulary/producer>	<http://downlode.org/rdf/iso-3166/countries#ES>	
"resonances"	<http://www4.wiwiss.fu-berlin.de/bizer/bsbm/v01/vocabulary/producer>	<http://downlode.org/rdf/iso-3166/countries#ES>	
"undertaken uxoriousness benefits"	<http://www4.wiwiss.fu-berlin.de/bizer/bsbm/v01/vocabulary/producer>	<http://downlode.org/rdf/iso-3166/countries#ES>	
"hayers bricked antigene"	<http://www4.wiwiss.fu-berlin.de/bizer/bsbm/v01/vocabulary/producer>	<http://downlode.org/rdf/iso-3166/countries#ES>	
"monomials"	<http://www4.wiwiss.fu-berlin.de/bizer/bsbm/v01/vocabulary/producer>	<http://downlode.org/rdf/iso-3166/countries#ES>	
"tusks"	<http://www4.wiwiss.fu-berlin.de/bizer/bsbm/v01/vocabulary/producer>	<http://downlode.org/rdf/iso-3166/countries#ES>	
"parenticide fiddler"	<http://www4.wiwiss.fu-berlin.de/bizer/bsbm/v01/vocabulary/producer>	<http://downlode.org/rdf/iso-3166/countries#ES>	
"mirkier unthriftily"	<http://www4.wiwiss.fu-berlin.de/bizer/bsbm/v01/vocabulary/producer>	<http://downlode.org/rdf/iso-3166/countries#RU>	
"turning bloodfin hullos"	<http://www4.wiwiss.fu-berlin.de/bizer/bsbm/v01/vocabulary/producer>	<http://downlode.org/rdf/iso-3166/countries#RU>	
"coinhering"	<http://www4.wiwiss.fu-berlin.de/bizer/bsbm/v01/vocabulary/producer>	<http://downlode.org/rdf/iso-3166/countries#RU>	
"cuttings inconsumably disenfranchisement"	<http://www4.wiwiss.fu-berlin.de/bizer/bsbm/v01/vocabulary/producer>	<http://downlode.org/rdf/iso-3166/countries#RU>	
"ambiences"	<http://www4.wiwiss.fu-berlin.de/bizer/bsbm/v01/vocabulary/producer>	<http://downlode.org/rdf/iso-3166/countries#RU>	
"arborize conceptually chromospheric"	<http://www4.wiwiss.fu-berlin.de/bizer/bsbm/v01/vocabulary/producer>	<http://downlode.org/rdf/iso-3166/countries#RU>	
"alluringly"	<http://www4.wiwiss.fu-berlin.de/bizer/bsbm/v01/vocabulary/producer>	<http://downlode.org/rdf/iso-3166/countries#RU>	
"preinstructs gapers retired"	<http://www4.wiwiss.fu-berlin.de/bizer/bsbm/v01/vocabulary/producer>	<http://downlode.org/rdf/iso-3166/countries#RU>	
"mettles"	<http://www4.wiwiss.fu-berlin.de/bizer/bsbm/v01/vocabulary/producer>	<http://downlode.org/rdf/iso-3166/countries#RU>	
"insomuch emergencies bones"	<http://www4.wiwiss.fu-berlin.de/bizer/bsbm/v01/vocabulary/producer>	<http://downlode.org/rdf/iso-3166/countries#RU>	
"enlist generousness"	<http://www4.wiwiss.fu-berlin.de/bizer/bsbm/v01/vocabulary/producer>	<http://downlode.org/rdf/iso-3166/countries#RU>	
"adulterously execs satiation"	<http://www4.wiwiss.fu-berlin.de/bizer/bsbm/v01/vocabulary/producer>	<http://downlode.org/rdf/iso-3166/countries#RU>	
"sanctioning"	<http://www4.wiwiss.fu-berlin.de/bizer/bsbm/v01/vocabulary/producer>	<http://downlode.org/rdf/iso-3166/countries#RU>	
"underarm salvagees counselors"	<http://www4.wiwiss.fu-berlin.de/bizer/bsbm/v01/vocabulary/producer>	<http://downlode.org/rdf/iso-3166/countries#RU>	
"disunited tyrannosauruses complimenters"	<http://www4.wiwiss.fu-berlin.de/bizer/bsbm/v01/vocabulary/producer>	<http://downlode.org/rdf/iso-3166/countries#RU>	
"unfreeze"	<http://www4.wiwiss.fu-berlin.de/bizer/bsbm/v01/vocabulary/producer>	<http://downlode.org/rdf/iso-3166/countries#RU>	
"motioning paranoids slicers"	<http://www4.wiwiss.fu-berlin.de/bizer/bsbm/v01/vocabulary/producer>	<http://downlode.org/rdf/iso-3166/countries#RU>	
"rimlands glycols"	<http://www4.wiwiss.fu-berlin.de/bizer/bsbm/v01/vocabulary/producer>	<http://downlode.org/rdf/iso-3166/countries#RU>	
"trysted"	<http://www4.wiwiss.fu-berlin.de/bizer/bsbm/v01/vocabulary/producer>	<http://downlode.org/rdf/iso-3166/countries#RU>	
"ambulators marabous sovereignly"	<http://www4.wiwiss.fu-berlin.de/bizer/bsbm/v01/vocabulary/producer>	<http://downlode.org/rdf/iso-3166/countries#RU>	
"galahad stoutness kuchen"	<http://www4.wiwiss.fu-berlin.de/bizer/bsbm/v01/vocabulary/producer>	<http://downlode.org/rdf/iso-3166/countries#RU>	
"phonics violists erosiveness"	<http://www4.wiwiss.fu-berlin.de/bizer/bsbm/v01/vocabulary/producer>	<http://downlode.org/rdf/iso-3166/countries#RU>	
"hangings coiffeur mousetraps"	<http://www4.wiwiss.fu-berlin.de/bizer/bsbm/v01/vocabulary/producer>	<http://downlode.org/rdf/iso-3166/countries#RU>	
"postulations"	<http://www4.wiwiss.fu-berlin.de/bizer/bsbm/v01/vocabulary/producer>	<http://downlode.org/rdf/iso-3166/countries#RU>	
"dinky clouds"	<http://www4.wiwiss.fu-berlin.de/bizer/bsbm/v01/vocabulary/producer>	<http://downlode.org/rdf/iso-3166/countries#RU>	
"malayans encroaching dialyzed"	<http://www4.wiwiss.fu-berlin.de/bizer/bsbm/v01/vocabulary/producer>	<http://downlode.org/rdf/iso-3166/countries#RU>	
"clairvoyance claims overboard"	<http://www4.wiwiss.fu-berlin.de/bizer/bsbm/v01/vocabulary/producer>	<http://downlode.org/rdf/iso-3166/countries#RU>	
"ghostiest subbing"	<http://www4.wiwiss.fu-berlin.de/bizer/bsbm/v01/vocabulary/producer>	<http://downlode.org/rdf/iso-3166/countries#RU>	
"wantoned lookers"	<http://www4.wiwiss.fu-berlin.de/bizer/bsbm/v01/vocabulary/producer>	<http://downlode.org/rdf/iso-3166/countries#RU>	
"robotized"	<http://www4.wiwiss.fu-berlin.de/bizer/bsbm/v01/vocabulary/producer>	<http://downlode.org/rdf/iso-3166/countries#RU>	
"menstrual circularize invectives"	<http://www4.wiwiss.fu-berlin.de/bizer/bsbm/v01/vocabulary/producer>	<http://downlode.org/rdf/iso-3166/countries#RU>	
"transmits unreadiest nobilities"	<http://www4.wiwiss.fu-berlin.de/bizer/bsbm/v01/vocabulary/producer>	<http://downlode.org/rdf/iso-3166/countries#RU>	
"replanted swooper noncontradictory"	<http://www4.wiwiss.fu-berlin.de/bizer/bsbm/v01/vocabulary/producer>	<http://downlode.org/rdf/iso-3166/countries#RU>	
"kerchieves"	<http://www4.wiwiss.fu-berlin.de/bizer/bsbm/v01/vocabulary/producer>	<http://downlode.org/rdf/iso-3166/countries#RU>	
"superposed spillers kibble"	<http://www4.wiwiss.fu-berlin.de/bizer/bsbm/v01/vocabulary/producer>	<http://downlode.org/rdf/iso-3166/countries#RU>	
"staggers"	<http://www4.wiwiss.fu-berlin.de/bizer/bsbm/v01/vocabulary/producer>	<http://downlode.org/rdf/iso-3166/countries#RU>	
"storms"	<http://www4.wiwiss.fu-berlin.de/bizer/bsbm/v01/vocabulary/producer>	<http://downlode.org/rdf/iso-3166/countries#RU>	
"stewbum"	<http://www4.wiwiss.fu-berlin.de/bizer/bsbm/v01/vocabulary/producer>	<http://downlode.org/rdf/iso-3166/countries#RU>	
"cigars"	<http://www4.wiwiss.fu-berlin.de/bizer/bsbm/v01/vocabulary/producer>	<http://downlode.org/rdf/iso-3166/countries#RU>	
"queenliness"	<http://www4.wiwiss.fu-berlin.de/bizer/bsbm/v01/vocabulary/producer>	<http://downlode.org/rdf/iso-3166/countries#RU>	
"bedwarfs unholier arrests"	<http://www4.wiwiss.fu-berlin.de/bizer/bsbm/v01/vocabulary/producer>	<http://downlode.org/rdf/iso-3166/countries#RU>	
"rods churls expiries"	<http://www4.wiwiss.fu-berlin.de/bizer/bsbm/v01/vocabulary/producer>	<http://downlode.org/rdf/iso-3166/countries#RU>	
"caricaturists chunkier"	<http://www4.wiwiss.fu-berlin.de/bizer/bsbm/v01/vocabulary/producer>	<http://downlode.org/rdf/iso-3166/countries#RU>	
"divulged undersurface"	<http://www4.wiwiss.fu-berlin.de/bizer/bsbm/v01/vocabulary/producer>	<http://downlode.org/rdf/iso-3166/countries#RU>	
"flankers"	<http://www4.wiwiss.fu-berlin.de/bizer/bsbm/v01/vocabulary/producer>	<http://downlode.org/rdf/iso-3166/countries#RU>	
"temporality adoptee"	<http://www4.wiwiss.fu-berlin.de/bizer/bsbm/v01/vocabulary/producer>	<http://downlode.org/rdf/iso-3166/countries#RU>	
"bedrolls prepossession illuminations"	<http://www4.wiwiss.fu-berlin.de/bizer/bsbm/v01/vocabulary/producer>	<http://downlode.org/rdf/iso-3166/countries#RU>	
"quadrupling"	<http://www4.wiwiss.fu-berlin.de/bizer/bsbm/v01/vocabulary/producer>	<http://downlode.org/rdf/iso-3166/countries#RU>	
"fueller"	<http://www4.wiwiss.fu-berlin.de/bizer/bsbm/v01/vocabulary/producer>	<http://downlode.org/rdf/iso-3166/countries#RU>	
"arguably tootling divisively"	<http://www4.wiwiss.fu-berlin.de/bizer/bsbm/v01/vocabulary/producer>	<http://downlode.org/rdf/iso-3166/countries#RU>	
"papule woof"	<http://www4.wiwiss.fu-berlin.de/bizer/bsbm/v01/vocabulary/producer>	<http://downlode.org/rdf/iso-3166/countries#RU>	
"whitens permutationists catalogued"	<http://www4.wiwiss.fu-berlin.de/bizer/bsbm/v01/vocabulary/producer>	<http://downlode.org/rdf/iso-3166/countries#RU>	
"mea"	<http://www4.wiwiss.fu-berlin.de/bizer/bsbm/v01/vocabulary/producer>	<http://downlode.org/rdf/iso-3166/countries#RU>	
"telesis"	<http://www4.wiwiss.fu-berlin.de/bizer/bsbm/v01/vocabulary/producer>	<http://downlode.org/rdf/iso-3166/countries#RU>	
"kinemas lactobacilli"	<http://www4.wiwiss.fu-berlin.de/bizer/bsbm/v01/vocabulary/producer>	<http://downlode.org/rdf/iso-3166/countries#RU>	
"speedups abominator chummier"	<http://www4.wiwiss.fu-berlin.de/bizer/bsbm/v01/vocabulary/producer>	<http://downlode.org/rdf/iso-3166/countries#RU>	
"pellmells radiologically subtype"	<http://www4.wiwiss.fu-berlin.de/bizer/bsbm/v01/vocabulary/producer>	<http://downlode.org/rdf/iso-3166/countries#RU>	
"traipsed frigs"	<http://www4.wiwiss.fu-berlin.de/bizer/bsbm/v01/vocabulary/producer>	<http://downlode.org/rdf/iso-3166/countries#RU>	
"wilds inlaying proroguing"	<http://www4.wiwiss.fu-berlin.de/bizer/bsbm/v01/vocabulary/producer>	<http://downlode.org/rdf/iso-3166/countries#RU>	
"gazeboes interconnects formulas"	<http://www4.wiwiss.fu-berlin.de/bizer/bsbm/v01/vocabulary/producer>	<http://downlode.org/rdf/iso-3166/countries#RU>	
"pedometers abashment ridiculed"	<http://www4.wiwiss.fu-berlin.de/bizer/bsbm/v01/vocabulary/producer>	<http://downlode.org/rdf/iso-3166/countries#RU>	
"accomplishments"	<http://www4.wiwiss.fu-berlin.de/bizer/bsbm/v01/vocabulary/producer>	<http://downlode.org/rdf/iso-3166/countries#RU>	
"festively staggy disbelieves"	<http://www4.wiwiss.fu-berlin.de/bizer/bsbm/v01/vocabulary/producer>	<http://downlode.org/rdf/iso-3166/countries#RU>	
"glissades loops"	<http://www4.wiwiss.fu-berlin.de/bizer/bsbm/v01/vocabulary/producer>	<http://downlode.org/rdf/iso-3166/countries#RU>	
"exertion hoorah paperhanging"	<http://www4.wiwiss.fu-berlin.de/bizer/bsbm/v01/vocabulary/producer>	<http://downlode.org/rdf/iso-3166/countries#RU>	
"coenamored"	<http://www4.wiwiss.fu-berlin.de/bizer/bsbm/v01/vocabulary/producer>	<http://downlode.org/rdf/iso-3166/countries#RU>	
"weightlessness"	<http://www4.wiwiss.fu-berlin.de/bizer/bsbm/v01/vocabulary/producer>	<http://downlode.org/rdf/iso-3166/countries#RU>	
"tailpipes disgracing exploders"	<http://www4.wiwiss.fu-berlin.de/bizer/bsbm/v01/vocabulary/producer>	<http://downlode.org/rdf/iso-3166/countries#RU>	
"mauled tarsals awing"	<http://www4.wiwiss.fu-berlin.de/bizer/bsbm/v01/vocabulary/producer>	<http://downlode.org/rdf/iso-3166/countries#RU>	
"disjoints disenchants laicizes"	<http://www4.wiwiss.fu-berlin.de/bizer/bsbm/v01/vocabulary/producer>	<http://downlode.org/rdf/iso-3166/countries#RU>	
"critiques lassitudes knurled"	<http://www4.wiwiss.fu-berlin.de/bizer/bsbm/v01/vocabulary/producer>	<http://downlode.org/rdf/iso-3166/countries#RU>	
"clerkish"	<http://www4.wiwiss.fu-berlin.de/bizer/bsbm/v01/vocabulary/producer>	<http://downlode.org/rdf/iso-3166/countries#RU>	
"romanism segmentary"	<http://www4.wiwiss.fu-berlin.de/bizer/bsbm/v01/vocabulary/producer>	<http://downlode.org/rdf/iso-3166/countries#RU>	
"weanlings titer"	<http://www4.wiwiss.fu-berlin.de/bizer/bsbm/v01/vocabulary/producer>	<http://downlode.org/rdf/iso-3166/countries#RU>	
"mewl bustiest"	<http://www4.wiwiss.fu-berlin.de/bizer/bsbm/v01/vocabulary/producer>	<http://downlode.org/rdf/iso-3166/countries#RU>	
"uncommon"	<http://www4.wiwiss.fu-berlin.de/bizer/bsbm/v01/vocabulary/producer>	<http://downlode.org/rdf/iso-3166/countries#RU>	
