digraph  g{
node [shape=rectangle, color=black, fontcolor=black, style=bold]
0 [label="LogSkolemFunctionCall
(<http://www4.wiwiss.fu-berlin.de/bizer/bsbm/v01/instances/dataFromRatingSite{0}/Review{1}>, <http://www4.wiwiss.fu-berlin.de/bizer/bsbm/v01/instances/dataFromProducer{2}/Product{3}>, \"{4}\")" , color = blue] ; 
1 [label="LogDistinct" , color = blue] ; 
0 -> 1 ; 
2 [label="Union", color = blue] ; 
1 -> 2 ; 
3 [label="LogProj
[4,0,2,1,3]" , color = blue] ; 
2 -> 3 ; 
4 [label="Join\n [1PREDICATE_EQUAL5,2PREDICATE_EQUAL6] ", color = blue] ; 
3 -> 4 ; 
5 [label="LogSQLEval 
SELECT tab_1426.nr, tab_1426.product, tab_1426.producer, tab_1426.rating2, tab_1426.publisher FROM Review AS tab_1426, Person AS tab_1427, Review AS tab_1428  WHERE tab_1428.person = tab_1427.nr AND tab_1426.publisher = tab_1427.publisher AND tab_1426.nr = tab_1428.nr", color = blue] ; 
4 -> 5 ; 
6 [label="LogMongoDBEval
countrytype
[{\"$match\":{\"countrytype\":111}},
{$lookup: { from: \"productproducercountry\", let: { \"country\": \"$country\"}, pipeline: [ { $match: {$expr: {$eq: [\"$$country\", \"$country\"] } } } ], as: \"mongojoin157\"}},
{$unwind: \"$mongojoin157\"}]
[mongojoin157.nr, mongojoin157.producer]
", color = blue] ; 
4 -> 6 ; 
8 [label="LogProj
[4,0,2,1,3]" , color = blue] ; 
2 -> 8 ; 
9 [label="Join\n [1PREDICATE_EQUAL5,2PREDICATE_EQUAL6] ", color = blue] ; 
8 -> 9 ; 
10 [label="LogSQLEval 
SELECT tab_1423.nr, tab_1423.product, tab_1423.producer, tab_1423.rating2, tab_1423.publisher FROM Review AS tab_1425, Review AS tab_1423, Person AS tab_1424  WHERE tab_1425.person = tab_1424.nr AND tab_1423.publisher = tab_1424.publisher AND tab_1423.nr = tab_1425.nr", color = blue] ; 
9 -> 10 ; 
11 [label="LogMongoDBEval
countrytype
[{\"$match\":{\"countrytype\":112}},
{$lookup: { from: \"productproducercountry\", let: { \"country\": \"$country\"}, pipeline: [ { $match: {$expr: {$eq: [\"$$country\", \"$country\"] } } } ], as: \"mongojoin158\"}},
{$unwind: \"$mongojoin158\"}]
[mongojoin158.nr, mongojoin158.producer]
", color = blue] ; 
9 -> 11 ; 
13 [label="LogProj
[4,0,2,1,3]" , color = blue] ; 
2 -> 13 ; 
14 [label="Join\n [2PREDICATE_EQUAL6,1PREDICATE_EQUAL5] ", color = blue] ; 
13 -> 14 ; 
15 [label="LogSQLEval 
SELECT tab_1429.nr, tab_1429.product, tab_1429.producer, tab_1429.rating1, tab_1429.publisher FROM Person AS tab_1430, Review AS tab_1431, Review AS tab_1429  WHERE tab_1431.person = tab_1430.nr AND tab_1429.publisher = tab_1430.publisher AND tab_1429.nr = tab_1431.nr", color = blue] ; 
14 -> 15 ; 
16 [label="LogMongoDBEval
countrytype
[{\"$match\":{\"countrytype\":111}},
{$lookup: { from: \"productproducercountry\", let: { \"country\": \"$country\"}, pipeline: [ { $match: {$expr: {$eq: [\"$$country\", \"$country\"] } } } ], as: \"mongojoin159\"}},
{$unwind: \"$mongojoin159\"}]
[mongojoin159.nr, mongojoin159.producer]
", color = blue] ; 
14 -> 16 ; 
18 [label="LogProj
[4,0,2,1,3]" , color = blue] ; 
2 -> 18 ; 
19 [label="Join\n [1PREDICATE_EQUAL5,2PREDICATE_EQUAL6] ", color = blue] ; 
18 -> 19 ; 
20 [label="LogSQLEval 
SELECT tab_1420.nr, tab_1420.product, tab_1420.producer, tab_1420.rating1, tab_1420.publisher FROM Person AS tab_1421, Review AS tab_1422, Review AS tab_1420  WHERE tab_1422.person = tab_1421.nr AND tab_1420.publisher = tab_1421.publisher AND tab_1420.nr = tab_1422.nr", color = blue] ; 
19 -> 20 ; 
21 [label="LogMongoDBEval
countrytype
[{\"$match\":{\"countrytype\":112}},
{$lookup: { from: \"productproducercountry\", let: { \"country\": \"$country\"}, pipeline: [ { $match: {$expr: {$eq: [\"$$country\", \"$country\"] } } } ], as: \"mongojoin160\"}},
{$unwind: \"$mongojoin160\"}]
[mongojoin160.nr, mongojoin160.producer]
", color = blue] ; 
19 -> 21 ; 
}

