digraph  g{
node [shape=rectangle, color=black, fontcolor=black, style=bold]
0 [label="LogSkolemFunctionCall
(<http://www4.wiwiss.fu-berlin.de/bizer/bsbm/v01/instances/dataFromVendor{1}/Offer{0}>, <{2}>, <http://www4.wiwiss.fu-berlin.de/bizer/bsbm/v01/instances/dataFromVendor{1}/Vendor{1}>, \"{3}\", <{4}>)" , color = blue] ; 
1 [label="LogSQLEval 
SELECT tab_3358.nr, tab_3358.vendor, tab_3358.offerWebpage, tab_3359.label, tab_3359.homepage FROM Offer AS tab_3358, Vendor AS tab_3359  WHERE tab_3358.vendor = tab_3359.nr", color = blue] ; 
0 -> 1 ; 
}

