{
  "mappings": [
    {
      "name": "MhasName",
      "head": [
        [ "$VAR_PERSON", "<ex:hasName>", "$VAR_NAME" ]
      ],
      "body": {
        "datasource": "DBExample",
        "templates": {
          "VAR_PERSON": "<db:{IDEMP}>",
	  "VAR_NAME": "NAME" 
        },
        "query": "SELECT IDEMP, NAME FROM EMPLOYEES"
      }
    },
    {
      "name": "MhasName2",
      "head": [
        [ "$VAR_PERSON", "<ex:hasName>", "$VAR_NAME" ]
      ],
      "body": {
        "datasource": "DBExample",
        "templates": {
          "VAR_PERSON": "<db:{IDEMP}>",
	  "VAR_NAME": "NAME" 
        },
        "query": "SELECT IDEMP, NAME FROM EMPLOYEES2"
      }
    },
    {
      "name": "MhasTel",
      "head": [
        [ "$VAR_IDEMP", "<ex:hasTelephone>", "$VAR_TEL" ]
      ],
      "body": {
        "datasource": "DBExample",
        "templates": {
          "VAR_IDEMP": "<db:{IDEMP}>",
	  "VAR_TEL": "<db:{TEL}>"
        },
        "query": "SELECT IDEMP, TEL FROM EMPLOYEES"
      }
    },
    {
      "name": "MhasMail",
      "head": [
        [ "$VAR_IDEMP", "<ex:hasMail>", "$VAR_MAIL" ]
      ],
      "body": {
        "datasource": "DBExample",
        "templates": {
          "VAR_IDEMP": "<db:{IDEMP}>",
	  "VAR_MAIL": "<db:{MAIL}>"
        },
        "query": "SELECT IDEMP, MAIL FROM EMPLOYEES2"
      }
    }
  ],


  "datasources": [
    {
      "name": "DBExample",
      "type": "SQLITE",
      "parameters": {
        "databasePath":"./DBExample.db"
      }
    }
  ],
  "RDFSRuleSet": "RDFS",
  "name": "SQLite example",
  "description": "small example system with a SQLite source",
  "ontology": "./ontology.nt"
}
