<$label,$value,$country> :- 
	triple($product,<64561>,$label),
	triple($product,<247060>,<571436>),
	triple($product,<127477>,$value),
	triple($product,<382211>,$producer),
	triple($producer,<37704>,$country),
	triple($country,<247060>,<223771>);

<$label,$value,$country> :- 
	triple($product,<64561>,$label),
	triple($product,<247060>,<571436>),
	triple($product,<463228>,$value),
	triple($product,<382211>,$producer),
	triple($producer,<37704>,$country),
	triple($country,<247060>,<207269>);

<$label,$value,$country> :- 
	triple($product,<64561>,$label),
	triple($product,<247060>,<571436>),
	triple($product,<127477>,$value),
	triple($product,<382211>,$producer),
	triple($producer,<37704>,$country),
	triple($country,<247060>,<207269>);

<$label,$value,$country> :- 
	triple($product,<64561>,$label),
	triple($product,<247060>,<571436>),
	triple($product,<547137>,$value),
	triple($product,<382211>,$producer),
	triple($producer,<37704>,$country),
	triple($country,<247060>,<223771>);

<$label,$value,$country> :- 
	triple($product,<64561>,$label),
	triple($product,<247060>,<571436>),
	triple($product,<331230>,$value),
	triple($product,<382211>,$producer),
	triple($producer,<37704>,$country),
	triple($country,<247060>,<223771>);

<$label,$value,$country> :- 
	triple($product,<64561>,$label),
	triple($product,<247060>,<571436>),
	triple($product,<42051>,$value),
	triple($product,<382211>,$producer),
	triple($producer,<37704>,$country),
	triple($country,<247060>,<223771>);

<$label,$value,$country> :- 
	triple($product,<64561>,$label),
	triple($product,<247060>,<571436>),
	triple($product,<263347>,$value),
	triple($product,<382211>,$producer),
	triple($producer,<37704>,$country),
	triple($country,<247060>,<369950>);

<$label,$value,$country> :- 
	triple($product,<64561>,$label),
	triple($product,<247060>,<571436>),
	triple($product,<199803>,$value),
	triple($product,<382211>,$producer),
	triple($producer,<37704>,$country),
	triple($country,<247060>,<369950>);

<$label,$value,$country> :- 
	triple($product,<64561>,$label),
	triple($product,<247060>,<571436>),
	triple($product,<463228>,$value),
	triple($product,<382211>,$producer),
	triple($producer,<37704>,$country),
	triple($country,<247060>,<223771>);

<$label,$value,$country> :- 
	triple($product,<64561>,$label),
	triple($product,<247060>,<571436>),
	triple($product,<547137>,$value),
	triple($product,<382211>,$producer),
	triple($producer,<37704>,$country),
	triple($country,<247060>,<207269>);

<$label,$value,$country> :- 
	triple($product,<64561>,$label),
	triple($product,<247060>,<571436>),
	triple($product,<263347>,$value),
	triple($product,<382211>,$producer),
	triple($producer,<37704>,$country),
	triple($country,<247060>,<207269>);

<$label,$value,$country> :- 
	triple($product,<64561>,$label),
	triple($product,<247060>,<571436>),
	triple($product,<42051>,$value),
	triple($product,<382211>,$producer),
	triple($producer,<37704>,$country),
	triple($country,<247060>,<207269>);

<$label,$value,$country> :- 
	triple($product,<64561>,$label),
	triple($product,<247060>,<571436>),
	triple($product,<127477>,$value),
	triple($product,<382211>,$producer),
	triple($producer,<37704>,$country),
	triple($country,<247060>,<369950>);

<$label,$value,$country> :- 
	triple($product,<64561>,$label),
	triple($product,<247060>,<571436>),
	triple($product,<331230>,$value),
	triple($product,<382211>,$producer),
	triple($producer,<37704>,$country),
	triple($country,<247060>,<207269>);

<$label,$value,$country> :- 
	triple($product,<64561>,$label),
	triple($product,<247060>,<571436>),
	triple($product,<547137>,$value),
	triple($product,<382211>,$producer),
	triple($producer,<37704>,$country),
	triple($country,<247060>,<369950>);

<$label,$value,$country> :- 
	triple($product,<64561>,$label),
	triple($product,<247060>,<571436>),
	triple($product,<199803>,$value),
	triple($product,<382211>,$producer),
	triple($producer,<37704>,$country),
	triple($country,<247060>,<207269>);

<$label,$value,$country> :- 
	triple($product,<64561>,$label),
	triple($product,<247060>,<571436>),
	triple($product,<331230>,$value),
	triple($product,<382211>,$producer),
	triple($producer,<37704>,$country),
	triple($country,<247060>,<369950>);

<$label,$value,$country> :- 
	triple($product,<64561>,$label),
	triple($product,<247060>,<571436>),
	triple($product,<42051>,$value),
	triple($product,<382211>,$producer),
	triple($producer,<37704>,$country),
	triple($country,<247060>,<369950>);

<$label,$value,$country> :- 
	triple($product,<64561>,$label),
	triple($product,<247060>,<571436>),
	triple($product,<263347>,$value),
	triple($product,<382211>,$producer),
	triple($producer,<37704>,$country),
	triple($country,<247060>,<223771>);

<$label,$value,$country> :- 
	triple($product,<64561>,$label),
	triple($product,<247060>,<571436>),
	triple($product,<463228>,$value),
	triple($product,<382211>,$producer),
	triple($producer,<37704>,$country),
	triple($country,<247060>,<369950>);

<$label,$value,$country> :- 
	triple($product,<64561>,$label),
	triple($product,<247060>,<571436>),
	triple($product,<199803>,$value),
	triple($product,<382211>,$producer),
	triple($producer,<37704>,$country),
	triple($country,<247060>,<223771>);

