ANS($country) : [V_offer-prop-from-ptype-74\4(X144735347318140,X144735347318141,$country,X144735347318139), V_country-type-222\1($country)]

ANS($country) : [V_review-prop-of-ptype-144\4(X144735347316693,X144735347316692,X144735347316689,$country), V_country-type-222\1($country)]

ANS($country) : [V_offer-prop-from-ptype-134\4(X144735347317503,X144735347317502,$country,X144735347317498), V_country-type-222\1($country)]

ANS($country) : [V_offer-prop-from-ptype-75\4(X144735347317041,X144735347317040,$country,X144735347317036), V_country-type-222\1($country)]

ANS($country) : [V_offer-prop-from-ptype-149\4(X144735347316837,X144735347316836,$country,X144735347316834), V_country-type-222\1($country)]

ANS($country) : [V_offer-prop-from-ptype-101\4(X144735347317053,X144735347317050,$country,X144735347317052), V_country-type-222\1($country)]

ANS($country) : [V_review-prop-of-ptype-76\4(X144735347317453,X144735347317455,X144735347317454,$country), V_country-type-222\1($country)]

ANS($country) : [V_review-prop-of-ptype-89\4(X144735347317173,X144735347317172,X144735347317169,$country), V_country-type-222\1($country)]

ANS($country) : [V_offer-prop-from-ptype-61\4(X144735347317783,X144735347317785,$country,X144735347317781), V_country-type-222\1($country)]

ANS($country) : [V_review-prop-of-ptype-106\4(X144735347316955,X144735347316957,X144735347316956,$country), V_country-type-222\1($country)]

ANS($country) : [V_offer-prop-from-ptype-97\4(X144735347316679,X144735347316681,$country,X144735347316677), V_country-type-222\1($country)]

ANS($country) : [V_offer-prop-from-ptype-104\4(X144735347317899,X144735347317898,$country,X144735347317900), V_country-type-222\1($country)]

ANS($country) : [V_offer-prop-from-ptype-123\4(X144735347317233,X144735347317230,$country,X144735347317232), V_country-type-222\1($country)]

ANS($country) : [V_review-prop-of-ptype-103\4(X144735347316811,X144735347316810,X144735347316813,$country), V_country-type-222\1($country)]

ANS($country) : [V_offer-prop-from-ptype-139\4(X144735347318078,X144735347318076,$country,X144735347318080), V_country-type-222\1($country)]

ANS($country) : [V_review-prop-of-ptype-83\4(X144735347318611,X144735347318615,X144735347318616,$country), V_country-type-222\1($country)]

ANS($country) : [V_offer-prop-from-ptype-66\4(X144735347317371,X144735347317370,$country,X144735347317366), V_country-type-222\1($country)]

ANS($country) : [V_offer-prop-from-ptype-80\4(X144735347317639,X144735347317638,$country,X144735347317640), V_country-type-222\1($country)]

ANS($country) : [V_review-prop-of-ptype-78\4(X144735347316507,X144735347316509,X144735347316508,$country), V_country-type-222\1($country)]

ANS($country) : [V_offer-prop-from-ptype-138\4(X144735347318124,X144735347318125,$country,X144735347318127), V_country-type-222\1($country)]

ANS($country) : [V_review-prop-of-ptype-128\4(X144735347317911,X144735347317910,X144735347317913,$country), V_country-type-222\1($country)]

ANS($country) : [V_offer-prop-from-ptype-98\4(X144735347317418,X144735347317419,$country,X144735347317414), V_country-type-222\1($country)]

ANS($country) : [V_offer-prop-from-ptype-73\4(X144735347317959,X144735347317961,$country,X144735347317957), V_country-type-222\1($country)]

ANS($country) : [V_review-prop-of-ptype-134\4(X144735347317431,X144735347317428,X144735347317427,$country), V_country-type-222\1($country)]

ANS($country) : [V_offer-prop-from-ptype-135\4(X144735347316717,X144735347316715,$country,X144735347316716), V_country-type-222\1($country)]

ANS($country) : [V_review-prop-of-ptype-88\4(X144735347317185,X144735347317182,X144735347317181,$country), V_country-type-222\1($country)]

ANS($country) : [V_offer-country\2($country,X144735347318790), V_country-type-222\1($country)]

ANS($country) : [V_review-prop-of-ptype-137\4(X144735347317720,X144735347317723,X144735347317722,$country), V_country-type-222\1($country)]

ANS($country) : [V_offer-prop-from-ptype-137\4(X144735347317748,X144735347317749,$country,X144735347317744), V_country-type-222\1($country)]

ANS($country) : [V_offer-prop-from-ptype-126\4(X144735347317243,X144735347317242,$country,X144735347317244), V_country-type-222\1($country)]

ANS($country) : [V_review-prop-of-ptype-66\4(X144735347317207,X144735347317209,X144735347317208,$country), V_country-type-222\1($country)]

ANS($country) : [V_offer-prop-from-ptype-118\4(X144735347318544,X144735347318542,$country,X144735347318540), V_country-type-222\1($country)]

ANS($country) : [V_offer-prop-from-ptype-140\4(X144735347317313,X144735347317312,$country,X144735347317316), V_country-type-222\1($country)]

ANS($country) : [V_offer-prop-from-ptype-115\4(X144735347316705,X144735347316702,$country,X144735347316704), V_country-type-222\1($country)]

ANS($country) : [V_review-prop-of-ptype-98\4(X144735347318115,X144735347318113,X144735347318114,$country), V_country-type-222\1($country)]

ANS($country) : [V_offer-prop-from-ptype-102\4(X144735347318663,X144735347318664,$country,X144735347318662), V_country-type-222\1($country)]

ANS($country) : [V_offer-prop-from-ptype-60\4(X144735347317075,X144735347317077,$country,X144735347317074), V_country-type-222\1($country)]

ANS($country) : [V_offer-prop-from-ptype-89\4(X144735347316979,X144735347316978,$country,X144735347316980), V_country-type-222\1($country)]

ANS($country) : [V_review-prop-of-ptype-145\4(X144735347318483,X144735347318484,X144735347318481,$country), V_country-type-222\1($country)]

ANS($country) : [V_review-prop-of-ptype-72\4(X144735347318004,X144735347318005,X144735347318008,$country), V_country-type-222\1($country)]

ANS($country) : [V_review-prop-of-ptype-90\4(X144735347316849,X144735347316848,X144735347316847,$country), V_country-type-222\1($country)]

ANS($country) : [V_review-prop-of-ptype-68\4(X144735347318472,X144735347318470,X144735347318471,$country), V_country-type-222\1($country)]

ANS($country) : [V_review-prop-of-ptype-79\4(X144735347316664,X144735347316669,X144735347316668,$country), V_country-type-222\1($country)]

ANS($country) : [V_offer-prop-from-ptype-106\4(X144735347317511,X144735347317510,$country,X144735347317512), V_country-type-222\1($country)]

ANS($country) : [V_offer-prop-from-ptype-84\4(X144735347318225,X144735347318223,$country,X144735347318221), V_country-type-222\1($country)]

ANS($country) : [V_offer-prop-from-ptype-94\4(X144735347316741,X144735347316740,$country,X144735347316736), V_country-type-222\1($country)]

ANS($country) : [V_offer-prop-from-ptype-59\4(X144735347316752,X144735347316749,$country,X144735347316751), V_country-type-222\1($country)]

ANS($country) : [V_review-prop-of-ptype-129\4(X144735347318198,X144735347318199,X144735347318196,$country), V_country-type-222\1($country)]

ANS($country) : [V_offer-prop-from-ptype-69\4(X144735347318212,X144735347318213,$country,X144735347318211), V_country-type-222\1($country)]

ANS($country) : [V_review-prop-of-ptype-92\4(X144735347316565,X144735347316564,X144735347316567,$country), V_country-type-222\1($country)]

ANS($country) : [V_review-prop-of-ptype-141\4(X144735347316917,X144735347316916,X144735347316919,$country), V_country-type-222\1($country)]

ANS($country) : [V_review-prop-of-ptype-142\4(X144735347317993,X144735347317992,X144735347317995,$country), V_country-type-222\1($country)]

ANS($country) : [V_offer-prop-from-ptype-114\4(X144735347318355,X144735347318353,$country,X144735347318352), V_country-type-222\1($country)]

ANS($country) : [V_review-prop-of-ptype-70\4(X144735347317701,X144735347317700,X144735347317697,$country), V_country-type-222\1($country)]

ANS($country) : [V_review-prop-of-ptype-67\4(X144735347317563,X144735347317560,X144735347317559,$country), V_country-type-222\1($country)]

ANS($country) : [V_offer-prop-from-ptype-99\4(X144735347318088,X144735347318089,$country,X144735347318093), V_country-type-222\1($country)]

ANS($country) : [V_review-prop-of-ptype-84\4(X144735347318760,X144735347318758,X144735347318759,$country), V_country-type-222\1($country)]

ANS($country) : [V_offer-prop-from-ptype-128\4(X144735347318285,X144735347318283,$country,X144735347318281), V_country-type-222\1($country)]

ANS($country) : [V_offer-prop-from-ptype-83\4(X144735347317973,X144735347317972,$country,X144735347317968), V_country-type-222\1($country)]

ANS($country) : [V_review-prop-of-ptype-112\4(X144735347318802,X144735347318800,X144735347318801,$country), V_country-type-222\1($country)]

ANS($country) : [V_review-prop-of-ptype-110\4(X144735347317441,X144735347317440,X144735347317443,$country), V_country-type-222\1($country)]

ANS($country) : [V_review-prop-of-ptype-151\4(X144735347318784,X144735347318782,X144735347318783,$country), V_country-type-222\1($country)]

ANS($country) : [V_review-prop-of-ptype-146\4(X144735347316640,X144735347316642,X144735347316641,$country), V_country-type-222\1($country)]

ANS($country) : [V_review-prop-of-ptype-111\4(X144735347317829,X144735347317828,X144735347317827,$country), V_country-type-222\1($country)]

ANS($country) : [V_offer-prop-from-ptype-103\4(X144735347318444,X144735347318445,$country,X144735347318447), V_country-type-222\1($country)]

ANS($country) : [V_review-prop-of-ptype-80\4(X144735347316620,X144735347316617,X144735347316616,$country), V_country-type-222\1($country)]

ANS($country) : [V_offer-prop-from-ptype-56\4(X144735347318364,X144735347318365,$country,X144735347318367), V_country-type-222\1($country)]

ANS($country) : [V_offer-prop-from-ptype-111\4(X144735347318895,X144735347318893,$country,X144735347318898), V_country-type-222\1($country)]

ANS($country) : [V_review-prop-of-ptype-139\4(X144735347317097,X144735347317096,X144735347317099,$country), V_country-type-222\1($country)]

ANS($country) : [V_offer-prop-from-ptype-86\4(X144735347318393,X144735347318391,$country,X144735347318389), V_country-type-222\1($country)]

ANS($country) : [V_offer-prop-from-ptype-62\4(X144735347318850,X144735347318848,$country,X144735347318846), V_country-type-222\1($country)]

ANS($country) : [V_offer-prop-from-ptype-124\4(X144735347318743,X144735347318747,$country,X144735347318746), V_country-type-222\1($country)]

ANS($country) : [V_offer-prop-from-ptype-151\4(X144735347318496,X144735347318494,$country,X144735347318492), V_country-type-222\1($country)]

ANS($country) : [V_offer-prop-from-ptype-145\4(X144735347318809,X144735347318813,$country,X144735347318811), V_country-type-222\1($country)]

ANS($country) : [V_review-prop-of-ptype-121\4(X144735347318296,X144735347318297,X144735347318294,$country), V_country-type-222\1($country)]

ANS($country) : [V_review-prop-of-ptype-135\4(X144735347317761,X144735347317758,X144735347317757,$country), V_country-type-222\1($country)]

ANS($country) : [V_offer-prop-from-ptype-65\4(X144735347318272,X144735347318273,$country,X144735347318271), V_country-type-222\1($country)]

ANS($country) : [V_offer-prop-from-ptype-91\4(X144735347318520,X144735347318518,$country,X144735347318516), V_country-type-222\1($country)]

ANS($country) : [V_offer-prop-from-ptype-125\4(X144735347318652,X144735347318650,$country,X144735347318648), V_country-type-222\1($country)]

ANS($country) : [V_review-prop-of-ptype-123\4(X144735347316859,X144735347316861,X144735347316860,$country), V_country-type-222\1($country)]

ANS($country) : [V_offer-prop-from-ptype-71\4(X144735347316579,X144735347316578,$country,X144735347316580), V_country-type-222\1($country)]

ANS($country) : [V_offer-prop-from-ptype-70\4(X144735347317291,X144735347317293,$country,X144735347317289), V_country-type-222\1($country)]

ANS($country) : [V_review-prop-of-ptype-147\4(X144735347317603,X144735347317605,X144735347317604,$country), V_country-type-222\1($country)]

ANS($country) : [V_review-prop-of-ptype-132\4(X144735347316532,X144735347316529,X144735347316528,$country), V_country-type-222\1($country)]

ANS($country) : [V_review-prop-of-ptype-138\4(X144735347316928,X144735347316931,X144735347316930,$country), V_country-type-222\1($country)]

ANS($country) : [V_review-prop-of-ptype-56\4(X144735347318187,X144735347318188,X144735347318186,$country), V_country-type-222\1($country)]

ANS($country) : [V_review-prop-of-ptype-140\4(X144735347317405,X144735347317407,X144735347317406,$country), V_country-type-222\1($country)]

ANS($country) : [V_review-prop-of-ptype-102\4(X144735347318838,X144735347318836,X144735347318837,$country), V_country-type-222\1($country)]

ANS($country) : [V_offer-prop-from-ptype-131\4(X144735347318177,X144735347318175,$country,X144735347318174), V_country-type-222\1($country)]

ANS($country) : [V_offer-prop-from-ptype-108\4(X144735347317088,X144735347317087,$country,X144735347317086), V_country-type-222\1($country)]

ANS($country) : [V_offer-prop-from-ptype-143\4(X144735347317591,X144735347317590,$country,X144735347317592), V_country-type-222\1($country)]

ANS($country) : [V_review-prop-of-ptype-114\4(X144735347317709,X144735347317708,X144735347317711,$country), V_country-type-222\1($country)]

ANS($country) : [V_offer-prop-from-ptype-112\4(X144735347316943,X144735347316942,$country,X144735347316944), V_country-type-222\1($country)]

ANS($country) : [V_review-prop-of-ptype-63\4(X144735347317063,X144735347317062,X144735347317065,$country), V_country-type-222\1($country)]

ANS($country) : [V_offer-prop-from-ptype-90\4(X144735347318032,X144735347318033,$country,X144735347318031), V_country-type-222\1($country)]

ANS($country) : [V_review-prop-of-ptype-85\4(X144735347318884,X144735347318885,X144735347318882,$country), V_country-type-222\1($country)]

ANS($country) : [V_review-prop-of-ptype-60\4(X144735347316729,X144735347316728,X144735347316727,$country), V_country-type-222\1($country)]

ANS($country) : [V_offer-prop-from-ptype-110\4(X144735347317393,X144735347317392,$country,X144735347317394), V_country-type-222\1($country)]

ANS($country) : [V_review-prop-of-ptype-118\4(X144735347316552,X144735347316554,X144735347316553,$country), V_country-type-222\1($country)]

ANS($country) : [V_review-prop-of-ptype-77\4(X144735347316761,X144735347316760,X144735347316763,$country), V_country-type-222\1($country)]

ANS($country) : [V_review-prop-of-ptype-99\4(X144735347317551,X144735347317550,X144735347317547,$country), V_country-type-222\1($country)]

ANS($country) : [V_review-prop-of-ptype-149\4(X144735347317665,X144735347317664,X144735347317661,$country), V_country-type-222\1($country)]

ANS($country) : [V_offer-prop-from-ptype-100\4(X144735347318344,X144735347318345,$country,X144735347318343), V_country-type-222\1($country)]

ANS($country) : [V_offer-prop-from-ptype-122\4(X144735347317615,X144735347317617,$country,X144735347317614), V_country-type-222\1($country)]

ANS($country) : [V_review-prop-of-ptype-97\4(X144735347318045,X144735347318043,X144735347318044,$country), V_country-type-222\1($country)]

ANS($country) : [V_review-prop-of-ptype-125\4(X144735347317861,X144735347317860,X144735347317863,$country), V_country-type-222\1($country)]

ANS($country) : [V_review-prop-of-ptype-81\4(X144735347318261,X144735347318259,X144735347318260,$country), V_country-type-222\1($country)]

ANS($country) : [V_offer-prop-from-ptype-129\4(X144735347317685,X144735347317684,$country,X144735347317687), V_country-type-222\1($country)]

ANS($country) : [V_offer-prop-from-ptype-144\4(X144735347318021,X144735347318019,$country,X144735347318017), V_country-type-222\1($country)]

ANS($country) : [V_offer-prop-from-ptype-79\4(X144735347317885,X144735347317884,$country,X144735347317889), V_country-type-222\1($country)]

ANS($country) : [V_offer-prop-from-ptype-146\4(X144735347317005,X144735347317004,$country,X144735347317000), V_country-type-222\1($country)]

ANS($country) : [V_review-prop-of-ptype-116\4(X144735347316969,X144735347316968,X144735347316965,$country), V_country-type-222\1($country)]

ANS($country) : [V_review-prop-of-ptype-82\4(X144735347317817,X144735347317815,X144735347317814,$country), V_country-type-222\1($country)]

ANS($country) : [V_offer-prop-from-ptype-92\4(X144735347317581,X144735347317578,$country,X144735347317580), V_country-type-222\1($country)]

ANS($country) : [V_review-prop-of-ptype-104\4(X144735347318055,X144735347318056,X144735347318053,$country), V_country-type-222\1($country)]

ANS($country) : [V_review-prop-of-ptype-64\4(X144735347318861,X144735347318862,X144735347318859,$country), V_country-type-222\1($country)]

ANS($country) : [V_offer-prop-from-ptype-133\4(X144735347318771,X144735347318772,$country,X144735347318770), V_country-type-222\1($country)]

ANS($country) : [V_review-prop-of-ptype-101\4(X144735347318234,X144735347318235,X144735347318232,$country), V_country-type-222\1($country)]

ANS($country) : [V_offer-prop-from-ptype-81\4(X144735347318591,X144735347318592,$country,X144735347318590), V_country-type-222\1($country)]

ANS($country) : [V_offer-prop-from-ptype-142\4(X144735347318164,X144735347318165,$country,X144735347318163), V_country-type-222\1($country)]

ANS($country) : [V_review-prop-of-ptype-91\4(X144735347318309,X144735347318307,X144735347318308,$country), V_country-type-222\1($country)]

ANS($country) : [V_review-prop-of-ptype-126\4(X144735347316541,X144735347316540,X144735347316543,$country), V_country-type-222\1($country)]

ANS($country) : [V_review-prop-of-ptype-57\4(X144735347317135,X144735347317134,X144735347317133,$country), V_country-type-222\1($country)]

ANS($country) : [V_review-prop-of-ptype-75\4(X144735347317465,X144735347317464,X144735347317463,$country), V_country-type-222\1($country)]

ANS($country) : [V_offer-prop-from-ptype-105\4(X144735347317159,X144735347317161,$country,X144735347317157), V_country-type-222\1($country)]

ANS($country) : [V_review-prop-of-ptype-113\4(X144735347318435,X144735347318433,X144735347318434,$country), V_country-type-222\1($country)]

ANS($country) : [V_offer-prop-from-ptype-77\4(X144735347316653,X144735347316652,$country,X144735347316656), V_country-type-222\1($country)]

ANS($country) : [V_review-prop-of-ptype-127\4(X144735347317949,X144735347317948,X144735347317947,$country), V_country-type-222\1($country)]

ANS($country) : [V_review-prop-of-ptype-107\4(X144735347318423,X144735347318424,X144735347318421,$country), V_country-type-222\1($country)]

ANS($country) : [V_product-country\2(X144735347317568,$country), V_country-type-222\1($country)]

ANS($country) : [V_offer-prop-from-ptype-57\4(X144735347316884,X144735347316881,$country,X144735347316883), V_country-type-222\1($country)]

ANS($country) : [V_offer-prop-from-ptype-58\4(X144735347318731,X144735347318732,$country,X144735347318736), V_country-type-222\1($country)]

ANS($country) : [V_offer-prop-from-ptype-67\4(X144735347317111,X144735347317110,$country,X144735347317112), V_country-type-222\1($country)]

ANS($country) : [V_review-prop-of-ptype-59\4(X144735347316785,X144735347316784,X144735347316787,$country), V_country-type-222\1($country)]

ANS($country) : [V_review-prop-of-ptype-93\4(X144735347317355,X144735347317354,X144735347317359,$country), V_country-type-222\1($country)]

ANS($country) : [V_review-prop-of-ptype-108\4(X144735347317841,X144735347317840,X144735347317837,$country), V_country-type-222\1($country)]

ANS($country) : [V_review-prop-of-ptype-95\4(X144735347318554,X144735347318555,X144735347318552,$country), V_country-type-222\1($country)]

ANS($country) : [V_offer-prop-from-ptype-120\4(X144735347316893,X144735347316892,$country,X144735347316894), V_country-type-222\1($country)]

ANS($country) : [V_review-prop-of-ptype-136\4(X144735347318575,X144735347318579,X144735347318580,$country), V_country-type-222\1($country)]

ANS($country) : [V_review-prop-of-ptype-62\4(X144735347318531,X144735347318532,X144735347318529,$country), V_country-type-222\1($country)]

ANS($country) : [V_review-prop-of-ptype-94\4(X144735347316799,X144735347316798,X144735347316801,$country), V_country-type-222\1($country)]

ANS($country) : [V_review-prop-of-ptype-100\4(X144735347317345,X144735347317343,X144735347317342,$country), V_country-type-222\1($country)]

ANS($country) : [V_offer-prop-from-ptype-85\4(X144735347318604,X144735347318602,$country,X144735347318600), V_country-type-222\1($country)]

ANS($country) : [V_offer-prop-from-ptype-107\4(X144735347316772,X144735347316774,$country,X144735347316777), V_country-type-222\1($country)]

ANS($country) : [V_offer-prop-from-ptype-113\4(X144735347318695,X144735347318700,$country,X144735347318699), V_country-type-222\1($country)]

ANS($country) : [V_review-prop-of-ptype-87\4(X144735347318675,X144735347318673,X144735347318674,$country), V_country-type-222\1($country)]

ANS($country) : [V_review-prop-of-ptype-61\4(X144735347317253,X144735347317255,X144735347317254,$country), V_country-type-222\1($country)]

ANS($country) : [V_review-prop-of-ptype-117\4(X144735347318627,X144735347318628,X144735347318626,$country), V_country-type-222\1($country)]

ANS($country) : [V_offer-prop-from-ptype-82\4(X144735347317675,X144735347317673,$country,X144735347317674), V_country-type-222\1($country)]

ANS($country) : [V_review-prop-of-ptype-143\4(X144735347318153,X144735347318151,X144735347318152,$country), V_country-type-222\1($country)]

ANS($country) : [V_review-prop-of-ptype-86\4(X144735347316873,X144735347316872,X144735347316869,$country), V_country-type-222\1($country)]

ANS($country) : [V_offer-prop-from-ptype-130\4(X144735347316823,X144735347316825,$country,X144735347316821), V_country-type-222\1($country)]

ANS($country) : [V_review-prop-of-ptype-69\4(X144735347317735,X144735347317734,X144735347317737,$country), V_country-type-222\1($country)]

ANS($country) : [V_review-prop-of-ptype-73\4(X144735347317984,X144735347317981,X144735347317980,$country), V_country-type-222\1($country)]

ANS($country) : [V_review-prop-of-ptype-120\4(X144735347317195,X144735347317194,X144735347317197,$country), V_country-type-222\1($country)]

ANS($country) : [V_offer-prop-from-ptype-68\4(X144735347317539,X144735347317538,$country,X144735347317535), V_country-type-222\1($country)]

ANS($country) : [V_review-prop-of-ptype-109\4(X144735347318380,X144735347318381,X144735347318378,$country), V_country-type-222\1($country)]

ANS($country) : [V_offer-prop-from-ptype-87\4(X144735347317265,X144735347317264,$country,X144735347317269), V_country-type-222\1($country)]

ANS($country) : [V_offer-prop-from-ptype-121\4(X144735347317015,X144735347317013,$country,X144735347317014), V_country-type-222\1($country)]

ANS($country) : [V_offer-prop-from-ptype-78\4(X144735347317335,X144735347317334,$country,X144735347317330), V_country-type-222\1($country)]

ANS($country) : [V_review-prop-of-ptype-148\4(X144735347318245,X144735347318244,X144735347318248,$country), V_country-type-222\1($country)]

ANS($country) : [V_offer-prop-from-ptype-76\4(X144735347317025,X144735347317024,$country,X144735347317027), V_country-type-222\1($country)]

ANS($country) : [V_offer-prop-from-ptype-116\4(X144735347317872,X144735347317874,$country,X144735347317877), V_country-type-222\1($country)]

ANS($country) : [V_offer-prop-from-ptype-93\4(X144735347317771,X144735347317770,$country,X144735347317772), V_country-type-222\1($country)]

ANS($country) : [V_review-prop-of-ptype-71\4(X144735347318100,X144735347318104,X144735347318105,$country), V_country-type-222\1($country)]

ANS($country) : [V_offer-prop-from-ptype-63\4(X144735347318825,X144735347318826,$country,X144735347318824), V_country-type-222\1($country)]

ANS($country) : [V_offer-prop-from-ptype-117\4(X144735347317383,X144735347317380,$country,X144735347317382), V_country-type-222\1($country)]

ANS($country) : [V_offer-prop-from-ptype-150\4(X144735347318333,X144735347318331,$country,X144735347318329), V_country-type-222\1($country)]

ANS($country) : [V_offer-prop-from-ptype-95\4(X144735347317937,X144735347317936,$country,X144735347317934), V_country-type-222\1($country)]

ANS($country) : [V_review-prop-of-ptype-58\4(X144735347317475,X144735347317474,X144735347317479,$country), V_country-type-222\1($country)]

ANS($country) : [V_review-prop-of-ptype-122\4(X144735347318320,X144735347318321,X144735347318318,$country), V_country-type-222\1($country)]

ANS($country) : [V_offer-prop-from-ptype-136\4(X144735347318684,X144735347318685,$country,X144735347318687), V_country-type-222\1($country)]

ANS($country) : [V_review-prop-of-ptype-131\4(X144735347317489,X144735347317491,X144735347317490,$country), V_country-type-222\1($country)]

ANS($country) : [V_offer-prop-from-ptype-88\4(X144735347318067,X144735347318066,$country,X144735347318065), V_country-type-222\1($country)]

ANS($country) : [V_offer-prop-from-ptype-96\4(X144735347318640,X144735347318639,$country,X144735347318638), V_country-type-222\1($country)]

ANS($country) : [V_review-prop-of-ptype-115\4(X144735347318404,X144735347318405,X144735347318402,$country), V_country-type-222\1($country)]

ANS($country) : [V_offer-prop-from-ptype-132\4(X144735347316991,X144735347316993,$country,X144735347316989), V_country-type-222\1($country)]

ANS($country) : [V_review-prop-of-ptype-124\4(X144735347317852,X144735347317849,X144735347317848,$country), V_country-type-222\1($country)]

ANS($country) : [V_offer-prop-from-ptype-147\4(X144735347317923,X144735347317925,$country,X144735347317921), V_country-type-222\1($country)]

ANS($country) : [V_offer-prop-from-ptype-72\4(X144735347318874,X144735347318872,$country,X144735347318870), V_country-type-222\1($country)]

ANS($country) : [V_review-prop-of-ptype-130\4(X144735347317629,X144735347317628,X144735347317625,$country), V_country-type-222\1($country)]

ANS($country) : [V_review-prop-of-ptype-133\4(X144735347317279,X144735347317278,X144735347317281,$country), V_country-type-222\1($country)]

ANS($country) : [V_offer-prop-from-ptype-119\4(X144735347317123,X144735347317125,$country,X144735347317121), V_country-type-222\1($country)]

ANS($country) : [V_offer-prop-from-ptype-64\4(X144735347316904,X144735347316906,$country,X144735347316908), V_country-type-222\1($country)]

ANS($country) : [V_offer-prop-from-ptype-148\4(X144735347316521,X144735347316520,$country,X144735347316516), V_country-type-222\1($country)]

ANS($country) : [V_offer-prop-from-ptype-141\4(X144735347318709,X144735347318710,$country,X144735347318708), V_country-type-222\1($country)]

ANS($country) : [V_review-prop-of-ptype-150\4(X144735347317522,X144735347317526,X144735347317525,$country), V_country-type-222\1($country)]

ANS($country) : [V_review-prop-of-ptype-74\4(X144735347318565,X144735347318563,X144735347318564,$country), V_country-type-222\1($country)]

ANS($country) : [V_review-prop-of-ptype-119\4(X144735347317305,X144735347317304,X144735347317301,$country), V_country-type-222\1($country)]

ANS($country) : [V_offer-prop-from-ptype-127\4(X144735347318721,X144735347318719,$country,X144735347318723), V_country-type-222\1($country)]

ANS($country) : [V_review-prop-of-ptype-96\4(X144735347316629,X144735347316628,X144735347316631,$country), V_country-type-222\1($country)]

ANS($country) : [V_offer-prop-from-ptype-109\4(X144735347318507,X144735347318508,$country,X144735347318506), V_country-type-222\1($country)]

ANS($country) : [V_review-prop-of-ptype-65\4(X144735347318455,X144735347318460,X144735347318458,$country), V_country-type-222\1($country)]

ANS($country) : [V_review-prop-of-ptype-105\4(X144735347317145,X144735347317144,X144735347317149,$country), V_country-type-222\1($country)]

