digraph  g{
node [shape=rectangle, color=black, fontcolor=black, style=bold]
0 [label="LogDistinct" , color = blue] ; 
1 [label="Union", color = blue] ; 
0 -> 1 ; 
2 [label="LogFunctionCall
AddConstant{1=(\"<http://www4.wiwiss.fu-berlin.de/bizer/bsbm/v01/vocabulary/producer>\")}" , color = blue] ; 
1 -> 2 ; 
3 [label="LogSkolemFunctionCall
(<http://www4.wiwiss.fu-berlin.de/bizer/bsbm/v01/instances/dataFromVendor{1}/Offer{0}>, <http://www4.wiwiss.fu-berlin.de/bizer/bsbm/v01/instances/dataFromProducer{2}/Producer{2}>)" , color = blue] ; 
2 -> 3 ; 
4 [label="LogProj
[3,6,2]" , color = blue] ; 
3 -> 4 ; 
5 [label="Join\n [0PREDICATE_EQUAL4,1PREDICATE_EQUAL5] ", color = blue] ; 
4 -> 5 ; 
6 [label="LogSQLEval 
SELECT tab_1507.nr, tab_1507.producer, tab_1509.producer FROM Product AS tab_1509, PRODUCTTYPEPRODUCT AS tab_1508, PRODUCT AS tab_1507  WHERE tab_1508.producttype = 56 AND tab_1508.product = tab_1507.nr AND tab_1507.nr = tab_1509.nr AND tab_1507.producer = tab_1509.producer", color = blue] ; 
5 -> 6 ; 
7 [label="LogMongoDBEval
offer
[]
[nr, product, producer, vendor]
", color = blue] ; 
5 -> 7 ; 
9 [label="LogFunctionCall
AddConstant{1=(\"<http://www4.wiwiss.fu-berlin.de/bizer/bsbm/v01/vocabulary/productPropertyNumeric3>\")}" , color = blue] ; 
1 -> 9 ; 
10 [label="LogSkolemFunctionCall
(<http://www4.wiwiss.fu-berlin.de/bizer/bsbm/v01/instances/dataFromVendor{1}/Offer{0}>, \"{2}\")" , color = blue] ; 
9 -> 10 ; 
11 [label="LogSQLEval 
SELECT O.nr, O.vendor, P.propertyNum3 FROM Offer AS O, Product AS P, Producer AS PR, PRODUCTTYPEPRODUCT AS PTP  WHERE P.nr = O.product AND PR.nr = P.producer AND P.nr = PTP.product AND PTP.producttype=57", color = blue] ; 
10 -> 11 ; 
13 [label="LogFunctionCall
AddConstant{1=(\"<http://www4.wiwiss.fu-berlin.de/bizer/bsbm/v01/vocabulary/productPropertyNumeric2>\")}" , color = blue] ; 
1 -> 13 ; 
14 [label="LogSkolemFunctionCall
(<http://www4.wiwiss.fu-berlin.de/bizer/bsbm/v01/instances/dataFromVendor{1}/Offer{0}>, \"{2}\")" , color = blue] ; 
13 -> 14 ; 
15 [label="LogProj
[3,6,2]" , color = blue] ; 
14 -> 15 ; 
16 [label="Join\n [0PREDICATE_EQUAL4,1PREDICATE_EQUAL5] ", color = blue] ; 
15 -> 16 ; 
17 [label="LogSQLEval 
SELECT tab_1510.nr, tab_1510.producer, tab_1512.propertyNum2 FROM PRODUCTTYPEPRODUCT AS tab_1511, PRODUCT AS tab_1510, Product AS tab_1512  WHERE tab_1511.producttype = 56 AND tab_1511.product = tab_1510.nr AND tab_1510.nr = tab_1512.nr AND tab_1510.producer = tab_1512.producer", color = blue] ; 
16 -> 17 ; 
18 [label="LogMongoDBEval
offer
[]
[nr, product, producer, vendor]
", color = blue] ; 
16 -> 18 ; 
20 [label="LogFunctionCall
AddConstant{1=(\"<http://www4.wiwiss.fu-berlin.de/bizer/bsbm/v01/vocabulary/productPropertyTextual>\")}" , color = blue] ; 
1 -> 20 ; 
21 [label="LogSkolemFunctionCall
(<http://www4.wiwiss.fu-berlin.de/bizer/bsbm/v01/instances/dataFromVendor{1}/Offer{0}>, \"{2}\")" , color = blue] ; 
20 -> 21 ; 
22 [label="LogProj
[3,6,2]" , color = blue] ; 
21 -> 22 ; 
23 [label="Join\n [1PREDICATE_EQUAL5,0PREDICATE_EQUAL4] ", color = blue] ; 
22 -> 23 ; 
24 [label="LogSQLEval 
SELECT tab_1513.nr, tab_1513.producer, tab_1515.propertyTex2 FROM PRODUCT AS tab_1513, PRODUCTTYPEPRODUCT AS tab_1514, Product AS tab_1515  WHERE tab_1514.producttype = 56 AND tab_1514.product = tab_1513.nr AND tab_1513.nr = tab_1515.nr AND tab_1513.producer = tab_1515.producer", color = blue] ; 
23 -> 24 ; 
25 [label="LogMongoDBEval
offer
[]
[nr, product, producer, vendor]
", color = blue] ; 
23 -> 25 ; 
27 [label="LogFunctionCall
AddConstant{1=(\"<http://www4.wiwiss.fu-berlin.de/bizer/bsbm/v01/vocabulary/productPropertyTextual>\")}" , color = blue] ; 
1 -> 27 ; 
28 [label="LogSkolemFunctionCall
(<http://www4.wiwiss.fu-berlin.de/bizer/bsbm/v01/instances/dataFromVendor{1}/Offer{0}>, \"{2}\")" , color = blue] ; 
27 -> 28 ; 
29 [label="LogProj
[3,6,2]" , color = blue] ; 
28 -> 29 ; 
30 [label="Join\n [0PREDICATE_EQUAL4,1PREDICATE_EQUAL5] ", color = blue] ; 
29 -> 30 ; 
31 [label="LogSQLEval 
SELECT tab_1516.nr, tab_1516.producer, tab_1518.propertyTex1 FROM Product AS tab_1518, PRODUCTTYPEPRODUCT AS tab_1517, PRODUCT AS tab_1516  WHERE tab_1517.producttype = 57 AND tab_1517.product = tab_1516.nr AND tab_1516.nr = tab_1518.nr AND tab_1516.producer = tab_1518.producer", color = blue] ; 
30 -> 31 ; 
32 [label="LogMongoDBEval
offer
[]
[nr, product, producer, vendor]
", color = blue] ; 
30 -> 32 ; 
34 [label="LogFunctionCall
AddConstant{1=(\"<http://www4.wiwiss.fu-berlin.de/bizer/bsbm/v01/vocabulary/productPropertyTextual6>\")}" , color = blue] ; 
1 -> 34 ; 
35 [label="LogSkolemFunctionCall
(<http://www4.wiwiss.fu-berlin.de/bizer/bsbm/v01/instances/dataFromVendor{1}/Offer{0}>, \"{2}\")" , color = blue] ; 
34 -> 35 ; 
36 [label="LogProj
[3,6,2]" , color = blue] ; 
35 -> 36 ; 
37 [label="Join\n [1PREDICATE_EQUAL5,0PREDICATE_EQUAL4] ", color = blue] ; 
36 -> 37 ; 
38 [label="LogSQLEval 
SELECT tab_1519.nr, tab_1519.producer, tab_1521.propertyTex6 FROM PRODUCTTYPEPRODUCT AS tab_1520, Product AS tab_1521, PRODUCT AS tab_1519  WHERE tab_1520.producttype = 57 AND tab_1520.product = tab_1519.nr AND tab_1519.producer = tab_1521.producer AND tab_1519.nr = tab_1521.nr", color = blue] ; 
37 -> 38 ; 
39 [label="LogMongoDBEval
offer
[]
[nr, product, producer, vendor]
", color = blue] ; 
37 -> 39 ; 
41 [label="LogFunctionCall
AddConstant{1=(\"<http://www4.wiwiss.fu-berlin.de/bizer/bsbm/v01/vocabulary/productPropertyTextual2>\")}" , color = blue] ; 
1 -> 41 ; 
42 [label="LogSkolemFunctionCall
(<http://www4.wiwiss.fu-berlin.de/bizer/bsbm/v01/instances/dataFromVendor{1}/Offer{0}>, \"{2}\")" , color = blue] ; 
41 -> 42 ; 
43 [label="LogProj
[3,6,2]" , color = blue] ; 
42 -> 43 ; 
44 [label="Join\n [0PREDICATE_EQUAL4,1PREDICATE_EQUAL5] ", color = blue] ; 
43 -> 44 ; 
45 [label="LogSQLEval 
SELECT tab_1522.nr, tab_1522.producer, tab_1524.propertyTex2 FROM PRODUCTTYPEPRODUCT AS tab_1523, PRODUCT AS tab_1522, Product AS tab_1524  WHERE tab_1523.producttype = 57 AND tab_1523.product = tab_1522.nr AND tab_1522.nr = tab_1524.nr AND tab_1522.producer = tab_1524.producer", color = blue] ; 
44 -> 45 ; 
46 [label="LogMongoDBEval
offer
[]
[nr, product, producer, vendor]
", color = blue] ; 
44 -> 46 ; 
48 [label="LogFunctionCall
AddConstant{1=(\"<http://www4.wiwiss.fu-berlin.de/bizer/bsbm/v01/vocabulary/productPropertyTextual5>\")}" , color = blue] ; 
1 -> 48 ; 
49 [label="LogSkolemFunctionCall
(<http://www4.wiwiss.fu-berlin.de/bizer/bsbm/v01/instances/dataFromVendor{1}/Offer{0}>, \"{2}\")" , color = blue] ; 
48 -> 49 ; 
50 [label="LogProj
[3,6,2]" , color = blue] ; 
49 -> 50 ; 
51 [label="Join\n [1PREDICATE_EQUAL5,0PREDICATE_EQUAL4] ", color = blue] ; 
50 -> 51 ; 
52 [label="LogSQLEval 
SELECT tab_1525.nr, tab_1525.producer, tab_1527.propertyTex5 FROM PRODUCT AS tab_1525, PRODUCTTYPEPRODUCT AS tab_1526, Product AS tab_1527  WHERE tab_1526.producttype = 56 AND tab_1526.product = tab_1525.nr AND tab_1525.nr = tab_1527.nr AND tab_1525.producer = tab_1527.producer", color = blue] ; 
51 -> 52 ; 
53 [label="LogMongoDBEval
offer
[]
[nr, product, producer, vendor]
", color = blue] ; 
51 -> 53 ; 
55 [label="LogFunctionCall
AddConstant{1=(\"<http://www4.wiwiss.fu-berlin.de/bizer/bsbm/v01/vocabulary/productPropertyTextual1>\")}" , color = blue] ; 
1 -> 55 ; 
56 [label="LogSkolemFunctionCall
(<http://www4.wiwiss.fu-berlin.de/bizer/bsbm/v01/instances/dataFromVendor{1}/Offer{0}>, \"{2}\")" , color = blue] ; 
55 -> 56 ; 
57 [label="LogProj
[3,6,2]" , color = blue] ; 
56 -> 57 ; 
58 [label="Join\n [1PREDICATE_EQUAL5,0PREDICATE_EQUAL4] ", color = blue] ; 
57 -> 58 ; 
59 [label="LogSQLEval 
SELECT tab_1528.nr, tab_1528.producer, tab_1530.propertyTex1 FROM PRODUCTTYPEPRODUCT AS tab_1529, PRODUCT AS tab_1528, Product AS tab_1530  WHERE tab_1529.producttype = 56 AND tab_1529.product = tab_1528.nr AND tab_1528.producer = tab_1530.producer AND tab_1528.nr = tab_1530.nr", color = blue] ; 
58 -> 59 ; 
60 [label="LogMongoDBEval
offer
[]
[nr, product, producer, vendor]
", color = blue] ; 
58 -> 60 ; 
62 [label="LogFunctionCall
AddConstant{1=(\"<http://www4.wiwiss.fu-berlin.de/bizer/bsbm/v01/vocabulary/productPropertyTextual>\")}" , color = blue] ; 
1 -> 62 ; 
63 [label="LogSkolemFunctionCall
(<http://www4.wiwiss.fu-berlin.de/bizer/bsbm/v01/instances/dataFromVendor{1}/Offer{0}>, \"{2}\")" , color = blue] ; 
62 -> 63 ; 
64 [label="LogProj
[3,6,2]" , color = blue] ; 
63 -> 64 ; 
65 [label="Join\n [0PREDICATE_EQUAL4,1PREDICATE_EQUAL5] ", color = blue] ; 
64 -> 65 ; 
66 [label="LogSQLEval 
SELECT tab_1531.nr, tab_1531.producer, tab_1533.propertyTex6 FROM PRODUCTTYPEPRODUCT AS tab_1532, PRODUCT AS tab_1531, Product AS tab_1533  WHERE tab_1532.producttype = 56 AND tab_1532.product = tab_1531.nr AND tab_1531.nr = tab_1533.nr AND tab_1531.producer = tab_1533.producer", color = blue] ; 
65 -> 66 ; 
67 [label="LogMongoDBEval
offer
[]
[nr, product, producer, vendor]
", color = blue] ; 
65 -> 67 ; 
69 [label="LogFunctionCall
AddConstant{1=(\"<http://www4.wiwiss.fu-berlin.de/bizer/bsbm/v01/vocabulary/productPropertyTextual>\")}" , color = blue] ; 
1 -> 69 ; 
70 [label="LogSkolemFunctionCall
(<http://www4.wiwiss.fu-berlin.de/bizer/bsbm/v01/instances/dataFromVendor{1}/Offer{0}>, \"{2}\")" , color = blue] ; 
69 -> 70 ; 
71 [label="LogProj
[3,6,2]" , color = blue] ; 
70 -> 71 ; 
72 [label="Join\n [1PREDICATE_EQUAL5,0PREDICATE_EQUAL4] ", color = blue] ; 
71 -> 72 ; 
73 [label="LogSQLEval 
SELECT tab_1534.nr, tab_1534.producer, tab_1536.propertyTex5 FROM PRODUCT AS tab_1534, PRODUCTTYPEPRODUCT AS tab_1535, Product AS tab_1536  WHERE tab_1535.producttype = 57 AND tab_1535.product = tab_1534.nr AND tab_1534.producer = tab_1536.producer AND tab_1534.nr = tab_1536.nr", color = blue] ; 
72 -> 73 ; 
74 [label="LogMongoDBEval
offer
[]
[nr, product, producer, vendor]
", color = blue] ; 
72 -> 74 ; 
76 [label="LogFunctionCall
AddConstant{1=(\"<http://www4.wiwiss.fu-berlin.de/bizer/bsbm/v01/vocabulary/productPropertyNumeric>\")}" , color = blue] ; 
1 -> 76 ; 
77 [label="LogSkolemFunctionCall
(<http://www4.wiwiss.fu-berlin.de/bizer/bsbm/v01/instances/dataFromVendor{1}/Offer{0}>, \"{2}\")" , color = blue] ; 
76 -> 77 ; 
78 [label="LogSQLEval 
SELECT O.nr, O.vendor, P.propertyNum3 FROM Offer AS O, Product AS P, Producer AS PR, PRODUCTTYPEPRODUCT AS PTP  WHERE P.nr = O.product AND PR.nr = P.producer AND P.nr = PTP.product AND PTP.producttype=56", color = blue] ; 
77 -> 78 ; 
80 [label="LogFunctionCall
AddConstant{1=(\"<http://www4.wiwiss.fu-berlin.de/bizer/bsbm/v01/vocabulary/productPropertyNumeric>\")}" , color = blue] ; 
1 -> 80 ; 
81 [label="LogSkolemFunctionCall
(<http://www4.wiwiss.fu-berlin.de/bizer/bsbm/v01/instances/dataFromVendor{1}/Offer{0}>, \"{2}\")" , color = blue] ; 
80 -> 81 ; 
82 [label="LogProj
[3,6,2]" , color = blue] ; 
81 -> 82 ; 
83 [label="Join\n [0PREDICATE_EQUAL4,1PREDICATE_EQUAL5] ", color = blue] ; 
82 -> 83 ; 
84 [label="LogSQLEval 
SELECT tab_1537.nr, tab_1537.producer, tab_1539.propertyNum2 FROM PRODUCT AS tab_1537, PRODUCTTYPEPRODUCT AS tab_1538, Product AS tab_1539  WHERE tab_1538.producttype = 57 AND tab_1538.product = tab_1537.nr AND tab_1537.producer = tab_1539.producer AND tab_1537.nr = tab_1539.nr", color = blue] ; 
83 -> 84 ; 
85 [label="LogMongoDBEval
offer
[]
[nr, product, producer, vendor]
", color = blue] ; 
83 -> 85 ; 
87 [label="LogFunctionCall
AddConstant{1=(\"<http://www4.wiwiss.fu-berlin.de/bizer/bsbm/v01/vocabulary/productPropertyNumeric2>\")}" , color = blue] ; 
1 -> 87 ; 
88 [label="LogSkolemFunctionCall
(<http://www4.wiwiss.fu-berlin.de/bizer/bsbm/v01/instances/dataFromVendor{1}/Offer{0}>, \"{2}\")" , color = blue] ; 
87 -> 88 ; 
89 [label="LogProj
[3,6,2]" , color = blue] ; 
88 -> 89 ; 
90 [label="Join\n [1PREDICATE_EQUAL5,0PREDICATE_EQUAL4] ", color = blue] ; 
89 -> 90 ; 
91 [label="LogSQLEval 
SELECT tab_1540.nr, tab_1540.producer, tab_1542.propertyNum2 FROM PRODUCT AS tab_1540, PRODUCTTYPEPRODUCT AS tab_1541, Product AS tab_1542  WHERE tab_1541.producttype = 57 AND tab_1541.product = tab_1540.nr AND tab_1540.nr = tab_1542.nr AND tab_1540.producer = tab_1542.producer", color = blue] ; 
90 -> 91 ; 
92 [label="LogMongoDBEval
offer
[]
[nr, product, producer, vendor]
", color = blue] ; 
90 -> 92 ; 
94 [label="LogFunctionCall
AddConstant{1=(\"<http://www4.wiwiss.fu-berlin.de/bizer/bsbm/v01/vocabulary/productPropertyNumeric1>\")}" , color = blue] ; 
1 -> 94 ; 
95 [label="LogSkolemFunctionCall
(<http://www4.wiwiss.fu-berlin.de/bizer/bsbm/v01/instances/dataFromVendor{1}/Offer{0}>, \"{2}\")" , color = blue] ; 
94 -> 95 ; 
96 [label="LogProj
[3,6,2]" , color = blue] ; 
95 -> 96 ; 
97 [label="Join\n [0PREDICATE_EQUAL4,1PREDICATE_EQUAL5] ", color = blue] ; 
96 -> 97 ; 
98 [label="LogSQLEval 
SELECT tab_1543.nr, tab_1543.producer, tab_1545.propertyNum1 FROM PRODUCTTYPEPRODUCT AS tab_1544, PRODUCT AS tab_1543, Product AS tab_1545  WHERE tab_1544.producttype = 56 AND tab_1544.product = tab_1543.nr AND tab_1543.nr = tab_1545.nr AND tab_1543.producer = tab_1545.producer", color = blue] ; 
97 -> 98 ; 
99 [label="LogMongoDBEval
offer
[]
[nr, product, producer, vendor]
", color = blue] ; 
97 -> 99 ; 
101 [label="LogFunctionCall
AddConstant{1=(\"<http://www4.wiwiss.fu-berlin.de/bizer/bsbm/v01/vocabulary/productPropertyTextual3>\")}" , color = blue] ; 
1 -> 101 ; 
102 [label="LogSkolemFunctionCall
(<http://www4.wiwiss.fu-berlin.de/bizer/bsbm/v01/instances/dataFromVendor{1}/Offer{0}>, \"{2}\")" , color = blue] ; 
101 -> 102 ; 
103 [label="LogProj
[3,6,2]" , color = blue] ; 
102 -> 103 ; 
104 [label="Join\n [1PREDICATE_EQUAL5,0PREDICATE_EQUAL4] ", color = blue] ; 
103 -> 104 ; 
105 [label="LogSQLEval 
SELECT tab_1546.nr, tab_1546.producer, tab_1548.propertyTex3 FROM PRODUCT AS tab_1546, PRODUCTTYPEPRODUCT AS tab_1547, Product AS tab_1548  WHERE tab_1547.producttype = 57 AND tab_1547.product = tab_1546.nr AND tab_1546.nr = tab_1548.nr AND tab_1546.producer = tab_1548.producer", color = blue] ; 
104 -> 105 ; 
106 [label="LogMongoDBEval
offer
[]
[nr, product, producer, vendor]
", color = blue] ; 
104 -> 106 ; 
108 [label="LogFunctionCall
AddConstant{1=(\"<http://www4.wiwiss.fu-berlin.de/bizer/bsbm/v01/vocabulary/productPropertyTextual>\")}" , color = blue] ; 
1 -> 108 ; 
109 [label="LogSkolemFunctionCall
(<http://www4.wiwiss.fu-berlin.de/bizer/bsbm/v01/instances/dataFromVendor{1}/Offer{0}>, \"{2}\")" , color = blue] ; 
108 -> 109 ; 
110 [label="LogProj
[3,6,2]" , color = blue] ; 
109 -> 110 ; 
111 [label="Join\n [1PREDICATE_EQUAL5,0PREDICATE_EQUAL4] ", color = blue] ; 
110 -> 111 ; 
112 [label="LogSQLEval 
SELECT tab_1549.nr, tab_1549.producer, tab_1551.propertyTex3 FROM Product AS tab_1551, PRODUCT AS tab_1549, PRODUCTTYPEPRODUCT AS tab_1550  WHERE tab_1550.producttype = 56 AND tab_1550.product = tab_1549.nr AND tab_1549.nr = tab_1551.nr AND tab_1549.producer = tab_1551.producer", color = blue] ; 
111 -> 112 ; 
113 [label="LogMongoDBEval
offer
[]
[nr, product, producer, vendor]
", color = blue] ; 
111 -> 113 ; 
115 [label="LogFunctionCall
AddConstant{1=(\"<http://www4.wiwiss.fu-berlin.de/bizer/bsbm/v01/vocabulary/productPropertyTextual>\")}" , color = blue] ; 
1 -> 115 ; 
116 [label="LogSkolemFunctionCall
(<http://www4.wiwiss.fu-berlin.de/bizer/bsbm/v01/instances/dataFromVendor{1}/Offer{0}>, \"{2}\")" , color = blue] ; 
115 -> 116 ; 
117 [label="LogProj
[3,6,2]" , color = blue] ; 
116 -> 117 ; 
118 [label="Join\n [0PREDICATE_EQUAL4,1PREDICATE_EQUAL5] ", color = blue] ; 
117 -> 118 ; 
119 [label="LogSQLEval 
SELECT tab_1552.nr, tab_1552.producer, tab_1554.propertyTex2 FROM PRODUCTTYPEPRODUCT AS tab_1553, PRODUCT AS tab_1552, Product AS tab_1554  WHERE tab_1553.producttype = 57 AND tab_1553.product = tab_1552.nr AND tab_1552.producer = tab_1554.producer AND tab_1552.nr = tab_1554.nr", color = blue] ; 
118 -> 119 ; 
120 [label="LogMongoDBEval
offer
[]
[nr, product, producer, vendor]
", color = blue] ; 
118 -> 120 ; 
122 [label="LogFunctionCall
AddConstant{1=(\"<http://www4.wiwiss.fu-berlin.de/bizer/bsbm/v01/vocabulary/productPropertyTextual6>\")}" , color = blue] ; 
1 -> 122 ; 
123 [label="LogSkolemFunctionCall
(<http://www4.wiwiss.fu-berlin.de/bizer/bsbm/v01/instances/dataFromVendor{1}/Offer{0}>, \"{2}\")" , color = blue] ; 
122 -> 123 ; 
124 [label="LogProj
[3,6,2]" , color = blue] ; 
123 -> 124 ; 
125 [label="Join\n [1PREDICATE_EQUAL5,0PREDICATE_EQUAL4] ", color = blue] ; 
124 -> 125 ; 
126 [label="LogSQLEval 
SELECT tab_1555.nr, tab_1555.producer, tab_1557.propertyTex6 FROM PRODUCTTYPEPRODUCT AS tab_1556, PRODUCT AS tab_1555, Product AS tab_1557  WHERE tab_1556.producttype = 56 AND tab_1556.product = tab_1555.nr AND tab_1555.producer = tab_1557.producer AND tab_1555.nr = tab_1557.nr", color = blue] ; 
125 -> 126 ; 
127 [label="LogMongoDBEval
offer
[]
[nr, product, producer, vendor]
", color = blue] ; 
125 -> 127 ; 
129 [label="LogFunctionCall
AddConstant{1=(\"<http://www4.wiwiss.fu-berlin.de/bizer/bsbm/v01/vocabulary/productPropertyTextual2>\")}" , color = blue] ; 
1 -> 129 ; 
130 [label="LogSkolemFunctionCall
(<http://www4.wiwiss.fu-berlin.de/bizer/bsbm/v01/instances/dataFromVendor{1}/Offer{0}>, \"{2}\")" , color = blue] ; 
129 -> 130 ; 
131 [label="LogProj
[3,6,2]" , color = blue] ; 
130 -> 131 ; 
132 [label="Join\n [0PREDICATE_EQUAL4,1PREDICATE_EQUAL5] ", color = blue] ; 
131 -> 132 ; 
133 [label="LogSQLEval 
SELECT tab_1558.nr, tab_1558.producer, tab_1560.propertyTex2 FROM PRODUCT AS tab_1558, Product AS tab_1560, PRODUCTTYPEPRODUCT AS tab_1559  WHERE tab_1559.producttype = 56 AND tab_1559.product = tab_1558.nr AND tab_1558.nr = tab_1560.nr AND tab_1558.producer = tab_1560.producer", color = blue] ; 
132 -> 133 ; 
134 [label="LogMongoDBEval
offer
[]
[nr, product, producer, vendor]
", color = blue] ; 
132 -> 134 ; 
136 [label="LogFunctionCall
AddConstant{1=(\"<http://www4.wiwiss.fu-berlin.de/bizer/bsbm/v01/vocabulary/productPropertyNumeric>\")}" , color = blue] ; 
1 -> 136 ; 
137 [label="LogSkolemFunctionCall
(<http://www4.wiwiss.fu-berlin.de/bizer/bsbm/v01/instances/dataFromVendor{1}/Offer{0}>, \"{2}\")" , color = blue] ; 
136 -> 137 ; 
138 [label="LogProj
[3,6,2]" , color = blue] ; 
137 -> 138 ; 
139 [label="Join\n [0PREDICATE_EQUAL4,1PREDICATE_EQUAL5] ", color = blue] ; 
138 -> 139 ; 
140 [label="LogSQLEval 
SELECT tab_1561.nr, tab_1561.producer, tab_1563.propertyNum2 FROM PRODUCT AS tab_1561, PRODUCTTYPEPRODUCT AS tab_1562, Product AS tab_1563  WHERE tab_1562.producttype = 56 AND tab_1562.product = tab_1561.nr AND tab_1561.nr = tab_1563.nr AND tab_1561.producer = tab_1563.producer", color = blue] ; 
139 -> 140 ; 
141 [label="LogMongoDBEval
offer
[]
[nr, product, producer, vendor]
", color = blue] ; 
139 -> 141 ; 
143 [label="LogFunctionCall
AddConstant{1=(\"<http://www4.wiwiss.fu-berlin.de/bizer/bsbm/v01/vocabulary/productPropertyNumeric>\")}" , color = blue] ; 
1 -> 143 ; 
144 [label="LogSkolemFunctionCall
(<http://www4.wiwiss.fu-berlin.de/bizer/bsbm/v01/instances/dataFromVendor{1}/Offer{0}>, \"{2}\")" , color = blue] ; 
143 -> 144 ; 
145 [label="LogProj
[3,6,2]" , color = blue] ; 
144 -> 145 ; 
146 [label="Join\n [0PREDICATE_EQUAL4,1PREDICATE_EQUAL5] ", color = blue] ; 
145 -> 146 ; 
147 [label="LogSQLEval 
SELECT tab_1564.nr, tab_1564.producer, tab_1566.propertyNum1 FROM PRODUCTTYPEPRODUCT AS tab_1565, PRODUCT AS tab_1564, Product AS tab_1566  WHERE tab_1565.producttype = 57 AND tab_1565.product = tab_1564.nr AND tab_1564.nr = tab_1566.nr AND tab_1564.producer = tab_1566.producer", color = blue] ; 
146 -> 147 ; 
148 [label="LogMongoDBEval
offer
[]
[nr, product, producer, vendor]
", color = blue] ; 
146 -> 148 ; 
150 [label="LogFunctionCall
AddConstant{1=(\"<http://www4.wiwiss.fu-berlin.de/bizer/bsbm/v01/vocabulary/productPropertyTextual>\")}" , color = blue] ; 
1 -> 150 ; 
151 [label="LogSkolemFunctionCall
(<http://www4.wiwiss.fu-berlin.de/bizer/bsbm/v01/instances/dataFromVendor{1}/Offer{0}>, \"{2}\")" , color = blue] ; 
150 -> 151 ; 
152 [label="LogProj
[3,6,2]" , color = blue] ; 
151 -> 152 ; 
153 [label="Join\n [0PREDICATE_EQUAL4,1PREDICATE_EQUAL5] ", color = blue] ; 
152 -> 153 ; 
154 [label="LogSQLEval 
SELECT tab_1567.nr, tab_1567.producer, tab_1569.propertyTex6 FROM PRODUCT AS tab_1567, PRODUCTTYPEPRODUCT AS tab_1568, Product AS tab_1569  WHERE tab_1568.producttype = 57 AND tab_1568.product = tab_1567.nr AND tab_1567.nr = tab_1569.nr AND tab_1567.producer = tab_1569.producer", color = blue] ; 
153 -> 154 ; 
155 [label="LogMongoDBEval
offer
[]
[nr, product, producer, vendor]
", color = blue] ; 
153 -> 155 ; 
157 [label="LogFunctionCall
AddConstant{1=(\"<http://www4.wiwiss.fu-berlin.de/bizer/bsbm/v01/vocabulary/productPropertyNumeric1>\")}" , color = blue] ; 
1 -> 157 ; 
158 [label="LogSkolemFunctionCall
(<http://www4.wiwiss.fu-berlin.de/bizer/bsbm/v01/instances/dataFromVendor{1}/Offer{0}>, \"{2}\")" , color = blue] ; 
157 -> 158 ; 
159 [label="LogProj
[3,6,2]" , color = blue] ; 
158 -> 159 ; 
160 [label="Join\n [1PREDICATE_EQUAL5,0PREDICATE_EQUAL4] ", color = blue] ; 
159 -> 160 ; 
161 [label="LogSQLEval 
SELECT tab_1570.nr, tab_1570.producer, tab_1572.propertyNum1 FROM Product AS tab_1572, PRODUCT AS tab_1570, PRODUCTTYPEPRODUCT AS tab_1571  WHERE tab_1571.producttype = 57 AND tab_1571.product = tab_1570.nr AND tab_1570.producer = tab_1572.producer AND tab_1570.nr = tab_1572.nr", color = blue] ; 
160 -> 161 ; 
162 [label="LogMongoDBEval
offer
[]
[nr, product, producer, vendor]
", color = blue] ; 
160 -> 162 ; 
164 [label="LogFunctionCall
AddConstant{1=(\"<http://www4.wiwiss.fu-berlin.de/bizer/bsbm/v01/vocabulary/productPropertyNumeric4>\")}" , color = blue] ; 
1 -> 164 ; 
165 [label="LogSkolemFunctionCall
(<http://www4.wiwiss.fu-berlin.de/bizer/bsbm/v01/instances/dataFromVendor{1}/Offer{0}>, \"{2}\")" , color = blue] ; 
164 -> 165 ; 
166 [label="LogSQLEval 
SELECT O.nr, O.vendor, P.propertyNum4 FROM Offer AS O, Product AS P, Producer AS PR, PRODUCTTYPEPRODUCT AS PTP  WHERE P.nr = O.product AND PR.nr = P.producer AND P.nr = PTP.product AND PTP.producttype=56", color = blue] ; 
165 -> 166 ; 
168 [label="LogFunctionCall
AddConstant{1=(\"<http://www4.wiwiss.fu-berlin.de/bizer/bsbm/v01/vocabulary/productPropertyTextual4>\")}" , color = blue] ; 
1 -> 168 ; 
169 [label="LogSkolemFunctionCall
(<http://www4.wiwiss.fu-berlin.de/bizer/bsbm/v01/instances/dataFromVendor{1}/Offer{0}>, \"{2}\")" , color = blue] ; 
168 -> 169 ; 
170 [label="LogProj
[3,6,2]" , color = blue] ; 
169 -> 170 ; 
171 [label="Join\n [0PREDICATE_EQUAL4,1PREDICATE_EQUAL5] ", color = blue] ; 
170 -> 171 ; 
172 [label="LogSQLEval 
SELECT tab_1573.nr, tab_1573.producer, tab_1575.propertyTex4 FROM PRODUCT AS tab_1573, PRODUCTTYPEPRODUCT AS tab_1574, Product AS tab_1575  WHERE tab_1574.producttype = 57 AND tab_1574.product = tab_1573.nr AND tab_1573.nr = tab_1575.nr AND tab_1573.producer = tab_1575.producer", color = blue] ; 
171 -> 172 ; 
173 [label="LogMongoDBEval
offer
[]
[nr, product, producer, vendor]
", color = blue] ; 
171 -> 173 ; 
175 [label="LogFunctionCall
AddConstant{1=(\"<http://www4.wiwiss.fu-berlin.de/bizer/bsbm/v01/vocabulary/productPropertyTextual>\")}" , color = blue] ; 
1 -> 175 ; 
176 [label="LogSkolemFunctionCall
(<http://www4.wiwiss.fu-berlin.de/bizer/bsbm/v01/instances/dataFromVendor{1}/Offer{0}>, \"{2}\")" , color = blue] ; 
175 -> 176 ; 
177 [label="LogProj
[3,6,2]" , color = blue] ; 
176 -> 177 ; 
178 [label="Join\n [1PREDICATE_EQUAL5,0PREDICATE_EQUAL4] ", color = blue] ; 
177 -> 178 ; 
179 [label="LogSQLEval 
SELECT tab_1576.nr, tab_1576.producer, tab_1578.propertyTex4 FROM PRODUCTTYPEPRODUCT AS tab_1577, PRODUCT AS tab_1576, Product AS tab_1578  WHERE tab_1577.producttype = 56 AND tab_1577.product = tab_1576.nr AND tab_1576.nr = tab_1578.nr AND tab_1576.producer = tab_1578.producer", color = blue] ; 
178 -> 179 ; 
180 [label="LogMongoDBEval
offer
[]
[nr, product, producer, vendor]
", color = blue] ; 
178 -> 180 ; 
182 [label="LogFunctionCall
AddConstant{1=(\"<http://www4.wiwiss.fu-berlin.de/bizer/bsbm/v01/vocabulary/productPropertyTextual>\")}" , color = blue] ; 
1 -> 182 ; 
183 [label="LogSkolemFunctionCall
(<http://www4.wiwiss.fu-berlin.de/bizer/bsbm/v01/instances/dataFromVendor{1}/Offer{0}>, \"{2}\")" , color = blue] ; 
182 -> 183 ; 
184 [label="LogProj
[3,6,2]" , color = blue] ; 
183 -> 184 ; 
185 [label="Join\n [0PREDICATE_EQUAL4,1PREDICATE_EQUAL5] ", color = blue] ; 
184 -> 185 ; 
186 [label="LogSQLEval 
SELECT tab_1579.nr, tab_1579.producer, tab_1581.propertyTex3 FROM PRODUCT AS tab_1579, Product AS tab_1581, PRODUCTTYPEPRODUCT AS tab_1580  WHERE tab_1580.producttype = 57 AND tab_1580.product = tab_1579.nr AND tab_1579.nr = tab_1581.nr AND tab_1579.producer = tab_1581.producer", color = blue] ; 
185 -> 186 ; 
187 [label="LogMongoDBEval
offer
[]
[nr, product, producer, vendor]
", color = blue] ; 
185 -> 187 ; 
189 [label="LogFunctionCall
AddConstant{1=(\"<http://www4.wiwiss.fu-berlin.de/bizer/bsbm/v01/vocabulary/productPropertyTextual3>\")}" , color = blue] ; 
1 -> 189 ; 
190 [label="LogSkolemFunctionCall
(<http://www4.wiwiss.fu-berlin.de/bizer/bsbm/v01/instances/dataFromVendor{1}/Offer{0}>, \"{2}\")" , color = blue] ; 
189 -> 190 ; 
191 [label="LogProj
[3,6,2]" , color = blue] ; 
190 -> 191 ; 
192 [label="Join\n [0PREDICATE_EQUAL4,1PREDICATE_EQUAL5] ", color = blue] ; 
191 -> 192 ; 
193 [label="LogSQLEval 
SELECT tab_1582.nr, tab_1582.producer, tab_1584.propertyTex3 FROM Product AS tab_1584, PRODUCT AS tab_1582, PRODUCTTYPEPRODUCT AS tab_1583  WHERE tab_1583.producttype = 56 AND tab_1583.product = tab_1582.nr AND tab_1582.nr = tab_1584.nr AND tab_1582.producer = tab_1584.producer", color = blue] ; 
192 -> 193 ; 
194 [label="LogMongoDBEval
offer
[]
[nr, product, producer, vendor]
", color = blue] ; 
192 -> 194 ; 
196 [label="LogFunctionCall
AddConstant{1=(\"<http://www4.wiwiss.fu-berlin.de/bizer/bsbm/v01/vocabulary/productPropertyNumeric>\")}" , color = blue] ; 
1 -> 196 ; 
197 [label="LogSkolemFunctionCall
(<http://www4.wiwiss.fu-berlin.de/bizer/bsbm/v01/instances/dataFromVendor{1}/Offer{0}>, \"{2}\")" , color = blue] ; 
196 -> 197 ; 
198 [label="LogProj
[3,6,2]" , color = blue] ; 
197 -> 198 ; 
199 [label="Join\n [1PREDICATE_EQUAL5,0PREDICATE_EQUAL4] ", color = blue] ; 
198 -> 199 ; 
200 [label="LogSQLEval 
SELECT tab_1585.nr, tab_1585.producer, tab_1587.propertyNum1 FROM PRODUCTTYPEPRODUCT AS tab_1586, PRODUCT AS tab_1585, Product AS tab_1587  WHERE tab_1586.producttype = 56 AND tab_1586.product = tab_1585.nr AND tab_1585.nr = tab_1587.nr AND tab_1585.producer = tab_1587.producer", color = blue] ; 
199 -> 200 ; 
201 [label="LogMongoDBEval
offer
[]
[nr, product, producer, vendor]
", color = blue] ; 
199 -> 201 ; 
203 [label="LogFunctionCall
AddConstant{1=(\"<http://www4.wiwiss.fu-berlin.de/bizer/bsbm/v01/vocabulary/productPropertyNumeric>\")}" , color = blue] ; 
1 -> 203 ; 
204 [label="LogSkolemFunctionCall
(<http://www4.wiwiss.fu-berlin.de/bizer/bsbm/v01/instances/dataFromVendor{1}/Offer{0}>, \"{2}\")" , color = blue] ; 
203 -> 204 ; 
205 [label="LogSQLEval 
SELECT O.nr, O.vendor, P.propertyNum4 FROM Offer AS O, Product AS P, Producer AS PR, PRODUCTTYPEPRODUCT AS PTP  WHERE P.nr = O.product AND PR.nr = P.producer AND P.nr = PTP.product AND PTP.producttype=57", color = blue] ; 
204 -> 205 ; 
207 [label="LogFunctionCall
AddConstant{1=(\"<http://www4.wiwiss.fu-berlin.de/bizer/bsbm/v01/vocabulary/producer>\")}" , color = blue] ; 
1 -> 207 ; 
208 [label="LogSkolemFunctionCall
(<http://www4.wiwiss.fu-berlin.de/bizer/bsbm/v01/instances/dataFromVendor{1}/Offer{0}>, <http://www4.wiwiss.fu-berlin.de/bizer/bsbm/v01/instances/dataFromProducer{2}/Producer{2}>)" , color = blue] ; 
207 -> 208 ; 
209 [label="LogProj
[3,6,2]" , color = blue] ; 
208 -> 209 ; 
210 [label="Join\n [0PREDICATE_EQUAL4,1PREDICATE_EQUAL5] ", color = blue] ; 
209 -> 210 ; 
211 [label="LogSQLEval 
SELECT tab_1588.nr, tab_1588.producer, tab_1590.producer FROM PRODUCTTYPEPRODUCT AS tab_1589, Product AS tab_1590, PRODUCT AS tab_1588  WHERE tab_1589.producttype = 57 AND tab_1589.product = tab_1588.nr AND tab_1588.nr = tab_1590.nr AND tab_1588.producer = tab_1590.producer", color = blue] ; 
210 -> 211 ; 
212 [label="LogMongoDBEval
offer
[]
[nr, product, producer, vendor]
", color = blue] ; 
210 -> 212 ; 
214 [label="LogFunctionCall
AddConstant{1=(\"<http://www4.wiwiss.fu-berlin.de/bizer/bsbm/v01/vocabulary/productPropertyNumeric4>\")}" , color = blue] ; 
1 -> 214 ; 
215 [label="LogSkolemFunctionCall
(<http://www4.wiwiss.fu-berlin.de/bizer/bsbm/v01/instances/dataFromVendor{1}/Offer{0}>, \"{2}\")" , color = blue] ; 
214 -> 215 ; 
216 [label="LogSQLEval 
SELECT O.nr, O.vendor, P.propertyNum4 FROM Offer AS O, Product AS P, Producer AS PR, PRODUCTTYPEPRODUCT AS PTP  WHERE P.nr = O.product AND PR.nr = P.producer AND P.nr = PTP.product AND PTP.producttype=57", color = blue] ; 
215 -> 216 ; 
218 [label="LogFunctionCall
AddConstant{1=(\"<http://www4.wiwiss.fu-berlin.de/bizer/bsbm/v01/vocabulary/productPropertyNumeric3>\")}" , color = blue] ; 
1 -> 218 ; 
219 [label="LogSkolemFunctionCall
(<http://www4.wiwiss.fu-berlin.de/bizer/bsbm/v01/instances/dataFromVendor{1}/Offer{0}>, \"{2}\")" , color = blue] ; 
218 -> 219 ; 
220 [label="LogSQLEval 
SELECT O.nr, O.vendor, P.propertyNum3 FROM Offer AS O, Product AS P, Producer AS PR, PRODUCTTYPEPRODUCT AS PTP  WHERE P.nr = O.product AND PR.nr = P.producer AND P.nr = PTP.product AND PTP.producttype=56", color = blue] ; 
219 -> 220 ; 
222 [label="LogFunctionCall
AddConstant{1=(\"<http://www4.wiwiss.fu-berlin.de/bizer/bsbm/v01/vocabulary/productPropertyTextual5>\")}" , color = blue] ; 
1 -> 222 ; 
223 [label="LogSkolemFunctionCall
(<http://www4.wiwiss.fu-berlin.de/bizer/bsbm/v01/instances/dataFromVendor{1}/Offer{0}>, \"{2}\")" , color = blue] ; 
222 -> 223 ; 
224 [label="LogProj
[3,6,2]" , color = blue] ; 
223 -> 224 ; 
225 [label="Join\n [0PREDICATE_EQUAL4,1PREDICATE_EQUAL5] ", color = blue] ; 
224 -> 225 ; 
226 [label="LogSQLEval 
SELECT tab_1591.nr, tab_1591.producer, tab_1593.propertyTex5 FROM Product AS tab_1593, PRODUCTTYPEPRODUCT AS tab_1592, PRODUCT AS tab_1591  WHERE tab_1592.producttype = 57 AND tab_1592.product = tab_1591.nr AND tab_1591.producer = tab_1593.producer AND tab_1591.nr = tab_1593.nr", color = blue] ; 
225 -> 226 ; 
227 [label="LogMongoDBEval
offer
[]
[nr, product, producer, vendor]
", color = blue] ; 
225 -> 227 ; 
229 [label="LogFunctionCall
AddConstant{1=(\"<http://www4.wiwiss.fu-berlin.de/bizer/bsbm/v01/vocabulary/productPropertyTextual1>\")}" , color = blue] ; 
1 -> 229 ; 
230 [label="LogSkolemFunctionCall
(<http://www4.wiwiss.fu-berlin.de/bizer/bsbm/v01/instances/dataFromVendor{1}/Offer{0}>, \"{2}\")" , color = blue] ; 
229 -> 230 ; 
231 [label="LogProj
[3,6,2]" , color = blue] ; 
230 -> 231 ; 
232 [label="Join\n [1PREDICATE_EQUAL5,0PREDICATE_EQUAL4] ", color = blue] ; 
231 -> 232 ; 
233 [label="LogSQLEval 
SELECT tab_1594.nr, tab_1594.producer, tab_1596.propertyTex1 FROM PRODUCT AS tab_1594, PRODUCTTYPEPRODUCT AS tab_1595, Product AS tab_1596  WHERE tab_1595.producttype = 57 AND tab_1595.product = tab_1594.nr AND tab_1594.nr = tab_1596.nr AND tab_1594.producer = tab_1596.producer", color = blue] ; 
232 -> 233 ; 
234 [label="LogMongoDBEval
offer
[]
[nr, product, producer, vendor]
", color = blue] ; 
232 -> 234 ; 
236 [label="LogFunctionCall
AddConstant{1=(\"<http://www4.wiwiss.fu-berlin.de/bizer/bsbm/v01/vocabulary/productPropertyTextual>\")}" , color = blue] ; 
1 -> 236 ; 
237 [label="LogSkolemFunctionCall
(<http://www4.wiwiss.fu-berlin.de/bizer/bsbm/v01/instances/dataFromVendor{1}/Offer{0}>, \"{2}\")" , color = blue] ; 
236 -> 237 ; 
238 [label="LogProj
[3,6,2]" , color = blue] ; 
237 -> 238 ; 
239 [label="Join\n [1PREDICATE_EQUAL5,0PREDICATE_EQUAL4] ", color = blue] ; 
238 -> 239 ; 
240 [label="LogSQLEval 
SELECT tab_1597.nr, tab_1597.producer, tab_1599.propertyTex1 FROM PRODUCTTYPEPRODUCT AS tab_1598, PRODUCT AS tab_1597, Product AS tab_1599  WHERE tab_1598.producttype = 56 AND tab_1598.product = tab_1597.nr AND tab_1597.nr = tab_1599.nr AND tab_1597.producer = tab_1599.producer", color = blue] ; 
239 -> 240 ; 
241 [label="LogMongoDBEval
offer
[]
[nr, product, producer, vendor]
", color = blue] ; 
239 -> 241 ; 
243 [label="LogFunctionCall
AddConstant{1=(\"<http://www4.wiwiss.fu-berlin.de/bizer/bsbm/v01/vocabulary/productPropertyTextual4>\")}" , color = blue] ; 
1 -> 243 ; 
244 [label="LogSkolemFunctionCall
(<http://www4.wiwiss.fu-berlin.de/bizer/bsbm/v01/instances/dataFromVendor{1}/Offer{0}>, \"{2}\")" , color = blue] ; 
243 -> 244 ; 
245 [label="LogProj
[3,6,2]" , color = blue] ; 
244 -> 245 ; 
246 [label="Join\n [0PREDICATE_EQUAL4,1PREDICATE_EQUAL5] ", color = blue] ; 
245 -> 246 ; 
247 [label="LogSQLEval 
SELECT tab_1600.nr, tab_1600.producer, tab_1602.propertyTex4 FROM PRODUCT AS tab_1600, PRODUCTTYPEPRODUCT AS tab_1601, Product AS tab_1602  WHERE tab_1601.producttype = 56 AND tab_1601.product = tab_1600.nr AND tab_1600.producer = tab_1602.producer AND tab_1600.nr = tab_1602.nr", color = blue] ; 
246 -> 247 ; 
248 [label="LogMongoDBEval
offer
[]
[nr, product, producer, vendor]
", color = blue] ; 
246 -> 248 ; 
250 [label="LogFunctionCall
AddConstant{1=(\"<http://www4.wiwiss.fu-berlin.de/bizer/bsbm/v01/vocabulary/productPropertyTextual>\")}" , color = blue] ; 
1 -> 250 ; 
251 [label="LogSkolemFunctionCall
(<http://www4.wiwiss.fu-berlin.de/bizer/bsbm/v01/instances/dataFromVendor{1}/Offer{0}>, \"{2}\")" , color = blue] ; 
250 -> 251 ; 
252 [label="LogProj
[3,6,2]" , color = blue] ; 
251 -> 252 ; 
253 [label="Join\n [1PREDICATE_EQUAL5,0PREDICATE_EQUAL4] ", color = blue] ; 
252 -> 253 ; 
254 [label="LogSQLEval 
SELECT tab_1603.nr, tab_1603.producer, tab_1605.propertyTex5 FROM PRODUCT AS tab_1603, PRODUCTTYPEPRODUCT AS tab_1604, Product AS tab_1605  WHERE tab_1604.producttype = 56 AND tab_1604.product = tab_1603.nr AND tab_1603.nr = tab_1605.nr AND tab_1603.producer = tab_1605.producer", color = blue] ; 
253 -> 254 ; 
255 [label="LogMongoDBEval
offer
[]
[nr, product, producer, vendor]
", color = blue] ; 
253 -> 255 ; 
257 [label="LogFunctionCall
AddConstant{1=(\"<http://www4.wiwiss.fu-berlin.de/bizer/bsbm/v01/vocabulary/productPropertyTextual>\")}" , color = blue] ; 
1 -> 257 ; 
258 [label="LogSkolemFunctionCall
(<http://www4.wiwiss.fu-berlin.de/bizer/bsbm/v01/instances/dataFromVendor{1}/Offer{0}>, \"{2}\")" , color = blue] ; 
257 -> 258 ; 
259 [label="LogProj
[3,6,2]" , color = blue] ; 
258 -> 259 ; 
260 [label="Join\n [0PREDICATE_EQUAL4,1PREDICATE_EQUAL5] ", color = blue] ; 
259 -> 260 ; 
261 [label="LogSQLEval 
SELECT tab_1606.nr, tab_1606.producer, tab_1608.propertyTex4 FROM Product AS tab_1608, PRODUCTTYPEPRODUCT AS tab_1607, PRODUCT AS tab_1606  WHERE tab_1607.producttype = 57 AND tab_1607.product = tab_1606.nr AND tab_1606.producer = tab_1608.producer AND tab_1606.nr = tab_1608.nr", color = blue] ; 
260 -> 261 ; 
262 [label="LogMongoDBEval
offer
[]
[nr, product, producer, vendor]
", color = blue] ; 
260 -> 262 ; 
264 [label="LogFunctionCall
AddConstant{1=(\"<http://www4.wiwiss.fu-berlin.de/bizer/bsbm/v01/vocabulary/productPropertyNumeric>\")}" , color = blue] ; 
1 -> 264 ; 
265 [label="LogSkolemFunctionCall
(<http://www4.wiwiss.fu-berlin.de/bizer/bsbm/v01/instances/dataFromVendor{1}/Offer{0}>, \"{2}\")" , color = blue] ; 
264 -> 265 ; 
266 [label="LogSQLEval 
SELECT O.nr, O.vendor, P.propertyNum4 FROM Offer AS O, Product AS P, Producer AS PR, PRODUCTTYPEPRODUCT AS PTP  WHERE P.nr = O.product AND PR.nr = P.producer AND P.nr = PTP.product AND PTP.producttype=56", color = blue] ; 
265 -> 266 ; 
268 [label="LogFunctionCall
AddConstant{1=(\"<http://www4.wiwiss.fu-berlin.de/bizer/bsbm/v01/vocabulary/productPropertyNumeric>\")}" , color = blue] ; 
1 -> 268 ; 
269 [label="LogSkolemFunctionCall
(<http://www4.wiwiss.fu-berlin.de/bizer/bsbm/v01/instances/dataFromVendor{1}/Offer{0}>, \"{2}\")" , color = blue] ; 
268 -> 269 ; 
270 [label="LogSQLEval 
SELECT O.nr, O.vendor, P.propertyNum3 FROM Offer AS O, Product AS P, Producer AS PR, PRODUCTTYPEPRODUCT AS PTP  WHERE P.nr = O.product AND PR.nr = P.producer AND P.nr = PTP.product AND PTP.producttype=57", color = blue] ; 
269 -> 270 ; 
}

