$char	$sname
<https://www.starwars.com/databank/chewbacca>	"Millennium Falcon"	
<https://www.starwars.com/databank/han-solo>	"Millennium Falcon"	
<https://www.starwars.com/databank/lando-calrissian>	"Millennium Falcon"	
<https://www.starwars.com/databank/nien-nunb>	"Millennium Falcon"	
<https://www.starwars.com/databank/luke-skywalker>	"X-wing"	
<https://www.starwars.com/databank/biggs-darklighter>	"X-wing"	
<https://www.starwars.com/databank/wedge-antilles>	"X-wing"	
<https://www.starwars.com/databank/jek-tono-porkins>	"X-wing"	
<https://www.starwars.com/databank/darth-vader>	"TIE Advanced x1"	
<https://www.starwars.com/databank/boba-fett>	"Slave 1"	
<https://www.starwars.com/databank/luke-skywalker>	"Imperial shuttle"	
<https://www.starwars.com/databank/chewbacca>	"Imperial shuttle"	
<https://www.starwars.com/databank/han-solo>	"Imperial shuttle"	
<https://www.starwars.com/databank/arvel-crynyd>	"A-wing"	
<https://www.starwars.com/databank/anakin-skywalker>	"Naboo fighter"	
<https://www.starwars.com/databank/gregar-typho>	"Naboo fighter"	
<https://www.starwars.com/databank/padmé-amidala>	"Naboo fighter"	
<https://www.starwars.com/databank/ric-olié>	"Naboo Royal Starship"	
<https://www.starwars.com/databank/darth-maul>	"Scimitar"	
<https://www.starwars.com/databank/obi-wan-kenobi>	"Jedi starfighter"	
<https://www.starwars.com/databank/plo-koon>	"Jedi starfighter"	
<https://www.starwars.com/databank/padmé-amidala>	"H-type Nubian yacht"	
<https://www.starwars.com/databank/obi-wan-kenobi>	"Trade Federation cruiser"	
<https://www.starwars.com/databank/anakin-skywalker>	"Trade Federation cruiser"	
<https://www.starwars.com/databank/obi-wan-kenobi>	"Naboo star skiff"	
<https://www.starwars.com/databank/padmé-amidala>	"Naboo star skiff"	
<https://www.starwars.com/databank/obi-wan-kenobi>	"Jedi Interceptor"	
<https://www.starwars.com/databank/anakin-skywalker>	"Jedi Interceptor"	
<https://www.starwars.com/databank/obi-wan-kenobi>	"Belbullab-22 starfighter"	
<https://www.starwars.com/databank/grievous>	"Belbullab-22 starfighter"	
<https://www.starwars.com/databank/poe-dameron>	"T-70 X-wing fighter"	
<https://www.starwars.com/databank/luke-skywalker>	"Snowspeeder"	
<https://www.starwars.com/databank/wedge-antilles>	"Snowspeeder"	
<https://www.starwars.com/databank/chewbacca>	"AT-ST"	
<https://www.starwars.com/databank/luke-skywalker>	"Imperial Speeder Bike"	
<https://www.starwars.com/databank/leia-organa>	"Imperial Speeder Bike"	
<https://www.starwars.com/databank/obi-wan-kenobi>	"Tribubble bongo"	
<https://www.starwars.com/databank/qui-gon-jinn>	"Tribubble bongo"	
<https://www.starwars.com/databank/darth-maul>	"Sith speeder"	
<https://www.starwars.com/databank/anakin-skywalker>	"Zephyr-G swoop bike"	
<https://www.starwars.com/databank/zam-wesell>	"Koro-2 Exodrive airspeeder"	
<https://www.starwars.com/databank/anakin-skywalker>	"XJ-6 airspeeder"	
<https://www.starwars.com/databank/dooku>	"Flitknot speeder"	
<https://www.starwars.com/databank/grievous>	"Tsmeu-6 personal wheel bike"	
