digraph  g{
node [shape=rectangle, color=black, fontcolor=black, style=bold]
0 [label="LogSkolemFunctionCall
(\"{0}\", \"{1}\", <http://downlode.org/rdf/iso-3166/countries#{2}>)" , color = blue] ; 
1 [label="LogSQLEval 
SELECT tab_1204.label, tab_1204.propertyNum2, tab_1208.country FROM PRODUCT AS tab_1206, Producer AS tab_1208, PRODUCTTYPEPRODUCT AS tab_1205, Product AS tab_1207, Product AS tab_1204, CountryType AS tab_1209 WHERE tab_1205.producttype = 71 AND tab_1205.product = tab_1206.nr AND tab_1204.producer = tab_1206.producer AND tab_1204.nr = tab_1206.nr AND tab_1207.producer = tab_1208.nr AND tab_1204.producer = tab_1207.producer AND tab_1204.nr = tab_1207.nr AND tab_1206.producer = tab_1207.producer AND tab_1206.nr = tab_1207.nr AND tab_1209.countryType = 122 AND tab_1208.country = tab_1209.country UNION SELECT tab_1358.label, tab_1358.propertyNum2, tab_1362.country FROM Product AS tab_1361, PRODUCTTYPEPRODUCT AS tab_1359, CountryType AS tab_1363, Producer AS tab_1362, Product AS tab_1358, PRODUCT AS tab_1360 WHERE tab_1359.producttype = 65 AND tab_1359.product = tab_1360.nr AND tab_1358.producer = tab_1360.producer AND tab_1358.nr = tab_1360.nr AND tab_1361.producer = tab_1362.nr AND tab_1358.producer = tab_1361.producer AND tab_1358.nr = tab_1361.nr AND tab_1360.producer = tab_1361.producer AND tab_1360.nr = tab_1361.nr AND tab_1363.countryType = 121 AND tab_1362.country = tab_1363.country UNION SELECT tab_2313.label, tab_2313.propertyNum2, tab_2311.country FROM PRODUCTTYPEPRODUCT AS tab_2312, Product AS tab_2313, CountryType AS tab_2315, Product AS tab_2314, PRODUCT AS tab_2310, Producer AS tab_2311 WHERE tab_2312.producttype = 67 AND tab_2312.product = tab_2310.nr AND tab_2313.producer = tab_2310.producer AND tab_2313.nr = tab_2310.nr AND tab_2314.producer = tab_2311.nr AND tab_2313.producer = tab_2314.producer AND tab_2313.nr = tab_2314.nr AND tab_2310.producer = tab_2314.producer AND tab_2310.nr = tab_2314.nr AND tab_2315.countryType = 122 AND tab_2311.country = tab_2315.country UNION SELECT tab_1432.label, tab_1432.propertyNum2, tab_1430.country FROM CountryType AS tab_1433, PRODUCTTYPEPRODUCT AS tab_1428, Producer AS tab_1430, PRODUCT AS tab_1429, Product AS tab_1432, Product AS tab_1431 WHERE tab_1428.producttype = 68 AND tab_1428.product = tab_1429.nr AND tab_1432.producer = tab_1429.producer AND tab_1432.nr = tab_1429.nr AND tab_1431.producer = tab_1430.nr AND tab_1432.producer = tab_1431.producer AND tab_1432.nr = tab_1431.nr AND tab_1429.producer = tab_1431.producer AND tab_1429.nr = tab_1431.nr AND tab_1433.countryType = 112 AND tab_1430.country = tab_1433.country UNION SELECT tab_1415.label, tab_1415.propertyNum2, tab_1418.country FROM PRODUCT AS tab_1416, Producer AS tab_1418, PRODUCTTYPEPRODUCT AS tab_1414, Product AS tab_1417, Product AS tab_1415, CountryType AS tab_1419 WHERE tab_1414.producttype = 62 AND tab_1414.product = tab_1416.nr AND tab_1415.producer = tab_1416.producer AND tab_1415.nr = tab_1416.nr AND tab_1417.producer = tab_1418.nr AND tab_1415.producer = tab_1417.producer AND tab_1415.nr = tab_1417.nr AND tab_1416.producer = tab_1417.producer AND tab_1416.nr = tab_1417.nr AND tab_1419.countryType = 121 AND tab_1418.country = tab_1419.country UNION SELECT tab_1037.label, tab_1037.propertyNum1, tab_1039.country FROM PRODUCT AS tab_1038, PRODUCTTYPEPRODUCT AS tab_1040, CountryType AS tab_1041, Product AS tab_1037, Product AS tab_1036, Producer AS tab_1039 WHERE tab_1040.producttype = 66 AND tab_1040.product = tab_1038.nr AND tab_1037.producer = tab_1038.producer AND tab_1037.nr = tab_1038.nr AND tab_1036.producer = tab_1039.nr AND tab_1037.producer = tab_1036.producer AND tab_1037.nr = tab_1036.nr AND tab_1038.producer = tab_1036.producer AND tab_1038.nr = tab_1036.nr AND tab_1041.countryType = 122 AND tab_1039.country = tab_1041.country UNION SELECT tab_840.label, tab_840.propertyNum1, tab_842.country FROM Producer AS tab_842, CountryType AS tab_845, PRODUCTTYPEPRODUCT AS tab_844, Product AS tab_841, Product AS tab_840, PRODUCT AS tab_843 WHERE tab_844.producttype = 64 AND tab_844.product = tab_843.nr AND tab_840.producer = tab_843.producer AND tab_840.nr = tab_843.nr AND tab_841.producer = tab_842.nr AND tab_840.producer = tab_841.producer AND tab_840.nr = tab_841.nr AND tab_843.producer = tab_841.producer AND tab_843.nr = tab_841.nr AND tab_845.countryType = 111 AND tab_842.country = tab_845.country UNION SELECT tab_1684.label, tab_1684.propertyNum1, tab_1682.country FROM Product AS tab_1683, CountryType AS tab_1685, Producer AS tab_1682, PRODUCTTYPEPRODUCT AS tab_1680, PRODUCT AS tab_1681, Product AS tab_1684 WHERE tab_1680.producttype = 61 AND tab_1680.product = tab_1681.nr AND tab_1684.producer = tab_1681.producer AND tab_1684.nr = tab_1681.nr AND tab_1683.producer = tab_1682.nr AND tab_1684.producer = tab_1683.producer AND tab_1684.nr = tab_1683.nr AND tab_1681.producer = tab_1683.producer AND tab_1681.nr = tab_1683.nr AND tab_1685.countryType = 111 AND tab_1682.country = tab_1685.country UNION SELECT tab_827.label, tab_827.propertyNum2, tab_829.country FROM PRODUCTTYPEPRODUCT AS tab_828, PRODUCT AS tab_830, Product AS tab_827, Product AS tab_826, CountryType AS tab_831, Producer AS tab_829 WHERE tab_828.producttype = 68 AND tab_828.product = tab_830.nr AND tab_827.producer = tab_830.producer AND tab_827.nr = tab_830.nr AND tab_826.producer = tab_829.nr AND tab_827.producer = tab_826.producer AND tab_827.nr = tab_826.nr AND tab_830.producer = tab_826.producer AND tab_830.nr = tab_826.nr AND tab_831.countryType = 121 AND tab_829.country = tab_831.country UNION SELECT tab_1837.label, tab_1837.propertyNum1, tab_1836.country FROM PRODUCTTYPEPRODUCT AS tab_1834, Product AS tab_1838, Producer AS tab_1836, Product AS tab_1837, CountryType AS tab_1839, PRODUCT AS tab_1835 WHERE tab_1834.producttype = 70 AND tab_1834.product = tab_1835.nr AND tab_1837.producer = tab_1835.producer AND tab_1837.nr = tab_1835.nr AND tab_1838.producer = tab_1836.nr AND tab_1837.producer = tab_1838.producer AND tab_1837.nr = tab_1838.nr AND tab_1835.producer = tab_1838.producer AND tab_1835.nr = tab_1838.nr AND tab_1839.countryType = 112 AND tab_1836.country = tab_1839.country UNION SELECT tab_2174.label, tab_2174.propertyNum1, tab_2172.country FROM Producer AS tab_2172, Product AS tab_2170, CountryType AS tab_2175, PRODUCTTYPEPRODUCT AS tab_2173, Product AS tab_2174, PRODUCT AS tab_2171 WHERE tab_2173.producttype = 57 AND tab_2173.product = tab_2171.nr AND tab_2174.producer = tab_2171.producer AND tab_2174.nr = tab_2171.nr AND tab_2170.producer = tab_2172.nr AND tab_2174.producer = tab_2170.producer AND tab_2174.nr = tab_2170.nr AND tab_2171.producer = tab_2170.producer AND tab_2171.nr = tab_2170.nr AND tab_2175.countryType = 122 AND tab_2172.country = tab_2175.country UNION SELECT tab_1754.label, tab_1754.propertyNum1, tab_1752.country FROM CountryType AS tab_1755, PRODUCTTYPEPRODUCT AS tab_1751, PRODUCT AS tab_1750, Product AS tab_1754, Producer AS tab_1752, Product AS tab_1753 WHERE tab_1751.producttype = 67 AND tab_1751.product = tab_1750.nr AND tab_1754.producer = tab_1750.producer AND tab_1754.nr = tab_1750.nr AND tab_1753.producer = tab_1752.nr AND tab_1754.producer = tab_1753.producer AND tab_1754.nr = tab_1753.nr AND tab_1750.producer = tab_1753.producer AND tab_1750.nr = tab_1753.nr AND tab_1755.countryType = 112 AND tab_1752.country = tab_1755.country UNION SELECT tab_1852.label, tab_1852.propertyNum1, tab_1849.country FROM PRODUCTTYPEPRODUCT AS tab_1850, CountryType AS tab_1853, Producer AS tab_1849, Product AS tab_1852, Product AS tab_1851, PRODUCT AS tab_1848 WHERE tab_1850.producttype = 58 AND tab_1850.product = tab_1848.nr AND tab_1852.producer = tab_1848.producer AND tab_1852.nr = tab_1848.nr AND tab_1851.producer = tab_1849.nr AND tab_1852.producer = tab_1851.producer AND tab_1852.nr = tab_1851.nr AND tab_1848.producer = tab_1851.producer AND tab_1848.nr = tab_1851.nr AND tab_1853.countryType = 112 AND tab_1849.country = tab_1853.country UNION SELECT tab_2423.label, tab_2423.propertyNum2, tab_2424.country FROM PRODUCTTYPEPRODUCT AS tab_2425, CountryType AS tab_2427, Product AS tab_2423, PRODUCT AS tab_2422, Product AS tab_2426, Producer AS tab_2424 WHERE tab_2425.producttype = 66 AND tab_2425.product = tab_2422.nr AND tab_2423.producer = tab_2422.producer AND tab_2423.nr = tab_2422.nr AND tab_2426.producer = tab_2424.nr AND tab_2423.producer = tab_2426.producer AND tab_2423.nr = tab_2426.nr AND tab_2422.producer = tab_2426.producer AND tab_2422.nr = tab_2426.nr AND tab_2427.countryType = 121 AND tab_2424.country = tab_2427.country UNION SELECT tab_998.label, tab_998.propertyNum1, tab_996.country FROM Producer AS tab_996, Product AS tab_998, Product AS tab_997, PRODUCTTYPEPRODUCT AS tab_995, CountryType AS tab_999, PRODUCT AS tab_994 WHERE tab_995.producttype = 67 AND tab_995.product = tab_994.nr AND tab_998.producer = tab_994.producer AND tab_998.nr = tab_994.nr AND tab_997.producer = tab_996.nr AND tab_998.producer = tab_997.producer AND tab_998.nr = tab_997.nr AND tab_994.producer = tab_997.producer AND tab_994.nr = tab_997.nr AND tab_999.countryType = 121 AND tab_996.country = tab_999.country UNION SELECT tab_1067.label, tab_1067.propertyNum2, tab_1066.country FROM Product AS tab_1067, Product AS tab_1065, PRODUCT AS tab_1068, CountryType AS tab_1069, Producer AS tab_1066, PRODUCTTYPEPRODUCT AS tab_1064 WHERE tab_1064.producttype = 63 AND tab_1064.product = tab_1068.nr AND tab_1067.producer = tab_1068.producer AND tab_1067.nr = tab_1068.nr AND tab_1065.producer = tab_1066.nr AND tab_1067.producer = tab_1065.producer AND tab_1067.nr = tab_1065.nr AND tab_1068.producer = tab_1065.producer AND tab_1068.nr = tab_1065.nr AND tab_1069.countryType = 122 AND tab_1066.country = tab_1069.country UNION SELECT tab_1512.label, tab_1512.propertyNum2, tab_1516.country FROM PRODUCT AS tab_1514, Producer AS tab_1516, PRODUCTTYPEPRODUCT AS tab_1513, Product AS tab_1515, Product AS tab_1512, CountryType AS tab_1517 WHERE tab_1513.producttype = 64 AND tab_1513.product = tab_1514.nr AND tab_1512.producer = tab_1514.producer AND tab_1512.nr = tab_1514.nr AND tab_1515.producer = tab_1516.nr AND tab_1512.producer = tab_1515.producer AND tab_1512.nr = tab_1515.nr AND tab_1514.producer = tab_1515.producer AND tab_1514.nr = tab_1515.nr AND tab_1517.countryType = 111 AND tab_1516.country = tab_1517.country UNION SELECT tab_1289.label, tab_1289.propertyNum2, tab_1292.country FROM PRODUCTTYPEPRODUCT AS tab_1290, Producer AS tab_1292, PRODUCT AS tab_1291, CountryType AS tab_1293, Product AS tab_1289, Product AS tab_1288 WHERE tab_1290.producttype = 58 AND tab_1290.product = tab_1291.nr AND tab_1289.producer = tab_1291.producer AND tab_1289.nr = tab_1291.nr AND tab_1288.producer = tab_1292.nr AND tab_1289.producer = tab_1288.producer AND tab_1289.nr = tab_1288.nr AND tab_1291.producer = tab_1288.producer AND tab_1291.nr = tab_1288.nr AND tab_1293.countryType = 111 AND tab_1292.country = tab_1293.country UNION SELECT tab_2102.label, tab_2102.propertyNum2, tab_2100.country FROM Product AS tab_2102, Product AS tab_2104, CountryType AS tab_2105, PRODUCT AS tab_2103, Producer AS tab_2100, PRODUCTTYPEPRODUCT AS tab_2101 WHERE tab_2101.producttype = 65 AND tab_2101.product = tab_2103.nr AND tab_2102.producer = tab_2103.producer AND tab_2102.nr = tab_2103.nr AND tab_2104.producer = tab_2100.nr AND tab_2102.producer = tab_2104.producer AND tab_2102.nr = tab_2104.nr AND tab_2103.producer = tab_2104.producer AND tab_2103.nr = tab_2104.nr AND tab_2105.countryType = 112 AND tab_2100.country = tab_2105.country UNION SELECT tab_1625.label, tab_1625.propertyNum1, tab_1624.country FROM Producer AS tab_1624, PRODUCTTYPEPRODUCT AS tab_1626, Product AS tab_1628, Product AS tab_1625, CountryType AS tab_1629, PRODUCT AS tab_1627 WHERE tab_1626.producttype = 58 AND tab_1626.product = tab_1627.nr AND tab_1625.producer = tab_1627.producer AND tab_1625.nr = tab_1627.nr AND tab_1628.producer = tab_1624.nr AND tab_1625.producer = tab_1628.producer AND tab_1625.nr = tab_1628.nr AND tab_1627.producer = tab_1628.producer AND tab_1627.nr = tab_1628.nr AND tab_1629.countryType = 122 AND tab_1624.country = tab_1629.country UNION SELECT tab_2004.label, tab_2004.propertyNum2, tab_2005.country FROM Product AS tab_2004, CountryType AS tab_2007, Product AS tab_2006, PRODUCT AS tab_2002, Producer AS tab_2005, PRODUCTTYPEPRODUCT AS tab_2003 WHERE tab_2003.producttype = 62 AND tab_2003.product = tab_2002.nr AND tab_2004.producer = tab_2002.producer AND tab_2004.nr = tab_2002.nr AND tab_2006.producer = tab_2005.nr AND tab_2004.producer = tab_2006.producer AND tab_2004.nr = tab_2006.nr AND tab_2002.producer = tab_2006.producer AND tab_2002.nr = tab_2006.nr AND tab_2007.countryType = 112 AND tab_2005.country = tab_2007.country UNION SELECT tab_914.label, tab_914.propertyNum1, tab_911.country FROM Producer AS tab_911, PRODUCT AS tab_912, Product AS tab_914, Product AS tab_913, PRODUCTTYPEPRODUCT AS tab_910, CountryType AS tab_915 WHERE tab_910.producttype = 64 AND tab_910.product = tab_912.nr AND tab_914.producer = tab_912.producer AND tab_914.nr = tab_912.nr AND tab_913.producer = tab_911.nr AND tab_914.producer = tab_913.producer AND tab_914.nr = tab_913.nr AND tab_912.producer = tab_913.producer AND tab_912.nr = tab_913.nr AND tab_915.countryType = 112 AND tab_911.country = tab_915.country UNION SELECT tab_2367.label, tab_2367.propertyNum1, tab_2366.country FROM PRODUCTTYPEPRODUCT AS tab_2369, Product AS tab_2367, PRODUCT AS tab_2368, Product AS tab_2370, Producer AS tab_2366, CountryType AS tab_2371 WHERE tab_2369.producttype = 66 AND tab_2369.product = tab_2368.nr AND tab_2367.producer = tab_2368.producer AND tab_2367.nr = tab_2368.nr AND tab_2370.producer = tab_2366.nr AND tab_2367.producer = tab_2370.producer AND tab_2367.nr = tab_2370.nr AND tab_2368.producer = tab_2370.producer AND tab_2368.nr = tab_2370.nr AND tab_2371.countryType = 111 AND tab_2366.country = tab_2371.country UNION SELECT tab_2523.label, tab_2523.propertyNum1, tab_2522.country FROM CountryType AS tab_2525, PRODUCTTYPEPRODUCT AS tab_2521, Product AS tab_2523, Product AS tab_2524, PRODUCT AS tab_2520, Producer AS tab_2522 WHERE tab_2521.producttype = 65 AND tab_2521.product = tab_2520.nr AND tab_2523.producer = tab_2520.producer AND tab_2523.nr = tab_2520.nr AND tab_2524.producer = tab_2522.nr AND tab_2523.producer = tab_2524.producer AND tab_2523.nr = tab_2524.nr AND tab_2520.producer = tab_2524.producer AND tab_2520.nr = tab_2524.nr AND tab_2525.countryType = 112 AND tab_2522.country = tab_2525.country UNION SELECT tab_1695.label, tab_1695.propertyNum2, tab_1697.country FROM Product AS tab_1694, PRODUCTTYPEPRODUCT AS tab_1696, CountryType AS tab_1699, PRODUCT AS tab_1698, Producer AS tab_1697, Product AS tab_1695 WHERE tab_1696.producttype = 70 AND tab_1696.product = tab_1698.nr AND tab_1695.producer = tab_1698.producer AND tab_1695.nr = tab_1698.nr AND tab_1694.producer = tab_1697.nr AND tab_1695.producer = tab_1694.producer AND tab_1695.nr = tab_1694.nr AND tab_1698.producer = tab_1694.producer AND tab_1698.nr = tab_1694.nr AND tab_1699.countryType = 111 AND tab_1697.country = tab_1699.country UNION SELECT tab_2044.label, tab_2044.propertyNum2, tab_2045.country FROM Product AS tab_2047, PRODUCT AS tab_2048, CountryType AS tab_2049, Producer AS tab_2045, PRODUCTTYPEPRODUCT AS tab_2046, Product AS tab_2044 WHERE tab_2046.producttype = 61 AND tab_2046.product = tab_2048.nr AND tab_2044.producer = tab_2048.producer AND tab_2044.nr = tab_2048.nr AND tab_2047.producer = tab_2045.nr AND tab_2044.producer = tab_2047.producer AND tab_2044.nr = tab_2047.nr AND tab_2048.producer = tab_2047.producer AND tab_2048.nr = tab_2047.nr AND tab_2049.countryType = 122 AND tab_2045.country = tab_2049.country UNION SELECT tab_1572.label, tab_1572.propertyNum1, tab_1571.country FROM Product AS tab_1572, PRODUCT AS tab_1569, Product AS tab_1570, PRODUCTTYPEPRODUCT AS tab_1568, CountryType AS tab_1573, Producer AS tab_1571 WHERE tab_1568.producttype = 64 AND tab_1568.product = tab_1569.nr AND tab_1572.producer = tab_1569.producer AND tab_1572.nr = tab_1569.nr AND tab_1570.producer = tab_1571.nr AND tab_1572.producer = tab_1570.producer AND tab_1572.nr = tab_1570.nr AND tab_1569.producer = tab_1570.producer AND tab_1569.nr = tab_1570.nr AND tab_1573.countryType = 122 AND tab_1571.country = tab_1573.country UNION SELECT tab_2508.label, tab_2508.propertyNum2, tab_2509.country FROM Product AS tab_2510, PRODUCTTYPEPRODUCT AS tab_2506, CountryType AS tab_2511, Producer AS tab_2509, Product AS tab_2508, PRODUCT AS tab_2507 WHERE tab_2506.producttype = 68 AND tab_2506.product = tab_2507.nr AND tab_2508.producer = tab_2507.producer AND tab_2508.nr = tab_2507.nr AND tab_2510.producer = tab_2509.nr AND tab_2508.producer = tab_2510.producer AND tab_2508.nr = tab_2510.nr AND tab_2507.producer = tab_2510.producer AND tab_2507.nr = tab_2510.nr AND tab_2511.countryType = 122 AND tab_2509.country = tab_2511.country UNION SELECT tab_1025.label, tab_1025.propertyNum2, tab_1026.country FROM CountryType AS tab_1027, PRODUCT AS tab_1023, Producer AS tab_1026, Product AS tab_1025, PRODUCTTYPEPRODUCT AS tab_1022, Product AS tab_1024 WHERE tab_1022.producttype = 65 AND tab_1022.product = tab_1023.nr AND tab_1025.producer = tab_1023.producer AND tab_1025.nr = tab_1023.nr AND tab_1024.producer = tab_1026.nr AND tab_1025.producer = tab_1024.producer AND tab_1025.nr = tab_1024.nr AND tab_1023.producer = tab_1024.producer AND tab_1023.nr = tab_1024.nr AND tab_1027.countryType = 122 AND tab_1026.country = tab_1027.country UNION SELECT tab_1166.label, tab_1166.propertyNum1, tab_1163.country FROM Product AS tab_1166, Product AS tab_1165, Producer AS tab_1163, CountryType AS tab_1167, PRODUCTTYPEPRODUCT AS tab_1162, PRODUCT AS tab_1164 WHERE tab_1162.producttype = 56 AND tab_1162.product = tab_1164.nr AND tab_1166.producer = tab_1164.producer AND tab_1166.nr = tab_1164.nr AND tab_1165.producer = tab_1163.nr AND tab_1166.producer = tab_1165.producer AND tab_1166.nr = tab_1165.nr AND tab_1164.producer = tab_1165.producer AND tab_1164.nr = tab_1165.nr AND tab_1167.countryType = 112 AND tab_1163.country = tab_1167.country UNION SELECT tab_1597.label, tab_1597.propertyNum1, tab_1599.country FROM PRODUCT AS tab_1600, CountryType AS tab_1601, PRODUCTTYPEPRODUCT AS tab_1598, Product AS tab_1597, Product AS tab_1596, Producer AS tab_1599 WHERE tab_1598.producttype = 57 AND tab_1598.product = tab_1600.nr AND tab_1597.producer = tab_1600.producer AND tab_1597.nr = tab_1600.nr AND tab_1596.producer = tab_1599.nr AND tab_1597.producer = tab_1596.producer AND tab_1597.nr = tab_1596.nr AND tab_1600.producer = tab_1596.producer AND tab_1600.nr = tab_1596.nr AND tab_1601.countryType = 112 AND tab_1599.country = tab_1601.country UNION SELECT tab_1400.label, tab_1400.propertyNum2, tab_1402.country FROM PRODUCTTYPEPRODUCT AS tab_1403, PRODUCT AS tab_1401, Product AS tab_1404, Product AS tab_1400, Producer AS tab_1402, CountryType AS tab_1405 WHERE tab_1403.producttype = 70 AND tab_1403.product = tab_1401.nr AND tab_1400.producer = tab_1401.producer AND tab_1400.nr = tab_1401.nr AND tab_1404.producer = tab_1402.nr AND tab_1400.producer = tab_1404.producer AND tab_1400.nr = tab_1404.nr AND tab_1401.producer = tab_1404.producer AND tab_1401.nr = tab_1404.nr AND tab_1405.countryType = 121 AND tab_1402.country = tab_1405.country UNION SELECT tab_1740.label, tab_1740.propertyNum2, tab_1738.country FROM Producer AS tab_1738, Product AS tab_1739, CountryType AS tab_1741, PRODUCTTYPEPRODUCT AS tab_1736, PRODUCT AS tab_1737, Product AS tab_1740 WHERE tab_1736.producttype = 64 AND tab_1736.product = tab_1737.nr AND tab_1740.producer = tab_1737.producer AND tab_1740.nr = tab_1737.nr AND tab_1739.producer = tab_1738.nr AND tab_1740.producer = tab_1739.producer AND tab_1740.nr = tab_1739.nr AND tab_1737.producer = tab_1739.producer AND tab_1737.nr = tab_1739.nr AND tab_1741.countryType = 121 AND tab_1738.country = tab_1741.country UNION SELECT tab_2187.label, tab_2187.propertyNum2, tab_2185.country FROM Producer AS tab_2185, CountryType AS tab_2189, PRODUCTTYPEPRODUCT AS tab_2186, Product AS tab_2187, Product AS tab_2188, PRODUCT AS tab_2184 WHERE tab_2186.producttype = 57 AND tab_2186.product = tab_2184.nr AND tab_2187.producer = tab_2184.producer AND tab_2187.nr = tab_2184.nr AND tab_2188.producer = tab_2185.nr AND tab_2187.producer = tab_2188.producer AND tab_2187.nr = tab_2188.nr AND tab_2184.producer = tab_2188.producer AND tab_2184.nr = tab_2188.nr AND tab_2189.countryType = 111 AND tab_2185.country = tab_2189.country UNION SELECT tab_1919.label, tab_1919.propertyNum1, tab_1920.country FROM Product AS tab_1919, Product AS tab_1918, Producer AS tab_1920, PRODUCT AS tab_1922, PRODUCTTYPEPRODUCT AS tab_1921, CountryType AS tab_1923 WHERE tab_1921.producttype = 70 AND tab_1921.product = tab_1922.nr AND tab_1919.producer = tab_1922.producer AND tab_1919.nr = tab_1922.nr AND tab_1918.producer = tab_1920.nr AND tab_1919.producer = tab_1918.producer AND tab_1919.nr = tab_1918.nr AND tab_1922.producer = tab_1918.producer AND tab_1922.nr = tab_1918.nr AND tab_1923.countryType = 111 AND tab_1920.country = tab_1923.country UNION SELECT tab_2200.label, tab_2200.propertyNum1, tab_2198.country FROM Product AS tab_2201, PRODUCT AS tab_2202, CountryType AS tab_2203, Producer AS tab_2198, PRODUCTTYPEPRODUCT AS tab_2199, Product AS tab_2200 WHERE tab_2199.producttype = 58 AND tab_2199.product = tab_2202.nr AND tab_2200.producer = tab_2202.producer AND tab_2200.nr = tab_2202.nr AND tab_2201.producer = tab_2198.nr AND tab_2200.producer = tab_2201.producer AND tab_2200.nr = tab_2201.nr AND tab_2202.producer = tab_2201.producer AND tab_2202.nr = tab_2201.nr AND tab_2203.countryType = 121 AND tab_2198.country = tab_2203.country UNION SELECT tab_2060.label, tab_2060.propertyNum1, tab_2061.country FROM PRODUCTTYPEPRODUCT AS tab_2059, Producer AS tab_2061, PRODUCT AS tab_2058, Product AS tab_2060, Product AS tab_2062, CountryType AS tab_2063 WHERE tab_2059.producttype = 69 AND tab_2059.product = tab_2058.nr AND tab_2060.producer = tab_2058.producer AND tab_2060.nr = tab_2058.nr AND tab_2062.producer = tab_2061.nr AND tab_2060.producer = tab_2062.producer AND tab_2060.nr = tab_2062.nr AND tab_2058.producer = tab_2062.producer AND tab_2058.nr = tab_2062.nr AND tab_2063.countryType = 112 AND tab_2061.country = tab_2063.country UNION SELECT tab_801.label, tab_801.propertyNum1, tab_800.country FROM Product AS tab_802, Product AS tab_801, Producer AS tab_800, PRODUCTTYPEPRODUCT AS tab_798, CountryType AS tab_803, PRODUCT AS tab_799 WHERE tab_798.producttype = 57 AND tab_798.product = tab_799.nr AND tab_801.producer = tab_799.producer AND tab_801.nr = tab_799.nr AND tab_802.producer = tab_800.nr AND tab_801.producer = tab_802.producer AND tab_801.nr = tab_802.nr AND tab_799.producer = tab_802.producer AND tab_799.nr = tab_802.nr AND tab_803.countryType = 121 AND tab_800.country = tab_803.country UNION SELECT tab_2128.label, tab_2128.propertyNum1, tab_2132.country FROM Product AS tab_2128, PRODUCTTYPEPRODUCT AS tab_2129, CountryType AS tab_2133, PRODUCT AS tab_2131, Producer AS tab_2132, Product AS tab_2130 WHERE tab_2129.producttype = 70 AND tab_2129.product = tab_2131.nr AND tab_2128.producer = tab_2131.producer AND tab_2128.nr = tab_2131.nr AND tab_2130.producer = tab_2132.nr AND tab_2128.producer = tab_2130.producer AND tab_2128.nr = tab_2130.nr AND tab_2131.producer = tab_2130.producer AND tab_2131.nr = tab_2130.nr AND tab_2133.countryType = 122 AND tab_2132.country = tab_2133.country UNION SELECT tab_2492.label, tab_2492.propertyNum1, tab_2495.country FROM CountryType AS tab_2497, PRODUCTTYPEPRODUCT AS tab_2493, PRODUCT AS tab_2494, Producer AS tab_2495, Product AS tab_2492, Product AS tab_2496 WHERE tab_2493.producttype = 63 AND tab_2493.product = tab_2494.nr AND tab_2492.producer = tab_2494.producer AND tab_2492.nr = tab_2494.nr AND tab_2496.producer = tab_2495.nr AND tab_2492.producer = tab_2496.producer AND tab_2492.nr = tab_2496.nr AND tab_2494.producer = tab_2496.producer AND tab_2494.nr = tab_2496.nr AND tab_2497.countryType = 111 AND tab_2495.country = tab_2497.country UNION SELECT tab_1474.label, tab_1474.propertyNum1, tab_1471.country FROM Product AS tab_1474, Product AS tab_1473, Producer AS tab_1471, CountryType AS tab_1475, PRODUCTTYPEPRODUCT AS tab_1470, PRODUCT AS tab_1472 WHERE tab_1470.producttype = 66 AND tab_1470.product = tab_1472.nr AND tab_1474.producer = tab_1472.producer AND tab_1474.nr = tab_1472.nr AND tab_1473.producer = tab_1471.nr AND tab_1474.producer = tab_1473.producer AND tab_1474.nr = tab_1473.nr AND tab_1472.producer = tab_1473.producer AND tab_1472.nr = tab_1473.nr AND tab_1475.countryType = 112 AND tab_1471.country = tab_1475.country UNION SELECT tab_2143.label, tab_2143.propertyNum1, tab_2145.country FROM Product AS tab_2146, CountryType AS tab_2147, PRODUCTTYPEPRODUCT AS tab_2142, PRODUCT AS tab_2144, Producer AS tab_2145, Product AS tab_2143 WHERE tab_2142.producttype = 61 AND tab_2142.product = tab_2144.nr AND tab_2143.producer = tab_2144.producer AND tab_2143.nr = tab_2144.nr AND tab_2146.producer = tab_2145.nr AND tab_2143.producer = tab_2146.producer AND tab_2143.nr = tab_2146.nr AND tab_2144.producer = tab_2146.producer AND tab_2144.nr = tab_2146.nr AND tab_2147.countryType = 112 AND tab_2145.country = tab_2147.country UNION SELECT tab_2439.label, tab_2439.propertyNum2, tab_2440.country FROM PRODUCT AS tab_2438, Product AS tab_2436, PRODUCTTYPEPRODUCT AS tab_2437, Product AS tab_2439, CountryType AS tab_2441, Producer AS tab_2440 WHERE tab_2437.producttype = 57 AND tab_2437.product = tab_2438.nr AND tab_2439.producer = tab_2438.producer AND tab_2439.nr = tab_2438.nr AND tab_2436.producer = tab_2440.nr AND tab_2439.producer = tab_2436.producer AND tab_2439.nr = tab_2436.nr AND tab_2438.producer = tab_2436.producer AND tab_2438.nr = tab_2436.nr AND tab_2441.countryType = 122 AND tab_2440.country = tab_2441.country UNION SELECT tab_1177.label, tab_1177.propertyNum1, tab_1178.country FROM Product AS tab_1177, Product AS tab_1176, PRODUCTTYPEPRODUCT AS tab_1179, PRODUCT AS tab_1180, Producer AS tab_1178, CountryType AS tab_1181 WHERE tab_1179.producttype = 68 AND tab_1179.product = tab_1180.nr AND tab_1177.producer = tab_1180.producer AND tab_1177.nr = tab_1180.nr AND tab_1176.producer = tab_1178.nr AND tab_1177.producer = tab_1176.producer AND tab_1177.nr = tab_1176.nr AND tab_1180.producer = tab_1176.producer AND tab_1180.nr = tab_1176.nr AND tab_1181.countryType = 122 AND tab_1178.country = tab_1181.country UNION SELECT tab_2158.label, tab_2158.propertyNum1, tab_2156.country FROM Product AS tab_2158, Product AS tab_2159, Producer AS tab_2156, PRODUCTTYPEPRODUCT AS tab_2157, PRODUCT AS tab_2160, CountryType AS tab_2161 WHERE tab_2157.producttype = 63 AND tab_2157.product = tab_2160.nr AND tab_2158.producer = tab_2160.producer AND tab_2158.nr = tab_2160.nr AND tab_2159.producer = tab_2156.nr AND tab_2158.producer = tab_2159.producer AND tab_2158.nr = tab_2159.nr AND tab_2160.producer = tab_2159.producer AND tab_2160.nr = tab_2159.nr AND tab_2161.countryType = 122 AND tab_2156.country = tab_2161.country UNION SELECT tab_772.label, tab_772.propertyNum2, tab_774.country FROM PRODUCTTYPEPRODUCT AS tab_773, CountryType AS tab_775, PRODUCT AS tab_770, Producer AS tab_774, Product AS tab_772, Product AS tab_771 WHERE tab_773.producttype = 61 AND tab_773.product = tab_770.nr AND tab_772.producer = tab_770.producer AND tab_772.nr = tab_770.nr AND tab_771.producer = tab_774.nr AND tab_772.producer = tab_771.producer AND tab_772.nr = tab_771.nr AND tab_770.producer = tab_771.producer AND tab_770.nr = tab_771.nr AND tab_775.countryType = 111 AND tab_774.country = tab_775.country UNION SELECT tab_1768.label, tab_1768.propertyNum1, tab_1765.country FROM PRODUCTTYPEPRODUCT AS tab_1764, PRODUCT AS tab_1766, Product AS tab_1768, Product AS tab_1767, Producer AS tab_1765, CountryType AS tab_1769 WHERE tab_1764.producttype = 71 AND tab_1764.product = tab_1766.nr AND tab_1768.producer = tab_1766.producer AND tab_1768.nr = tab_1766.nr AND tab_1767.producer = tab_1765.nr AND tab_1768.producer = tab_1767.producer AND tab_1768.nr = tab_1767.nr AND tab_1766.producer = tab_1767.producer AND tab_1766.nr = tab_1767.nr AND tab_1769.countryType = 121 AND tab_1765.country = tab_1769.country UNION SELECT tab_1079.label, tab_1079.propertyNum1, tab_1082.country FROM Product AS tab_1078, Producer AS tab_1082, PRODUCT AS tab_1081, PRODUCTTYPEPRODUCT AS tab_1080, CountryType AS tab_1083, Product AS tab_1079 WHERE tab_1080.producttype = 67 AND tab_1080.product = tab_1081.nr AND tab_1079.producer = tab_1081.producer AND tab_1079.nr = tab_1081.nr AND tab_1078.producer = tab_1082.nr AND tab_1079.producer = tab_1078.producer AND tab_1079.nr = tab_1078.nr AND tab_1081.producer = tab_1078.producer AND tab_1081.nr = tab_1078.nr AND tab_1083.countryType = 122 AND tab_1082.country = tab_1083.country UNION SELECT tab_1963.label, tab_1963.propertyNum1, tab_1964.country FROM CountryType AS tab_1965, Producer AS tab_1964, PRODUCTTYPEPRODUCT AS tab_1961, PRODUCT AS tab_1960, Product AS tab_1963, Product AS tab_1962 WHERE tab_1961.producttype = 61 AND tab_1961.product = tab_1960.nr AND tab_1963.producer = tab_1960.producer AND tab_1963.nr = tab_1960.nr AND tab_1962.producer = tab_1964.nr AND tab_1963.producer = tab_1962.producer AND tab_1963.nr = tab_1962.nr AND tab_1960.producer = tab_1962.producer AND tab_1960.nr = tab_1962.nr AND tab_1965.countryType = 122 AND tab_1964.country = tab_1965.country UNION SELECT tab_1093.label, tab_1093.propertyNum1, tab_1092.country FROM Producer AS tab_1092, Product AS tab_1094, Product AS tab_1093, PRODUCTTYPEPRODUCT AS tab_1096, CountryType AS tab_1097, PRODUCT AS tab_1095 WHERE tab_1096.producttype = 71 AND tab_1096.product = tab_1095.nr AND tab_1093.producer = tab_1095.producer AND tab_1093.nr = tab_1095.nr AND tab_1094.producer = tab_1092.nr AND tab_1093.producer = tab_1094.producer AND tab_1093.nr = tab_1094.nr AND tab_1095.producer = tab_1094.producer AND tab_1095.nr = tab_1094.nr AND tab_1097.countryType = 122 AND tab_1092.country = tab_1097.country UNION SELECT tab_1499.label, tab_1499.propertyNum1, tab_1501.country FROM CountryType AS tab_1503, PRODUCTTYPEPRODUCT AS tab_1502, PRODUCT AS tab_1500, Product AS tab_1499, Product AS tab_1498, Producer AS tab_1501 WHERE tab_1502.producttype = 56 AND tab_1502.product = tab_1500.nr AND tab_1499.producer = tab_1500.producer AND tab_1499.nr = tab_1500.nr AND tab_1498.producer = tab_1501.nr AND tab_1499.producer = tab_1498.producer AND tab_1499.nr = tab_1498.nr AND tab_1500.producer = tab_1498.producer AND tab_1500.nr = tab_1498.nr AND tab_1503.countryType = 122 AND tab_1501.country = tab_1503.country UNION SELECT tab_816.label, tab_816.propertyNum1, tab_813.country FROM Product AS tab_816, Product AS tab_814, PRODUCT AS tab_815, PRODUCTTYPEPRODUCT AS tab_812, Producer AS tab_813, CountryType AS tab_817 WHERE tab_812.producttype = 57 AND tab_812.product = tab_815.nr AND tab_816.producer = tab_815.producer AND tab_816.nr = tab_815.nr AND tab_814.producer = tab_813.nr AND tab_816.producer = tab_814.producer AND tab_816.nr = tab_814.nr AND tab_815.producer = tab_814.producer AND tab_815.nr = tab_814.nr AND tab_817.countryType = 111 AND tab_813.country = tab_817.country UNION SELECT tab_1320.label, tab_1320.propertyNum2, tab_1316.country FROM Producer AS tab_1316, Product AS tab_1320, PRODUCTTYPEPRODUCT AS tab_1317, Product AS tab_1319, CountryType AS tab_1321, PRODUCT AS tab_1318 WHERE tab_1317.producttype = 71 AND tab_1317.product = tab_1318.nr AND tab_1320.producer = tab_1318.producer AND tab_1320.nr = tab_1318.nr AND tab_1319.producer = tab_1316.nr AND tab_1320.producer = tab_1319.producer AND tab_1320.nr = tab_1319.nr AND tab_1318.producer = tab_1319.producer AND tab_1318.nr = tab_1319.nr AND tab_1321.countryType = 121 AND tab_1316.country = tab_1321.country UNION SELECT tab_1642.label, tab_1642.propertyNum2, tab_1640.country FROM CountryType AS tab_1643, PRODUCTTYPEPRODUCT AS tab_1638, Producer AS tab_1640, Product AS tab_1642, PRODUCT AS tab_1639, Product AS tab_1641 WHERE tab_1638.producttype = 56 AND tab_1638.product = tab_1639.nr AND tab_1642.producer = tab_1639.producer AND tab_1642.nr = tab_1639.nr AND tab_1641.producer = tab_1640.nr AND tab_1642.producer = tab_1641.producer AND tab_1642.nr = tab_1641.nr AND tab_1639.producer = tab_1641.producer AND tab_1639.nr = tab_1641.nr AND tab_1643.countryType = 112 AND tab_1640.country = tab_1643.country UNION SELECT tab_2410.label, tab_2410.propertyNum2, tab_2408.country FROM Product AS tab_2410, Product AS tab_2412, PRODUCTTYPEPRODUCT AS tab_2411, CountryType AS tab_2413, Producer AS tab_2408, PRODUCT AS tab_2409 WHERE tab_2411.producttype = 56 AND tab_2411.product = tab_2409.nr AND tab_2410.producer = tab_2409.producer AND tab_2410.nr = tab_2409.nr AND tab_2412.producer = tab_2408.nr AND tab_2410.producer = tab_2412.producer AND tab_2410.nr = tab_2412.nr AND tab_2409.producer = tab_2412.producer AND tab_2409.nr = tab_2412.nr AND tab_2413.countryType = 121 AND tab_2408.country = tab_2413.country UNION SELECT tab_2020.label, tab_2020.propertyNum1, tab_2019.country FROM PRODUCTTYPEPRODUCT AS tab_2018, Producer AS tab_2019, Product AS tab_2016, PRODUCT AS tab_2017, CountryType AS tab_2021, Product AS tab_2020 WHERE tab_2018.producttype = 66 AND tab_2018.product = tab_2017.nr AND tab_2020.producer = tab_2017.producer AND tab_2020.nr = tab_2017.nr AND tab_2016.producer = tab_2019.nr AND tab_2020.producer = tab_2016.producer AND tab_2020.nr = tab_2016.nr AND tab_2017.producer = tab_2016.producer AND tab_2017.nr = tab_2016.nr AND tab_2021.countryType = 121 AND tab_2019.country = tab_2021.country UNION SELECT tab_882.label, tab_882.propertyNum2, tab_885.country FROM PRODUCT AS tab_886, PRODUCTTYPEPRODUCT AS tab_884, Producer AS tab_885, CountryType AS tab_887, Product AS tab_882, Product AS tab_883 WHERE tab_884.producttype = 67 AND tab_884.product = tab_886.nr AND tab_882.producer = tab_886.producer AND tab_882.nr = tab_886.nr AND tab_883.producer = tab_885.nr AND tab_882.producer = tab_883.producer AND tab_882.nr = tab_883.nr AND tab_886.producer = tab_883.producer AND tab_886.nr = tab_883.nr AND tab_887.countryType = 111 AND tab_885.country = tab_887.country UNION SELECT tab_1387.label, tab_1387.propertyNum1, tab_1389.country FROM Product AS tab_1386, PRODUCTTYPEPRODUCT AS tab_1388, Producer AS tab_1389, PRODUCT AS tab_1390, CountryType AS tab_1391, Product AS tab_1387 WHERE tab_1388.producttype = 58 AND tab_1388.product = tab_1390.nr AND tab_1387.producer = tab_1390.producer AND tab_1387.nr = tab_1390.nr AND tab_1386.producer = tab_1389.nr AND tab_1387.producer = tab_1386.producer AND tab_1387.nr = tab_1386.nr AND tab_1390.producer = tab_1386.producer AND tab_1390.nr = tab_1386.nr AND tab_1391.countryType = 111 AND tab_1389.country = tab_1391.country UNION SELECT tab_1235.label, tab_1235.propertyNum2, tab_1236.country FROM PRODUCTTYPEPRODUCT AS tab_1234, CountryType AS tab_1237, PRODUCT AS tab_1232, Product AS tab_1235, Product AS tab_1233, Producer AS tab_1236 WHERE tab_1234.producttype = 70 AND tab_1234.product = tab_1232.nr AND tab_1235.producer = tab_1232.producer AND tab_1235.nr = tab_1232.nr AND tab_1233.producer = tab_1236.nr AND tab_1235.producer = tab_1233.producer AND tab_1235.nr = tab_1233.nr AND tab_1232.producer = tab_1233.producer AND tab_1232.nr = tab_1233.nr AND tab_1237.countryType = 122 AND tab_1236.country = tab_1237.country UNION SELECT tab_1908.label, tab_1908.propertyNum2, tab_1906.country FROM Product AS tab_1908, Product AS tab_1907, CountryType AS tab_1909, PRODUCTTYPEPRODUCT AS tab_1905, Producer AS tab_1906, PRODUCT AS tab_1904 WHERE tab_1905.producttype = 57 AND tab_1905.product = tab_1904.nr AND tab_1908.producer = tab_1904.producer AND tab_1908.nr = tab_1904.nr AND tab_1907.producer = tab_1906.nr AND tab_1908.producer = tab_1907.producer AND tab_1908.nr = tab_1907.nr AND tab_1904.producer = tab_1907.producer AND tab_1904.nr = tab_1907.nr AND tab_1909.countryType = 112 AND tab_1906.country = tab_1909.country UNION SELECT tab_2299.label, tab_2299.propertyNum2, tab_2298.country FROM Product AS tab_2300, CountryType AS tab_2301, Producer AS tab_2298, PRODUCT AS tab_2296, PRODUCTTYPEPRODUCT AS tab_2297, Product AS tab_2299 WHERE tab_2297.producttype = 69 AND tab_2297.product = tab_2296.nr AND tab_2299.producer = tab_2296.producer AND tab_2299.nr = tab_2296.nr AND tab_2300.producer = tab_2298.nr AND tab_2299.producer = tab_2300.producer AND tab_2299.nr = tab_2300.nr AND tab_2296.producer = tab_2300.producer AND tab_2296.nr = tab_2300.nr AND tab_2301.countryType = 121 AND tab_2298.country = tab_2301.country UNION SELECT tab_2116.label, tab_2116.propertyNum1, tab_2115.country FROM CountryType AS tab_2119, PRODUCTTYPEPRODUCT AS tab_2117, Product AS tab_2116, PRODUCT AS tab_2114, Product AS tab_2118, Producer AS tab_2115 WHERE tab_2117.producttype = 69 AND tab_2117.product = tab_2114.nr AND tab_2116.producer = tab_2114.producer AND tab_2116.nr = tab_2114.nr AND tab_2118.producer = tab_2115.nr AND tab_2116.producer = tab_2118.producer AND tab_2116.nr = tab_2118.nr AND tab_2114.producer = tab_2118.producer AND tab_2114.nr = tab_2118.nr AND tab_2119.countryType = 122 AND tab_2115.country = tab_2119.country UNION SELECT tab_1486.label, tab_1486.propertyNum2, tab_1487.country FROM Product AS tab_1485, CountryType AS tab_1489, PRODUCT AS tab_1488, Producer AS tab_1487, PRODUCTTYPEPRODUCT AS tab_1484, Product AS tab_1486 WHERE tab_1484.producttype = 69 AND tab_1484.product = tab_1488.nr AND tab_1486.producer = tab_1488.producer AND tab_1486.nr = tab_1488.nr AND tab_1485.producer = tab_1487.nr AND tab_1486.producer = tab_1485.producer AND tab_1486.nr = tab_1485.nr AND tab_1488.producer = tab_1485.producer AND tab_1488.nr = tab_1485.nr AND tab_1489.countryType = 112 AND tab_1487.country = tab_1489.country UNION SELECT tab_1862.label, tab_1862.propertyNum2, tab_1865.country FROM PRODUCTTYPEPRODUCT AS tab_1863, PRODUCT AS tab_1864, Producer AS tab_1865, Product AS tab_1866, Product AS tab_1862, CountryType AS tab_1867 WHERE tab_1863.producttype = 58 AND tab_1863.product = tab_1864.nr AND tab_1862.producer = tab_1864.producer AND tab_1862.nr = tab_1864.nr AND tab_1866.producer = tab_1865.nr AND tab_1862.producer = tab_1866.producer AND tab_1862.nr = tab_1866.nr AND tab_1864.producer = tab_1866.producer AND tab_1864.nr = tab_1866.nr AND tab_1867.countryType = 112 AND tab_1865.country = tab_1867.country UNION SELECT tab_1992.label, tab_1992.propertyNum2, tab_1990.country FROM Product AS tab_1991, PRODUCTTYPEPRODUCT AS tab_1988, CountryType AS tab_1993, Producer AS tab_1990, PRODUCT AS tab_1989, Product AS tab_1992 WHERE tab_1988.producttype = 64 AND tab_1988.product = tab_1989.nr AND tab_1992.producer = tab_1989.producer AND tab_1992.nr = tab_1989.nr AND tab_1991.producer = tab_1990.nr AND tab_1992.producer = tab_1991.producer AND tab_1992.nr = tab_1991.nr AND tab_1989.producer = tab_1991.producer AND tab_1989.nr = tab_1991.nr AND tab_1993.countryType = 112 AND tab_1990.country = tab_1993.country UNION SELECT tab_1544.label, tab_1544.propertyNum2, tab_1541.country FROM PRODUCTTYPEPRODUCT AS tab_1542, CountryType AS tab_1545, Producer AS tab_1541, PRODUCT AS tab_1540, Product AS tab_1544, Product AS tab_1543 WHERE tab_1542.producttype = 62 AND tab_1542.product = tab_1540.nr AND tab_1544.producer = tab_1540.producer AND tab_1544.nr = tab_1540.nr AND tab_1543.producer = tab_1541.nr AND tab_1544.producer = tab_1543.producer AND tab_1544.nr = tab_1543.nr AND tab_1540.producer = tab_1543.producer AND tab_1540.nr = tab_1543.nr AND tab_1545.countryType = 122 AND tab_1541.country = tab_1545.country UNION SELECT tab_1655.label, tab_1655.propertyNum1, tab_1656.country FROM PRODUCTTYPEPRODUCT AS tab_1654, CountryType AS tab_1657, Producer AS tab_1656, PRODUCT AS tab_1653, Product AS tab_1655, Product AS tab_1652 WHERE tab_1654.producttype = 68 AND tab_1654.product = tab_1653.nr AND tab_1655.producer = tab_1653.producer AND tab_1655.nr = tab_1653.nr AND tab_1652.producer = tab_1656.nr AND tab_1655.producer = tab_1652.producer AND tab_1655.nr = tab_1652.nr AND tab_1653.producer = tab_1652.producer AND tab_1653.nr = tab_1652.nr AND tab_1657.countryType = 111 AND tab_1656.country = tab_1657.country UNION SELECT tab_1880.label, tab_1880.propertyNum2, tab_1879.country FROM Product AS tab_1880, PRODUCT AS tab_1877, Producer AS tab_1879, PRODUCTTYPEPRODUCT AS tab_1876, CountryType AS tab_1881, Product AS tab_1878 WHERE tab_1876.producttype = 59 AND tab_1876.product = tab_1877.nr AND tab_1880.producer = tab_1877.producer AND tab_1880.nr = tab_1877.nr AND tab_1878.producer = tab_1879.nr AND tab_1880.producer = tab_1878.producer AND tab_1880.nr = tab_1878.nr AND tab_1877.producer = tab_1878.producer AND tab_1877.nr = tab_1878.nr AND tab_1881.countryType = 111 AND tab_1879.country = tab_1881.country UNION SELECT tab_2467.label, tab_2467.propertyNum2, tab_2465.country FROM Product AS tab_2467, CountryType AS tab_2469, Product AS tab_2468, PRODUCT AS tab_2466, Producer AS tab_2465, PRODUCTTYPEPRODUCT AS tab_2464 WHERE tab_2464.producttype = 60 AND tab_2464.product = tab_2466.nr AND tab_2467.producer = tab_2466.producer AND tab_2467.nr = tab_2466.nr AND tab_2468.producer = tab_2465.nr AND tab_2467.producer = tab_2468.producer AND tab_2467.nr = tab_2468.nr AND tab_2466.producer = tab_2468.producer AND tab_2466.nr = tab_2468.nr AND tab_2469.countryType = 121 AND tab_2465.country = tab_2469.country UNION SELECT tab_1554.label, tab_1554.propertyNum1, tab_1556.country FROM PRODUCTTYPEPRODUCT AS tab_1557, PRODUCT AS tab_1555, Product AS tab_1558, Product AS tab_1554, Producer AS tab_1556, CountryType AS tab_1559 WHERE tab_1557.producttype = 62 AND tab_1557.product = tab_1555.nr AND tab_1554.producer = tab_1555.producer AND tab_1554.nr = tab_1555.nr AND tab_1558.producer = tab_1556.nr AND tab_1554.producer = tab_1558.producer AND tab_1554.nr = tab_1558.nr AND tab_1555.producer = tab_1558.producer AND tab_1555.nr = tab_1558.nr AND tab_1559.countryType = 111 AND tab_1556.country = tab_1559.country UNION SELECT tab_2230.label, tab_2230.propertyNum2, tab_2228.country FROM PRODUCT AS tab_2227, Producer AS tab_2228, Product AS tab_2226, PRODUCTTYPEPRODUCT AS tab_2229, CountryType AS tab_2231, Product AS tab_2230 WHERE tab_2229.producttype = 56 AND tab_2229.product = tab_2227.nr AND tab_2230.producer = tab_2227.producer AND tab_2230.nr = tab_2227.nr AND tab_2226.producer = tab_2228.nr AND tab_2230.producer = tab_2226.producer AND tab_2230.nr = tab_2226.nr AND tab_2227.producer = tab_2226.producer AND tab_2227.nr = tab_2226.nr AND tab_2231.countryType = 111 AND tab_2228.country = tab_2231.country UNION SELECT tab_1264.label, tab_1264.propertyNum2, tab_1263.country FROM Product AS tab_1264, Product AS tab_1262, CountryType AS tab_1265, Producer AS tab_1263, PRODUCTTYPEPRODUCT AS tab_1260, PRODUCT AS tab_1261 WHERE tab_1260.producttype = 63 AND tab_1260.product = tab_1261.nr AND tab_1264.producer = tab_1261.producer AND tab_1264.nr = tab_1261.nr AND tab_1262.producer = tab_1263.nr AND tab_1264.producer = tab_1262.producer AND tab_1264.nr = tab_1262.nr AND tab_1261.producer = tab_1262.producer AND tab_1261.nr = tab_1262.nr AND tab_1265.countryType = 121 AND tab_1263.country = tab_1265.country UNION SELECT tab_1136.label, tab_1136.propertyNum1, tab_1138.country FROM PRODUCTTYPEPRODUCT AS tab_1137, CountryType AS tab_1139, PRODUCT AS tab_1135, Product AS tab_1136, Producer AS tab_1138, Product AS tab_1134 WHERE tab_1137.producttype = 68 AND tab_1137.product = tab_1135.nr AND tab_1136.producer = tab_1135.producer AND tab_1136.nr = tab_1135.nr AND tab_1134.producer = tab_1138.nr AND tab_1136.producer = tab_1134.producer AND tab_1136.nr = tab_1134.nr AND tab_1135.producer = tab_1134.producer AND tab_1135.nr = tab_1134.nr AND tab_1139.countryType = 112 AND tab_1138.country = tab_1139.country UNION SELECT tab_2481.label, tab_2481.propertyNum1, tab_2480.country FROM Product AS tab_2478, Producer AS tab_2480, PRODUCT AS tab_2479, PRODUCTTYPEPRODUCT AS tab_2482, Product AS tab_2481, CountryType AS tab_2483 WHERE tab_2482.producttype = 60 AND tab_2482.product = tab_2479.nr AND tab_2481.producer = tab_2479.producer AND tab_2481.nr = tab_2479.nr AND tab_2478.producer = tab_2480.nr AND tab_2481.producer = tab_2478.producer AND tab_2481.nr = tab_2478.nr AND tab_2479.producer = tab_2478.producer AND tab_2479.nr = tab_2478.nr AND tab_2483.countryType = 112 AND tab_2480.country = tab_2483.country UNION SELECT tab_1191.label, tab_1191.propertyNum2, tab_1193.country FROM Producer AS tab_1193, Product AS tab_1191, Product AS tab_1190, PRODUCTTYPEPRODUCT AS tab_1194, CountryType AS tab_1195, PRODUCT AS tab_1192 WHERE tab_1194.producttype = 60 AND tab_1194.product = tab_1192.nr AND tab_1191.producer = tab_1192.producer AND tab_1191.nr = tab_1192.nr AND tab_1190.producer = tab_1193.nr AND tab_1191.producer = tab_1190.producer AND tab_1191.nr = tab_1190.nr AND tab_1192.producer = tab_1190.producer AND tab_1192.nr = tab_1190.nr AND tab_1195.countryType = 122 AND tab_1193.country = tab_1195.country UNION SELECT tab_1933.label, tab_1933.propertyNum1, tab_1932.country FROM Producer AS tab_1932, Product AS tab_1935, Product AS tab_1933, PRODUCTTYPEPRODUCT AS tab_1936, CountryType AS tab_1937, PRODUCT AS tab_1934 WHERE tab_1936.producttype = 63 AND tab_1936.product = tab_1934.nr AND tab_1933.producer = tab_1934.producer AND tab_1933.nr = tab_1934.nr AND tab_1935.producer = tab_1932.nr AND tab_1933.producer = tab_1935.producer AND tab_1933.nr = tab_1935.nr AND tab_1934.producer = tab_1935.producer AND tab_1934.nr = tab_1935.nr AND tab_1937.countryType = 121 AND tab_1932.country = tab_1937.country UNION SELECT tab_1821.label, tab_1821.propertyNum2, tab_1824.country FROM Producer AS tab_1824, PRODUCT AS tab_1823, PRODUCTTYPEPRODUCT AS tab_1822, Product AS tab_1821, Product AS tab_1820, CountryType AS tab_1825 WHERE tab_1822.producttype = 61 AND tab_1822.product = tab_1823.nr AND tab_1821.producer = tab_1823.producer AND tab_1821.nr = tab_1823.nr AND tab_1820.producer = tab_1824.nr AND tab_1821.producer = tab_1820.producer AND tab_1821.nr = tab_1820.nr AND tab_1823.producer = tab_1820.producer AND tab_1823.nr = tab_1820.nr AND tab_1825.countryType = 112 AND tab_1824.country = tab_1825.country UNION SELECT tab_2031.label, tab_2031.propertyNum1, tab_2034.country FROM CountryType AS tab_2035, PRODUCT AS tab_2033, Producer AS tab_2034, PRODUCTTYPEPRODUCT AS tab_2030, Product AS tab_2031, Product AS tab_2032 WHERE tab_2030.producttype = 65 AND tab_2030.product = tab_2033.nr AND tab_2031.producer = tab_2033.producer AND tab_2031.nr = tab_2033.nr AND tab_2032.producer = tab_2034.nr AND tab_2031.producer = tab_2032.producer AND tab_2031.nr = tab_2032.nr AND tab_2033.producer = tab_2032.producer AND tab_2033.nr = tab_2032.nr AND tab_2035.countryType = 122 AND tab_2034.country = tab_2035.country UNION SELECT tab_2214.label, tab_2214.propertyNum2, tab_2215.country FROM CountryType AS tab_2217, PRODUCTTYPEPRODUCT AS tab_2213, Product AS tab_2214, Product AS tab_2216, PRODUCT AS tab_2212, Producer AS tab_2215 WHERE tab_2213.producttype = 59 AND tab_2213.product = tab_2212.nr AND tab_2214.producer = tab_2212.producer AND tab_2214.nr = tab_2212.nr AND tab_2216.producer = tab_2215.nr AND tab_2214.producer = tab_2216.producer AND tab_2214.nr = tab_2216.nr AND tab_2212.producer = tab_2216.producer AND tab_2212.nr = tab_2216.nr AND tab_2217.countryType = 112 AND tab_2215.country = tab_2217.country UNION SELECT tab_1974.label, tab_1974.propertyNum2, tab_1978.country FROM PRODUCT AS tab_1975, Producer AS tab_1978, PRODUCTTYPEPRODUCT AS tab_1976, Product AS tab_1977, Product AS tab_1974, CountryType AS tab_1979 WHERE tab_1976.producttype = 67 AND tab_1976.product = tab_1975.nr AND tab_1974.producer = tab_1975.producer AND tab_1974.nr = tab_1975.nr AND tab_1977.producer = tab_1978.nr AND tab_1974.producer = tab_1977.producer AND tab_1974.nr = tab_1977.nr AND tab_1975.producer = tab_1977.producer AND tab_1975.nr = tab_1977.nr AND tab_1979.countryType = 121 AND tab_1978.country = tab_1979.country UNION SELECT tab_2282.label, tab_2282.propertyNum2, tab_2284.country FROM Producer AS tab_2284, PRODUCT AS tab_2286, CountryType AS tab_2287, Product AS tab_2282, PRODUCTTYPEPRODUCT AS tab_2283, Product AS tab_2285 WHERE tab_2283.producttype = 71 AND tab_2283.product = tab_2286.nr AND tab_2282.producer = tab_2286.producer AND tab_2282.nr = tab_2286.nr AND tab_2285.producer = tab_2284.nr AND tab_2282.producer = tab_2285.producer AND tab_2282.nr = tab_2285.nr AND tab_2286.producer = tab_2285.producer AND tab_2286.nr = tab_2285.nr AND tab_2287.countryType = 111 AND tab_2284.country = tab_2287.country UNION SELECT tab_2397.label, tab_2397.propertyNum1, tab_2396.country FROM CountryType AS tab_2399, PRODUCTTYPEPRODUCT AS tab_2395, Producer AS tab_2396, PRODUCT AS tab_2394, Product AS tab_2397, Product AS tab_2398 WHERE tab_2395.producttype = 62 AND tab_2395.product = tab_2394.nr AND tab_2397.producer = tab_2394.producer AND tab_2397.nr = tab_2394.nr AND tab_2398.producer = tab_2396.nr AND tab_2397.producer = tab_2398.producer AND tab_2397.nr = tab_2398.nr AND tab_2394.producer = tab_2398.producer AND tab_2394.nr = tab_2398.nr AND tab_2399.countryType = 122 AND tab_2396.country = tab_2399.country UNION SELECT tab_899.label, tab_899.propertyNum2, tab_898.country FROM PRODUCT AS tab_897, Producer AS tab_898, Product AS tab_900, Product AS tab_899, PRODUCTTYPEPRODUCT AS tab_896, CountryType AS tab_901 WHERE tab_896.producttype = 63 AND tab_896.product = tab_897.nr AND tab_899.producer = tab_897.producer AND tab_899.nr = tab_897.nr AND tab_900.producer = tab_898.nr AND tab_899.producer = tab_900.producer AND tab_899.nr = tab_900.nr AND tab_897.producer = tab_900.producer AND tab_897.nr = tab_900.nr AND tab_901.countryType = 112 AND tab_898.country = tab_901.country UNION SELECT tab_940.label, tab_940.propertyNum2, tab_942.country FROM Producer AS tab_942, PRODUCT AS tab_938, PRODUCTTYPEPRODUCT AS tab_941, CountryType AS tab_943, Product AS tab_939, Product AS tab_940 WHERE tab_941.producttype = 66 AND tab_941.product = tab_938.nr AND tab_940.producer = tab_938.producer AND tab_940.nr = tab_938.nr AND tab_939.producer = tab_942.nr AND tab_940.producer = tab_939.producer AND tab_940.nr = tab_939.nr AND tab_938.producer = tab_939.producer AND tab_938.nr = tab_939.nr AND tab_943.countryType = 122 AND tab_942.country = tab_943.country UNION SELECT tab_1950.label, tab_1950.propertyNum1, tab_1948.country FROM Product AS tab_1949, CountryType AS tab_1951, Producer AS tab_1948, PRODUCTTYPEPRODUCT AS tab_1946, Product AS tab_1950, PRODUCT AS tab_1947 WHERE tab_1946.producttype = 60 AND tab_1946.product = tab_1947.nr AND tab_1950.producer = tab_1947.producer AND tab_1950.nr = tab_1947.nr AND tab_1949.producer = tab_1948.nr AND tab_1950.producer = tab_1949.producer AND tab_1950.nr = tab_1949.nr AND tab_1947.producer = tab_1949.producer AND tab_1947.nr = tab_1949.nr AND tab_1951.countryType = 111 AND tab_1948.country = tab_1951.country UNION SELECT tab_1050.label, tab_1050.propertyNum1, tab_1054.country FROM Product AS tab_1053, Product AS tab_1050, CountryType AS tab_1055, Producer AS tab_1054, PRODUCTTYPEPRODUCT AS tab_1051, PRODUCT AS tab_1052 WHERE tab_1051.producttype = 62 AND tab_1051.product = tab_1052.nr AND tab_1050.producer = tab_1052.producer AND tab_1050.nr = tab_1052.nr AND tab_1053.producer = tab_1054.nr AND tab_1050.producer = tab_1053.producer AND tab_1050.nr = tab_1053.nr AND tab_1052.producer = tab_1053.producer AND tab_1052.nr = tab_1053.nr AND tab_1055.countryType = 121 AND tab_1054.country = tab_1055.country UNION SELECT tab_2339.label, tab_2339.propertyNum2, tab_2342.country FROM PRODUCTTYPEPRODUCT AS tab_2338, Product AS tab_2339, CountryType AS tab_2343, PRODUCT AS tab_2341, Producer AS tab_2342, Product AS tab_2340 WHERE tab_2338.producttype = 67 AND tab_2338.product = tab_2341.nr AND tab_2339.producer = tab_2341.producer AND tab_2339.nr = tab_2341.nr AND tab_2340.producer = tab_2342.nr AND tab_2339.producer = tab_2340.producer AND tab_2339.nr = tab_2340.nr AND tab_2341.producer = tab_2340.producer AND tab_2341.nr = tab_2340.nr AND tab_2343.countryType = 112 AND tab_2342.country = tab_2343.country UNION SELECT tab_927.label, tab_927.propertyNum1, tab_928.country FROM CountryType AS tab_929, PRODUCT AS tab_924, Product AS tab_927, Product AS tab_925, Producer AS tab_928, PRODUCTTYPEPRODUCT AS tab_926 WHERE tab_926.producttype = 69 AND tab_926.product = tab_924.nr AND tab_927.producer = tab_924.producer AND tab_927.nr = tab_924.nr AND tab_925.producer = tab_928.nr AND tab_927.producer = tab_925.producer AND tab_927.nr = tab_925.nr AND tab_924.producer = tab_925.producer AND tab_924.nr = tab_925.nr AND tab_929.countryType = 111 AND tab_928.country = tab_929.country UNION SELECT tab_1530.label, tab_1530.propertyNum2, tab_1527.country FROM Producer AS tab_1527, PRODUCT AS tab_1526, Product AS tab_1529, CountryType AS tab_1531, PRODUCTTYPEPRODUCT AS tab_1528, Product AS tab_1530 WHERE tab_1528.producttype = 66 AND tab_1528.product = tab_1526.nr AND tab_1530.producer = tab_1526.producer AND tab_1530.nr = tab_1526.nr AND tab_1529.producer = tab_1527.nr AND tab_1530.producer = tab_1529.producer AND tab_1530.nr = tab_1529.nr AND tab_1526.producer = tab_1529.producer AND tab_1526.nr = tab_1529.nr AND tab_1531.countryType = 111 AND tab_1527.country = tab_1531.country UNION SELECT tab_788.label, tab_788.propertyNum1, tab_784.country FROM PRODUCT AS tab_785, Product AS tab_788, Producer AS tab_784, PRODUCTTYPEPRODUCT AS tab_787, CountryType AS tab_789, Product AS tab_786 WHERE tab_787.producttype = 67 AND tab_787.product = tab_785.nr AND tab_788.producer = tab_785.producer AND tab_788.nr = tab_785.nr AND tab_786.producer = tab_784.nr AND tab_788.producer = tab_786.producer AND tab_788.nr = tab_786.nr AND tab_785.producer = tab_786.producer AND tab_785.nr = tab_786.nr AND tab_789.countryType = 111 AND tab_784.country = tab_789.country UNION SELECT tab_1110.label, tab_1110.propertyNum2, tab_1109.country FROM Product AS tab_1110, PRODUCT AS tab_1107, Producer AS tab_1109, PRODUCTTYPEPRODUCT AS tab_1106, CountryType AS tab_1111, Product AS tab_1108 WHERE tab_1106.producttype = 66 AND tab_1106.product = tab_1107.nr AND tab_1110.producer = tab_1107.producer AND tab_1110.nr = tab_1107.nr AND tab_1108.producer = tab_1109.nr AND tab_1110.producer = tab_1108.producer AND tab_1110.nr = tab_1108.nr AND tab_1107.producer = tab_1108.producer AND tab_1107.nr = tab_1108.nr AND tab_1111.countryType = 112 AND tab_1109.country = tab_1111.country UNION SELECT tab_1809.label, tab_1809.propertyNum2, tab_1810.country FROM Product AS tab_1809, CountryType AS tab_1811, Product AS tab_1808, Producer AS tab_1810, PRODUCT AS tab_1806, PRODUCTTYPEPRODUCT AS tab_1807 WHERE tab_1807.producttype = 59 AND tab_1807.product = tab_1806.nr AND tab_1809.producer = tab_1806.producer AND tab_1809.nr = tab_1806.nr AND tab_1808.producer = tab_1810.nr AND tab_1809.producer = tab_1808.producer AND tab_1809.nr = tab_1808.nr AND tab_1806.producer = tab_1808.producer AND tab_1806.nr = tab_1808.nr AND tab_1811.countryType = 122 AND tab_1810.country = tab_1811.country UNION SELECT tab_1709.label, tab_1709.propertyNum1, tab_1710.country FROM Product AS tab_1709, Product AS tab_1708, PRODUCT AS tab_1712, PRODUCTTYPEPRODUCT AS tab_1711, Producer AS tab_1710, CountryType AS tab_1713 WHERE tab_1711.producttype = 59 AND tab_1711.product = tab_1712.nr AND tab_1709.producer = tab_1712.producer AND tab_1709.nr = tab_1712.nr AND tab_1708.producer = tab_1710.nr AND tab_1709.producer = tab_1708.producer AND tab_1709.nr = tab_1708.nr AND tab_1712.producer = tab_1708.producer AND tab_1712.nr = tab_1708.nr AND tab_1713.countryType = 111 AND tab_1710.country = tab_1713.country UNION SELECT tab_2076.label, tab_2076.propertyNum2, tab_2072.country FROM Producer AS tab_2072, PRODUCTTYPEPRODUCT AS tab_2075, Product AS tab_2073, CountryType AS tab_2077, Product AS tab_2076, PRODUCT AS tab_2074 WHERE tab_2075.producttype = 69 AND tab_2075.product = tab_2074.nr AND tab_2076.producer = tab_2074.producer AND tab_2076.nr = tab_2074.nr AND tab_2073.producer = tab_2072.nr AND tab_2076.producer = tab_2073.producer AND tab_2076.nr = tab_2073.nr AND tab_2074.producer = tab_2073.producer AND tab_2074.nr = tab_2073.nr AND tab_2077.countryType = 122 AND tab_2072.country = tab_2077.country UNION SELECT tab_1334.label, tab_1334.propertyNum1, tab_1332.country FROM CountryType AS tab_1335, Producer AS tab_1332, PRODUCT AS tab_1331, Product AS tab_1334, Product AS tab_1333, PRODUCTTYPEPRODUCT AS tab_1330 WHERE tab_1330.producttype = 61 AND tab_1330.product = tab_1331.nr AND tab_1334.producer = tab_1331.producer AND tab_1334.nr = tab_1331.nr AND tab_1333.producer = tab_1332.nr AND tab_1334.producer = tab_1333.producer AND tab_1334.nr = tab_1333.nr AND tab_1331.producer = tab_1333.producer AND tab_1331.nr = tab_1333.nr AND tab_1335.countryType = 121 AND tab_1332.country = tab_1335.country UNION SELECT tab_1445.label, tab_1445.propertyNum2, tab_1446.country FROM CountryType AS tab_1447, PRODUCTTYPEPRODUCT AS tab_1444, PRODUCT AS tab_1443, Product AS tab_1445, Producer AS tab_1446, Product AS tab_1442 WHERE tab_1444.producttype = 71 AND tab_1444.product = tab_1443.nr AND tab_1445.producer = tab_1443.producer AND tab_1445.nr = tab_1443.nr AND tab_1442.producer = tab_1446.nr AND tab_1445.producer = tab_1442.producer AND tab_1445.nr = tab_1442.nr AND tab_1443.producer = tab_1442.producer AND tab_1443.nr = tab_1442.nr AND tab_1447.countryType = 112 AND tab_1446.country = tab_1447.country UNION SELECT tab_743.label, tab_743.propertyNum1, tab_742.country FROM Product AS tab_746, Producer AS tab_742, PRODUCTTYPEPRODUCT AS tab_745, CountryType AS tab_747, Product AS tab_743, PRODUCT AS tab_744 WHERE tab_745.producttype = 59 AND tab_745.product = tab_744.nr AND tab_743.producer = tab_744.producer AND tab_743.nr = tab_744.nr AND tab_746.producer = tab_742.nr AND tab_743.producer = tab_746.producer AND tab_743.nr = tab_746.nr AND tab_744.producer = tab_746.producer AND tab_744.nr = tab_746.nr AND tab_747.countryType = 121 AND tab_742.country = tab_747.country UNION SELECT tab_2354.label, tab_2354.propertyNum1, tab_2355.country FROM Product AS tab_2356, CountryType AS tab_2357, PRODUCT AS tab_2352, Producer AS tab_2355, PRODUCTTYPEPRODUCT AS tab_2353, Product AS tab_2354 WHERE tab_2353.producttype = 59 AND tab_2353.product = tab_2352.nr AND tab_2354.producer = tab_2352.producer AND tab_2354.nr = tab_2352.nr AND tab_2356.producer = tab_2355.nr AND tab_2354.producer = tab_2356.producer AND tab_2354.nr = tab_2356.nr AND tab_2352.producer = tab_2356.producer AND tab_2352.nr = tab_2356.nr AND tab_2357.countryType = 122 AND tab_2355.country = tab_2357.country UNION SELECT tab_1586.label, tab_1586.propertyNum1, tab_1585.country FROM Product AS tab_1584, CountryType AS tab_1587, PRODUCT AS tab_1583, Producer AS tab_1585, PRODUCTTYPEPRODUCT AS tab_1582, Product AS tab_1586 WHERE tab_1582.producttype = 64 AND tab_1582.product = tab_1583.nr AND tab_1586.producer = tab_1583.producer AND tab_1586.nr = tab_1583.nr AND tab_1584.producer = tab_1585.nr AND tab_1586.producer = tab_1584.producer AND tab_1586.nr = tab_1584.nr AND tab_1583.producer = tab_1584.producer AND tab_1583.nr = tab_1584.nr AND tab_1587.countryType = 121 AND tab_1585.country = tab_1587.country UNION SELECT tab_1795.label, tab_1795.propertyNum1, tab_1796.country FROM CountryType AS tab_1797, PRODUCT AS tab_1793, Producer AS tab_1796, Product AS tab_1795, PRODUCTTYPEPRODUCT AS tab_1792, Product AS tab_1794 WHERE tab_1792.producttype = 63 AND tab_1792.product = tab_1793.nr AND tab_1795.producer = tab_1793.producer AND tab_1795.nr = tab_1793.nr AND tab_1794.producer = tab_1796.nr AND tab_1795.producer = tab_1794.producer AND tab_1795.nr = tab_1794.nr AND tab_1793.producer = tab_1794.producer AND tab_1793.nr = tab_1794.nr AND tab_1797.countryType = 112 AND tab_1796.country = tab_1797.country UNION SELECT tab_1124.label, tab_1124.propertyNum2, tab_1122.country FROM CountryType AS tab_1125, PRODUCT AS tab_1121, Producer AS tab_1122, PRODUCTTYPEPRODUCT AS tab_1120, Product AS tab_1124, Product AS tab_1123 WHERE tab_1120.producttype = 60 AND tab_1120.product = tab_1121.nr AND tab_1124.producer = tab_1121.producer AND tab_1124.nr = tab_1121.nr AND tab_1123.producer = tab_1122.nr AND tab_1124.producer = tab_1123.producer AND tab_1124.nr = tab_1123.nr AND tab_1121.producer = tab_1123.producer AND tab_1121.nr = tab_1123.nr AND tab_1125.countryType = 112 AND tab_1122.country = tab_1125.country UNION SELECT tab_981.label, tab_981.propertyNum2, tab_984.country FROM PRODUCTTYPEPRODUCT AS tab_983, CountryType AS tab_985, Producer AS tab_984, Product AS tab_981, Product AS tab_980, PRODUCT AS tab_982 WHERE tab_983.producttype = 65 AND tab_983.product = tab_982.nr AND tab_981.producer = tab_982.producer AND tab_981.nr = tab_982.nr AND tab_980.producer = tab_984.nr AND tab_981.producer = tab_980.producer AND tab_981.nr = tab_980.nr AND tab_982.producer = tab_980.producer AND tab_982.nr = tab_980.nr AND tab_985.countryType = 111 AND tab_984.country = tab_985.country UNION SELECT tab_1012.label, tab_1012.propertyNum2, tab_1009.country FROM Product AS tab_1012, Product AS tab_1011, Producer AS tab_1009, CountryType AS tab_1013, PRODUCTTYPEPRODUCT AS tab_1008, PRODUCT AS tab_1010 WHERE tab_1008.producttype = 59 AND tab_1008.product = tab_1010.nr AND tab_1012.producer = tab_1010.producer AND tab_1012.nr = tab_1010.nr AND tab_1011.producer = tab_1009.nr AND tab_1012.producer = tab_1011.producer AND tab_1012.nr = tab_1011.nr AND tab_1010.producer = tab_1011.producer AND tab_1010.nr = tab_1011.nr AND tab_1013.countryType = 121 AND tab_1009.country = tab_1013.country UNION SELECT tab_953.label, tab_953.propertyNum2, tab_955.country FROM Product AS tab_956, PRODUCT AS tab_954, Product AS tab_953, Producer AS tab_955, PRODUCTTYPEPRODUCT AS tab_952, CountryType AS tab_957 WHERE tab_952.producttype = 58 AND tab_952.product = tab_954.nr AND tab_953.producer = tab_954.producer AND tab_953.nr = tab_954.nr AND tab_956.producer = tab_955.nr AND tab_953.producer = tab_956.producer AND tab_953.nr = tab_956.nr AND tab_954.producer = tab_956.producer AND tab_954.nr = tab_956.nr AND tab_957.countryType = 122 AND tab_955.country = tab_957.country UNION SELECT tab_1246.label, tab_1246.propertyNum2, tab_1248.country FROM Product AS tab_1250, PRODUCTTYPEPRODUCT AS tab_1249, PRODUCT AS tab_1247, CountryType AS tab_1251, Product AS tab_1246, Producer AS tab_1248 WHERE tab_1249.producttype = 63 AND tab_1249.product = tab_1247.nr AND tab_1246.producer = tab_1247.producer AND tab_1246.nr = tab_1247.nr AND tab_1250.producer = tab_1248.nr AND tab_1246.producer = tab_1250.producer AND tab_1246.nr = tab_1250.nr AND tab_1247.producer = tab_1250.producer AND tab_1247.nr = tab_1250.nr AND tab_1251.countryType = 111 AND tab_1248.country = tab_1251.country UNION SELECT tab_1302.label, tab_1302.propertyNum2, tab_1304.country FROM PRODUCT AS tab_1303, Producer AS tab_1304, PRODUCTTYPEPRODUCT AS tab_1305, Product AS tab_1306, Product AS tab_1302, CountryType AS tab_1307 WHERE tab_1305.producttype = 69 AND tab_1305.product = tab_1303.nr AND tab_1302.producer = tab_1303.producer AND tab_1302.nr = tab_1303.nr AND tab_1306.producer = tab_1304.nr AND tab_1302.producer = tab_1306.producer AND tab_1302.nr = tab_1306.nr AND tab_1303.producer = tab_1306.producer AND tab_1303.nr = tab_1306.nr AND tab_1307.countryType = 111 AND tab_1304.country = tab_1307.country UNION SELECT tab_2271.label, tab_2271.propertyNum1, tab_2269.country FROM PRODUCTTYPEPRODUCT AS tab_2268, Product AS tab_2271, Product AS tab_2272, CountryType AS tab_2273, Producer AS tab_2269, PRODUCT AS tab_2270 WHERE tab_2268.producttype = 65 AND tab_2268.product = tab_2270.nr AND tab_2271.producer = tab_2270.producer AND tab_2271.nr = tab_2270.nr AND tab_2272.producer = tab_2269.nr AND tab_2271.producer = tab_2272.producer AND tab_2271.nr = tab_2272.nr AND tab_2270.producer = tab_2272.producer AND tab_2270.nr = tab_2272.nr AND tab_2273.countryType = 111 AND tab_2269.country = tab_2273.country UNION SELECT tab_1782.label, tab_1782.propertyNum1, tab_1779.country FROM Product AS tab_1782, Product AS tab_1781, Producer AS tab_1779, CountryType AS tab_1783, PRODUCTTYPEPRODUCT AS tab_1778, PRODUCT AS tab_1780 WHERE tab_1778.producttype = 71 AND tab_1778.product = tab_1780.nr AND tab_1782.producer = tab_1780.producer AND tab_1782.nr = tab_1780.nr AND tab_1781.producer = tab_1779.nr AND tab_1782.producer = tab_1781.producer AND tab_1782.nr = tab_1781.nr AND tab_1780.producer = tab_1781.producer AND tab_1780.nr = tab_1781.nr AND tab_1783.countryType = 112 AND tab_1779.country = tab_1783.country UNION SELECT tab_760.label, tab_760.propertyNum2, tab_757.country FROM CountryType AS tab_761, Producer AS tab_757, Product AS tab_759, Product AS tab_760, PRODUCTTYPEPRODUCT AS tab_758, PRODUCT AS tab_756 WHERE tab_758.producttype = 68 AND tab_758.product = tab_756.nr AND tab_760.producer = tab_756.producer AND tab_760.nr = tab_756.nr AND tab_759.producer = tab_757.nr AND tab_760.producer = tab_759.producer AND tab_760.nr = tab_759.nr AND tab_756.producer = tab_759.producer AND tab_756.nr = tab_759.nr AND tab_761.countryType = 111 AND tab_757.country = tab_761.country UNION SELECT tab_2328.label, tab_2328.propertyNum2, tab_2326.country FROM Product AS tab_2324, PRODUCT AS tab_2325, PRODUCTTYPEPRODUCT AS tab_2327, Product AS tab_2328, Producer AS tab_2326, CountryType AS tab_2329 WHERE tab_2327.producttype = 56 AND tab_2327.product = tab_2325.nr AND tab_2328.producer = tab_2325.producer AND tab_2328.nr = tab_2325.nr AND tab_2324.producer = tab_2326.nr AND tab_2328.producer = tab_2324.producer AND tab_2328.nr = tab_2324.nr AND tab_2325.producer = tab_2324.producer AND tab_2325.nr = tab_2324.nr AND tab_2329.countryType = 122 AND tab_2326.country = tab_2329.country UNION SELECT tab_1894.label, tab_1894.propertyNum1, tab_1892.country FROM CountryType AS tab_1895, PRODUCT AS tab_1891, Producer AS tab_1892, PRODUCTTYPEPRODUCT AS tab_1890, Product AS tab_1894, Product AS tab_1893 WHERE tab_1890.producttype = 71 AND tab_1890.product = tab_1891.nr AND tab_1894.producer = tab_1891.producer AND tab_1894.nr = tab_1891.nr AND tab_1893.producer = tab_1892.nr AND tab_1894.producer = tab_1893.producer AND tab_1894.nr = tab_1893.nr AND tab_1891.producer = tab_1893.producer AND tab_1891.nr = tab_1893.nr AND tab_1895.countryType = 111 AND tab_1892.country = tab_1895.country UNION SELECT tab_1222.label, tab_1222.propertyNum2, tab_1220.country FROM Product AS tab_1221, PRODUCTTYPEPRODUCT AS tab_1218, CountryType AS tab_1223, Producer AS tab_1220, PRODUCT AS tab_1219, Product AS tab_1222 WHERE tab_1218.producttype = 58 AND tab_1218.product = tab_1219.nr AND tab_1222.producer = tab_1219.producer AND tab_1222.nr = tab_1219.nr AND tab_1221.producer = tab_1220.nr AND tab_1222.producer = tab_1221.producer AND tab_1222.nr = tab_1221.nr AND tab_1219.producer = tab_1221.producer AND tab_1219.nr = tab_1221.nr AND tab_1223.countryType = 121 AND tab_1220.country = tab_1223.country UNION SELECT tab_1722.label, tab_1722.propertyNum1, tab_1726.country FROM PRODUCT AS tab_1724, Producer AS tab_1726, PRODUCTTYPEPRODUCT AS tab_1723, Product AS tab_1725, Product AS tab_1722, CountryType AS tab_1727 WHERE tab_1723.producttype = 69 AND tab_1723.product = tab_1724.nr AND tab_1722.producer = tab_1724.producer AND tab_1722.nr = tab_1724.nr AND tab_1725.producer = tab_1726.nr AND tab_1722.producer = tab_1725.producer AND tab_1722.nr = tab_1725.nr AND tab_1724.producer = tab_1725.producer AND tab_1724.nr = tab_1725.nr AND tab_1727.countryType = 121 AND tab_1726.country = tab_1727.country UNION SELECT tab_1611.label, tab_1611.propertyNum1, tab_1612.country FROM Producer AS tab_1612, PRODUCT AS tab_1614, PRODUCTTYPEPRODUCT AS tab_1613, Product AS tab_1611, Product AS tab_1610, CountryType AS tab_1615 WHERE tab_1613.producttype = 68 AND tab_1613.product = tab_1614.nr AND tab_1611.producer = tab_1614.producer AND tab_1611.nr = tab_1614.nr AND tab_1610.producer = tab_1612.nr AND tab_1611.producer = tab_1610.producer AND tab_1611.nr = tab_1610.nr AND tab_1614.producer = tab_1610.producer AND tab_1614.nr = tab_1610.nr AND tab_1615.countryType = 121 AND tab_1612.country = tab_1615.country UNION SELECT tab_969.label, tab_969.propertyNum1, tab_966.country FROM Product AS tab_967, Producer AS tab_966, CountryType AS tab_971, Product AS tab_969, PRODUCT AS tab_970, PRODUCTTYPEPRODUCT AS tab_968 WHERE tab_968.producttype = 56 AND tab_968.product = tab_970.nr AND tab_969.producer = tab_970.producer AND tab_969.nr = tab_970.nr AND tab_967.producer = tab_966.nr AND tab_969.producer = tab_967.producer AND tab_969.nr = tab_967.nr AND tab_970.producer = tab_967.producer AND tab_970.nr = tab_967.nr AND tab_971.countryType = 111 AND tab_966.country = tab_971.country UNION SELECT tab_1148.label, tab_1148.propertyNum2, tab_1150.country FROM PRODUCT AS tab_1149, Product AS tab_1152, Producer AS tab_1150, PRODUCTTYPEPRODUCT AS tab_1151, CountryType AS tab_1153, Product AS tab_1148 WHERE tab_1151.producttype = 70 AND tab_1151.product = tab_1149.nr AND tab_1148.producer = tab_1149.producer AND tab_1148.nr = tab_1149.nr AND tab_1152.producer = tab_1150.nr AND tab_1148.producer = tab_1152.producer AND tab_1148.nr = tab_1152.nr AND tab_1149.producer = tab_1152.producer AND tab_1149.nr = tab_1152.nr AND tab_1153.countryType = 112 AND tab_1150.country = tab_1153.country UNION SELECT tab_2452.label, tab_2452.propertyNum2, tab_2450.country FROM PRODUCT AS tab_2454, CountryType AS tab_2455, Producer AS tab_2450, Product AS tab_2452, PRODUCTTYPEPRODUCT AS tab_2451, Product AS tab_2453 WHERE tab_2451.producttype = 60 AND tab_2451.product = tab_2454.nr AND tab_2452.producer = tab_2454.producer AND tab_2452.nr = tab_2454.nr AND tab_2453.producer = tab_2450.nr AND tab_2452.producer = tab_2453.producer AND tab_2452.nr = tab_2453.nr AND tab_2454.producer = tab_2453.producer AND tab_2454.nr = tab_2453.nr AND tab_2455.countryType = 111 AND tab_2450.country = tab_2455.country UNION SELECT tab_2089.label, tab_2089.propertyNum2, tab_2087.country FROM CountryType AS tab_2091, Product AS tab_2090, Producer AS tab_2087, PRODUCT AS tab_2086, PRODUCTTYPEPRODUCT AS tab_2088, Product AS tab_2089 WHERE tab_2088.producttype = 64 AND tab_2088.product = tab_2086.nr AND tab_2089.producer = tab_2086.producer AND tab_2089.nr = tab_2086.nr AND tab_2090.producer = tab_2087.nr AND tab_2089.producer = tab_2090.producer AND tab_2089.nr = tab_2090.nr AND tab_2086.producer = tab_2090.producer AND tab_2086.nr = tab_2090.nr AND tab_2091.countryType = 122 AND tab_2087.country = tab_2091.country UNION SELECT tab_870.label, tab_870.propertyNum2, tab_871.country FROM Producer AS tab_871, CountryType AS tab_873, PRODUCTTYPEPRODUCT AS tab_872, Product AS tab_869, Product AS tab_870, PRODUCT AS tab_868 WHERE tab_872.producttype = 61 AND tab_872.product = tab_868.nr AND tab_870.producer = tab_868.producer AND tab_870.nr = tab_868.nr AND tab_869.producer = tab_871.nr AND tab_870.producer = tab_869.producer AND tab_870.nr = tab_869.nr AND tab_868.producer = tab_869.producer AND tab_868.nr = tab_869.nr AND tab_873.countryType = 121 AND tab_871.country = tab_873.country UNION SELECT tab_1666.label, tab_1666.propertyNum1, tab_1670.country FROM PRODUCT AS tab_1668, PRODUCTTYPEPRODUCT AS tab_1667, Product AS tab_1669, CountryType AS tab_1671, Producer AS tab_1670, Product AS tab_1666 WHERE tab_1667.producttype = 70 AND tab_1667.product = tab_1668.nr AND tab_1666.producer = tab_1668.producer AND tab_1666.nr = tab_1668.nr AND tab_1669.producer = tab_1670.nr AND tab_1666.producer = tab_1669.producer AND tab_1666.nr = tab_1669.nr AND tab_1668.producer = tab_1669.producer AND tab_1668.nr = tab_1669.nr AND tab_1671.countryType = 121 AND tab_1670.country = tab_1671.country UNION SELECT tab_2242.label, tab_2242.propertyNum1, tab_2240.country FROM CountryType AS tab_2245, Producer AS tab_2240, PRODUCTTYPEPRODUCT AS tab_2241, PRODUCT AS tab_2243, Product AS tab_2242, Product AS tab_2244 WHERE tab_2241.producttype = 62 AND tab_2241.product = tab_2243.nr AND tab_2242.producer = tab_2243.producer AND tab_2242.nr = tab_2243.nr AND tab_2244.producer = tab_2240.nr AND tab_2242.producer = tab_2244.producer AND tab_2242.nr = tab_2244.nr AND tab_2243.producer = tab_2244.producer AND tab_2243.nr = tab_2244.nr AND tab_2245.countryType = 112 AND tab_2240.country = tab_2245.country UNION SELECT tab_1276.label, tab_1276.propertyNum1, tab_1277.country FROM Product AS tab_1276, Product AS tab_1275, CountryType AS tab_1279, PRODUCT AS tab_1278, Producer AS tab_1277, PRODUCTTYPEPRODUCT AS tab_1274 WHERE tab_1274.producttype = 60 AND tab_1274.product = tab_1278.nr AND tab_1276.producer = tab_1278.producer AND tab_1276.nr = tab_1278.nr AND tab_1275.producer = tab_1277.nr AND tab_1276.producer = tab_1275.producer AND tab_1276.nr = tab_1275.nr AND tab_1278.producer = tab_1275.producer AND tab_1278.nr = tab_1275.nr AND tab_1279.countryType = 121 AND tab_1277.country = tab_1279.country UNION SELECT tab_1345.label, tab_1345.propertyNum2, tab_1347.country FROM CountryType AS tab_1349, PRODUCTTYPEPRODUCT AS tab_1348, PRODUCT AS tab_1346, Product AS tab_1345, Product AS tab_1344, Producer AS tab_1347 WHERE tab_1348.producttype = 62 AND tab_1348.product = tab_1346.nr AND tab_1345.producer = tab_1346.producer AND tab_1345.nr = tab_1346.nr AND tab_1344.producer = tab_1347.nr AND tab_1345.producer = tab_1344.producer AND tab_1345.nr = tab_1344.nr AND tab_1346.producer = tab_1344.producer AND tab_1346.nr = tab_1344.nr AND tab_1349.countryType = 111 AND tab_1347.country = tab_1349.country UNION SELECT tab_856.label, tab_856.propertyNum1, tab_854.country FROM Producer AS tab_854, Product AS tab_856, Product AS tab_858, PRODUCTTYPEPRODUCT AS tab_857, CountryType AS tab_859, PRODUCT AS tab_855 WHERE tab_857.producttype = 65 AND tab_857.product = tab_855.nr AND tab_856.producer = tab_855.producer AND tab_856.nr = tab_855.nr AND tab_858.producer = tab_854.nr AND tab_856.producer = tab_858.producer AND tab_856.nr = tab_858.nr AND tab_855.producer = tab_858.producer AND tab_855.nr = tab_858.nr AND tab_859.countryType = 121 AND tab_854.country = tab_859.country UNION SELECT tab_2256.label, tab_2256.propertyNum1, tab_2255.country FROM Product AS tab_2256, Product AS tab_2257, CountryType AS tab_2259, PRODUCT AS tab_2258, Producer AS tab_2255, PRODUCTTYPEPRODUCT AS tab_2254 WHERE tab_2254.producttype = 59 AND tab_2254.product = tab_2258.nr AND tab_2256.producer = tab_2258.producer AND tab_2256.nr = tab_2258.nr AND tab_2257.producer = tab_2255.nr AND tab_2256.producer = tab_2257.producer AND tab_2256.nr = tab_2257.nr AND tab_2258.producer = tab_2257.producer AND tab_2258.nr = tab_2257.nr AND tab_2259.countryType = 112 AND tab_2255.country = tab_2259.country UNION SELECT tab_1456.label, tab_1456.propertyNum1, tab_1458.country FROM PRODUCT AS tab_1457, Producer AS tab_1458, Product AS tab_1460, PRODUCTTYPEPRODUCT AS tab_1459, CountryType AS tab_1461, Product AS tab_1456 WHERE tab_1459.producttype = 60 AND tab_1459.product = tab_1457.nr AND tab_1456.producer = tab_1457.producer AND tab_1456.nr = tab_1457.nr AND tab_1460.producer = tab_1458.nr AND tab_1456.producer = tab_1460.producer AND tab_1456.nr = tab_1460.nr AND tab_1457.producer = tab_1460.producer AND tab_1457.nr = tab_1460.nr AND tab_1461.countryType = 122 AND tab_1458.country = tab_1461.country UNION SELECT tab_1376.label, tab_1376.propertyNum2, tab_1375.country FROM Product AS tab_1374, CountryType AS tab_1377, PRODUCTTYPEPRODUCT AS tab_1372, PRODUCT AS tab_1373, Producer AS tab_1375, Product AS tab_1376 WHERE tab_1372.producttype = 57 AND tab_1372.product = tab_1373.nr AND tab_1376.producer = tab_1373.producer AND tab_1376.nr = tab_1373.nr AND tab_1374.producer = tab_1375.nr AND tab_1376.producer = tab_1374.producer AND tab_1376.nr = tab_1374.nr AND tab_1373.producer = tab_1374.producer AND tab_1373.nr = tab_1374.nr AND tab_1377.countryType = 121 AND tab_1375.country = tab_1377.country UNION SELECT tab_2384.label, tab_2384.propertyNum1, tab_2382.country FROM Producer AS tab_2382, Product AS tab_2380, PRODUCTTYPEPRODUCT AS tab_2383, CountryType AS tab_2385, PRODUCT AS tab_2381, Product AS tab_2384 WHERE tab_2383.producttype = 56 AND tab_2383.product = tab_2381.nr AND tab_2384.producer = tab_2381.producer AND tab_2384.nr = tab_2381.nr AND tab_2380.producer = tab_2382.nr AND tab_2384.producer = tab_2380.producer AND tab_2384.nr = tab_2380.nr AND tab_2381.producer = tab_2380.producer AND tab_2381.nr = tab_2380.nr AND tab_2385.countryType = 121 AND tab_2382.country = tab_2385.country", color = blue] ; 
0 -> 1 ; 
}

