digraph  g{ graph[label = "0:5:51.468"]
node [shape=rectangle, color=black, fontcolor=black, style=bold] edge [color=black] 0 [label="HashDistinct", color = yellow] ; 
1 [label="Union", color = yellow] ; 
0 -> 1 ; 
2 [label="BindAccessEval", color = yellow] ; 
1 -> 2 ; 
3 [label="BindAccessEval", color = yellow] ; 
2 -> 3 ; 
4 [label="SQLQuery
SELECT O.nr, O.vendor, P.propertyNum4 
FROM Offer AS O, Product AS P, Producer AS PR, PRODUCTTYPEPRODUCT AS PTP  
WHERE P.nr = O.product AND PR.nr = P.producer AND P.nr = PTP.product AND PTP.producttype=110
648", color = yellow] ; 
3 -> 4 ; 
5 [label="FunctionCallBindAccess
(<http://www4.wiwiss.fu-berlin.de/bizer/bsbm/v01/instances/dataFromVendor{1}/Offer{0}>, \"{2}\")", color = yellow] ; 
3 -> 5 ; 
6 [label="FunctionCallBindAccess
AddConstant{1=(\"<http://www4.wiwiss.fu-berlin.de/bizer/bsbm/v01/vocabulary/productPropertyNumeric>\")}", color = yellow] ; 
2 -> 6 ; 
8 [label="BindAccessEval", color = yellow] ; 
1 -> 8 ; 
9 [label="BindAccessEval", color = yellow] ; 
8 -> 9 ; 
10 [label="SQLQuery
SELECT O.nr, O.vendor, P.propertyNum3 
FROM Offer AS O, Product AS P, Producer AS PR, PRODUCTTYPEPRODUCT AS PTP  
WHERE P.nr = O.product AND PR.nr = P.producer AND P.nr = PTP.product AND PTP.producttype=110
648", color = yellow] ; 
9 -> 10 ; 
11 [label="FunctionCallBindAccess
(<http://www4.wiwiss.fu-berlin.de/bizer/bsbm/v01/instances/dataFromVendor{1}/Offer{0}>, \"{2}\")", color = yellow] ; 
9 -> 11 ; 
12 [label="FunctionCallBindAccess
AddConstant{1=(\"<http://www4.wiwiss.fu-berlin.de/bizer/bsbm/v01/vocabulary/productPropertyNumeric>\")}", color = yellow] ; 
8 -> 12 ; 
14 [label="BindAccessEval", color = yellow] ; 
1 -> 14 ; 
15 [label="BindAccessEval", color = yellow] ; 
14 -> 15 ; 
16 [label="Project
[3, 6, 2]", color = yellow] ; 
15 -> 16 ; 
17 [label="RightBindJoin 
[[1, 0]]
648", color = yellow] ; 
16 -> 17 ; 
18 [label="SQLQuery
SELECT tab_1456.nr, tab_1456.producer, tab_1458.propertyNum1 
FROM PRODUCTTYPEPRODUCT AS tab_1457, PRODUCT AS tab_1456, Product AS tab_1458  
WHERE tab_1457.producttype = 110 AND tab_1457.product = tab_1456.nr AND tab_1456.producer = tab_1458.producer AND tab_1456.nr = tab_1458.nr
30", color = yellow] ; 
17 -> 18 ; 
19 [label="PhyMongoDBEval
offer
[{ \"$match\": { \"producer\": %s, \"product\": %s } }]
[nr, product, producer, vendor]
648", color = yellow] ; 
17 -> 19 ; 
20 [label="FunctionCallBindAccess
(<http://www4.wiwiss.fu-berlin.de/bizer/bsbm/v01/instances/dataFromVendor{1}/Offer{0}>, \"{2}\")", color = yellow] ; 
15 -> 20 ; 
21 [label="FunctionCallBindAccess
AddConstant{1=(\"<http://www4.wiwiss.fu-berlin.de/bizer/bsbm/v01/vocabulary/productPropertyNumeric>\")}", color = yellow] ; 
14 -> 21 ; 
23 [label="BindAccessEval", color = yellow] ; 
1 -> 23 ; 
24 [label="BindAccessEval", color = yellow] ; 
23 -> 24 ; 
25 [label="Project
[3, 6, 2]", color = yellow] ; 
24 -> 25 ; 
26 [label="RightBindJoin 
[[1, 0]]
648", color = yellow] ; 
25 -> 26 ; 
27 [label="SQLQuery
SELECT tab_1459.nr, tab_1459.producer, tab_1461.propertyNum2 
FROM PRODUCT AS tab_1459, Product AS tab_1461, PRODUCTTYPEPRODUCT AS tab_1460  
WHERE tab_1460.producttype = 110 AND tab_1460.product = tab_1459.nr AND tab_1459.producer = tab_1461.producer AND tab_1459.nr = tab_1461.nr
30", color = yellow] ; 
26 -> 27 ; 
28 [label="PhyMongoDBEval
offer
[{ \"$match\": { \"producer\": %s, \"product\": %s } }]
[nr, product, producer, vendor]
648", color = yellow] ; 
26 -> 28 ; 
29 [label="FunctionCallBindAccess
(<http://www4.wiwiss.fu-berlin.de/bizer/bsbm/v01/instances/dataFromVendor{1}/Offer{0}>, \"{2}\")", color = yellow] ; 
24 -> 29 ; 
30 [label="FunctionCallBindAccess
AddConstant{1=(\"<http://www4.wiwiss.fu-berlin.de/bizer/bsbm/v01/vocabulary/productPropertyNumeric>\")}", color = yellow] ; 
23 -> 30 ; 
32 [label="BindAccessEval", color = yellow] ; 
1 -> 32 ; 
33 [label="BindAccessEval", color = yellow] ; 
32 -> 33 ; 
34 [label="SQLQuery
SELECT O.nr, O.vendor, P.propertyNum4 
FROM Offer AS O, Product AS P, Producer AS PR, PRODUCTTYPEPRODUCT AS PTP  
WHERE P.nr = O.product AND PR.nr = P.producer AND P.nr = PTP.product AND PTP.producttype=110
648", color = yellow] ; 
33 -> 34 ; 
35 [label="FunctionCallBindAccess
(<http://www4.wiwiss.fu-berlin.de/bizer/bsbm/v01/instances/dataFromVendor{1}/Offer{0}>, \"{2}\")", color = yellow] ; 
33 -> 35 ; 
36 [label="FunctionCallBindAccess
AddConstant{1=(\"<http://www4.wiwiss.fu-berlin.de/bizer/bsbm/v01/vocabulary/productPropertyNumeric4>\")}", color = yellow] ; 
32 -> 36 ; 
38 [label="BindAccessEval", color = yellow] ; 
1 -> 38 ; 
39 [label="BindAccessEval", color = yellow] ; 
38 -> 39 ; 
40 [label="SQLQuery
SELECT O.nr, O.vendor, P.propertyNum3 
FROM Offer AS O, Product AS P, Producer AS PR, PRODUCTTYPEPRODUCT AS PTP  
WHERE P.nr = O.product AND PR.nr = P.producer AND P.nr = PTP.product AND PTP.producttype=110
648", color = yellow] ; 
39 -> 40 ; 
41 [label="FunctionCallBindAccess
(<http://www4.wiwiss.fu-berlin.de/bizer/bsbm/v01/instances/dataFromVendor{1}/Offer{0}>, \"{2}\")", color = yellow] ; 
39 -> 41 ; 
42 [label="FunctionCallBindAccess
AddConstant{1=(\"<http://www4.wiwiss.fu-berlin.de/bizer/bsbm/v01/vocabulary/productPropertyNumeric3>\")}", color = yellow] ; 
38 -> 42 ; 
44 [label="BindAccessEval", color = yellow] ; 
1 -> 44 ; 
45 [label="BindAccessEval", color = yellow] ; 
44 -> 45 ; 
46 [label="Project
[3, 6, 2]", color = yellow] ; 
45 -> 46 ; 
47 [label="RightBindJoin 
[[1, 0]]
648", color = yellow] ; 
46 -> 47 ; 
48 [label="SQLQuery
SELECT tab_1462.nr, tab_1462.producer, tab_1464.propertyNum2 
FROM PRODUCT AS tab_1462, PRODUCTTYPEPRODUCT AS tab_1463, Product AS tab_1464  
WHERE tab_1463.producttype = 110 AND tab_1463.product = tab_1462.nr AND tab_1462.producer = tab_1464.producer AND tab_1462.nr = tab_1464.nr
30", color = yellow] ; 
47 -> 48 ; 
49 [label="PhyMongoDBEval
offer
[{ \"$match\": { \"producer\": %s, \"product\": %s } }]
[nr, product, producer, vendor]
648", color = yellow] ; 
47 -> 49 ; 
50 [label="FunctionCallBindAccess
(<http://www4.wiwiss.fu-berlin.de/bizer/bsbm/v01/instances/dataFromVendor{1}/Offer{0}>, \"{2}\")", color = yellow] ; 
45 -> 50 ; 
51 [label="FunctionCallBindAccess
AddConstant{1=(\"<http://www4.wiwiss.fu-berlin.de/bizer/bsbm/v01/vocabulary/productPropertyNumeric2>\")}", color = yellow] ; 
44 -> 51 ; 
53 [label="BindAccessEval", color = yellow] ; 
1 -> 53 ; 
54 [label="BindAccessEval", color = yellow] ; 
53 -> 54 ; 
55 [label="Project
[3, 6, 2]", color = yellow] ; 
54 -> 55 ; 
56 [label="RightBindJoin 
[[0, 1]]
648", color = yellow] ; 
55 -> 56 ; 
57 [label="SQLQuery
SELECT tab_1465.nr, tab_1465.producer, tab_1467.propertyNum1 
FROM PRODUCTTYPEPRODUCT AS tab_1466, PRODUCT AS tab_1465, Product AS tab_1467  
WHERE tab_1466.producttype = 110 AND tab_1466.product = tab_1465.nr AND tab_1465.nr = tab_1467.nr AND tab_1465.producer = tab_1467.producer
30", color = yellow] ; 
56 -> 57 ; 
58 [label="PhyMongoDBEval
offer
[{ \"$match\": { \"product\": %s, \"producer\": %s } }]
[nr, product, producer, vendor]
648", color = yellow] ; 
56 -> 58 ; 
59 [label="FunctionCallBindAccess
(<http://www4.wiwiss.fu-berlin.de/bizer/bsbm/v01/instances/dataFromVendor{1}/Offer{0}>, \"{2}\")", color = yellow] ; 
54 -> 59 ; 
60 [label="FunctionCallBindAccess
AddConstant{1=(\"<http://www4.wiwiss.fu-berlin.de/bizer/bsbm/v01/vocabulary/productPropertyNumeric1>\")}", color = yellow] ; 
53 -> 60 ; 
62 [label="BindAccessEval", color = yellow] ; 
1 -> 62 ; 
63 [label="BindAccessEval", color = yellow] ; 
62 -> 63 ; 
64 [label="Project
[3, 6, 2]", color = yellow] ; 
63 -> 64 ; 
65 [label="RightBindJoin 
[[0, 1]]
648", color = yellow] ; 
64 -> 65 ; 
66 [label="SQLQuery
SELECT tab_1468.nr, tab_1468.producer, tab_1470.producer 
FROM PRODUCT AS tab_1468, Product AS tab_1470, PRODUCTTYPEPRODUCT AS tab_1469  
WHERE tab_1469.producttype = 110 AND tab_1469.product = tab_1468.nr AND tab_1468.nr = tab_1470.nr AND tab_1468.producer = tab_1470.producer
30", color = yellow] ; 
65 -> 66 ; 
67 [label="PhyMongoDBEval
offer
[{ \"$match\": { \"product\": %s, \"producer\": %s } }]
[nr, product, producer, vendor]
648", color = yellow] ; 
65 -> 67 ; 
68 [label="FunctionCallBindAccess
(<http://www4.wiwiss.fu-berlin.de/bizer/bsbm/v01/instances/dataFromVendor{1}/Offer{0}>, <http://www4.wiwiss.fu-berlin.de/bizer/bsbm/v01/instances/dataFromProducer{2}/Producer{2}>)", color = yellow] ; 
63 -> 68 ; 
69 [label="FunctionCallBindAccess
AddConstant{1=(\"<http://www4.wiwiss.fu-berlin.de/bizer/bsbm/v01/vocabulary/producer>\")}", color = yellow] ; 
62 -> 69 ; 
71 [label="BindAccessEval", color = yellow] ; 
1 -> 71 ; 
72 [label="BindAccessEval", color = yellow] ; 
71 -> 72 ; 
73 [label="Project
[3, 6, 2]", color = yellow] ; 
72 -> 73 ; 
74 [label="RightBindJoin 
[[1, 0]]
648", color = yellow] ; 
73 -> 74 ; 
75 [label="SQLQuery
SELECT tab_1471.nr, tab_1471.producer, tab_1473.propertyTex6 
FROM Product AS tab_1473, PRODUCT AS tab_1471, PRODUCTTYPEPRODUCT AS tab_1472  
WHERE tab_1472.producttype = 110 AND tab_1472.product = tab_1471.nr AND tab_1471.nr = tab_1473.nr AND tab_1471.producer = tab_1473.producer
30", color = yellow] ; 
74 -> 75 ; 
76 [label="PhyMongoDBEval
offer
[{ \"$match\": { \"producer\": %s, \"product\": %s } }]
[nr, product, producer, vendor]
648", color = yellow] ; 
74 -> 76 ; 
77 [label="FunctionCallBindAccess
(<http://www4.wiwiss.fu-berlin.de/bizer/bsbm/v01/instances/dataFromVendor{1}/Offer{0}>, \"{2}\")", color = yellow] ; 
72 -> 77 ; 
78 [label="FunctionCallBindAccess
AddConstant{1=(\"<http://www4.wiwiss.fu-berlin.de/bizer/bsbm/v01/vocabulary/productPropertyTextual6>\")}", color = yellow] ; 
71 -> 78 ; 
80 [label="BindAccessEval", color = yellow] ; 
1 -> 80 ; 
81 [label="BindAccessEval", color = yellow] ; 
80 -> 81 ; 
82 [label="Project
[3, 6, 2]", color = yellow] ; 
81 -> 82 ; 
83 [label="RightBindJoin 
[[0, 1]]
648", color = yellow] ; 
82 -> 83 ; 
84 [label="SQLQuery
SELECT tab_1474.nr, tab_1474.producer, tab_1476.propertyTex5 
FROM PRODUCT AS tab_1474, PRODUCTTYPEPRODUCT AS tab_1475, Product AS tab_1476  
WHERE tab_1475.producttype = 110 AND tab_1475.product = tab_1474.nr AND tab_1474.producer = tab_1476.producer AND tab_1474.nr = tab_1476.nr
30", color = yellow] ; 
83 -> 84 ; 
85 [label="PhyMongoDBEval
offer
[{ \"$match\": { \"product\": %s, \"producer\": %s } }]
[nr, product, producer, vendor]
648", color = yellow] ; 
83 -> 85 ; 
86 [label="FunctionCallBindAccess
(<http://www4.wiwiss.fu-berlin.de/bizer/bsbm/v01/instances/dataFromVendor{1}/Offer{0}>, \"{2}\")", color = yellow] ; 
81 -> 86 ; 
87 [label="FunctionCallBindAccess
AddConstant{1=(\"<http://www4.wiwiss.fu-berlin.de/bizer/bsbm/v01/vocabulary/productPropertyTextual5>\")}", color = yellow] ; 
80 -> 87 ; 
89 [label="BindAccessEval", color = yellow] ; 
1 -> 89 ; 
90 [label="BindAccessEval", color = yellow] ; 
89 -> 90 ; 
91 [label="Project
[3, 6, 2]", color = yellow] ; 
90 -> 91 ; 
92 [label="RightBindJoin 
[[0, 1]]
648", color = yellow] ; 
91 -> 92 ; 
93 [label="SQLQuery
SELECT tab_1477.nr, tab_1477.producer, tab_1479.propertyTex4 
FROM PRODUCTTYPEPRODUCT AS tab_1478, PRODUCT AS tab_1477, Product AS tab_1479  
WHERE tab_1478.producttype = 110 AND tab_1478.product = tab_1477.nr AND tab_1477.producer = tab_1479.producer AND tab_1477.nr = tab_1479.nr
30", color = yellow] ; 
92 -> 93 ; 
94 [label="PhyMongoDBEval
offer
[{ \"$match\": { \"product\": %s, \"producer\": %s } }]
[nr, product, producer, vendor]
648", color = yellow] ; 
92 -> 94 ; 
95 [label="FunctionCallBindAccess
(<http://www4.wiwiss.fu-berlin.de/bizer/bsbm/v01/instances/dataFromVendor{1}/Offer{0}>, \"{2}\")", color = yellow] ; 
90 -> 95 ; 
96 [label="FunctionCallBindAccess
AddConstant{1=(\"<http://www4.wiwiss.fu-berlin.de/bizer/bsbm/v01/vocabulary/productPropertyTextual4>\")}", color = yellow] ; 
89 -> 96 ; 
98 [label="BindAccessEval", color = yellow] ; 
1 -> 98 ; 
99 [label="BindAccessEval", color = yellow] ; 
98 -> 99 ; 
100 [label="Project
[3, 6, 2]", color = yellow] ; 
99 -> 100 ; 
101 [label="RightBindJoin 
[[0, 1]]
648", color = yellow] ; 
100 -> 101 ; 
102 [label="SQLQuery
SELECT tab_1480.nr, tab_1480.producer, tab_1482.propertyTex3 
FROM Product AS tab_1482, PRODUCTTYPEPRODUCT AS tab_1481, PRODUCT AS tab_1480  
WHERE tab_1481.producttype = 110 AND tab_1481.product = tab_1480.nr AND tab_1480.nr = tab_1482.nr AND tab_1480.producer = tab_1482.producer
30", color = yellow] ; 
101 -> 102 ; 
103 [label="PhyMongoDBEval
offer
[{ \"$match\": { \"product\": %s, \"producer\": %s } }]
[nr, product, producer, vendor]
648", color = yellow] ; 
101 -> 103 ; 
104 [label="FunctionCallBindAccess
(<http://www4.wiwiss.fu-berlin.de/bizer/bsbm/v01/instances/dataFromVendor{1}/Offer{0}>, \"{2}\")", color = yellow] ; 
99 -> 104 ; 
105 [label="FunctionCallBindAccess
AddConstant{1=(\"<http://www4.wiwiss.fu-berlin.de/bizer/bsbm/v01/vocabulary/productPropertyTextual3>\")}", color = yellow] ; 
98 -> 105 ; 
107 [label="BindAccessEval", color = yellow] ; 
1 -> 107 ; 
108 [label="BindAccessEval", color = yellow] ; 
107 -> 108 ; 
109 [label="Project
[3, 6, 2]", color = yellow] ; 
108 -> 109 ; 
110 [label="RightBindJoin 
[[1, 0]]
648", color = yellow] ; 
109 -> 110 ; 
111 [label="SQLQuery
SELECT tab_1483.nr, tab_1483.producer, tab_1485.propertyTex2 
FROM Product AS tab_1485, PRODUCT AS tab_1483, PRODUCTTYPEPRODUCT AS tab_1484  
WHERE tab_1484.producttype = 110 AND tab_1484.product = tab_1483.nr AND tab_1483.producer = tab_1485.producer AND tab_1483.nr = tab_1485.nr
30", color = yellow] ; 
110 -> 111 ; 
112 [label="PhyMongoDBEval
offer
[{ \"$match\": { \"producer\": %s, \"product\": %s } }]
[nr, product, producer, vendor]
648", color = yellow] ; 
110 -> 112 ; 
113 [label="FunctionCallBindAccess
(<http://www4.wiwiss.fu-berlin.de/bizer/bsbm/v01/instances/dataFromVendor{1}/Offer{0}>, \"{2}\")", color = yellow] ; 
108 -> 113 ; 
114 [label="FunctionCallBindAccess
AddConstant{1=(\"<http://www4.wiwiss.fu-berlin.de/bizer/bsbm/v01/vocabulary/productPropertyTextual2>\")}", color = yellow] ; 
107 -> 114 ; 
116 [label="BindAccessEval", color = yellow] ; 
1 -> 116 ; 
117 [label="BindAccessEval", color = yellow] ; 
116 -> 117 ; 
118 [label="Project
[3, 6, 2]", color = yellow] ; 
117 -> 118 ; 
119 [label="RightBindJoin 
[[1, 0]]
648", color = yellow] ; 
118 -> 119 ; 
120 [label="SQLQuery
SELECT tab_1486.nr, tab_1486.producer, tab_1488.propertyTex1 
FROM PRODUCTTYPEPRODUCT AS tab_1487, PRODUCT AS tab_1486, Product AS tab_1488  
WHERE tab_1487.producttype = 110 AND tab_1487.product = tab_1486.nr AND tab_1486.producer = tab_1488.producer AND tab_1486.nr = tab_1488.nr
30", color = yellow] ; 
119 -> 120 ; 
121 [label="PhyMongoDBEval
offer
[{ \"$match\": { \"producer\": %s, \"product\": %s } }]
[nr, product, producer, vendor]
648", color = yellow] ; 
119 -> 121 ; 
122 [label="FunctionCallBindAccess
(<http://www4.wiwiss.fu-berlin.de/bizer/bsbm/v01/instances/dataFromVendor{1}/Offer{0}>, \"{2}\")", color = yellow] ; 
117 -> 122 ; 
123 [label="FunctionCallBindAccess
AddConstant{1=(\"<http://www4.wiwiss.fu-berlin.de/bizer/bsbm/v01/vocabulary/productPropertyTextual1>\")}", color = yellow] ; 
116 -> 123 ; 
125 [label="BindAccessEval", color = yellow] ; 
1 -> 125 ; 
126 [label="BindAccessEval", color = yellow] ; 
125 -> 126 ; 
127 [label="Project
[3, 6, 2]", color = yellow] ; 
126 -> 127 ; 
128 [label="RightBindJoin 
[[1, 0]]
648", color = yellow] ; 
127 -> 128 ; 
129 [label="SQLQuery
SELECT tab_1489.nr, tab_1489.producer, tab_1491.propertyTex3 
FROM Product AS tab_1491, PRODUCT AS tab_1489, PRODUCTTYPEPRODUCT AS tab_1490  
WHERE tab_1490.producttype = 110 AND tab_1490.product = tab_1489.nr AND tab_1489.nr = tab_1491.nr AND tab_1489.producer = tab_1491.producer
30", color = yellow] ; 
128 -> 129 ; 
130 [label="PhyMongoDBEval
offer
[{ \"$match\": { \"producer\": %s, \"product\": %s } }]
[nr, product, producer, vendor]
648", color = yellow] ; 
128 -> 130 ; 
131 [label="FunctionCallBindAccess
(<http://www4.wiwiss.fu-berlin.de/bizer/bsbm/v01/instances/dataFromVendor{1}/Offer{0}>, \"{2}\")", color = yellow] ; 
126 -> 131 ; 
132 [label="FunctionCallBindAccess
AddConstant{1=(\"<http://www4.wiwiss.fu-berlin.de/bizer/bsbm/v01/vocabulary/productPropertyTextual>\")}", color = yellow] ; 
125 -> 132 ; 
134 [label="BindAccessEval", color = yellow] ; 
1 -> 134 ; 
135 [label="BindAccessEval", color = yellow] ; 
134 -> 135 ; 
136 [label="Project
[3, 6, 2]", color = yellow] ; 
135 -> 136 ; 
137 [label="RightBindJoin 
[[1, 0]]
648", color = yellow] ; 
136 -> 137 ; 
138 [label="SQLQuery
SELECT tab_1492.nr, tab_1492.producer, tab_1494.propertyTex4 
FROM Product AS tab_1494, PRODUCTTYPEPRODUCT AS tab_1493, PRODUCT AS tab_1492  
WHERE tab_1493.producttype = 110 AND tab_1493.product = tab_1492.nr AND tab_1492.producer = tab_1494.producer AND tab_1492.nr = tab_1494.nr
30", color = yellow] ; 
137 -> 138 ; 
139 [label="PhyMongoDBEval
offer
[{ \"$match\": { \"producer\": %s, \"product\": %s } }]
[nr, product, producer, vendor]
648", color = yellow] ; 
137 -> 139 ; 
140 [label="FunctionCallBindAccess
(<http://www4.wiwiss.fu-berlin.de/bizer/bsbm/v01/instances/dataFromVendor{1}/Offer{0}>, \"{2}\")", color = yellow] ; 
135 -> 140 ; 
141 [label="FunctionCallBindAccess
AddConstant{1=(\"<http://www4.wiwiss.fu-berlin.de/bizer/bsbm/v01/vocabulary/productPropertyTextual>\")}", color = yellow] ; 
134 -> 141 ; 
143 [label="BindAccessEval", color = yellow] ; 
1 -> 143 ; 
144 [label="BindAccessEval", color = yellow] ; 
143 -> 144 ; 
145 [label="Project
[3, 6, 2]", color = yellow] ; 
144 -> 145 ; 
146 [label="RightBindJoin 
[[1, 0]]
648", color = yellow] ; 
145 -> 146 ; 
147 [label="SQLQuery
SELECT tab_1495.nr, tab_1495.producer, tab_1497.propertyTex5 
FROM PRODUCT AS tab_1495, PRODUCTTYPEPRODUCT AS tab_1496, Product AS tab_1497  
WHERE tab_1496.producttype = 110 AND tab_1496.product = tab_1495.nr AND tab_1495.nr = tab_1497.nr AND tab_1495.producer = tab_1497.producer
30", color = yellow] ; 
146 -> 147 ; 
148 [label="PhyMongoDBEval
offer
[{ \"$match\": { \"producer\": %s, \"product\": %s } }]
[nr, product, producer, vendor]
648", color = yellow] ; 
146 -> 148 ; 
149 [label="FunctionCallBindAccess
(<http://www4.wiwiss.fu-berlin.de/bizer/bsbm/v01/instances/dataFromVendor{1}/Offer{0}>, \"{2}\")", color = yellow] ; 
144 -> 149 ; 
150 [label="FunctionCallBindAccess
AddConstant{1=(\"<http://www4.wiwiss.fu-berlin.de/bizer/bsbm/v01/vocabulary/productPropertyTextual>\")}", color = yellow] ; 
143 -> 150 ; 
152 [label="BindAccessEval", color = yellow] ; 
1 -> 152 ; 
153 [label="BindAccessEval", color = yellow] ; 
152 -> 153 ; 
154 [label="Project
[3, 6, 2]", color = yellow] ; 
153 -> 154 ; 
155 [label="RightBindJoin 
[[1, 0]]
648", color = yellow] ; 
154 -> 155 ; 
156 [label="SQLQuery
SELECT tab_1498.nr, tab_1498.producer, tab_1500.propertyTex6 
FROM PRODUCTTYPEPRODUCT AS tab_1499, PRODUCT AS tab_1498, Product AS tab_1500  
WHERE tab_1499.producttype = 110 AND tab_1499.product = tab_1498.nr AND tab_1498.nr = tab_1500.nr AND tab_1498.producer = tab_1500.producer
30", color = yellow] ; 
155 -> 156 ; 
157 [label="PhyMongoDBEval
offer
[{ \"$match\": { \"producer\": %s, \"product\": %s } }]
[nr, product, producer, vendor]
648", color = yellow] ; 
155 -> 157 ; 
158 [label="FunctionCallBindAccess
(<http://www4.wiwiss.fu-berlin.de/bizer/bsbm/v01/instances/dataFromVendor{1}/Offer{0}>, \"{2}\")", color = yellow] ; 
153 -> 158 ; 
159 [label="FunctionCallBindAccess
AddConstant{1=(\"<http://www4.wiwiss.fu-berlin.de/bizer/bsbm/v01/vocabulary/productPropertyTextual>\")}", color = yellow] ; 
152 -> 159 ; 
161 [label="BindAccessEval", color = yellow] ; 
1 -> 161 ; 
162 [label="BindAccessEval", color = yellow] ; 
161 -> 162 ; 
163 [label="Project
[3, 6, 2]", color = yellow] ; 
162 -> 163 ; 
164 [label="RightBindJoin 
[[1, 0]]
648", color = yellow] ; 
163 -> 164 ; 
165 [label="SQLQuery
SELECT tab_1501.nr, tab_1501.producer, tab_1503.propertyTex1 
FROM PRODUCT AS tab_1501, PRODUCTTYPEPRODUCT AS tab_1502, Product AS tab_1503  
WHERE tab_1502.producttype = 110 AND tab_1502.product = tab_1501.nr AND tab_1501.producer = tab_1503.producer AND tab_1501.nr = tab_1503.nr
30", color = yellow] ; 
164 -> 165 ; 
166 [label="PhyMongoDBEval
offer
[{ \"$match\": { \"producer\": %s, \"product\": %s } }]
[nr, product, producer, vendor]
648", color = yellow] ; 
164 -> 166 ; 
167 [label="FunctionCallBindAccess
(<http://www4.wiwiss.fu-berlin.de/bizer/bsbm/v01/instances/dataFromVendor{1}/Offer{0}>, \"{2}\")", color = yellow] ; 
162 -> 167 ; 
168 [label="FunctionCallBindAccess
AddConstant{1=(\"<http://www4.wiwiss.fu-berlin.de/bizer/bsbm/v01/vocabulary/productPropertyTextual>\")}", color = yellow] ; 
161 -> 168 ; 
170 [label="BindAccessEval", color = yellow] ; 
1 -> 170 ; 
171 [label="BindAccessEval", color = yellow] ; 
170 -> 171 ; 
172 [label="Project
[3, 6, 2]", color = yellow] ; 
171 -> 172 ; 
173 [label="RightBindJoin 
[[1, 0]]
648", color = yellow] ; 
172 -> 173 ; 
174 [label="SQLQuery
SELECT tab_1504.nr, tab_1504.producer, tab_1506.propertyTex2 
FROM PRODUCT AS tab_1504, PRODUCTTYPEPRODUCT AS tab_1505, Product AS tab_1506  
WHERE tab_1505.producttype = 110 AND tab_1505.product = tab_1504.nr AND tab_1504.producer = tab_1506.producer AND tab_1504.nr = tab_1506.nr
30", color = yellow] ; 
173 -> 174 ; 
175 [label="PhyMongoDBEval
offer
[{ \"$match\": { \"producer\": %s, \"product\": %s } }]
[nr, product, producer, vendor]
648", color = yellow] ; 
173 -> 175 ; 
176 [label="FunctionCallBindAccess
(<http://www4.wiwiss.fu-berlin.de/bizer/bsbm/v01/instances/dataFromVendor{1}/Offer{0}>, \"{2}\")", color = yellow] ; 
171 -> 176 ; 
177 [label="FunctionCallBindAccess
AddConstant{1=(\"<http://www4.wiwiss.fu-berlin.de/bizer/bsbm/v01/vocabulary/productPropertyTextual>\")}", color = yellow] ; 
170 -> 177 ; 
}

