digraph  g{ graph[label = "15:27:13.657"]
node [shape=rectangle, color=black, fontcolor=black, style=bold] edge [color=black] 0 [label="BindAccessEval", color = yellow] ; 
1 [label="HashDistinct", color = yellow] ; 
0 -> 1 ; 
2 [label="Union", color = yellow] ; 
1 -> 2 ; 
3 [label="Project
[0, 2]", color = yellow] ; 
2 -> 3 ; 
4 [label="HashJoin 
 1PREDICATE_EQUAL3 
0", color = yellow] ; 
3 -> 4 ; 
5 [label="Project
[1, 2]", color = yellow] ; 
4 -> 5 ; 
6 [label="HashJoin 
 0PREDICATE_EQUAL3 
9", color = yellow] ; 
5 -> 6 ; 
7 [label="SQLQuery
SELECT tab_4.nconst, tab_5.primaryname 
FROM swperson AS tab_5, swCasting AS tab_4  
WHERE tab_4.category = 'actor' AND tab_4.nconst = tab_5.nconst
34", color = yellow] ; 
6 -> 7 ; 
8 [label="Project
[0, 2]", color = yellow] ; 
6 -> 8 ; 
9 [label="JENASPARQL
SELECT ?char ?org ?nconst WHERE { ?c <http://www.wikidata.org/prop/P463> ?stat1. ?stat1 <http://www.wikidata.org/prop/statement/P463> ?org. ?c <http://www.wikidata.org/prop/P175> ?stat2 . ?stat2 <http://www.wikidata.org/prop/statement/P175> ?actor . ?actor <http://www.wikidata.org/prop/P345> ?stat4 . ?stat4 <http://www.wikidata.org/prop/statement/P345> ?nconst . ?c <http://www.wikidata.org/prop/P3798> ?stat3 . ?stat3 <http://www.wikidata.org/prop/statement/P3798> ?char .} 
 5", color = yellow] ; 
8 -> 9 ; 
10 [label="PhyMongoDBEval
starships
[{$lookup: { from: \"vehicles\", let: { \"url\": \"$url\"}, pipeline: [ {\"$unwind\":\"$pilots\"}, {\"$lookup\":{\"localField\":\"pilots\",\"as\":\"pilot\",\"foreignField\":\"url\",\"from\":\"people\"}}, {\"$unwind\":\"$pilot\"}, { $match: {$expr: {$eq: [\"$$url\", \"$url\"] } } } ], as: \"mongojoin18\"}},
{$unwind: \"$mongojoin18\"}]
[name, mongojoin18.pilot.formatedName]
0", color = yellow] ; 
4 -> 10 ; 
12 [label="Project
[0, 2]", color = yellow] ; 
2 -> 12 ; 
13 [label="HashJoin 
 1PREDICATE_EQUAL3 
0", color = yellow] ; 
12 -> 13 ; 
14 [label="Project
[1, 2]", color = yellow] ; 
13 -> 14 ; 
15 [label="HashJoin 
 0PREDICATE_EQUAL3 
0", color = yellow] ; 
14 -> 15 ; 
16 [label="SQLQuery
SELECT tab_6.nconst, tab_7.primaryname 
FROM swperson AS tab_7, swCasting AS tab_6  
WHERE tab_6.category = 'actress' AND tab_6.nconst = tab_7.nconst
12", color = yellow] ; 
15 -> 16 ; 
17 [label="Project
[0, 2]", color = yellow] ; 
15 -> 17 ; 
18 [label="JENASPARQL
SELECT ?char ?org ?nconst WHERE { ?c <http://www.wikidata.org/prop/P463> ?stat1. ?stat1 <http://www.wikidata.org/prop/statement/P463> ?org. ?c <http://www.wikidata.org/prop/P175> ?stat2 . ?stat2 <http://www.wikidata.org/prop/statement/P175> ?actor . ?actor <http://www.wikidata.org/prop/P345> ?stat4 . ?stat4 <http://www.wikidata.org/prop/statement/P345> ?nconst . ?c <http://www.wikidata.org/prop/P3798> ?stat3 . ?stat3 <http://www.wikidata.org/prop/statement/P3798> ?char .} 
 5", color = yellow] ; 
17 -> 18 ; 
19 [label="PhyMongoDBEval
starships
[{$lookup: { from: \"vehicles\", let: { \"url\": \"$url\"}, pipeline: [ {\"$unwind\":\"$pilots\"}, {\"$lookup\":{\"localField\":\"pilots\",\"as\":\"pilot\",\"foreignField\":\"url\",\"from\":\"people\"}}, {\"$unwind\":\"$pilot\"}, { $match: {$expr: {$eq: [\"$$url\", \"$url\"] } } } ], as: \"mongojoin19\"}},
{$unwind: \"$mongojoin19\"}]
[name, mongojoin19.pilot.formatedName]
0", color = yellow] ; 
13 -> 19 ; 
21 [label="Project
[1, 3]", color = yellow] ; 
2 -> 21 ; 
22 [label="HashJoin 
 0PREDICATE_EQUAL2 
0", color = yellow] ; 
21 -> 22 ; 
23 [label="Project
[0, 3]", color = yellow] ; 
22 -> 23 ; 
24 [label="HashJoin 
 1PREDICATE_EQUAL2 
9", color = yellow] ; 
23 -> 24 ; 
25 [label="Project
[0, 2]", color = yellow] ; 
24 -> 25 ; 
26 [label="JENASPARQL
SELECT ?char ?org ?nconst WHERE { ?c <http://www.wikidata.org/prop/P463> ?stat1. ?stat1 <http://www.wikidata.org/prop/statement/P463> ?org. ?c <http://www.wikidata.org/prop/P175> ?stat2 . ?stat2 <http://www.wikidata.org/prop/statement/P175> ?actor . ?actor <http://www.wikidata.org/prop/P345> ?stat4 . ?stat4 <http://www.wikidata.org/prop/statement/P345> ?nconst . ?c <http://www.wikidata.org/prop/P3798> ?stat3 . ?stat3 <http://www.wikidata.org/prop/statement/P3798> ?char .} 
 5", color = yellow] ; 
25 -> 26 ; 
27 [label="SQLQuery
SELECT tab_8.nconst, tab_9.primaryname 
FROM swCasting AS tab_8, swperson AS tab_9  
WHERE tab_8.category = 'actor' AND tab_8.nconst = tab_9.nconst
34", color = yellow] ; 
24 -> 27 ; 
28 [label="PhyMongoDBEval
starships
[{\"$unwind\":\"$pilots\"},
{\"$lookup\":{\"localField\":\"pilots\",\"as\":\"pilot\",\"foreignField\":\"url\",\"from\":\"people\"}},
{\"$unwind\":\"$pilot\"},
{$lookup: { from: \"vehicles\", let: { \"url\": \"$url\"}, pipeline: [ { $match: {$expr: {$eq: [\"$$url\", \"$url\"] } } } ], as: \"mongojoin20\"}},
{$unwind: \"$mongojoin20\"}]
[pilot.formatedName, mongojoin20.name]
0", color = yellow] ; 
22 -> 28 ; 
30 [label="Project
[0, 2]", color = yellow] ; 
2 -> 30 ; 
31 [label="HashJoin 
 1PREDICATE_EQUAL3 
25", color = yellow] ; 
30 -> 31 ; 
32 [label="Project
[1, 2]", color = yellow] ; 
31 -> 32 ; 
33 [label="HashJoin 
 0PREDICATE_EQUAL3 
9", color = yellow] ; 
32 -> 33 ; 
34 [label="SQLQuery
SELECT tab_10.nconst, tab_11.primaryname 
FROM swperson AS tab_11, swCasting AS tab_10  
WHERE tab_10.category = 'actor' AND tab_10.nconst = tab_11.nconst
34", color = yellow] ; 
33 -> 34 ; 
35 [label="Project
[0, 2]", color = yellow] ; 
33 -> 35 ; 
36 [label="JENASPARQL
SELECT ?char ?org ?nconst WHERE { ?c <http://www.wikidata.org/prop/P463> ?stat1. ?stat1 <http://www.wikidata.org/prop/statement/P463> ?org. ?c <http://www.wikidata.org/prop/P175> ?stat2 . ?stat2 <http://www.wikidata.org/prop/statement/P175> ?actor . ?actor <http://www.wikidata.org/prop/P345> ?stat4 . ?stat4 <http://www.wikidata.org/prop/statement/P345> ?nconst . ?c <http://www.wikidata.org/prop/P3798> ?stat3 . ?stat3 <http://www.wikidata.org/prop/statement/P3798> ?char .} 
 5", color = yellow] ; 
35 -> 36 ; 
37 [label="PhyMongoDBEval
starships
[{$lookup: { from: \"starships\", let: { \"url\": \"$url\"}, pipeline: [ {\"$unwind\":\"$pilots\"}, {\"$lookup\":{\"localField\":\"pilots\",\"as\":\"pilot\",\"foreignField\":\"url\",\"from\":\"people\"}}, {\"$unwind\":\"$pilot\"}, { $match: {$expr: {$eq: [\"$$url\", \"$url\"] } } } ], as: \"mongojoin21\"}},
{$unwind: \"$mongojoin21\"}]
[name, mongojoin21.pilot.formatedName]
31", color = yellow] ; 
31 -> 37 ; 
39 [label="Project
[1, 3]", color = yellow] ; 
2 -> 39 ; 
40 [label="HashJoin 
 0PREDICATE_EQUAL2 
0", color = yellow] ; 
39 -> 40 ; 
41 [label="Project
[0, 3]", color = yellow] ; 
40 -> 41 ; 
42 [label="HashJoin 
 1PREDICATE_EQUAL2 
0", color = yellow] ; 
41 -> 42 ; 
43 [label="Project
[0, 2]", color = yellow] ; 
42 -> 43 ; 
44 [label="JENASPARQL
SELECT ?char ?org ?nconst WHERE { ?c <http://www.wikidata.org/prop/P463> ?stat1. ?stat1 <http://www.wikidata.org/prop/statement/P463> ?org. ?c <http://www.wikidata.org/prop/P175> ?stat2 . ?stat2 <http://www.wikidata.org/prop/statement/P175> ?actor . ?actor <http://www.wikidata.org/prop/P345> ?stat4 . ?stat4 <http://www.wikidata.org/prop/statement/P345> ?nconst . ?c <http://www.wikidata.org/prop/P3798> ?stat3 . ?stat3 <http://www.wikidata.org/prop/statement/P3798> ?char .} 
 5", color = yellow] ; 
43 -> 44 ; 
45 [label="SQLQuery
SELECT tab_12.nconst, tab_13.primaryname 
FROM swCasting AS tab_12, swperson AS tab_13  
WHERE tab_12.category = 'actress' AND tab_12.nconst = tab_13.nconst
12", color = yellow] ; 
42 -> 45 ; 
46 [label="PhyMongoDBEval
starships
[{\"$unwind\":\"$pilots\"},
{\"$lookup\":{\"localField\":\"pilots\",\"as\":\"pilot\",\"foreignField\":\"url\",\"from\":\"people\"}},
{\"$unwind\":\"$pilot\"},
{$lookup: { from: \"starships\", let: { \"url\": \"$url\"}, pipeline: [ { $match: {$expr: {$eq: [\"$$url\", \"$url\"] } } } ], as: \"mongojoin22\"}},
{$unwind: \"$mongojoin22\"}]
[pilot.formatedName, mongojoin22.name]
31", color = yellow] ; 
40 -> 46 ; 
48 [label="Project
[0, 2]", color = yellow] ; 
2 -> 48 ; 
49 [label="HashJoin 
 1PREDICATE_EQUAL3 
0", color = yellow] ; 
48 -> 49 ; 
50 [label="Project
[1, 2]", color = yellow] ; 
49 -> 50 ; 
51 [label="HashJoin 
 0PREDICATE_EQUAL3 
0", color = yellow] ; 
50 -> 51 ; 
52 [label="SQLQuery
SELECT tab_14.nconst, tab_15.primaryname 
FROM swCasting AS tab_14, swperson AS tab_15  
WHERE tab_14.category = 'actress' AND tab_14.nconst = tab_15.nconst
12", color = yellow] ; 
51 -> 52 ; 
53 [label="Project
[0, 2]", color = yellow] ; 
51 -> 53 ; 
54 [label="JENASPARQL
SELECT ?char ?org ?nconst WHERE { ?c <http://www.wikidata.org/prop/P463> ?stat1. ?stat1 <http://www.wikidata.org/prop/statement/P463> ?org. ?c <http://www.wikidata.org/prop/P175> ?stat2 . ?stat2 <http://www.wikidata.org/prop/statement/P175> ?actor . ?actor <http://www.wikidata.org/prop/P345> ?stat4 . ?stat4 <http://www.wikidata.org/prop/statement/P345> ?nconst . ?c <http://www.wikidata.org/prop/P3798> ?stat3 . ?stat3 <http://www.wikidata.org/prop/statement/P3798> ?char .} 
 5", color = yellow] ; 
53 -> 54 ; 
55 [label="PhyMongoDBEval
vehicles
[{$lookup: { from: \"vehicles\", let: { \"url\": \"$url\"}, pipeline: [ {\"$unwind\":\"$pilots\"}, {\"$lookup\":{\"localField\":\"pilots\",\"as\":\"pilot\",\"foreignField\":\"url\",\"from\":\"people\"}}, {\"$unwind\":\"$pilot\"}, { $match: {$expr: {$eq: [\"$$url\", \"$url\"] } } } ], as: \"mongojoin23\"}},
{$unwind: \"$mongojoin23\"}]
[name, mongojoin23.pilot.formatedName]
13", color = yellow] ; 
49 -> 55 ; 
57 [label="Project
[1, 2]", color = yellow] ; 
2 -> 57 ; 
58 [label="HashJoin 
 0PREDICATE_EQUAL3 
4", color = yellow] ; 
57 -> 58 ; 
59 [label="Project
[0, 3]", color = yellow] ; 
58 -> 59 ; 
60 [label="HashJoin 
 1PREDICATE_EQUAL2 
9", color = yellow] ; 
59 -> 60 ; 
61 [label="Project
[0, 2]", color = yellow] ; 
60 -> 61 ; 
62 [label="JENASPARQL
SELECT ?char ?org ?nconst WHERE { ?c <http://www.wikidata.org/prop/P463> ?stat1. ?stat1 <http://www.wikidata.org/prop/statement/P463> ?org. ?c <http://www.wikidata.org/prop/P175> ?stat2 . ?stat2 <http://www.wikidata.org/prop/statement/P175> ?actor . ?actor <http://www.wikidata.org/prop/P345> ?stat4 . ?stat4 <http://www.wikidata.org/prop/statement/P345> ?nconst . ?c <http://www.wikidata.org/prop/P3798> ?stat3 . ?stat3 <http://www.wikidata.org/prop/statement/P3798> ?char .} 
 5", color = yellow] ; 
61 -> 62 ; 
63 [label="SQLQuery
SELECT tab_16.nconst, tab_17.primaryname 
FROM swCasting AS tab_16, swperson AS tab_17  
WHERE tab_16.category = 'actor' AND tab_16.nconst = tab_17.nconst
34", color = yellow] ; 
60 -> 63 ; 
64 [label="PhyMongoDBEval
vehicles
[{$lookup: { from: \"vehicles\", let: { \"url\": \"$url\"}, pipeline: [ {\"$unwind\":\"$pilots\"}, {\"$lookup\":{\"localField\":\"pilots\",\"as\":\"pilot\",\"foreignField\":\"url\",\"from\":\"people\"}}, {\"$unwind\":\"$pilot\"}, { $match: {$expr: {$eq: [\"$$url\", \"$url\"] } } } ], as: \"mongojoin24\"}},
{$unwind: \"$mongojoin24\"}]
[name, mongojoin24.pilot.formatedName]
13", color = yellow] ; 
58 -> 64 ; 
66 [label="Project
[1, 3]", color = yellow] ; 
2 -> 66 ; 
67 [label="HashJoin 
 0PREDICATE_EQUAL2 
0", color = yellow] ; 
66 -> 67 ; 
68 [label="Project
[0, 3]", color = yellow] ; 
67 -> 68 ; 
69 [label="HashJoin 
 1PREDICATE_EQUAL2 
0", color = yellow] ; 
68 -> 69 ; 
70 [label="Project
[0, 2]", color = yellow] ; 
69 -> 70 ; 
71 [label="JENASPARQL
SELECT ?char ?org ?nconst WHERE { ?c <http://www.wikidata.org/prop/P463> ?stat1. ?stat1 <http://www.wikidata.org/prop/statement/P463> ?org. ?c <http://www.wikidata.org/prop/P175> ?stat2 . ?stat2 <http://www.wikidata.org/prop/statement/P175> ?actor . ?actor <http://www.wikidata.org/prop/P345> ?stat4 . ?stat4 <http://www.wikidata.org/prop/statement/P345> ?nconst . ?c <http://www.wikidata.org/prop/P3798> ?stat3 . ?stat3 <http://www.wikidata.org/prop/statement/P3798> ?char .} 
 5", color = yellow] ; 
70 -> 71 ; 
72 [label="SQLQuery
SELECT tab_18.nconst, tab_19.primaryname 
FROM swperson AS tab_19, swCasting AS tab_18  
WHERE tab_18.category = 'actress' AND tab_18.nconst = tab_19.nconst
12", color = yellow] ; 
69 -> 72 ; 
73 [label="PhyMongoDBEval
starships
[{\"$unwind\":\"$pilots\"},
{\"$lookup\":{\"localField\":\"pilots\",\"as\":\"pilot\",\"foreignField\":\"url\",\"from\":\"people\"}},
{\"$unwind\":\"$pilot\"},
{$lookup: { from: \"vehicles\", let: { \"url\": \"$url\"}, pipeline: [ { $match: {$expr: {$eq: [\"$$url\", \"$url\"] } } } ], as: \"mongojoin25\"}},
{$unwind: \"$mongojoin25\"}]
[pilot.formatedName, mongojoin25.name]
0", color = yellow] ; 
67 -> 73 ; 
74 [label="FunctionCallBindAccess
(\"{0}\", \"{1}\")", color = yellow] ; 
0 -> 74 ; 
}

