digraph  g{
node [shape=rectangle, color=black, fontcolor=black, style=bold]
0 [label="LogProj
[13,4,23,19]" , color = blue] ; 
1 [label="Join\n [13PREDICATE_EQUAL22] ", color = blue] ; 
0 -> 1 ; 
2 [label="LogSkolemFunctionCall
(\"{11}\", \"{10}\", \"{2}\", \"{9}\", <http://www4.wiwiss.fu-berlin.de/bizer/bsbm/v01/instances/dataFromProducer{3}/Producer{3}>, \"{8}\", <http://www4.wiwiss.fu-berlin.de/bizer/bsbm/v01/instances/dataFromProducer{3}/Producer{3}>, \"{7}\", \"{5}\", \"{4}\", \"{1}\", \"{13}\", \"{6}\", <http://www4.wiwiss.fu-berlin.de/bizer/bsbm/v01/instances/dataFromProducer{3}/Product{0}>)" , color = blue] ; 
1 -> 2 ; 
3 [label="LogSQLEval 
SELECT nr, label, comment, producer, propertyNum1, propertyNum2, propertyTex1, propertyTex2, propertyTex3, propertyTex4, propertyTex5, propertyTex6, publisher, publishDate FROM Product", color = blue] ; 
2 -> 3 ; 
4 [label="LogSkolemFunctionCall
(\"{6}\", \"{5}\", <http://www4.wiwiss.fu-berlin.de/bizer/bsbm/v01/instances/dataFromVendor{9}/Vendor{9}>, <{8}>, \"{10}\", <http://www4.wiwiss.fu-berlin.de/bizer/bsbm/v01/instances/dataFromVendor{3}/Vendor{3}>, \"{4}\", \"{7}\", <http://www4.wiwiss.fu-berlin.de/bizer/bsbm/v01/instances/dataFromProducer{2}/Product{1}>, <http://www4.wiwiss.fu-berlin.de/bizer/bsbm/v01/instances/dataFromVendor{3}/Offer{0}>)" , color = blue] ; 
1 -> 4 ; 
5 [label="LogSQLEval 
SELECT nr, product, producer, vendor, price, validFrom, validTo, deliveryDays, offerWebpage, publisher, publishDate FROM Offer", color = blue] ; 
4 -> 5 ; 
}

