$char	$sname
<https://www.starwars.com/databank/luke-skywalker>	"Imperial shuttle"	
<https://www.starwars.com/databank/chewbacca>	"Imperial shuttle"	
<https://www.starwars.com/databank/han-solo>	"Imperial shuttle"	
<https://www.starwars.com/databank/darth-maul>	"Scimitar"	
