ANS($review,$product,$rating) : [V_review\9(X165011343162721,X165011343162722,X165011343162726,X165011343162725,$review,X165011343162723,X165011343162720,$rating,$product)]

ANS($review,$product,$rating) : [V_review\9(X165011343162721,X165011343162722,X165011343162726,X165011343162725,$review,X165011343162723,$rating,X165011343162719,$product)]

