digraph  g{
node [shape=rectangle, color=black, fontcolor=black, style=bold]
0 [label="LogDistinct" , color = blue] ; 
1 [label="Union", color = blue] ; 
0 -> 1 ; 
2 [label="LogProj
[4,8,7]" , color = blue] ; 
1 -> 2 ; 
3 [label="LogSkolemFunctionCall
(\"{5}\", \"{6}\", <http://www4.wiwiss.fu-berlin.de/bizer/bsbm/v01/instances/dataFromRatingSite{10}/RatingSite{10}>, \"{11}\", <http://www4.wiwiss.fu-berlin.de/bizer/bsbm/v01/instances/dataFromRatingSite{10}/Review{0}>, \"{4}\", \"{9}\", \"{8}\", <http://www4.wiwiss.fu-berlin.de/bizer/bsbm/v01/instances/dataFromProducer{2}/Product{1}>)" , color = blue] ; 
2 -> 3 ; 
4 [label="LogSQLEval 
SELECT nr, product, producer, person, reviewDate, title, text, language, rating1, rating2,  publisher, publishDate FROM Review", color = blue] ; 
3 -> 4 ; 
6 [label="LogProj
[4,8,6]" , color = blue] ; 
1 -> 6 ; 
7 [label="LogSkolemFunctionCall
(\"{5}\", \"{6}\", <http://www4.wiwiss.fu-berlin.de/bizer/bsbm/v01/instances/dataFromRatingSite{10}/RatingSite{10}>, \"{11}\", <http://www4.wiwiss.fu-berlin.de/bizer/bsbm/v01/instances/dataFromRatingSite{10}/Review{0}>, \"{4}\", \"{9}\", \"{8}\", <http://www4.wiwiss.fu-berlin.de/bizer/bsbm/v01/instances/dataFromProducer{2}/Product{1}>)" , color = blue] ; 
6 -> 7 ; 
8 [label="LogSQLEval 
SELECT nr, product, producer, person, reviewDate, title, text, language, rating1, rating2,  publisher, publishDate FROM Review", color = blue] ; 
7 -> 8 ; 
}

