digraph  g{ graph[label = "16:13:14.159"]
node [shape=rectangle, color=black, fontcolor=black, style=bold] edge [color=black] 0 [label="BindAccessEval", color = yellow] ; 
1 [label="SQLQuery
SELECT tab_8.id 
FROM title AS tab_9, title AS tab_8  
WHERE tab_8.kind_id = 1 AND tab_9.title = 'Finding Nemo' AND tab_8.id = tab_9.id
1", color = yellow] ; 
0 -> 1 ; 
2 [label="FunctionCallBindAccess
(<http://www.imdb.com/title/{0}>)", color = yellow] ; 
0 -> 2 ; 
}

