digraph  g{ graph[label = "11:27:12.122"]
node [shape=rectangle, color=black, fontcolor=black, style=bold] edge [color=black] 0 [label="BindAccessEval", color = yellow] ; 
1 [label="SQLQuery
SELECT tab_94.label, tab_98.label, tab_94.propertyNum2 
FROM PRODUCTTYPEPRODUCT AS tab_95, Product AS tab_96, ProductFeature AS tab_98, ProductFeatureProduct AS tab_97, Product AS tab_94, PRODUCT AS tab_93 
WHERE tab_95.producttype = 99 AND tab_95.product = tab_93.nr AND tab_94.producer = tab_93.producer AND tab_94.nr = tab_93.nr AND tab_96.nr = tab_97.product AND tab_97.productFeature = tab_98.nr AND tab_94.producer = tab_96.producer AND tab_94.nr = tab_96.nr AND tab_93.producer = tab_96.producer AND tab_93.nr = tab_96.nr 
UNION
SELECT tab_131.label, tab_134.label, tab_131.propertyNum1 
FROM PRODUCTTYPEPRODUCT AS tab_130, ProductFeatureProduct AS tab_133, ProductFeature AS tab_134, Product AS tab_132, Product AS tab_131, PRODUCT AS tab_129 
WHERE tab_130.producttype = 89 AND tab_130.product = tab_129.nr AND tab_131.producer = tab_129.producer AND tab_131.nr = tab_129.nr AND tab_132.nr = tab_133.product AND tab_133.productFeature = tab_134.nr AND tab_131.producer = tab_132.producer AND tab_131.nr = tab_132.nr AND tab_129.producer = tab_132.producer AND tab_129.nr = tab_132.nr 
UNION
SELECT tab_302.label, tab_305.label, tab_302.propertyNum1 
FROM ProductFeatureProduct AS tab_304, PRODUCT AS tab_301, ProductFeature AS tab_305, PRODUCTTYPEPRODUCT AS tab_300, Product AS tab_303, Product AS tab_302 
WHERE tab_300.producttype = 97 AND tab_300.product = tab_301.nr AND tab_302.producer = tab_301.producer AND tab_302.nr = tab_301.nr AND tab_303.nr = tab_304.product AND tab_304.productFeature = tab_305.nr AND tab_302.producer = tab_303.producer AND tab_302.nr = tab_303.nr AND tab_301.producer = tab_303.producer AND tab_301.nr = tab_303.nr 
UNION
SELECT tab_230.label, tab_233.label, tab_230.propertyNum2 
FROM ProductFeatureProduct AS tab_232, ProductFeature AS tab_233, Product AS tab_231, PRODUCTTYPEPRODUCT AS tab_229, Product AS tab_230, PRODUCT AS tab_228 
WHERE tab_229.producttype = 97 AND tab_229.product = tab_228.nr AND tab_230.producer = tab_228.producer AND tab_230.nr = tab_228.nr AND tab_231.nr = tab_232.product AND tab_232.productFeature = tab_233.nr AND tab_230.producer = tab_231.producer AND tab_230.nr = tab_231.nr AND tab_228.producer = tab_231.producer AND tab_228.nr = tab_231.nr 
UNION
SELECT tab_166.label, tab_170.label, tab_166.propertyNum2 
FROM ProductFeature AS tab_170, PRODUCTTYPEPRODUCT AS tab_165, ProductFeatureProduct AS tab_169, PRODUCT AS tab_167, Product AS tab_166, Product AS tab_168 
WHERE tab_165.producttype = 94 AND tab_165.product = tab_167.nr AND tab_166.producer = tab_167.producer AND tab_166.nr = tab_167.nr AND tab_168.nr = tab_169.product AND tab_169.productFeature = tab_170.nr AND tab_166.producer = tab_168.producer AND tab_166.nr = tab_168.nr AND tab_167.producer = tab_168.producer AND tab_167.nr = tab_168.nr 
UNION
SELECT tab_102.label, tab_107.label, tab_102.propertyNum2 
FROM ProductFeatureProduct AS tab_106, PRODUCT AS tab_104, ProductFeature AS tab_107, PRODUCTTYPEPRODUCT AS tab_103, Product AS tab_105, Product AS t... (31 UNIONs)
22738", color = yellow] ; 
0 -> 1 ; 
2 [label="FunctionCallBindAccess
(\"{0}\", \"{1}\", \"{2}\")", color = yellow] ; 
0 -> 2 ; 
}

