digraph  g{ graph[label = "0:7:41.105"]
node [shape=rectangle, color=black, fontcolor=black, style=bold] edge [color=black] 0 [label="BindAccessEval", color = yellow] ; 
1 [label="HashDistinct", color = yellow] ; 
0 -> 1 ; 
2 [label="Union", color = yellow] ; 
1 -> 2 ; 
3 [label="Project
[1, 6, 2]", color = yellow] ; 
2 -> 3 ; 
4 [label="RightBindJoin 
[[3, 0]]
995", color = yellow] ; 
3 -> 4 ; 
5 [label="SQLQuery
SELECT tab_9.nr, tab_9.label, tab_9.propertyNum1, tab_10.producer 
FROM PRODUCT AS tab_10, PRODUCTTYPEPRODUCT AS tab_11, Product AS tab_9  
WHERE tab_11.producttype = 56 AND tab_11.product = tab_10.nr AND tab_9.producer = tab_10.producer AND tab_9.nr = tab_10.nr
46", color = yellow] ; 
4 -> 5 ; 
6 [label="PhyMongoDBEval
productfeatureproduct
[{ \"$match\": { \"producer\": %s, \"nr\": %s } }]
[nr, producer, label]
995", color = yellow] ; 
4 -> 6 ; 
8 [label="Project
[1, 6, 2]", color = yellow] ; 
2 -> 8 ; 
9 [label="RightBindJoin 
[[0, 3]]
1193", color = yellow] ; 
8 -> 9 ; 
10 [label="SQLQuery
SELECT tab_12.nr, tab_12.label, tab_12.propertyNum1, tab_13.producer 
FROM PRODUCTTYPEPRODUCT AS tab_14, Product AS tab_12, PRODUCT AS tab_13  
WHERE tab_14.producttype = 57 AND tab_14.product = tab_13.nr AND tab_12.producer = tab_13.producer AND tab_12.nr = tab_13.nr
56", color = yellow] ; 
9 -> 10 ; 
11 [label="PhyMongoDBEval
productfeatureproduct
[{ \"$match\": { \"nr\": %s, \"producer\": %s } }]
[nr, producer, label]
1193", color = yellow] ; 
9 -> 11 ; 
13 [label="Project
[1, 6, 3]", color = yellow] ; 
2 -> 13 ; 
14 [label="RightBindJoin 
[[0, 2]]
995", color = yellow] ; 
13 -> 14 ; 
15 [label="SQLQuery
SELECT tab_6.nr, tab_6.label, tab_6.producer, tab_6.propertyNum2 
FROM PRODUCTTYPEPRODUCT AS tab_8, PRODUCT AS tab_7, Product AS tab_6  
WHERE tab_8.producttype = 56 AND tab_8.product = tab_7.nr AND tab_6.producer = tab_7.producer AND tab_6.nr = tab_7.nr
46", color = yellow] ; 
14 -> 15 ; 
16 [label="PhyMongoDBEval
productfeatureproduct
[{ \"$match\": { \"nr\": %s, \"producer\": %s } }]
[nr, producer, label]
995", color = yellow] ; 
14 -> 16 ; 
18 [label="Project
[0, 6, 1]", color = yellow] ; 
2 -> 18 ; 
19 [label="RightBindJoin 
[[3, 2]]
1193", color = yellow] ; 
18 -> 19 ; 
20 [label="SQLQuery
SELECT tab_15.label, tab_15.propertyNum2, tab_16.nr, tab_16.producer 
FROM PRODUCT AS tab_16, PRODUCTTYPEPRODUCT AS tab_17, Product AS tab_15  
WHERE tab_17.producttype = 57 AND tab_17.product = tab_16.nr AND tab_15.producer = tab_16.producer AND tab_15.nr = tab_16.nr
56", color = yellow] ; 
19 -> 20 ; 
21 [label="PhyMongoDBEval
productfeatureproduct
[{ \"$match\": { \"producer\": %s, \"nr\": %s } }]
[nr, producer, label]
1193", color = yellow] ; 
19 -> 21 ; 
22 [label="FunctionCallBindAccess
(\"{0}\", \"{1}\", \"{2}\")", color = yellow] ; 
0 -> 22 ; 
}

