digraph  g{
node [shape=rectangle, color=black, fontcolor=black, style=bold]
0 [label="LogSkolemFunctionCall
(\"{0}\", \"{1}\", \"{2}\")" , color = blue] ; 
1 [label="LogDistinct" , color = blue] ; 
0 -> 1 ; 
2 [label="Union", color = blue] ; 
1 -> 2 ; 
3 [label="LogProj
[1,6,2]" , color = blue] ; 
2 -> 3 ; 
4 [label="Join\n [3PREDICATE_EQUAL5,0PREDICATE_EQUAL4] ", color = blue] ; 
3 -> 4 ; 
5 [label="LogSQLEval 
SELECT tab_9.nr, tab_9.label, tab_9.propertyNum1, tab_10.producer FROM PRODUCT AS tab_10, PRODUCTTYPEPRODUCT AS tab_11, Product AS tab_9  WHERE tab_11.producttype = 56 AND tab_11.product = tab_10.nr AND tab_9.producer = tab_10.producer AND tab_9.nr = tab_10.nr", color = blue] ; 
4 -> 5 ; 
6 [label="LogMongoDBEval
productfeatureproduct
[]
[nr, producer, label]
", color = blue] ; 
4 -> 6 ; 
8 [label="LogProj
[1,6,2]" , color = blue] ; 
2 -> 8 ; 
9 [label="Join\n [0PREDICATE_EQUAL4,3PREDICATE_EQUAL5] ", color = blue] ; 
8 -> 9 ; 
10 [label="LogSQLEval 
SELECT tab_12.nr, tab_12.label, tab_12.propertyNum1, tab_13.producer FROM PRODUCTTYPEPRODUCT AS tab_14, Product AS tab_12, PRODUCT AS tab_13  WHERE tab_14.producttype = 57 AND tab_14.product = tab_13.nr AND tab_12.producer = tab_13.producer AND tab_12.nr = tab_13.nr", color = blue] ; 
9 -> 10 ; 
11 [label="LogMongoDBEval
productfeatureproduct
[]
[nr, producer, label]
", color = blue] ; 
9 -> 11 ; 
13 [label="LogProj
[1,6,3]" , color = blue] ; 
2 -> 13 ; 
14 [label="Join\n [0PREDICATE_EQUAL4,2PREDICATE_EQUAL5] ", color = blue] ; 
13 -> 14 ; 
15 [label="LogSQLEval 
SELECT tab_6.nr, tab_6.label, tab_6.producer, tab_6.propertyNum2 FROM PRODUCTTYPEPRODUCT AS tab_8, PRODUCT AS tab_7, Product AS tab_6  WHERE tab_8.producttype = 56 AND tab_8.product = tab_7.nr AND tab_6.producer = tab_7.producer AND tab_6.nr = tab_7.nr", color = blue] ; 
14 -> 15 ; 
16 [label="LogMongoDBEval
productfeatureproduct
[]
[nr, producer, label]
", color = blue] ; 
14 -> 16 ; 
18 [label="LogProj
[0,6,1]" , color = blue] ; 
2 -> 18 ; 
19 [label="Join\n [3PREDICATE_EQUAL5,2PREDICATE_EQUAL4] ", color = blue] ; 
18 -> 19 ; 
20 [label="LogSQLEval 
SELECT tab_15.label, tab_15.propertyNum2, tab_16.nr, tab_16.producer FROM PRODUCT AS tab_16, PRODUCTTYPEPRODUCT AS tab_17, Product AS tab_15  WHERE tab_17.producttype = 57 AND tab_17.product = tab_16.nr AND tab_15.producer = tab_16.producer AND tab_15.nr = tab_16.nr", color = blue] ; 
19 -> 20 ; 
21 [label="LogMongoDBEval
productfeatureproduct
[]
[nr, producer, label]
", color = blue] ; 
19 -> 21 ; 
}

