digraph  g{ graph[label = "11:27:12.831"]
node [shape=rectangle, color=black, fontcolor=black, style=bold] edge [color=black] 0 [label="BindAccessEval", color = yellow] ; 
1 [label="SQLQuery
SELECT tab_591.label, tab_591.propertyNum2, tab_590.country 
FROM PRODUCT AS tab_589, Product AS tab_592, Product AS tab_591, PRODUCTTYPEPRODUCT AS tab_588, Producer AS tab_590, CountryType AS tab_593 
WHERE tab_588.producttype = 56 AND tab_588.product = tab_589.nr AND tab_591.producer = tab_589.producer AND tab_591.nr = tab_589.nr AND tab_592.producer = tab_590.nr AND tab_591.producer = tab_592.producer AND tab_591.nr = tab_592.nr AND tab_589.producer = tab_592.producer AND tab_589.nr = tab_592.nr AND tab_593.countryType = 111 AND tab_590.country = tab_593.country 
UNION
SELECT tab_672.label, tab_672.propertyNum2, tab_674.country 
FROM PRODUCT AS tab_676, PRODUCTTYPEPRODUCT AS tab_673, Producer AS tab_674, CountryType AS tab_677, Product AS tab_672, Product AS tab_675 
WHERE tab_673.producttype = 56 AND tab_673.product = tab_676.nr AND tab_672.producer = tab_676.producer AND tab_672.nr = tab_676.nr AND tab_675.producer = tab_674.nr AND tab_672.producer = tab_675.producer AND tab_672.nr = tab_675.nr AND tab_676.producer = tab_675.producer AND tab_676.nr = tab_675.nr AND tab_677.countryType = 122 AND tab_674.country = tab_677.country 
UNION
SELECT tab_690.label, tab_690.propertyNum1, tab_688.country 
FROM Producer AS tab_688, PRODUCT AS tab_687, Product AS tab_689, Product AS tab_690, PRODUCTTYPEPRODUCT AS tab_686, CountryType AS tab_691 
WHERE tab_686.producttype = 57 AND tab_686.product = tab_687.nr AND tab_690.producer = tab_687.producer AND tab_690.nr = tab_687.nr AND tab_689.producer = tab_688.nr AND tab_690.producer = tab_689.producer AND tab_690.nr = tab_689.nr AND tab_687.producer = tab_689.producer AND tab_687.nr = tab_689.nr AND tab_691.countryType = 121 AND tab_688.country = tab_691.country 
UNION
SELECT tab_717.label, tab_717.propertyNum1, tab_716.country 
FROM Product AS tab_717, Product AS tab_715, PRODUCT AS tab_718, PRODUCTTYPEPRODUCT AS tab_714, Producer AS tab_716, CountryType AS tab_719 
WHERE tab_714.producttype = 57 AND tab_714.product = tab_718.nr AND tab_717.producer = tab_718.producer AND tab_717.nr = tab_718.nr AND tab_715.producer = tab_716.nr AND tab_717.producer = tab_715.producer AND tab_717.nr = tab_715.nr AND tab_718.producer = tab_715.producer AND tab_718.nr = tab_715.nr AND tab_719.countryType = 111 AND tab_716.country = tab_719.country 
UNION
SELECT tab_519.label, tab_519.propertyNum1, tab_521.country 
FROM PRODUCT AS tab_522, Product AS tab_519, PRODUCTTYPEPRODUCT AS tab_520, Product AS tab_518, Producer AS tab_521, CountryType AS tab_523 
WHERE tab_520.producttype = 57 AND tab_520.product = tab_522.nr AND tab_519.producer = tab_522.producer AND tab_519.nr = tab_522.nr AND tab_518.producer = tab_521.nr AND tab_519.producer = tab_518.producer AND tab_519.nr = tab_518.nr AND tab_522.producer = tab_518.producer AND tab_522.nr = tab_518.nr AND tab_523.countryType = 112 AND tab_521.country = tab_523.country 
UNION
SELECT tab_549.label, tab_549.propertyNum2, tab_546.country 
FROM Product AS tab_549, Producer AS tab_546... (15 UNIONs)
174", color = yellow] ; 
0 -> 1 ; 
2 [label="FunctionCallBindAccess
(\"{0}\", \"{1}\", <http://downlode.org/rdf/iso-3166/countries#{2}>)", color = yellow] ; 
0 -> 2 ; 
}

