<$country> :- 
	triple($FV_3,<411213>,$org),
	triple($org,<40607>,$country),
	triple($country,<265794>,<432583>);

<$country> :- 
	triple($org,<265794>,<330688>),
	triple($org,<40607>,$country),
	triple($country,<265794>,<432583>);

<$country> :- 
	triple($org,<265794>,<349498>),
	triple($org,<40607>,$country),
	triple($country,<265794>,<432583>);

<$country> :- 
	triple($org,<265794>,<446123>),
	triple($org,<40607>,$country),
	triple($country,<265794>,<432583>);

<$country> :- 
	triple($FV_2,<359338>,$org),
	triple($org,<40607>,$country),
	triple($country,<265794>,<432583>);

