ANS($country) : [V_review-prop-of-ptype-123\4(X85969027017100,X85969027017102,X85969027017101,$country), V_country-type-222\1($country)]

ANS($country) : [V_offer-prop-from-ptype-67\4(X85969027017730,X85969027017729,$country,X85969027017731), V_country-type-222\1($country)]

ANS($country) : [V_offer-prop-from-ptype-72\4(X85969027017698,X85969027017700,$country,X85969027017702), V_country-type-222\1($country)]

ANS($country) : [V_offer-prop-from-ptype-145\4(X85969027016623,X85969027016622,$country,X85969027016624), V_country-type-222\1($country)]

ANS($country) : [V_review-prop-of-ptype-131\4(X85969027017201,X85969027017200,X85969027017203,$country), V_country-type-222\1($country)]

ANS($country) : [V_offer-prop-from-ptype-124\4(X85969027018017,X85969027018020,$country,X85969027018018), V_country-type-222\1($country)]

ANS($country) : [V_offer-prop-from-ptype-131\4(X85969027018335,X85969027018336,$country,X85969027018340), V_country-type-222\1($country)]

ANS($country) : [V_offer-prop-from-ptype-83\4(X85969027018287,X85969027018288,$country,X85969027018292), V_country-type-222\1($country)]

ANS($country) : [V_review-prop-of-ptype-69\4(X85969027017741,X85969027017743,X85969027017742,$country), V_country-type-222\1($country)]

ANS($country) : [V_offer-prop-from-ptype-151\4(X85969027018400,X85969027018397,$country,X85969027018396), V_country-type-222\1($country)]

ANS($country) : [V_review-prop-of-ptype-134\4(X85969027017484,X85969027017486,X85969027017485,$country), V_country-type-222\1($country)]

ANS($country) : [V_offer-prop-from-ptype-89\4(X85969027016793,X85969027016792,$country,X85969027016794), V_country-type-222\1($country)]

ANS($country) : [V_offer-prop-from-ptype-150\4(X85969027017004,X85969027017005,$country,X85969027017006), V_country-type-222\1($country)]

ANS($country) : [V_offer-prop-from-ptype-78\4(X85969027017499,X85969027017498,$country,X85969027017496), V_country-type-222\1($country)]

ANS($country) : [V_review-prop-of-ptype-57\4(X85969027017224,X85969027017225,X85969027017227,$country), V_country-type-222\1($country)]

ANS($country) : [V_review-prop-of-ptype-78\4(X85969027016555,X85969027016554,X85969027016551,$country), V_country-type-222\1($country)]

ANS($country) : [V_offer-prop-from-ptype-141\4(X85969027017378,X85969027017379,$country,X85969027017374), V_country-type-222\1($country)]

ANS($country) : [V_review-prop-of-ptype-79\4(X85969027017213,X85969027017212,X85969027017215,$country), V_country-type-222\1($country)]

ANS($country) : [V_offer-prop-from-ptype-109\4(X85969027018494,X85969027018495,$country,X85969027018493), V_country-type-222\1($country)]

ANS($country) : [V_offer-prop-from-ptype-143\4(X85969027017641,X85969027017643,$country,X85969027017639), V_country-type-222\1($country)]

ANS($country) : [V_review-prop-of-ptype-104\4(X85969027018479,X85969027018482,X85969027018483,$country), V_country-type-222\1($country)]

ANS($country) : [V_offer-prop-from-ptype-56\4(X85969027018229,X85969027018230,$country,X85969027018228), V_country-type-222\1($country)]

ANS($country) : [V_review-prop-of-ptype-142\4(X85969027016839,X85969027016838,X85969027016841,$country), V_country-type-222\1($country)]

ANS($country) : [V_product-country\2(X85969027018596,$country), V_country-type-222\1($country)]

ANS($country) : [V_offer-prop-from-ptype-98\4(X85969027018347,X85969027018350,$country,X85969027018348), V_country-type-222\1($country)]

ANS($country) : [V_offer-prop-from-ptype-80\4(X85969027016529,X85969027016528,$country,X85969027016530), V_country-type-222\1($country)]

ANS($country) : [V_review-prop-of-ptype-113\4(X85969027018181,X85969027018182,X85969027018179,$country), V_country-type-222\1($country)]

ANS($country) : [V_offer-prop-from-ptype-97\4(X85969027017029,X85969027017028,$country,X85969027017030), V_country-type-222\1($country)]

ANS($country) : [V_offer-prop-from-ptype-121\4(X85969027017566,X85969027017568,$country,X85969027017570), V_country-type-222\1($country)]

ANS($country) : [V_review-prop-of-ptype-121\4(X85969027017125,X85969027017124,X85969027017126,$country), V_country-type-222\1($country)]

ANS($country) : [V_review-prop-of-ptype-133\4(X85969027017910,X85969027017909,X85969027017912,$country), V_country-type-222\1($country)]

ANS($country) : [V_offer-prop-from-ptype-136\4(X85969027017802,X85969027017804,$country,X85969027017806), V_country-type-222\1($country)]

ANS($country) : [V_review-prop-of-ptype-101\4(X85969027017960,X85969027017962,X85969027017961,$country), V_country-type-222\1($country)]

ANS($country) : [V_offer-prop-from-ptype-139\4(X85969027017236,X85969027017238,$country,X85969027017240), V_country-type-222\1($country)]

ANS($country) : [V_review-prop-of-ptype-93\4(X85969027018101,X85969027018104,X85969027018105,$country), V_country-type-222\1($country)]

ANS($country) : [V_offer-prop-from-ptype-73\4(X85969027018821,X85969027018824,$country,X85969027018822), V_country-type-222\1($country)]

ANS($country) : [V_offer-prop-from-ptype-64\4(X85969027018633,X85969027018634,$country,X85969027018632), V_country-type-222\1($country)]

ANS($country) : [V_offer-prop-from-ptype-76\4(X85969027018241,X85969027018239,$country,X85969027018243), V_country-type-222\1($country)]

ANS($country) : [V_review-prop-of-ptype-61\4(X85969027016850,X85969027016852,X85969027016851,$country), V_country-type-222\1($country)]

ANS($country) : [V_review-prop-of-ptype-122\4(X85969027017667,X85969027017663,X85969027017662,$country), V_country-type-222\1($country)]

ANS($country) : [V_offer-prop-from-ptype-87\4(X85969027016634,X85969027016635,$country,X85969027016636), V_country-type-222\1($country)]

ANS($country) : [V_offer-prop-from-ptype-102\4(X85969027017579,X85969027017578,$country,X85969027017580), V_country-type-222\1($country)]

ANS($country) : [V_offer-prop-from-ptype-137\4(X85969027017777,X85969027017779,$country,X85969027017781), V_country-type-222\1($country)]

ANS($country) : [V_review-prop-of-ptype-77\4(X85969027018646,X85969027018643,X85969027018644,$country), V_country-type-222\1($country)]

ANS($country) : [V_review-prop-of-ptype-58\4(X85969027016587,X85969027016586,X85969027016589,$country), V_country-type-222\1($country)]

ANS($country) : [V_review-prop-of-ptype-82\4(X85969027017947,X85969027017948,X85969027017950,$country), V_country-type-222\1($country)]

ANS($country) : [V_offer-prop-from-ptype-57\4(X85969027018797,X85969027018798,$country,X85969027018802), V_country-type-222\1($country)]

ANS($country) : [V_review-prop-of-ptype-89\4(X85969027018411,X85969027018412,X85969027018409,$country), V_country-type-222\1($country)]

ANS($country) : [V_offer-prop-from-ptype-68\4(X85969027017471,X85969027017470,$country,X85969027017472), V_country-type-222\1($country)]

ANS($country) : [V_review-prop-of-ptype-84\4(X85969027016911,X85969027016910,X85969027016913,$country), V_country-type-222\1($country)]

ANS($country) : [V_review-prop-of-ptype-135\4(X85969027018215,X85969027018218,X85969027018219,$country), V_country-type-222\1($country)]

ANS($country) : [V_offer-prop-from-ptype-85\4(X85969027017386,X85969027017388,$country,X85969027017390), V_country-type-222\1($country)]

ANS($country) : [V_offer-prop-from-ptype-130\4(X85969027017016,X85969027017018,$country,X85969027017020), V_country-type-222\1($country)]

ANS($country) : [V_offer-prop-from-ptype-115\4(X85969027018125,X85969027018126,$country,X85969027018129), V_country-type-222\1($country)]

ANS($country) : [V_review-prop-of-ptype-81\4(X85969027016610,X85969027016612,X85969027016611,$country), V_country-type-222\1($country)]

ANS($country) : [V_offer-prop-from-ptype-91\4(X85969027016831,X85969027016827,$country,X85969027016829), V_country-type-222\1($country)]

ANS($country) : [V_offer-prop-from-ptype-108\4(X85969027018515,X85969027018516,$country,X85969027018520), V_country-type-222\1($country)]

ANS($country) : [V_review-prop-of-ptype-144\4(X85969027018834,X85969027018835,X85969027018833,$country), V_country-type-222\1($country)]

ANS($country) : [V_review-prop-of-ptype-59\4(X85969027016541,X85969027016543,X85969027016542,$country), V_country-type-222\1($country)]

ANS($country) : [V_review-prop-of-ptype-99\4(X85969027017509,X85969027017511,X85969027017510,$country), V_country-type-222\1($country)]

ANS($country) : [V_review-prop-of-ptype-97\4(X85969027017842,X85969027017841,X85969027017838,$country), V_country-type-222\1($country)]

ANS($country) : [V_review-prop-of-ptype-124\4(X85969027018556,X85969027018554,X85969027018555,$country), V_country-type-222\1($country)]

ANS($country) : [V_review-prop-of-ptype-112\4(X85969027016516,X85969027016515,X85969027016517,$country), V_country-type-222\1($country)]

ANS($country) : [V_offer-prop-from-ptype-117\4(X85969027018778,X85969027018773,$country,X85969027018775), V_country-type-222\1($country)]

ANS($country) : [V_offer-prop-from-ptype-61\4(X85969027017535,X85969027017531,$country,X85969027017533), V_country-type-222\1($country)]

ANS($country) : [V_review-prop-of-ptype-98\4(X85969027017399,X85969027017398,X85969027017401,$country), V_country-type-222\1($country)]

ANS($country) : [V_review-prop-of-ptype-139\4(X85969027016598,X85969027016600,X85969027016599,$country), V_country-type-222\1($country)]

ANS($country) : [V_offer-prop-from-ptype-107\4(X85969027017687,X85969027017686,$country,X85969027017688), V_country-type-222\1($country)]

ANS($country) : [V_review-prop-of-ptype-148\4(X85969027017325,X85969027017324,X85969027017321,$country), V_country-type-222\1($country)]

ANS($country) : [V_review-prop-of-ptype-126\4(X85969027017117,X85969027017113,X85969027017112,$country), V_country-type-222\1($country)]

ANS($country) : [V_offer-prop-from-ptype-81\4(X85969027018167,X85969027018170,$country,X85969027018168), V_country-type-222\1($country)]

ANS($country) : [V_offer-prop-from-ptype-105\4(X85969027018316,X85969027018313,$country,X85969027018311), V_country-type-222\1($country)]

ANS($country) : [V_review-prop-of-ptype-68\4(X85969027018505,X85969027018503,X85969027018504,$country), V_country-type-222\1($country)]

ANS($country) : [V_review-prop-of-ptype-105\4(X85969027018280,X85969027018275,X85969027018276,$country), V_country-type-222\1($country)]

ANS($country) : [V_offer-prop-from-ptype-77\4(X85969027017296,X85969027017298,$country,X85969027017300), V_country-type-222\1($country)]

ANS($country) : [V_review-prop-of-ptype-66\4(X85969027018203,X85969027018204,X85969027018207,$country), V_country-type-222\1($country)]

ANS($country) : [V_review-prop-of-ptype-96\4(X85969027016938,X85969027016937,X85969027016939,$country), V_country-type-222\1($country)]

ANS($country) : [V_offer-prop-from-ptype-140\4(X85969027017885,X85969027017887,$country,X85969027017889), V_country-type-222\1($country)]

ANS($country) : [V_offer-prop-from-ptype-104\4(X85969027017288,X85969027017289,$country,X85969027017284), V_country-type-222\1($country)]

ANS($country) : [V_review-prop-of-ptype-118\4(X85969027017161,X85969027017160,X85969027017163,$country), V_country-type-222\1($country)]

ANS($country) : [V_review-prop-of-ptype-108\4(X85969027018252,X85969027018253,X85969027018255,$country), V_country-type-222\1($country)]

ANS($country) : [V_offer-prop-from-ptype-93\4(X85969027017921,X85969027017923,$country,X85969027017925), V_country-type-222\1($country)]

ANS($country) : [V_offer-prop-from-ptype-135\4(X85969027018897,X85969027018898,$country,X85969027018894), V_country-type-222\1($country)]

ANS($country) : [V_review-prop-of-ptype-137\4(X85969027017337,X85969027017333,X85969027017332,$country), V_country-type-222\1($country)]

ANS($country) : [V_review-prop-of-ptype-106\4(X85969027017260,X85969027017262,X85969027017261,$country), V_country-type-222\1($country)]

ANS($country) : [V_review-prop-of-ptype-67\4(X85969027017765,X85969027017766,X85969027017768,$country), V_country-type-222\1($country)]

ANS($country) : [V_offer-prop-from-ptype-127\4(X85969027017935,X85969027017934,$country,X85969027017938), V_country-type-222\1($country)]

ANS($country) : [V_review-prop-of-ptype-130\4(X85969027018193,X85969027018191,X85969027018192,$country), V_country-type-222\1($country)]

ANS($country) : [V_offer-prop-from-ptype-86\4(X85969027018089,X85969027018090,$country,X85969027018094), V_country-type-222\1($country)]

ANS($country) : [V_offer-prop-from-ptype-128\4(X85969027017523,X85969027017522,$country,X85969027017518), V_country-type-222\1($country)]

ANS($country) : [V_offer-prop-from-ptype-82\4(X85969027016863,X85969027016862,$country,X85969027016864), V_country-type-222\1($country)]

ANS($country) : [V_review-prop-of-ptype-56\4(X85969027016731,X85969027016730,X85969027016733,$country), V_country-type-222\1($country)]

ANS($country) : [V_review-prop-of-ptype-90\4(X85969027017345,X85969027017344,X85969027017346,$country), V_country-type-222\1($country)]

ANS($country) : [V_offer-prop-from-ptype-122\4(X85969027018070,X85969027018067,$country,X85969027018066), V_country-type-222\1($country)]

ANS($country) : [V_review-prop-of-ptype-72\4(X85969027018785,X85969027018786,X85969027018787,$country), V_country-type-222\1($country)]

ANS($country) : [V_offer-prop-from-ptype-62\4(X85969027017629,X85969027017628,$country,X85969027017630), V_country-type-222\1($country)]

ANS($country) : [V_review-prop-of-ptype-100\4(X85969027018467,X85969027018468,X85969027018471,$country), V_country-type-222\1($country)]

ANS($country) : [V_offer-prop-from-ptype-84\4(X85969027017754,X85969027017753,$country,X85969027017757), V_country-type-222\1($country)]

ANS($country) : [V_review-prop-of-ptype-94\4(X85969027016985,X85969027016981,X85969027016980,$country), V_country-type-222\1($country)]

ANS($country) : [V_offer-prop-from-ptype-59\4(X85969027017137,X85969027017136,$country,X85969027017138), V_country-type-222\1($country)]

ANS($country) : [V_review-prop-of-ptype-119\4(X85969027016886,X85969027016888,X85969027016887,$country), V_country-type-222\1($country)]

ANS($country) : [V_review-prop-of-ptype-150\4(X85969027016575,X85969027016574,X85969027016576,$country), V_country-type-222\1($country)]

ANS($country) : [V_review-prop-of-ptype-63\4(X85969027017447,X85969027017446,X85969027017449,$country), V_country-type-222\1($country)]

ANS($country) : [V_offer-prop-from-ptype-114\4(X85969027018691,X85969027018692,$country,X85969027018690), V_country-type-222\1($country)]

ANS($country) : [V_review-prop-of-ptype-147\4(X85969027018754,X85969027018752,X85969027018753,$country), V_country-type-222\1($country)]

ANS($country) : [V_review-prop-of-ptype-140\4(X85969027018118,X85969027018113,X85969027018114,$country), V_country-type-222\1($country)]

ANS($country) : [V_offer-prop-from-ptype-134\4(X85969027017554,X85969027017555,$country,X85969027017556), V_country-type-222\1($country)]

ANS($country) : [V_offer-prop-from-ptype-66\4(X85969027016707,X85969027016706,$country,X85969027016708), V_country-type-222\1($country)]

ANS($country) : [V_review-prop-of-ptype-109\4(X85969027018580,X85969027018577,X85969027018575,$country), V_country-type-222\1($country)]

ANS($country) : [V_offer-prop-from-ptype-146\4(X85969027018435,X85969027018436,$country,X85969027018433), V_country-type-222\1($country)]

ANS($country) : [V_offer-prop-from-ptype-79\4(X85969027016973,X85969027016972,$country,X85969027016968), V_country-type-222\1($country)]

ANS($country) : [V_offer-prop-from-ptype-126\4(X85969027018160,X85969027018155,$country,X85969027018159), V_country-type-222\1($country)]

ANS($country) : [V_offer-prop-from-ptype-92\4(X85969027018056,X85969027018057,$country,X85969027018053), V_country-type-222\1($country)]

ANS($country) : [V_review-prop-of-ptype-74\4(X85969027018448,X85969027018443,X85969027018444,$country), V_country-type-222\1($country)]

ANS($country) : [V_review-prop-of-ptype-91\4(X85969027017357,X85969027017356,X85969027017359,$country), V_country-type-222\1($country)]

ANS($country) : [V_offer-prop-from-ptype-125\4(X85969027017675,X85969027017674,$country,X85969027017678), V_country-type-222\1($country)]

ANS($country) : [V_review-prop-of-ptype-110\4(X85969027016818,X85969027016819,X85969027016815,$country), V_country-type-222\1($country)]

ANS($country) : [V_review-prop-of-ptype-120\4(X85969027017275,X85969027017274,X85969027017277,$country), V_country-type-222\1($country)]

ANS($country) : [V_review-prop-of-ptype-146\4(X85969027018677,X85969027018680,X85969027018681,$country), V_country-type-222\1($country)]

ANS($country) : [V_review-prop-of-ptype-115\4(X85969027018361,X85969027018362,X85969027018359,$country), V_country-type-222\1($country)]

ANS($country) : [V_offer-prop-from-ptype-90\4(X85969027017089,X85969027017088,$country,X85969027017090), V_country-type-222\1($country)]

ANS($country) : [V_offer-prop-from-ptype-113\4(X85969027016767,X85969027016766,$country,X85969027016768), V_country-type-222\1($country)]

ANS($country) : [V_review-prop-of-ptype-60\4(X85969027018873,X85969027018874,X85969027018871,$country), V_country-type-222\1($country)]

ANS($country) : [V_offer-prop-from-ptype-75\4(X85969027016899,X85969027016898,$country,X85969027016900), V_country-type-222\1($country)]

ANS($country) : [V_review-prop-of-ptype-107\4(X85969027016805,X85969027016807,X85969027016806,$country), V_country-type-222\1($country)]

ANS($country) : [V_offer-prop-from-ptype-71\4(X85969027018137,X85969027018138,$country,X85969027018142), V_country-type-222\1($country)]

ANS($country) : [V_offer-prop-from-ptype-142\4(X85969027017815,X85969027017817,$country,X85969027017818), V_country-type-222\1($country)]

ANS($country) : [V_offer-prop-from-ptype-88\4(X85969027017655,X85969027017654,$country,X85969027017650), V_country-type-222\1($country)]

ANS($country) : [V_review-prop-of-ptype-80\4(X85969027018726,X85969027018729,X85969027018730,$country), V_country-type-222\1($country)]

ANS($country) : [V_offer-prop-from-ptype-65\4(X85969027018567,X85969027018568,$country,X85969027018564), V_country-type-222\1($country)]

ANS($country) : [V_review-prop-of-ptype-95\4(X85969027016755,X85969027016754,X85969027016756,$country), V_country-type-222\1($country)]

ANS($country) : [V_offer-prop-from-ptype-112\4(X85969027018386,X85969027018387,$country,X85969027018383), V_country-type-222\1($country)]

ANS($country) : [V_offer-prop-from-ptype-101\4(X85969027017076,X85969027017078,$country,X85969027017080), V_country-type-222\1($country)]

ANS($country) : [V_review-prop-of-ptype-92\4(X85969027017616,X85969027017615,X85969027017617,$country), V_country-type-222\1($country)]

ANS($country) : [V_review-prop-of-ptype-129\4(X85969027017986,X85969027017982,X85969027017981,$country), V_country-type-222\1($country)]

ANS($country) : [V_review-prop-of-ptype-111\4(X85969027016779,X85969027016781,X85969027016780,$country), V_country-type-222\1($country)]

ANS($country) : [V_offer-prop-from-ptype-100\4(X85969027017543,X85969027017542,$country,X85969027017544), V_country-type-222\1($country)]

ANS($country) : [V_offer-prop-from-ptype-118\4(X85969027017435,X85969027017434,$country,X85969027017438), V_country-type-222\1($country)]

ANS($country) : [V_offer-prop-from-ptype-120\4(X85969027018609,X85969027018610,$country,X85969027018608), V_country-type-222\1($country)]

ANS($country) : [V_offer-prop-from-ptype-96\4(X85969027018845,X85969027018846,$country,X85969027018850), V_country-type-222\1($country)]

ANS($country) : [V_offer-prop-from-ptype-111\4(X85969027016874,X85969027016875,$country,X85969027016876), V_country-type-222\1($country)]

ANS($country) : [V_offer-prop-from-ptype-149\4(X85969027016647,X85969027016649,$country,X85969027016651), V_country-type-222\1($country)]

ANS($country) : [V_offer-prop-from-ptype-148\4(X85969027017040,X85969027017042,$country,X85969027017044), V_country-type-222\1($country)]

ANS($country) : [V_offer-country\2($country,X85969027018147), V_country-type-222\1($country)]

ANS($country) : [V_offer-prop-from-ptype-74\4(X85969027018809,X85969027018810,$country,X85969027018814), V_country-type-222\1($country)]

ANS($country) : [V_review-prop-of-ptype-143\4(X85969027018005,X85969027018006,X85969027018009,$country), V_country-type-222\1($country)]

ANS($country) : [V_offer-prop-from-ptype-58\4(X85969027018715,X85969027018713,$country,X85969027018718), V_country-type-222\1($country)]

ANS($country) : [V_offer-prop-from-ptype-106\4(X85969027016567,X85969027016563,$country,X85969027016564), V_country-type-222\1($country)]

ANS($country) : [V_review-prop-of-ptype-117\4(X85969027016699,X85969027016694,X85969027016696,$country), V_country-type-222\1($country)]

ANS($country) : [V_review-prop-of-ptype-65\4(X85969027017974,X85969027017973,X85969027017970,$country), V_country-type-222\1($country)]

ANS($country) : [V_review-prop-of-ptype-102\4(X85969027018886,X85969027018884,X85969027018885,$country), V_country-type-222\1($country)]

ANS($country) : [V_offer-prop-from-ptype-116\4(X85969027016924,X85969027016926,$country,X85969027016927), V_country-type-222\1($country)]

ANS($country) : [V_review-prop-of-ptype-151\4(X85969027018266,X85969027018267,X85969027018268,$country), V_country-type-222\1($country)]

ANS($country) : [V_review-prop-of-ptype-86\4(X85969027018858,X85969027018861,X85969027018862,$country), V_country-type-222\1($country)]

ANS($country) : [V_offer-prop-from-ptype-144\4(X85969027018299,X85969027018302,$country,X85969027018300), V_country-type-222\1($country)]

ANS($country) : [V_review-prop-of-ptype-127\4(X85969027017898,X85969027017897,X85969027017900,$country), V_country-type-222\1($country)]

ANS($country) : [V_review-prop-of-ptype-103\4(X85969027018374,X85969027018372,X85969027018373,$country), V_country-type-222\1($country)]

ANS($country) : [V_review-prop-of-ptype-132\4(X85969027016661,X85969027016660,X85969027016663,$country), V_country-type-222\1($country)]

ANS($country) : [V_offer-prop-from-ptype-119\4(X85969027018654,X85969027018655,$country,X85969027018657), V_country-type-222\1($country)]

ANS($country) : [V_review-prop-of-ptype-128\4(X85969027017422,X85969027017424,X85969027017423,$country), V_country-type-222\1($country)]

ANS($country) : [V_review-prop-of-ptype-87\4(X85969027018665,X85969027018666,X85969027018669,$country), V_country-type-222\1($country)]

ANS($country) : [V_review-prop-of-ptype-76\4(X85969027017854,X85969027017850,X85969027017849,$country), V_country-type-222\1($country)]

ANS($country) : [V_offer-prop-from-ptype-138\4(X85969027017148,X85969027017150,$country,X85969027017152), V_country-type-222\1($country)]

ANS($country) : [V_offer-prop-from-ptype-99\4(X85969027018079,X85969027018077,$country,X85969027018081), V_country-type-222\1($country)]

ANS($country) : [V_review-prop-of-ptype-141\4(X85969027018424,X85969027018422,X85969027018423,$country), V_country-type-222\1($country)]

ANS($country) : [V_review-prop-of-ptype-149\4(X85969027016673,X85969027016675,X85969027016674,$country), V_country-type-222\1($country)]

ANS($country) : [V_review-prop-of-ptype-75\4(X85969027018455,X85969027018456,X85969027018457,$country), V_country-type-222\1($country)]

ANS($country) : [V_offer-prop-from-ptype-123\4(X85969027017603,X85969027017602,$country,X85969027017604), V_country-type-222\1($country)]

ANS($country) : [V_offer-prop-from-ptype-69\4(X85969027016993,X85969027016992,$country,X85969027016994), V_country-type-222\1($country)]

ANS($country) : [V_review-prop-of-ptype-136\4(X85969027017068,X85969027017069,X85969027017065,$country), V_country-type-222\1($country)]

ANS($country) : [V_offer-prop-from-ptype-60\4(X85969027017828,X85969027017830,$country,X85969027017826), V_country-type-222\1($country)]

ANS($country) : [V_offer-prop-from-ptype-147\4(X85969027018589,X85969027018587,$country,X85969027018591), V_country-type-222\1($country)]

ANS($country) : [V_review-prop-of-ptype-70\4(X85969027017055,X85969027017054,X85969027017057,$country), V_country-type-222\1($country)]

ANS($country) : [V_offer-prop-from-ptype-70\4(X85969027018528,X85969027018531,$country,X85969027018529), V_country-type-222\1($country)]

ANS($country) : [V_review-prop-of-ptype-125\4(X85969027018741,X85969027018742,X85969027018739,$country), V_country-type-222\1($country)]

ANS($country) : [V_review-prop-of-ptype-116\4(X85969027018622,X85969027018620,X85969027018621,$country), V_country-type-222\1($country)]

ANS($country) : [V_offer-prop-from-ptype-94\4(X85969027017873,X85969027017875,$country,X85969027017876), V_country-type-222\1($country)]

ANS($country) : [V_offer-prop-from-ptype-132\4(X85969027017590,X85969027017592,$country,X85969027017594), V_country-type-222\1($country)]

ANS($country) : [V_review-prop-of-ptype-88\4(X85969027017790,X85969027017789,X85969027017792,$country), V_country-type-222\1($country)]

ANS($country) : [V_review-prop-of-ptype-83\4(X85969027018044,X85969027018042,X85969027018043,$country), V_country-type-222\1($country)]

ANS($country) : [V_review-prop-of-ptype-73\4(X85969027017311,X85969027017313,X85969027017312,$country), V_country-type-222\1($country)]

ANS($country) : [V_review-prop-of-ptype-145\4(X85969027017722,X85969027017718,X85969027017717,$country), V_country-type-222\1($country)]

ANS($country) : [V_review-prop-of-ptype-114\4(X85969027017249,X85969027017248,X85969027017251,$country), V_country-type-222\1($country)]

ANS($country) : [V_review-prop-of-ptype-64\4(X85969027016503,X85969027016502,X85969027016505,$country), V_country-type-222\1($country)]

ANS($country) : [V_review-prop-of-ptype-85\4(X85969027016687,X85969027016686,X85969027016683,$country), V_country-type-222\1($country)]

ANS($country) : [V_offer-prop-from-ptype-95\4(X85969027018703,X85969027018701,$country,X85969027018705), V_country-type-222\1($country)]

ANS($country) : [V_offer-prop-from-ptype-129\4(X85969027018324,X85969027018325,$country,X85969027018327), V_country-type-222\1($country)]

ANS($country) : [V_offer-prop-from-ptype-110\4(X85969027016718,X85969027016720,$country,X85969027016722), V_country-type-222\1($country)]

ANS($country) : [V_offer-prop-from-ptype-103\4(X85969027018543,X85969027018544,$country,X85969027018542), V_country-type-222\1($country)]

ANS($country) : [V_offer-prop-from-ptype-63\4(X85969027017411,X85969027017410,$country,X85969027017412), V_country-type-222\1($country)]

ANS($country) : [V_review-prop-of-ptype-62\4(X85969027017862,X85969027017861,X85969027017864,$country), V_country-type-222\1($country)]

ANS($country) : [V_review-prop-of-ptype-71\4(X85969027017994,X85969027017993,X85969027017995,$country), V_country-type-222\1($country)]

ANS($country) : [V_offer-prop-from-ptype-133\4(X85969027016742,X85969027016744,$country,X85969027016745), V_country-type-222\1($country)]

ANS($country) : [V_review-prop-of-ptype-138\4(X85969027018765,X85969027018766,X85969027018762,$country), V_country-type-222\1($country)]

