digraph  g{
node [shape=rectangle, color=black, fontcolor=black, style=bold]
0 [label="LogDistinct" , color = blue] ; 
1 [label="Union", color = blue] ; 
0 -> 1 ; 
2 [label="LogProj
[0]" , color = blue] ; 
1 -> 2 ; 
3 [label="Join\n [0PREDICATE_EQUAL2] ", color = blue] ; 
2 -> 3 ; 
4 [label="LogSkolemFunctionCall
(<http://www.imdb.com/name/{1}>, <http://www.imdb.com/title/{0}>)" , color = blue] ; 
3 -> 4 ; 
5 [label="LogSQLEval 
select movie_id, person_id from cast_info where role_id = 9", color = blue] ; 
4 -> 5 ; 
6 [label="LogSel
[[1PREDICATE_EQUAL\"\"Rawlings, Terry\"\"]]" , color = blue] ; 
3 -> 6 ; 
7 [label="LogSkolemFunctionCall
(<http://www.imdb.com/name/{0}>, \"{1}\")" , color = blue] ; 
6 -> 7 ; 
8 [label="LogSQLEval 
select name.id as person_id, name.name as name from name", color = blue] ; 
7 -> 8 ; 
10 [label="LogProj
[0]" , color = blue] ; 
1 -> 10 ; 
11 [label="Join\n [0PREDICATE_EQUAL1] ", color = blue] ; 
10 -> 11 ; 
12 [label="LogSkolemFunctionCall
(<http://www.imdb.com/name/{0}>)" , color = blue] ; 
11 -> 12 ; 
13 [label="LogSQLEval 
select person_id from cast_info where cast_info.role_id = 9", color = blue] ; 
12 -> 13 ; 
14 [label="LogSel
[[1PREDICATE_EQUAL\"\"Rawlings, Terry\"\"]]" , color = blue] ; 
11 -> 14 ; 
15 [label="LogSkolemFunctionCall
(<http://www.imdb.com/name/{0}>, \"{1}\")" , color = blue] ; 
14 -> 15 ; 
16 [label="LogSQLEval 
select name.id as person_id, name.name as name from name", color = blue] ; 
15 -> 16 ; 
}

