digraph  g{
node [shape=rectangle, color=black, fontcolor=black, style=bold]
0 [label="LogDistinct" , color = blue] ; 
1 [label="Union", color = blue] ; 
0 -> 1 ; 
2 [label="LogProj
[1,5]" , color = blue] ; 
1 -> 2 ; 
3 [label="Join\n [0PREDICATE_EQUAL12] ", color = blue] ; 
2 -> 3 ; 
4 [label="Join\n [1PREDICATE_EQUAL11] ", color = blue] ; 
3 -> 4 ; 
5 [label="LogSkolemFunctionCall
(<http://downlode.org/rdf/iso-3166/countries#{2}>, <http://www4.wiwiss.fu-berlin.de/bizer/bsbm/v01/instances/dataFromVendor{1}/Offer{0}>)" , color = blue] ; 
4 -> 5 ; 
6 [label="LogSQLEval 
SELECT O.nr AS nr, O.vendor AS vendor, V.country AS country FROM Offer AS O, Vendor AS V WHERE O.vendor = V.nr", color = blue] ; 
5 -> 6 ; 
7 [label="LogSkolemFunctionCall
(\"{6}\", \"{5}\", <http://www4.wiwiss.fu-berlin.de/bizer/bsbm/v01/instances/dataFromVendor{9}/Vendor{9}>, <{8}>, \"{10}\", <http://www4.wiwiss.fu-berlin.de/bizer/bsbm/v01/instances/dataFromVendor{3}/Vendor{3}>, \"{4}\", \"{7}\", <http://www4.wiwiss.fu-berlin.de/bizer/bsbm/v01/instances/dataFromProducer{2}/Product{1}>, <http://www4.wiwiss.fu-berlin.de/bizer/bsbm/v01/instances/dataFromVendor{3}/Offer{0}>)" , color = blue] ; 
4 -> 7 ; 
8 [label="LogSQLEval 
SELECT nr, product, producer, vendor, price, validFrom, validTo, deliveryDays, offerWebpage, publisher, publishDate FROM Offer", color = blue] ; 
7 -> 8 ; 
9 [label="LogSkolemFunctionCall
(<http://downlode.org/rdf/iso-3166/countries#{0}>)" , color = blue] ; 
3 -> 9 ; 
10 [label="LogSQLEval 
SELECT country FROM CountryType AS C WHERE C.countryType=112", color = blue] ; 
9 -> 10 ; 
12 [label="LogProj
[1,5]" , color = blue] ; 
1 -> 12 ; 
13 [label="Join\n [0PREDICATE_EQUAL12] ", color = blue] ; 
12 -> 13 ; 
14 [label="Join\n [1PREDICATE_EQUAL11] ", color = blue] ; 
13 -> 14 ; 
15 [label="LogSkolemFunctionCall
(<http://downlode.org/rdf/iso-3166/countries#{2}>, <http://www4.wiwiss.fu-berlin.de/bizer/bsbm/v01/instances/dataFromVendor{1}/Offer{0}>)" , color = blue] ; 
14 -> 15 ; 
16 [label="LogSQLEval 
SELECT O.nr AS nr, O.vendor AS vendor, V.country AS country FROM Offer AS O, Vendor AS V WHERE O.vendor = V.nr", color = blue] ; 
15 -> 16 ; 
17 [label="LogSkolemFunctionCall
(\"{6}\", \"{5}\", <http://www4.wiwiss.fu-berlin.de/bizer/bsbm/v01/instances/dataFromVendor{9}/Vendor{9}>, <{8}>, \"{10}\", <http://www4.wiwiss.fu-berlin.de/bizer/bsbm/v01/instances/dataFromVendor{3}/Vendor{3}>, \"{4}\", \"{7}\", <http://www4.wiwiss.fu-berlin.de/bizer/bsbm/v01/instances/dataFromProducer{2}/Product{1}>, <http://www4.wiwiss.fu-berlin.de/bizer/bsbm/v01/instances/dataFromVendor{3}/Offer{0}>)" , color = blue] ; 
14 -> 17 ; 
18 [label="LogSQLEval 
SELECT nr, product, producer, vendor, price, validFrom, validTo, deliveryDays, offerWebpage, publisher, publishDate FROM Offer", color = blue] ; 
17 -> 18 ; 
19 [label="LogSkolemFunctionCall
(<http://downlode.org/rdf/iso-3166/countries#{0}>)" , color = blue] ; 
13 -> 19 ; 
20 [label="LogSQLEval 
SELECT country FROM CountryType AS C WHERE C.countryType=111", color = blue] ; 
19 -> 20 ; 
22 [label="LogProj
[1,5]" , color = blue] ; 
1 -> 22 ; 
23 [label="Join\n [0PREDICATE_EQUAL12] ", color = blue] ; 
22 -> 23 ; 
24 [label="Join\n [1PREDICATE_EQUAL11] ", color = blue] ; 
23 -> 24 ; 
25 [label="LogSkolemFunctionCall
(<http://downlode.org/rdf/iso-3166/countries#{2}>, <http://www4.wiwiss.fu-berlin.de/bizer/bsbm/v01/instances/dataFromVendor{1}/Offer{0}>)" , color = blue] ; 
24 -> 25 ; 
26 [label="LogSQLEval 
SELECT O.nr AS nr, O.vendor AS vendor, V.country AS country FROM Offer AS O, Vendor AS V WHERE O.vendor = V.nr", color = blue] ; 
25 -> 26 ; 
27 [label="LogSkolemFunctionCall
(\"{6}\", \"{5}\", <http://www4.wiwiss.fu-berlin.de/bizer/bsbm/v01/instances/dataFromVendor{9}/Vendor{9}>, <{8}>, \"{10}\", <http://www4.wiwiss.fu-berlin.de/bizer/bsbm/v01/instances/dataFromVendor{3}/Vendor{3}>, \"{4}\", \"{7}\", <http://www4.wiwiss.fu-berlin.de/bizer/bsbm/v01/instances/dataFromProducer{2}/Product{1}>, <http://www4.wiwiss.fu-berlin.de/bizer/bsbm/v01/instances/dataFromVendor{3}/Offer{0}>)" , color = blue] ; 
24 -> 27 ; 
28 [label="LogSQLEval 
SELECT nr, product, producer, vendor, price, validFrom, validTo, deliveryDays, offerWebpage, publisher, publishDate FROM Offer", color = blue] ; 
27 -> 28 ; 
29 [label="LogSkolemFunctionCall
(<http://downlode.org/rdf/iso-3166/countries#{0}>)" , color = blue] ; 
23 -> 29 ; 
30 [label="LogSQLEval 
SELECT country FROM CountryType AS C WHERE C.countryType=121", color = blue] ; 
29 -> 30 ; 
32 [label="LogProj
[1,5]" , color = blue] ; 
1 -> 32 ; 
33 [label="Join\n [0PREDICATE_EQUAL12] ", color = blue] ; 
32 -> 33 ; 
34 [label="Join\n [1PREDICATE_EQUAL11] ", color = blue] ; 
33 -> 34 ; 
35 [label="LogSkolemFunctionCall
(<http://downlode.org/rdf/iso-3166/countries#{2}>, <http://www4.wiwiss.fu-berlin.de/bizer/bsbm/v01/instances/dataFromVendor{1}/Offer{0}>)" , color = blue] ; 
34 -> 35 ; 
36 [label="LogSQLEval 
SELECT O.nr AS nr, O.vendor AS vendor, V.country AS country FROM Offer AS O, Vendor AS V WHERE O.vendor = V.nr", color = blue] ; 
35 -> 36 ; 
37 [label="LogSkolemFunctionCall
(\"{6}\", \"{5}\", <http://www4.wiwiss.fu-berlin.de/bizer/bsbm/v01/instances/dataFromVendor{9}/Vendor{9}>, <{8}>, \"{10}\", <http://www4.wiwiss.fu-berlin.de/bizer/bsbm/v01/instances/dataFromVendor{3}/Vendor{3}>, \"{4}\", \"{7}\", <http://www4.wiwiss.fu-berlin.de/bizer/bsbm/v01/instances/dataFromProducer{2}/Product{1}>, <http://www4.wiwiss.fu-berlin.de/bizer/bsbm/v01/instances/dataFromVendor{3}/Offer{0}>)" , color = blue] ; 
34 -> 37 ; 
38 [label="LogSQLEval 
SELECT nr, product, producer, vendor, price, validFrom, validTo, deliveryDays, offerWebpage, publisher, publishDate FROM Offer", color = blue] ; 
37 -> 38 ; 
39 [label="LogSkolemFunctionCall
(<http://downlode.org/rdf/iso-3166/countries#{0}>)" , color = blue] ; 
33 -> 39 ; 
40 [label="LogSQLEval 
SELECT country FROM CountryType AS C WHERE C.countryType=122", color = blue] ; 
39 -> 40 ; 
}

