{
  "name": "Experiment on Star Wars RDF Integration System",
  "queries": "queries.txt",
  "sessions": {
    "REW_CA": "2020-09-02-15-30-33_REW_CA",
    "REW_C": "2020-09-02-15-30-04_REW_C",
    "REW": "2020-09-02-15-27-12_REW_HASHJOIN",
    "MAT_CA": "2020-09-02-15-31-08_MAT_CA",
    "MAT": "2020-09-02-15-31-27_MAT"
  }  
}
