{
  "mappings": [
    {
      "name": "person-names",
      "head": [
        [
          "$person", "<http://www.w3.org/2000/01/rdf-schema#label>", "$name"
        ]
      ],
      "body": {
        "templates": {
          "person": "<http://www.imdb.com/name/{nconst}>",
          "name": "primaryname"
        },
        "query": "select nconst, primaryname from swperson",
        "datasource": "IMDB_POSTGRES"
      }
    },
    {
      "name": "male-actors",
      "head": [
        [ "$actor", "<http://www.movieontology.org/2009/10/01/movieontology.owl#isMaleActorIn>", "$movie" ],
        [ "$actor", "<ex:performerOf>", "$character" ],
        [ "$character", "<http://www.w3.org/2000/01/rdf-schema#label>", "$chName" ]
      ],
      "body": {
        "templates": {
          "actor": "<http://www.imdb.com/name/{nconst}>",
          "movie": "<http://www.imdb.com/title/{tconst}>",
          "chName": "character"
        },
        "query": "select tconst, nconst, character from swCasting where category='actor'",
        "datasource": "IMDB_POSTGRES"
      }
    },
    {
      "name": "actress",
      "head": [
        [ "$actor", "<http://www.movieontology.org/2009/10/01/movieontology.owl#isActressIn>", "$movie" ],
        [ "$actor", "<ex:performerOf>", "$character" ],
        [ "$character", "<http://www.w3.org/2000/01/rdf-schema#label>", "$chName" ]
      ],
      "body": {
        "templates": {
          "actor": "<http://www.imdb.com/name/{nconst}>",
          "movie": "<http://www.imdb.com/title/{tconst}>",
          "chName": "character"
        },
        "query": "select tconst, nconst, character from swCasting where category='actress'",
        "datasource": "IMDB_POSTGRES"
      }
    },
    {
      "name": "organisation-char-membership",
      "head": [
        [ "$character", "<http://www.w3.org/ns/org#memberOf>", "$org" ],
        [ "$actor", "<ex:performerOf>", "$character" ]
      ],
      "body": {
        "templates": {
          "character": "<https://www.starwars.com/databank/{char}>",
          "org": "<{org}>",
          "actor": "<http://www.imdb.com/name/{nconst}>"
        },
        "query": "SELECT ?char ?org ?nconst WHERE { ?c <http://www.wikidata.org/prop/P463> ?stat1. ?stat1 <http://www.wikidata.org/prop/statement/P463> ?org. ?c <http://www.wikidata.org/prop/P175> ?stat2 . ?stat2 <http://www.wikidata.org/prop/statement/P175> ?actor . ?actor <http://www.wikidata.org/prop/P345> ?stat4 . ?stat4 <http://www.wikidata.org/prop/statement/P345> ?nconst . ?c <http://www.wikidata.org/prop/P3798> ?stat3 . ?stat3 <http://www.wikidata.org/prop/statement/P3798> ?char .}",
        "datasource": "WIKIDATA_JENA"
      }
    },
    {
      "name": "characters-name",
      "head": [
        [ "$character", "<http://www.w3.org/2000/01/rdf-schema#label>", "$name" ]
      ],
      "body": {
        "templates": {
          "character": "<https://www.starwars.com/databank/{formatedName}>",
          "name": "name"
        },
        "query": {
          "projections": [
            "formatedName",
            "name"
          ],
          "pipelines": [],
          "collection": "people"
        },
        "datasource": "SWAPI_MONGODB"
      }
    },
    {
      "name": "starFighters",
      "head": [
        [ "$starship", "<http://www.w3.org/1999/02/22-rdf-syntax-ns#type>", "<ex:StarFighter>" ]
      ],
      "body": {
        "templates": {
          "starship": "<{url}>"
        },
        "query": {
          "projections": [
            "url"
          ],
          "pipelines": [
            {"$match": {
              "starship_class": {
                "$regex": "starfighter$",
                "$options": "i" }
            }
            }
          ],
          "collection": "starships"
        },
        "datasource": "SWAPI_MONGODB"
      }
    },
    {
      "name": "transport-starships",
      "head": [
        [ "$starship", "<http://www.w3.org/1999/02/22-rdf-syntax-ns#type>", "<ex:TransportStarShip>" ]
      ],
      "body": {
        "templates": {
          "starship": "<{url}>"
        },
        "query": {
          "projections": [
            "url"
          ],
          "pipelines": [
            {"$match": {
              "starship_class": {
                "$regex": "transport$",
                "$options": "i" }
            }
            }
          ],
          "collection": "starships"
        },
        "datasource": "SWAPI_MONGODB"
      }
    },
    {
      "name": "starship-pilot",
      "head": [
        [ "$character", "<ex:pilotOf>", "$starship" ]
      ],
      "body": {
        "datasource": "SWAPI_MONGODB",
        "templates": {
          "character": "<https://www.starwars.com/databank/{pilot.formatedName}>",
          "starship": "<{url}>"
        },
        "query": {
          "projections": [
            "pilot.formatedName",
            "url"
          ],
          "pipelines": [
            {"$unwind": "$pilots"},
            {"$lookup": {
              "from": "people",
              "localField": "pilots",
              "foreignField": "url",
              "as": "pilot"}
            },
            {"$unwind": "$pilot"}
          ],
          "collection": "starships"
        }
      }
    },
    {
      "name": "speeders",
      "head": [
        [ "$vehicle", "<http://www.w3.org/1999/02/22-rdf-syntax-ns#type>", "<ex:Speeder>" ]
      ],
      "body": {
        "templates": {
          "vehicle": "<{url}>"
        },
        "query": {
          "projections": [
            "url"
          ],
          "pipelines": [
            {"$match": {
              "vehicle_class": {
                "$regex": "speeder$",
                "$options": "i" }
            }
            }
          ],
          "collection": "vehicles"
        },
        "datasource": "SWAPI_MONGODB"
      }
    },
    {
      "name": "walkers",
      "head": [
        [ "$vehicle", "<http://www.w3.org/1999/02/22-rdf-syntax-ns#type>", "<ex:Walker>" ]
      ],
      "body": {

        "templates": {
          "vehicle": "<{url}>"
        },
        "query": {
          "projections": [
            "url"
          ],
          "pipelines": [
            {"$match": {
              "vehicle_class": {
                "$regex": "walker$",
                "$options": "i" }
            }
            }
          ],
          "collection": "vehicles"
        },
        "datasource": "SWAPI_MONGODB"
      }
    },
    {
      "name": "vehicule-name",
      "head": [
        [ "$vehicle", "<http://www.w3.org/2000/01/rdf-schema#label>", "$name" ]
      ],
      "body": {

        "templates": {
          "vehicle": "<{url}>",
          "name": "name"
        },
        "query": {
          "projections": [
            "url",
            "name"
          ],
          "pipelines": [],
          "collection": "vehicles"
        },
        "datasource": "SWAPI_MONGODB"
      }
    },
    {
      "name": "starship-name",
      "head": [
        [ "$starship", "<http://www.w3.org/2000/01/rdf-schema#label>", "$name" ]
      ],
      "body": {

        "templates": {
          "starship": "<{url}>",
          "name": "name"
        },
        "query": {
          "projections": [
            "url",
            "name"
          ],
          "pipelines": [],
          "collection": "starships"
        },
        "datasource": "SWAPI_MONGODB"
      }
    },
    {
      "name": "vehicule-pilot",
      "head": [
        [ "$character", "<ex:pilotOf>", "$vehicle" ]
      ],
      "body": {
        "templates": {
          "character": "<https://www.starwars.com/databank/{pilot.formatedName}>",
          "vehicle": "<{url}>"
        },
        "query": {
          "projections": [
            "pilot.formatedName",
            "url"
          ],
          "pipelines": [
            {"$unwind": "$pilots"},
            {"$lookup": {
              "from": "people",
              "localField": "pilots",
              "foreignField": "url",
              "as": "pilot"}
            },
            {"$unwind": "$pilot"}
          ],
          "collection": "vehicles"
        },
        "datasource": "SWAPI_MONGODB"
      }
    },
    {
      "name": "directors",
      "head": [
        [ "$director", "<http://www.movieontology.org/2009/10/01/movieontology.owl#isDirectorOf>", "$movie" ]
      ],
      "body": {
        "templates": {
          "director": "<http://www.imdb.com/name/{nconst}>",
          "movie": "<http://www.imdb.com/title/{tconst}>"
        },
        "query": "select tconst, nconst from swCasting where category='director'",
        "datasource": "IMDB_POSTGRES"
      }
    },
    {
      "name": "producers",
      "head": [
        [ "$producer", "<http://www.movieontology.org/2009/10/01/movieontology.owl#isProducerOf>", "$movie" ]
      ],
      "body": {
        "templates": {
          "producer": "<http://www.imdb.com/name/{nconst}>",
          "movie": "<http://www.imdb.com/title/{tconst}>"
        },
        "query": "select tconst, nconst from swCasting where category='producer'",
        "datasource": "IMDB_POSTGRES"
      }
    },
    {
      "name": "writers",
      "head": [
        [ "$movie", "<http://www.movieontology.org/2009/10/01/movieontology.owl#isWriterOf>", "$writer" ]
      ],
      "body": {
        "templates": {
          "writer": "<http://www.imdb.com/name/{nconst}>",
          "movie": "<http://www.imdb.com/title/{tconst}>"
        },
        "query": "select tconst, nconst from swCasting where category='writer'",
        "datasource": "IMDB_POSTGRES"
      }
    }
  ],
  "datasources": [
    {
      "name": "IMDB_POSTGRES",
      "type": "POSTGRESQL",
      "parameters": {
        "server": "localhost",
        "password": "postgres",
        "database": "imdb",
        "port": "5432",
        "user": "postgres"
      }
    },
    {
      "name": "WIKIDATA_JENA",
      "type": "JENA",
      "parameters": {
        "rdfFile": "data/sw.nt",
        "saturation": false
      }
    },
    {
      "name": "SWAPI_MONGODB",
      "type": "MONGODB",
      "parameters": {
        "db": "swapi",
        "url": "mongodb://localhost:27017"
      }
    }
  ],
  "name": "Star Wars",
  "description": "A small RIS demonstrating how Obi-Wan can integrate heterogeneous sources about Star Wars using GLAV mappings. Further details on the construction of the data sources are available online: https://pages.saclay.inria.fr/maxime.buron/posts/starwars-demo.html.",
  "RDFSRuleSet": "RDFS",
  "ontology": "sw-ontology.nt"
}
