<$cName> :- 
	triple($FV_3,<504>,$char),
	triple($char,<12>,$cName);

<$cName> :- 
	triple($char,<231>,<481>),
	triple($char,<12>,$cName);

<$cName> :- 
	triple($char,<302>,$FV_2),
	triple($char,<12>,$cName);

