digraph  g{ graph[label = "12:11:25.325"]
node [shape=rectangle, color=black, fontcolor=black, style=bold] edge [color=black] 0 [label="BindAccessEval", color = yellow] ; 
1 [label="SQLQuery
SELECT tab_3432.publisher, tab_3432.nr, tab_3432.producer, tab_3432.product, tab_3432.rating2 
FROM Person AS tab_3434, Review AS tab_3432, Review AS tab_3433, Producer AS tab_3430, CountryType AS tab_3435, Product AS tab_3431 
WHERE tab_3433.person = tab_3434.nr AND tab_3432.publisher = tab_3434.publisher AND tab_3432.nr = tab_3433.nr AND tab_3431.producer = tab_3430.nr AND tab_3432.producer = tab_3431.producer AND tab_3432.product = tab_3431.nr AND tab_3435.countryType = 112 AND tab_3430.country = tab_3435.country 
UNION
SELECT tab_3460.publisher, tab_3460.nr, tab_3460.producer, tab_3460.product, tab_3460.rating1 
FROM Product AS tab_3458, Review AS tab_3460, Review AS tab_3461, Producer AS tab_3462, CountryType AS tab_3463, Person AS tab_3459 
WHERE tab_3461.person = tab_3459.nr AND tab_3460.publisher = tab_3459.publisher AND tab_3460.nr = tab_3461.nr AND tab_3458.producer = tab_3462.nr AND tab_3460.producer = tab_3458.producer AND tab_3460.product = tab_3458.nr AND tab_3463.countryType = 111 AND tab_3462.country = tab_3463.country 
UNION
SELECT tab_3417.publisher, tab_3417.nr, tab_3417.producer, tab_3417.product, tab_3417.rating1 
FROM Review AS tab_3418, Producer AS tab_3419, Person AS tab_3420, Product AS tab_3416, CountryType AS tab_3421, Review AS tab_3417 
WHERE tab_3418.person = tab_3420.nr AND tab_3417.publisher = tab_3420.publisher AND tab_3417.nr = tab_3418.nr AND tab_3416.producer = tab_3419.nr AND tab_3417.producer = tab_3416.producer AND tab_3417.product = tab_3416.nr AND tab_3421.countryType = 112 AND tab_3419.country = tab_3421.country 
UNION
SELECT tab_3448.publisher, tab_3448.nr, tab_3448.producer, tab_3448.product, tab_3448.rating2 
FROM Person AS tab_3444, Product AS tab_3447, Review AS tab_3445, Review AS tab_3448, CountryType AS tab_3449, Producer AS tab_3446 
WHERE tab_3445.person = tab_3444.nr AND tab_3448.publisher = tab_3444.publisher AND tab_3448.nr = tab_3445.nr AND tab_3447.producer = tab_3446.nr AND tab_3448.producer = tab_3447.producer AND tab_3448.product = tab_3447.nr AND tab_3449.countryType = 111 AND tab_3446.country = tab_3449.country
29377", color = yellow] ; 
0 -> 1 ; 
2 [label="FunctionCallBindAccess
(<http://www4.wiwiss.fu-berlin.de/bizer/bsbm/v01/instances/dataFromRatingSite{0}/Review{1}>, <http://www4.wiwiss.fu-berlin.de/bizer/bsbm/v01/instances/dataFromProducer{2}/Product{3}>, \"{4}\")", color = yellow] ; 
0 -> 2 ; 
}

