<$label,$featureLabel,$value> :- 
	triple($product,<69473>,$label),
	triple($product,<265794>,<509301>),
	triple($product,<477268>,$productFeature),
	triple($productFeature,<69473>,$featureLabel),
	triple($product,<214992>,$value);

<$label,$featureLabel,$value> :- 
	triple($product,<69473>,$label),
	triple($product,<265794>,<247581>),
	triple($product,<477268>,$productFeature),
	triple($productFeature,<69473>,$featureLabel),
	triple($product,<356327>,$value);

<$label,$featureLabel,$value> :- 
	triple($product,<69473>,$label),
	triple($product,<265794>,<235074>),
	triple($product,<477268>,$productFeature),
	triple($productFeature,<69473>,$featureLabel),
	triple($product,<356327>,$value);

<$label,$featureLabel,$value> :- 
	triple($product,<69473>,$label),
	triple($product,<265794>,<509301>),
	triple($product,<477268>,$productFeature),
	triple($productFeature,<69473>,$featureLabel),
	triple($product,<356327>,$value);

<$label,$featureLabel,$value> :- 
	triple($product,<69473>,$label),
	triple($product,<265794>,<235074>),
	triple($product,<477268>,$productFeature),
	triple($productFeature,<69473>,$featureLabel),
	triple($product,<283327>,$value);

<$label,$featureLabel,$value> :- 
	triple($product,<69473>,$label),
	triple($product,<265794>,<509301>),
	triple($product,<477268>,$productFeature),
	triple($productFeature,<69473>,$featureLabel),
	triple($product,<588756>,$value);

<$label,$featureLabel,$value> :- 
	triple($product,<69473>,$label),
	triple($product,<265794>,<509301>),
	triple($product,<477268>,$productFeature),
	triple($productFeature,<69473>,$featureLabel),
	triple($product,<283327>,$value);

<$label,$featureLabel,$value> :- 
	triple($product,<69473>,$label),
	triple($product,<265794>,<247581>),
	triple($product,<477268>,$productFeature),
	triple($productFeature,<69473>,$featureLabel),
	triple($product,<283327>,$value);

<$label,$featureLabel,$value> :- 
	triple($product,<69473>,$label),
	triple($product,<265794>,<235074>),
	triple($product,<477268>,$productFeature),
	triple($productFeature,<69473>,$featureLabel),
	triple($product,<588756>,$value);

<$label,$featureLabel,$value> :- 
	triple($product,<69473>,$label),
	triple($product,<265794>,<247581>),
	triple($product,<477268>,$productFeature),
	triple($productFeature,<69473>,$featureLabel),
	triple($product,<588756>,$value);

<$label,$featureLabel,$value> :- 
	triple($product,<69473>,$label),
	triple($product,<265794>,<509301>),
	triple($product,<477268>,$productFeature),
	triple($productFeature,<69473>,$featureLabel),
	triple($product,<137298>,$value);

<$label,$featureLabel,$value> :- 
	triple($product,<69473>,$label),
	triple($product,<265794>,<247581>),
	triple($product,<477268>,$productFeature),
	triple($productFeature,<69473>,$featureLabel),
	triple($product,<137298>,$value);

<$label,$featureLabel,$value> :- 
	triple($product,<69473>,$label),
	triple($product,<265794>,<235074>),
	triple($product,<477268>,$productFeature),
	triple($productFeature,<69473>,$featureLabel),
	triple($product,<137298>,$value);

<$label,$featureLabel,$value> :- 
	triple($product,<69473>,$label),
	triple($product,<265794>,<235074>),
	triple($product,<477268>,$productFeature),
	triple($productFeature,<69473>,$featureLabel),
	triple($product,<214992>,$value);

<$label,$featureLabel,$value> :- 
	triple($product,<69473>,$label),
	triple($product,<265794>,<235074>),
	triple($product,<477268>,$productFeature),
	triple($productFeature,<69473>,$featureLabel),
	triple($product,<498405>,$value);

<$label,$featureLabel,$value> :- 
	triple($product,<69473>,$label),
	triple($product,<265794>,<509301>),
	triple($product,<477268>,$productFeature),
	triple($productFeature,<69473>,$featureLabel),
	triple($product,<498405>,$value);

<$label,$featureLabel,$value> :- 
	triple($product,<69473>,$label),
	triple($product,<265794>,<509301>),
	triple($product,<477268>,$productFeature),
	triple($productFeature,<69473>,$featureLabel),
	triple($product,<45263>,$value);

<$label,$featureLabel,$value> :- 
	triple($product,<69473>,$label),
	triple($product,<265794>,<235074>),
	triple($product,<477268>,$productFeature),
	triple($productFeature,<69473>,$featureLabel),
	triple($product,<45263>,$value);

<$label,$featureLabel,$value> :- 
	triple($product,<69473>,$label),
	triple($product,<265794>,<247581>),
	triple($product,<477268>,$productFeature),
	triple($productFeature,<69473>,$featureLabel),
	triple($product,<498405>,$value);

<$label,$featureLabel,$value> :- 
	triple($product,<69473>,$label),
	triple($product,<265794>,<247581>),
	triple($product,<477268>,$productFeature),
	triple($productFeature,<69473>,$featureLabel),
	triple($product,<214992>,$value);

<$label,$featureLabel,$value> :- 
	triple($product,<69473>,$label),
	triple($product,<265794>,<247581>),
	triple($product,<477268>,$productFeature),
	triple($productFeature,<69473>,$featureLabel),
	triple($product,<45263>,$value);

