ANS($label,<http://www4.wiwiss.fu-berlin.de/bizer/bsbm/v01/vocabulary/producer>,$country) : [V_product\14(X175948249615439075,X175948249615439073,X175948249615439078,X175948249615439077,X175948249615439081,X175948249615439080,X175948249615439068,X175948249615439070,X175948249615439069,X175948249615439072,$label,X175948249615439076,X175948249615439074,$x), V_product-country\2($x,$country), V_country-type-112\1($country)]

ANS($label,<http://www4.wiwiss.fu-berlin.de/bizer/bsbm/v01/vocabulary/producer>,$country) : [V_product\14(X175948249615440376,X175948249615440374,X175948249615440382,X175948249615440381,X175948249615440380,X175948249615440379,X175948249615440387,X175948249615440386,X175948249615440385,X175948249615440384,$label,X175948249615440377,X175948249615440375,$x), V_product-country\2($x,$country), V_country-type-122\1($country)]

ANS($label,<http://www4.wiwiss.fu-berlin.de/bizer/bsbm/v01/vocabulary/producer>,$country) : [V_product\14(X175948249615441537,X175948249615441539,X175948249615441541,X175948249615441534,X175948249615441535,X175948249615441533,X175948249615441529,X175948249615441530,X175948249615441531,X175948249615441532,$label,X175948249615441538,X175948249615441540,$x), V_product-country\2($x,$country), V_country-type-111\1($country)]

ANS($label,<http://www4.wiwiss.fu-berlin.de/bizer/bsbm/v01/vocabulary/producer>,$country) : [V_product\14(X175948249615442162,X175948249615442154,X175948249615442156,X175948249615442158,X175948249615442150,X175948249615442151,X175948249615442152,X175948249615442153,X175948249615442159,X175948249615442160,$label,X175948249615442163,X175948249615442155,$x), V_product-country\2($x,$country), V_country-type-121\1($country)]

