digraph  g{
node [shape=rectangle, color=black, fontcolor=black, style=bold]
0 [label="LogDistinct" , color = blue] ; 
1 [label="Union", color = blue] ; 
0 -> 1 ; 
2 [label="LogProj
[10,8,16]" , color = blue] ; 
1 -> 2 ; 
3 [label="Join\n [16PREDICATE_EQUAL17] ", color = blue] ; 
2 -> 3 ; 
4 [label="Join\n [13PREDICATE_EQUAL15,14PREDICATE_EQUAL15] ", color = blue] ; 
3 -> 4 ; 
5 [label="Join\n [13PREDICATE_EQUAL14] ", color = blue] ; 
4 -> 5 ; 
6 [label="LogSkolemFunctionCall
(\"{11}\", \"{10}\", \"{2}\", \"{9}\", <http://www4.wiwiss.fu-berlin.de/bizer/bsbm/v01/instances/dataFromProducer{3}/Producer{3}>, \"{8}\", <http://www4.wiwiss.fu-berlin.de/bizer/bsbm/v01/instances/dataFromProducer{3}/Producer{3}>, \"{7}\", \"{5}\", \"{4}\", \"{1}\", \"{13}\", \"{6}\", <http://www4.wiwiss.fu-berlin.de/bizer/bsbm/v01/instances/dataFromProducer{3}/Product{0}>)" , color = blue] ; 
5 -> 6 ; 
7 [label="LogSQLEval 
SELECT nr, label, comment, producer, propertyNum1, propertyNum2, propertyTex1, propertyTex2, propertyTex3, propertyTex4, propertyTex5, propertyTex6, publisher, publishDate FROM Product", color = blue] ; 
6 -> 7 ; 
8 [label="LogSkolemFunctionCall
(<http://www4.wiwiss.fu-berlin.de/bizer/bsbm/v01/instances/dataFromProducer{1}/Product{0}>)" , color = blue] ; 
5 -> 8 ; 
9 [label="LogSQLEval 
SELECT P.nr AS nr, P.producer AS producer FROM PRODUCT AS P, PRODUCTTYPEPRODUCT AS PT WHERE PT.producttype = 57 AND PT.product = P.nr", color = blue] ; 
8 -> 9 ; 
10 [label="LogSkolemFunctionCall
(<http://www4.wiwiss.fu-berlin.de/bizer/bsbm/v01/instances/dataFromProducer{1}/Product{0}>, <http://downlode.org/rdf/iso-3166/countries#{2}>)" , color = blue] ; 
4 -> 10 ; 
11 [label="LogMongoDBEval
productproducercountry
[]
[nr, producer, country]
", color = blue] ; 
10 -> 11 ; 
12 [label="LogSkolemFunctionCall
(<http://downlode.org/rdf/iso-3166/countries#{0}>)" , color = blue] ; 
3 -> 12 ; 
13 [label="LogMongoDBEval
countrytype
[{\"$match\":{\"countrytype\":111}}]
[country]
", color = blue] ; 
12 -> 13 ; 
15 [label="LogProj
[10,8,16]" , color = blue] ; 
1 -> 15 ; 
16 [label="Join\n [16PREDICATE_EQUAL17] ", color = blue] ; 
15 -> 16 ; 
17 [label="Join\n [13PREDICATE_EQUAL15,14PREDICATE_EQUAL15] ", color = blue] ; 
16 -> 17 ; 
18 [label="Join\n [13PREDICATE_EQUAL14] ", color = blue] ; 
17 -> 18 ; 
19 [label="LogSkolemFunctionCall
(\"{11}\", \"{10}\", \"{2}\", \"{9}\", <http://www4.wiwiss.fu-berlin.de/bizer/bsbm/v01/instances/dataFromProducer{3}/Producer{3}>, \"{8}\", <http://www4.wiwiss.fu-berlin.de/bizer/bsbm/v01/instances/dataFromProducer{3}/Producer{3}>, \"{7}\", \"{5}\", \"{4}\", \"{1}\", \"{13}\", \"{6}\", <http://www4.wiwiss.fu-berlin.de/bizer/bsbm/v01/instances/dataFromProducer{3}/Product{0}>)" , color = blue] ; 
18 -> 19 ; 
20 [label="LogSQLEval 
SELECT nr, label, comment, producer, propertyNum1, propertyNum2, propertyTex1, propertyTex2, propertyTex3, propertyTex4, propertyTex5, propertyTex6, publisher, publishDate FROM Product", color = blue] ; 
19 -> 20 ; 
21 [label="LogSkolemFunctionCall
(<http://www4.wiwiss.fu-berlin.de/bizer/bsbm/v01/instances/dataFromProducer{1}/Product{0}>)" , color = blue] ; 
18 -> 21 ; 
22 [label="LogSQLEval 
SELECT P.nr AS nr, P.producer AS producer FROM PRODUCT AS P, PRODUCTTYPEPRODUCT AS PT WHERE PT.producttype = 57 AND PT.product = P.nr", color = blue] ; 
21 -> 22 ; 
23 [label="LogSkolemFunctionCall
(<http://www4.wiwiss.fu-berlin.de/bizer/bsbm/v01/instances/dataFromProducer{1}/Product{0}>, <http://downlode.org/rdf/iso-3166/countries#{2}>)" , color = blue] ; 
17 -> 23 ; 
24 [label="LogMongoDBEval
productproducercountry
[]
[nr, producer, country]
", color = blue] ; 
23 -> 24 ; 
25 [label="LogSkolemFunctionCall
(<http://downlode.org/rdf/iso-3166/countries#{0}>)" , color = blue] ; 
16 -> 25 ; 
26 [label="LogMongoDBEval
countrytype
[{\"$match\":{\"countrytype\":112}}]
[country]
", color = blue] ; 
25 -> 26 ; 
28 [label="LogProj
[10,8,16]" , color = blue] ; 
1 -> 28 ; 
29 [label="Join\n [16PREDICATE_EQUAL17] ", color = blue] ; 
28 -> 29 ; 
30 [label="Join\n [13PREDICATE_EQUAL15,14PREDICATE_EQUAL15] ", color = blue] ; 
29 -> 30 ; 
31 [label="Join\n [13PREDICATE_EQUAL14] ", color = blue] ; 
30 -> 31 ; 
32 [label="LogSkolemFunctionCall
(\"{11}\", \"{10}\", \"{2}\", \"{9}\", <http://www4.wiwiss.fu-berlin.de/bizer/bsbm/v01/instances/dataFromProducer{3}/Producer{3}>, \"{8}\", <http://www4.wiwiss.fu-berlin.de/bizer/bsbm/v01/instances/dataFromProducer{3}/Producer{3}>, \"{7}\", \"{5}\", \"{4}\", \"{1}\", \"{13}\", \"{6}\", <http://www4.wiwiss.fu-berlin.de/bizer/bsbm/v01/instances/dataFromProducer{3}/Product{0}>)" , color = blue] ; 
31 -> 32 ; 
33 [label="LogSQLEval 
SELECT nr, label, comment, producer, propertyNum1, propertyNum2, propertyTex1, propertyTex2, propertyTex3, propertyTex4, propertyTex5, propertyTex6, publisher, publishDate FROM Product", color = blue] ; 
32 -> 33 ; 
34 [label="LogSkolemFunctionCall
(<http://www4.wiwiss.fu-berlin.de/bizer/bsbm/v01/instances/dataFromProducer{1}/Product{0}>)" , color = blue] ; 
31 -> 34 ; 
35 [label="LogSQLEval 
SELECT P.nr AS nr, P.producer AS producer FROM PRODUCT AS P, PRODUCTTYPEPRODUCT AS PT WHERE PT.producttype = 57 AND PT.product = P.nr", color = blue] ; 
34 -> 35 ; 
36 [label="LogSkolemFunctionCall
(<http://www4.wiwiss.fu-berlin.de/bizer/bsbm/v01/instances/dataFromProducer{1}/Product{0}>, <http://downlode.org/rdf/iso-3166/countries#{2}>)" , color = blue] ; 
30 -> 36 ; 
37 [label="LogMongoDBEval
productproducercountry
[]
[nr, producer, country]
", color = blue] ; 
36 -> 37 ; 
38 [label="LogSkolemFunctionCall
(<http://downlode.org/rdf/iso-3166/countries#{0}>)" , color = blue] ; 
29 -> 38 ; 
39 [label="LogMongoDBEval
countrytype
[{\"$match\":{\"countrytype\":122}}]
[country]
", color = blue] ; 
38 -> 39 ; 
41 [label="LogProj
[10,8,16]" , color = blue] ; 
1 -> 41 ; 
42 [label="Join\n [16PREDICATE_EQUAL17] ", color = blue] ; 
41 -> 42 ; 
43 [label="Join\n [13PREDICATE_EQUAL15,14PREDICATE_EQUAL15] ", color = blue] ; 
42 -> 43 ; 
44 [label="Join\n [13PREDICATE_EQUAL14] ", color = blue] ; 
43 -> 44 ; 
45 [label="LogSkolemFunctionCall
(\"{11}\", \"{10}\", \"{2}\", \"{9}\", <http://www4.wiwiss.fu-berlin.de/bizer/bsbm/v01/instances/dataFromProducer{3}/Producer{3}>, \"{8}\", <http://www4.wiwiss.fu-berlin.de/bizer/bsbm/v01/instances/dataFromProducer{3}/Producer{3}>, \"{7}\", \"{5}\", \"{4}\", \"{1}\", \"{13}\", \"{6}\", <http://www4.wiwiss.fu-berlin.de/bizer/bsbm/v01/instances/dataFromProducer{3}/Product{0}>)" , color = blue] ; 
44 -> 45 ; 
46 [label="LogSQLEval 
SELECT nr, label, comment, producer, propertyNum1, propertyNum2, propertyTex1, propertyTex2, propertyTex3, propertyTex4, propertyTex5, propertyTex6, publisher, publishDate FROM Product", color = blue] ; 
45 -> 46 ; 
47 [label="LogSkolemFunctionCall
(<http://www4.wiwiss.fu-berlin.de/bizer/bsbm/v01/instances/dataFromProducer{1}/Product{0}>)" , color = blue] ; 
44 -> 47 ; 
48 [label="LogSQLEval 
SELECT P.nr AS nr, P.producer AS producer FROM PRODUCT AS P, PRODUCTTYPEPRODUCT AS PT WHERE PT.producttype = 57 AND PT.product = P.nr", color = blue] ; 
47 -> 48 ; 
49 [label="LogSkolemFunctionCall
(<http://www4.wiwiss.fu-berlin.de/bizer/bsbm/v01/instances/dataFromProducer{1}/Product{0}>, <http://downlode.org/rdf/iso-3166/countries#{2}>)" , color = blue] ; 
43 -> 49 ; 
50 [label="LogMongoDBEval
productproducercountry
[]
[nr, producer, country]
", color = blue] ; 
49 -> 50 ; 
51 [label="LogSkolemFunctionCall
(<http://downlode.org/rdf/iso-3166/countries#{0}>)" , color = blue] ; 
42 -> 51 ; 
52 [label="LogMongoDBEval
countrytype
[{\"$match\":{\"countrytype\":121}}]
[country]
", color = blue] ; 
51 -> 52 ; 
54 [label="LogProj
[10,9,16]" , color = blue] ; 
1 -> 54 ; 
55 [label="Join\n [16PREDICATE_EQUAL17] ", color = blue] ; 
54 -> 55 ; 
56 [label="Join\n [13PREDICATE_EQUAL15,14PREDICATE_EQUAL15] ", color = blue] ; 
55 -> 56 ; 
57 [label="Join\n [13PREDICATE_EQUAL14] ", color = blue] ; 
56 -> 57 ; 
58 [label="LogSkolemFunctionCall
(\"{11}\", \"{10}\", \"{2}\", \"{9}\", <http://www4.wiwiss.fu-berlin.de/bizer/bsbm/v01/instances/dataFromProducer{3}/Producer{3}>, \"{8}\", <http://www4.wiwiss.fu-berlin.de/bizer/bsbm/v01/instances/dataFromProducer{3}/Producer{3}>, \"{7}\", \"{5}\", \"{4}\", \"{1}\", \"{13}\", \"{6}\", <http://www4.wiwiss.fu-berlin.de/bizer/bsbm/v01/instances/dataFromProducer{3}/Product{0}>)" , color = blue] ; 
57 -> 58 ; 
59 [label="LogSQLEval 
SELECT nr, label, comment, producer, propertyNum1, propertyNum2, propertyTex1, propertyTex2, propertyTex3, propertyTex4, propertyTex5, propertyTex6, publisher, publishDate FROM Product", color = blue] ; 
58 -> 59 ; 
60 [label="LogSkolemFunctionCall
(<http://www4.wiwiss.fu-berlin.de/bizer/bsbm/v01/instances/dataFromProducer{1}/Product{0}>)" , color = blue] ; 
57 -> 60 ; 
61 [label="LogSQLEval 
SELECT P.nr AS nr, P.producer AS producer FROM PRODUCT AS P, PRODUCTTYPEPRODUCT AS PT WHERE PT.producttype = 56 AND PT.product = P.nr", color = blue] ; 
60 -> 61 ; 
62 [label="LogSkolemFunctionCall
(<http://www4.wiwiss.fu-berlin.de/bizer/bsbm/v01/instances/dataFromProducer{1}/Product{0}>, <http://downlode.org/rdf/iso-3166/countries#{2}>)" , color = blue] ; 
56 -> 62 ; 
63 [label="LogMongoDBEval
productproducercountry
[]
[nr, producer, country]
", color = blue] ; 
62 -> 63 ; 
64 [label="LogSkolemFunctionCall
(<http://downlode.org/rdf/iso-3166/countries#{0}>)" , color = blue] ; 
55 -> 64 ; 
65 [label="LogMongoDBEval
countrytype
[{\"$match\":{\"countrytype\":122}}]
[country]
", color = blue] ; 
64 -> 65 ; 
67 [label="LogProj
[10,9,16]" , color = blue] ; 
1 -> 67 ; 
68 [label="Join\n [16PREDICATE_EQUAL17] ", color = blue] ; 
67 -> 68 ; 
69 [label="Join\n [13PREDICATE_EQUAL15,14PREDICATE_EQUAL15] ", color = blue] ; 
68 -> 69 ; 
70 [label="Join\n [13PREDICATE_EQUAL14] ", color = blue] ; 
69 -> 70 ; 
71 [label="LogSkolemFunctionCall
(\"{11}\", \"{10}\", \"{2}\", \"{9}\", <http://www4.wiwiss.fu-berlin.de/bizer/bsbm/v01/instances/dataFromProducer{3}/Producer{3}>, \"{8}\", <http://www4.wiwiss.fu-berlin.de/bizer/bsbm/v01/instances/dataFromProducer{3}/Producer{3}>, \"{7}\", \"{5}\", \"{4}\", \"{1}\", \"{13}\", \"{6}\", <http://www4.wiwiss.fu-berlin.de/bizer/bsbm/v01/instances/dataFromProducer{3}/Product{0}>)" , color = blue] ; 
70 -> 71 ; 
72 [label="LogSQLEval 
SELECT nr, label, comment, producer, propertyNum1, propertyNum2, propertyTex1, propertyTex2, propertyTex3, propertyTex4, propertyTex5, propertyTex6, publisher, publishDate FROM Product", color = blue] ; 
71 -> 72 ; 
73 [label="LogSkolemFunctionCall
(<http://www4.wiwiss.fu-berlin.de/bizer/bsbm/v01/instances/dataFromProducer{1}/Product{0}>)" , color = blue] ; 
70 -> 73 ; 
74 [label="LogSQLEval 
SELECT P.nr AS nr, P.producer AS producer FROM PRODUCT AS P, PRODUCTTYPEPRODUCT AS PT WHERE PT.producttype = 56 AND PT.product = P.nr", color = blue] ; 
73 -> 74 ; 
75 [label="LogSkolemFunctionCall
(<http://www4.wiwiss.fu-berlin.de/bizer/bsbm/v01/instances/dataFromProducer{1}/Product{0}>, <http://downlode.org/rdf/iso-3166/countries#{2}>)" , color = blue] ; 
69 -> 75 ; 
76 [label="LogMongoDBEval
productproducercountry
[]
[nr, producer, country]
", color = blue] ; 
75 -> 76 ; 
77 [label="LogSkolemFunctionCall
(<http://downlode.org/rdf/iso-3166/countries#{0}>)" , color = blue] ; 
68 -> 77 ; 
78 [label="LogMongoDBEval
countrytype
[{\"$match\":{\"countrytype\":121}}]
[country]
", color = blue] ; 
77 -> 78 ; 
80 [label="LogProj
[10,9,16]" , color = blue] ; 
1 -> 80 ; 
81 [label="Join\n [16PREDICATE_EQUAL17] ", color = blue] ; 
80 -> 81 ; 
82 [label="Join\n [13PREDICATE_EQUAL15,14PREDICATE_EQUAL15] ", color = blue] ; 
81 -> 82 ; 
83 [label="Join\n [13PREDICATE_EQUAL14] ", color = blue] ; 
82 -> 83 ; 
84 [label="LogSkolemFunctionCall
(\"{11}\", \"{10}\", \"{2}\", \"{9}\", <http://www4.wiwiss.fu-berlin.de/bizer/bsbm/v01/instances/dataFromProducer{3}/Producer{3}>, \"{8}\", <http://www4.wiwiss.fu-berlin.de/bizer/bsbm/v01/instances/dataFromProducer{3}/Producer{3}>, \"{7}\", \"{5}\", \"{4}\", \"{1}\", \"{13}\", \"{6}\", <http://www4.wiwiss.fu-berlin.de/bizer/bsbm/v01/instances/dataFromProducer{3}/Product{0}>)" , color = blue] ; 
83 -> 84 ; 
85 [label="LogSQLEval 
SELECT nr, label, comment, producer, propertyNum1, propertyNum2, propertyTex1, propertyTex2, propertyTex3, propertyTex4, propertyTex5, propertyTex6, publisher, publishDate FROM Product", color = blue] ; 
84 -> 85 ; 
86 [label="LogSkolemFunctionCall
(<http://www4.wiwiss.fu-berlin.de/bizer/bsbm/v01/instances/dataFromProducer{1}/Product{0}>)" , color = blue] ; 
83 -> 86 ; 
87 [label="LogSQLEval 
SELECT P.nr AS nr, P.producer AS producer FROM PRODUCT AS P, PRODUCTTYPEPRODUCT AS PT WHERE PT.producttype = 56 AND PT.product = P.nr", color = blue] ; 
86 -> 87 ; 
88 [label="LogSkolemFunctionCall
(<http://www4.wiwiss.fu-berlin.de/bizer/bsbm/v01/instances/dataFromProducer{1}/Product{0}>, <http://downlode.org/rdf/iso-3166/countries#{2}>)" , color = blue] ; 
82 -> 88 ; 
89 [label="LogMongoDBEval
productproducercountry
[]
[nr, producer, country]
", color = blue] ; 
88 -> 89 ; 
90 [label="LogSkolemFunctionCall
(<http://downlode.org/rdf/iso-3166/countries#{0}>)" , color = blue] ; 
81 -> 90 ; 
91 [label="LogMongoDBEval
countrytype
[{\"$match\":{\"countrytype\":112}}]
[country]
", color = blue] ; 
90 -> 91 ; 
93 [label="LogProj
[10,9,16]" , color = blue] ; 
1 -> 93 ; 
94 [label="Join\n [16PREDICATE_EQUAL17] ", color = blue] ; 
93 -> 94 ; 
95 [label="Join\n [13PREDICATE_EQUAL15,14PREDICATE_EQUAL15] ", color = blue] ; 
94 -> 95 ; 
96 [label="Join\n [13PREDICATE_EQUAL14] ", color = blue] ; 
95 -> 96 ; 
97 [label="LogSkolemFunctionCall
(\"{11}\", \"{10}\", \"{2}\", \"{9}\", <http://www4.wiwiss.fu-berlin.de/bizer/bsbm/v01/instances/dataFromProducer{3}/Producer{3}>, \"{8}\", <http://www4.wiwiss.fu-berlin.de/bizer/bsbm/v01/instances/dataFromProducer{3}/Producer{3}>, \"{7}\", \"{5}\", \"{4}\", \"{1}\", \"{13}\", \"{6}\", <http://www4.wiwiss.fu-berlin.de/bizer/bsbm/v01/instances/dataFromProducer{3}/Product{0}>)" , color = blue] ; 
96 -> 97 ; 
98 [label="LogSQLEval 
SELECT nr, label, comment, producer, propertyNum1, propertyNum2, propertyTex1, propertyTex2, propertyTex3, propertyTex4, propertyTex5, propertyTex6, publisher, publishDate FROM Product", color = blue] ; 
97 -> 98 ; 
99 [label="LogSkolemFunctionCall
(<http://www4.wiwiss.fu-berlin.de/bizer/bsbm/v01/instances/dataFromProducer{1}/Product{0}>)" , color = blue] ; 
96 -> 99 ; 
100 [label="LogSQLEval 
SELECT P.nr AS nr, P.producer AS producer FROM PRODUCT AS P, PRODUCTTYPEPRODUCT AS PT WHERE PT.producttype = 56 AND PT.product = P.nr", color = blue] ; 
99 -> 100 ; 
101 [label="LogSkolemFunctionCall
(<http://www4.wiwiss.fu-berlin.de/bizer/bsbm/v01/instances/dataFromProducer{1}/Product{0}>, <http://downlode.org/rdf/iso-3166/countries#{2}>)" , color = blue] ; 
95 -> 101 ; 
102 [label="LogMongoDBEval
productproducercountry
[]
[nr, producer, country]
", color = blue] ; 
101 -> 102 ; 
103 [label="LogSkolemFunctionCall
(<http://downlode.org/rdf/iso-3166/countries#{0}>)" , color = blue] ; 
94 -> 103 ; 
104 [label="LogMongoDBEval
countrytype
[{\"$match\":{\"countrytype\":111}}]
[country]
", color = blue] ; 
103 -> 104 ; 
106 [label="LogProj
[10,8,16]" , color = blue] ; 
1 -> 106 ; 
107 [label="Join\n [16PREDICATE_EQUAL17] ", color = blue] ; 
106 -> 107 ; 
108 [label="Join\n [13PREDICATE_EQUAL15,14PREDICATE_EQUAL15] ", color = blue] ; 
107 -> 108 ; 
109 [label="Join\n [13PREDICATE_EQUAL14] ", color = blue] ; 
108 -> 109 ; 
110 [label="LogSkolemFunctionCall
(\"{11}\", \"{10}\", \"{2}\", \"{9}\", <http://www4.wiwiss.fu-berlin.de/bizer/bsbm/v01/instances/dataFromProducer{3}/Producer{3}>, \"{8}\", <http://www4.wiwiss.fu-berlin.de/bizer/bsbm/v01/instances/dataFromProducer{3}/Producer{3}>, \"{7}\", \"{5}\", \"{4}\", \"{1}\", \"{13}\", \"{6}\", <http://www4.wiwiss.fu-berlin.de/bizer/bsbm/v01/instances/dataFromProducer{3}/Product{0}>)" , color = blue] ; 
109 -> 110 ; 
111 [label="LogSQLEval 
SELECT nr, label, comment, producer, propertyNum1, propertyNum2, propertyTex1, propertyTex2, propertyTex3, propertyTex4, propertyTex5, propertyTex6, publisher, publishDate FROM Product", color = blue] ; 
110 -> 111 ; 
112 [label="LogSkolemFunctionCall
(<http://www4.wiwiss.fu-berlin.de/bizer/bsbm/v01/instances/dataFromProducer{1}/Product{0}>)" , color = blue] ; 
109 -> 112 ; 
113 [label="LogSQLEval 
SELECT P.nr AS nr, P.producer AS producer FROM PRODUCT AS P, PRODUCTTYPEPRODUCT AS PT WHERE PT.producttype = 56 AND PT.product = P.nr", color = blue] ; 
112 -> 113 ; 
114 [label="LogSkolemFunctionCall
(<http://www4.wiwiss.fu-berlin.de/bizer/bsbm/v01/instances/dataFromProducer{1}/Product{0}>, <http://downlode.org/rdf/iso-3166/countries#{2}>)" , color = blue] ; 
108 -> 114 ; 
115 [label="LogMongoDBEval
productproducercountry
[]
[nr, producer, country]
", color = blue] ; 
114 -> 115 ; 
116 [label="LogSkolemFunctionCall
(<http://downlode.org/rdf/iso-3166/countries#{0}>)" , color = blue] ; 
107 -> 116 ; 
117 [label="LogMongoDBEval
countrytype
[{\"$match\":{\"countrytype\":121}}]
[country]
", color = blue] ; 
116 -> 117 ; 
119 [label="LogProj
[10,9,16]" , color = blue] ; 
1 -> 119 ; 
120 [label="Join\n [16PREDICATE_EQUAL17] ", color = blue] ; 
119 -> 120 ; 
121 [label="Join\n [13PREDICATE_EQUAL15,14PREDICATE_EQUAL15] ", color = blue] ; 
120 -> 121 ; 
122 [label="Join\n [13PREDICATE_EQUAL14] ", color = blue] ; 
121 -> 122 ; 
123 [label="LogSkolemFunctionCall
(\"{11}\", \"{10}\", \"{2}\", \"{9}\", <http://www4.wiwiss.fu-berlin.de/bizer/bsbm/v01/instances/dataFromProducer{3}/Producer{3}>, \"{8}\", <http://www4.wiwiss.fu-berlin.de/bizer/bsbm/v01/instances/dataFromProducer{3}/Producer{3}>, \"{7}\", \"{5}\", \"{4}\", \"{1}\", \"{13}\", \"{6}\", <http://www4.wiwiss.fu-berlin.de/bizer/bsbm/v01/instances/dataFromProducer{3}/Product{0}>)" , color = blue] ; 
122 -> 123 ; 
124 [label="LogSQLEval 
SELECT nr, label, comment, producer, propertyNum1, propertyNum2, propertyTex1, propertyTex2, propertyTex3, propertyTex4, propertyTex5, propertyTex6, publisher, publishDate FROM Product", color = blue] ; 
123 -> 124 ; 
125 [label="LogSkolemFunctionCall
(<http://www4.wiwiss.fu-berlin.de/bizer/bsbm/v01/instances/dataFromProducer{1}/Product{0}>)" , color = blue] ; 
122 -> 125 ; 
126 [label="LogSQLEval 
SELECT P.nr AS nr, P.producer AS producer FROM PRODUCT AS P, PRODUCTTYPEPRODUCT AS PT WHERE PT.producttype = 57 AND PT.product = P.nr", color = blue] ; 
125 -> 126 ; 
127 [label="LogSkolemFunctionCall
(<http://www4.wiwiss.fu-berlin.de/bizer/bsbm/v01/instances/dataFromProducer{1}/Product{0}>, <http://downlode.org/rdf/iso-3166/countries#{2}>)" , color = blue] ; 
121 -> 127 ; 
128 [label="LogMongoDBEval
productproducercountry
[]
[nr, producer, country]
", color = blue] ; 
127 -> 128 ; 
129 [label="LogSkolemFunctionCall
(<http://downlode.org/rdf/iso-3166/countries#{0}>)" , color = blue] ; 
120 -> 129 ; 
130 [label="LogMongoDBEval
countrytype
[{\"$match\":{\"countrytype\":121}}]
[country]
", color = blue] ; 
129 -> 130 ; 
132 [label="LogProj
[10,8,16]" , color = blue] ; 
1 -> 132 ; 
133 [label="Join\n [16PREDICATE_EQUAL17] ", color = blue] ; 
132 -> 133 ; 
134 [label="Join\n [13PREDICATE_EQUAL15,14PREDICATE_EQUAL15] ", color = blue] ; 
133 -> 134 ; 
135 [label="Join\n [13PREDICATE_EQUAL14] ", color = blue] ; 
134 -> 135 ; 
136 [label="LogSkolemFunctionCall
(\"{11}\", \"{10}\", \"{2}\", \"{9}\", <http://www4.wiwiss.fu-berlin.de/bizer/bsbm/v01/instances/dataFromProducer{3}/Producer{3}>, \"{8}\", <http://www4.wiwiss.fu-berlin.de/bizer/bsbm/v01/instances/dataFromProducer{3}/Producer{3}>, \"{7}\", \"{5}\", \"{4}\", \"{1}\", \"{13}\", \"{6}\", <http://www4.wiwiss.fu-berlin.de/bizer/bsbm/v01/instances/dataFromProducer{3}/Product{0}>)" , color = blue] ; 
135 -> 136 ; 
137 [label="LogSQLEval 
SELECT nr, label, comment, producer, propertyNum1, propertyNum2, propertyTex1, propertyTex2, propertyTex3, propertyTex4, propertyTex5, propertyTex6, publisher, publishDate FROM Product", color = blue] ; 
136 -> 137 ; 
138 [label="LogSkolemFunctionCall
(<http://www4.wiwiss.fu-berlin.de/bizer/bsbm/v01/instances/dataFromProducer{1}/Product{0}>)" , color = blue] ; 
135 -> 138 ; 
139 [label="LogSQLEval 
SELECT P.nr AS nr, P.producer AS producer FROM PRODUCT AS P, PRODUCTTYPEPRODUCT AS PT WHERE PT.producttype = 56 AND PT.product = P.nr", color = blue] ; 
138 -> 139 ; 
140 [label="LogSkolemFunctionCall
(<http://www4.wiwiss.fu-berlin.de/bizer/bsbm/v01/instances/dataFromProducer{1}/Product{0}>, <http://downlode.org/rdf/iso-3166/countries#{2}>)" , color = blue] ; 
134 -> 140 ; 
141 [label="LogMongoDBEval
productproducercountry
[]
[nr, producer, country]
", color = blue] ; 
140 -> 141 ; 
142 [label="LogSkolemFunctionCall
(<http://downlode.org/rdf/iso-3166/countries#{0}>)" , color = blue] ; 
133 -> 142 ; 
143 [label="LogMongoDBEval
countrytype
[{\"$match\":{\"countrytype\":122}}]
[country]
", color = blue] ; 
142 -> 143 ; 
145 [label="LogProj
[10,9,16]" , color = blue] ; 
1 -> 145 ; 
146 [label="Join\n [16PREDICATE_EQUAL17] ", color = blue] ; 
145 -> 146 ; 
147 [label="Join\n [13PREDICATE_EQUAL15,14PREDICATE_EQUAL15] ", color = blue] ; 
146 -> 147 ; 
148 [label="Join\n [13PREDICATE_EQUAL14] ", color = blue] ; 
147 -> 148 ; 
149 [label="LogSkolemFunctionCall
(\"{11}\", \"{10}\", \"{2}\", \"{9}\", <http://www4.wiwiss.fu-berlin.de/bizer/bsbm/v01/instances/dataFromProducer{3}/Producer{3}>, \"{8}\", <http://www4.wiwiss.fu-berlin.de/bizer/bsbm/v01/instances/dataFromProducer{3}/Producer{3}>, \"{7}\", \"{5}\", \"{4}\", \"{1}\", \"{13}\", \"{6}\", <http://www4.wiwiss.fu-berlin.de/bizer/bsbm/v01/instances/dataFromProducer{3}/Product{0}>)" , color = blue] ; 
148 -> 149 ; 
150 [label="LogSQLEval 
SELECT nr, label, comment, producer, propertyNum1, propertyNum2, propertyTex1, propertyTex2, propertyTex3, propertyTex4, propertyTex5, propertyTex6, publisher, publishDate FROM Product", color = blue] ; 
149 -> 150 ; 
151 [label="LogSkolemFunctionCall
(<http://www4.wiwiss.fu-berlin.de/bizer/bsbm/v01/instances/dataFromProducer{1}/Product{0}>)" , color = blue] ; 
148 -> 151 ; 
152 [label="LogSQLEval 
SELECT P.nr AS nr, P.producer AS producer FROM PRODUCT AS P, PRODUCTTYPEPRODUCT AS PT WHERE PT.producttype = 57 AND PT.product = P.nr", color = blue] ; 
151 -> 152 ; 
153 [label="LogSkolemFunctionCall
(<http://www4.wiwiss.fu-berlin.de/bizer/bsbm/v01/instances/dataFromProducer{1}/Product{0}>, <http://downlode.org/rdf/iso-3166/countries#{2}>)" , color = blue] ; 
147 -> 153 ; 
154 [label="LogMongoDBEval
productproducercountry
[]
[nr, producer, country]
", color = blue] ; 
153 -> 154 ; 
155 [label="LogSkolemFunctionCall
(<http://downlode.org/rdf/iso-3166/countries#{0}>)" , color = blue] ; 
146 -> 155 ; 
156 [label="LogMongoDBEval
countrytype
[{\"$match\":{\"countrytype\":122}}]
[country]
", color = blue] ; 
155 -> 156 ; 
158 [label="LogProj
[10,8,16]" , color = blue] ; 
1 -> 158 ; 
159 [label="Join\n [16PREDICATE_EQUAL17] ", color = blue] ; 
158 -> 159 ; 
160 [label="Join\n [13PREDICATE_EQUAL15,14PREDICATE_EQUAL15] ", color = blue] ; 
159 -> 160 ; 
161 [label="Join\n [13PREDICATE_EQUAL14] ", color = blue] ; 
160 -> 161 ; 
162 [label="LogSkolemFunctionCall
(\"{11}\", \"{10}\", \"{2}\", \"{9}\", <http://www4.wiwiss.fu-berlin.de/bizer/bsbm/v01/instances/dataFromProducer{3}/Producer{3}>, \"{8}\", <http://www4.wiwiss.fu-berlin.de/bizer/bsbm/v01/instances/dataFromProducer{3}/Producer{3}>, \"{7}\", \"{5}\", \"{4}\", \"{1}\", \"{13}\", \"{6}\", <http://www4.wiwiss.fu-berlin.de/bizer/bsbm/v01/instances/dataFromProducer{3}/Product{0}>)" , color = blue] ; 
161 -> 162 ; 
163 [label="LogSQLEval 
SELECT nr, label, comment, producer, propertyNum1, propertyNum2, propertyTex1, propertyTex2, propertyTex3, propertyTex4, propertyTex5, propertyTex6, publisher, publishDate FROM Product", color = blue] ; 
162 -> 163 ; 
164 [label="LogSkolemFunctionCall
(<http://www4.wiwiss.fu-berlin.de/bizer/bsbm/v01/instances/dataFromProducer{1}/Product{0}>)" , color = blue] ; 
161 -> 164 ; 
165 [label="LogSQLEval 
SELECT P.nr AS nr, P.producer AS producer FROM PRODUCT AS P, PRODUCTTYPEPRODUCT AS PT WHERE PT.producttype = 56 AND PT.product = P.nr", color = blue] ; 
164 -> 165 ; 
166 [label="LogSkolemFunctionCall
(<http://www4.wiwiss.fu-berlin.de/bizer/bsbm/v01/instances/dataFromProducer{1}/Product{0}>, <http://downlode.org/rdf/iso-3166/countries#{2}>)" , color = blue] ; 
160 -> 166 ; 
167 [label="LogMongoDBEval
productproducercountry
[]
[nr, producer, country]
", color = blue] ; 
166 -> 167 ; 
168 [label="LogSkolemFunctionCall
(<http://downlode.org/rdf/iso-3166/countries#{0}>)" , color = blue] ; 
159 -> 168 ; 
169 [label="LogMongoDBEval
countrytype
[{\"$match\":{\"countrytype\":111}}]
[country]
", color = blue] ; 
168 -> 169 ; 
171 [label="LogProj
[10,9,16]" , color = blue] ; 
1 -> 171 ; 
172 [label="Join\n [16PREDICATE_EQUAL17] ", color = blue] ; 
171 -> 172 ; 
173 [label="Join\n [13PREDICATE_EQUAL15,14PREDICATE_EQUAL15] ", color = blue] ; 
172 -> 173 ; 
174 [label="Join\n [13PREDICATE_EQUAL14] ", color = blue] ; 
173 -> 174 ; 
175 [label="LogSkolemFunctionCall
(\"{11}\", \"{10}\", \"{2}\", \"{9}\", <http://www4.wiwiss.fu-berlin.de/bizer/bsbm/v01/instances/dataFromProducer{3}/Producer{3}>, \"{8}\", <http://www4.wiwiss.fu-berlin.de/bizer/bsbm/v01/instances/dataFromProducer{3}/Producer{3}>, \"{7}\", \"{5}\", \"{4}\", \"{1}\", \"{13}\", \"{6}\", <http://www4.wiwiss.fu-berlin.de/bizer/bsbm/v01/instances/dataFromProducer{3}/Product{0}>)" , color = blue] ; 
174 -> 175 ; 
176 [label="LogSQLEval 
SELECT nr, label, comment, producer, propertyNum1, propertyNum2, propertyTex1, propertyTex2, propertyTex3, propertyTex4, propertyTex5, propertyTex6, publisher, publishDate FROM Product", color = blue] ; 
175 -> 176 ; 
177 [label="LogSkolemFunctionCall
(<http://www4.wiwiss.fu-berlin.de/bizer/bsbm/v01/instances/dataFromProducer{1}/Product{0}>)" , color = blue] ; 
174 -> 177 ; 
178 [label="LogSQLEval 
SELECT P.nr AS nr, P.producer AS producer FROM PRODUCT AS P, PRODUCTTYPEPRODUCT AS PT WHERE PT.producttype = 57 AND PT.product = P.nr", color = blue] ; 
177 -> 178 ; 
179 [label="LogSkolemFunctionCall
(<http://www4.wiwiss.fu-berlin.de/bizer/bsbm/v01/instances/dataFromProducer{1}/Product{0}>, <http://downlode.org/rdf/iso-3166/countries#{2}>)" , color = blue] ; 
173 -> 179 ; 
180 [label="LogMongoDBEval
productproducercountry
[]
[nr, producer, country]
", color = blue] ; 
179 -> 180 ; 
181 [label="LogSkolemFunctionCall
(<http://downlode.org/rdf/iso-3166/countries#{0}>)" , color = blue] ; 
172 -> 181 ; 
182 [label="LogMongoDBEval
countrytype
[{\"$match\":{\"countrytype\":111}}]
[country]
", color = blue] ; 
181 -> 182 ; 
184 [label="LogProj
[10,8,16]" , color = blue] ; 
1 -> 184 ; 
185 [label="Join\n [16PREDICATE_EQUAL17] ", color = blue] ; 
184 -> 185 ; 
186 [label="Join\n [13PREDICATE_EQUAL15,14PREDICATE_EQUAL15] ", color = blue] ; 
185 -> 186 ; 
187 [label="Join\n [13PREDICATE_EQUAL14] ", color = blue] ; 
186 -> 187 ; 
188 [label="LogSkolemFunctionCall
(\"{11}\", \"{10}\", \"{2}\", \"{9}\", <http://www4.wiwiss.fu-berlin.de/bizer/bsbm/v01/instances/dataFromProducer{3}/Producer{3}>, \"{8}\", <http://www4.wiwiss.fu-berlin.de/bizer/bsbm/v01/instances/dataFromProducer{3}/Producer{3}>, \"{7}\", \"{5}\", \"{4}\", \"{1}\", \"{13}\", \"{6}\", <http://www4.wiwiss.fu-berlin.de/bizer/bsbm/v01/instances/dataFromProducer{3}/Product{0}>)" , color = blue] ; 
187 -> 188 ; 
189 [label="LogSQLEval 
SELECT nr, label, comment, producer, propertyNum1, propertyNum2, propertyTex1, propertyTex2, propertyTex3, propertyTex4, propertyTex5, propertyTex6, publisher, publishDate FROM Product", color = blue] ; 
188 -> 189 ; 
190 [label="LogSkolemFunctionCall
(<http://www4.wiwiss.fu-berlin.de/bizer/bsbm/v01/instances/dataFromProducer{1}/Product{0}>)" , color = blue] ; 
187 -> 190 ; 
191 [label="LogSQLEval 
SELECT P.nr AS nr, P.producer AS producer FROM PRODUCT AS P, PRODUCTTYPEPRODUCT AS PT WHERE PT.producttype = 56 AND PT.product = P.nr", color = blue] ; 
190 -> 191 ; 
192 [label="LogSkolemFunctionCall
(<http://www4.wiwiss.fu-berlin.de/bizer/bsbm/v01/instances/dataFromProducer{1}/Product{0}>, <http://downlode.org/rdf/iso-3166/countries#{2}>)" , color = blue] ; 
186 -> 192 ; 
193 [label="LogMongoDBEval
productproducercountry
[]
[nr, producer, country]
", color = blue] ; 
192 -> 193 ; 
194 [label="LogSkolemFunctionCall
(<http://downlode.org/rdf/iso-3166/countries#{0}>)" , color = blue] ; 
185 -> 194 ; 
195 [label="LogMongoDBEval
countrytype
[{\"$match\":{\"countrytype\":112}}]
[country]
", color = blue] ; 
194 -> 195 ; 
197 [label="LogProj
[10,9,16]" , color = blue] ; 
1 -> 197 ; 
198 [label="Join\n [16PREDICATE_EQUAL17] ", color = blue] ; 
197 -> 198 ; 
199 [label="Join\n [13PREDICATE_EQUAL15,14PREDICATE_EQUAL15] ", color = blue] ; 
198 -> 199 ; 
200 [label="Join\n [13PREDICATE_EQUAL14] ", color = blue] ; 
199 -> 200 ; 
201 [label="LogSkolemFunctionCall
(\"{11}\", \"{10}\", \"{2}\", \"{9}\", <http://www4.wiwiss.fu-berlin.de/bizer/bsbm/v01/instances/dataFromProducer{3}/Producer{3}>, \"{8}\", <http://www4.wiwiss.fu-berlin.de/bizer/bsbm/v01/instances/dataFromProducer{3}/Producer{3}>, \"{7}\", \"{5}\", \"{4}\", \"{1}\", \"{13}\", \"{6}\", <http://www4.wiwiss.fu-berlin.de/bizer/bsbm/v01/instances/dataFromProducer{3}/Product{0}>)" , color = blue] ; 
200 -> 201 ; 
202 [label="LogSQLEval 
SELECT nr, label, comment, producer, propertyNum1, propertyNum2, propertyTex1, propertyTex2, propertyTex3, propertyTex4, propertyTex5, propertyTex6, publisher, publishDate FROM Product", color = blue] ; 
201 -> 202 ; 
203 [label="LogSkolemFunctionCall
(<http://www4.wiwiss.fu-berlin.de/bizer/bsbm/v01/instances/dataFromProducer{1}/Product{0}>)" , color = blue] ; 
200 -> 203 ; 
204 [label="LogSQLEval 
SELECT P.nr AS nr, P.producer AS producer FROM PRODUCT AS P, PRODUCTTYPEPRODUCT AS PT WHERE PT.producttype = 57 AND PT.product = P.nr", color = blue] ; 
203 -> 204 ; 
205 [label="LogSkolemFunctionCall
(<http://www4.wiwiss.fu-berlin.de/bizer/bsbm/v01/instances/dataFromProducer{1}/Product{0}>, <http://downlode.org/rdf/iso-3166/countries#{2}>)" , color = blue] ; 
199 -> 205 ; 
206 [label="LogMongoDBEval
productproducercountry
[]
[nr, producer, country]
", color = blue] ; 
205 -> 206 ; 
207 [label="LogSkolemFunctionCall
(<http://downlode.org/rdf/iso-3166/countries#{0}>)" , color = blue] ; 
198 -> 207 ; 
208 [label="LogMongoDBEval
countrytype
[{\"$match\":{\"countrytype\":112}}]
[country]
", color = blue] ; 
207 -> 208 ; 
}

