<http://www4.wiwiss.fu-berlin.de/bizer/bsbm/v01/instances/dataFromProducer27/Product1260>	<http://www4.wiwiss.fu-berlin.de/bizer/bsbm/v01/instances/ProductType65>	
<http://www4.wiwiss.fu-berlin.de/bizer/bsbm/v01/instances/dataFromProducer17/Product819>	<http://www4.wiwiss.fu-berlin.de/bizer/bsbm/v01/instances/ProductType65>	
<http://www4.wiwiss.fu-berlin.de/bizer/bsbm/v01/instances/dataFromProducer26/Product1208>	<http://www4.wiwiss.fu-berlin.de/bizer/bsbm/v01/instances/ProductType64>	
<http://www4.wiwiss.fu-berlin.de/bizer/bsbm/v01/instances/dataFromProducer33/Product1524>	<http://www4.wiwiss.fu-berlin.de/bizer/bsbm/v01/instances/ProductType12>	
<http://www4.wiwiss.fu-berlin.de/bizer/bsbm/v01/instances/dataFromProducer2/Product83>	<http://www4.wiwiss.fu-berlin.de/bizer/bsbm/v01/instances/ProductType12>	
<http://www4.wiwiss.fu-berlin.de/bizer/bsbm/v01/instances/dataFromProducer22/Product1034>	<http://www4.wiwiss.fu-berlin.de/bizer/bsbm/v01/instances/ProductType12>	
<http://www4.wiwiss.fu-berlin.de/bizer/bsbm/v01/instances/dataFromProducer1/Product45>	<http://www4.wiwiss.fu-berlin.de/bizer/bsbm/v01/instances/ProductType65>	
<http://www4.wiwiss.fu-berlin.de/bizer/bsbm/v01/instances/dataFromProducer40/Product1855>	<http://www4.wiwiss.fu-berlin.de/bizer/bsbm/v01/instances/ProductType12>	
<http://www4.wiwiss.fu-berlin.de/bizer/bsbm/v01/instances/dataFromProducer10/Product478>	<http://www4.wiwiss.fu-berlin.de/bizer/bsbm/v01/instances/ProductType64>	
<http://www4.wiwiss.fu-berlin.de/bizer/bsbm/v01/instances/dataFromProducer1/Product45>	<http://www4.wiwiss.fu-berlin.de/bizer/bsbm/v01/instances/ProductType12>	
<http://www4.wiwiss.fu-berlin.de/bizer/bsbm/v01/instances/dataFromProducer33/Product1524>	<http://www4.wiwiss.fu-berlin.de/bizer/bsbm/v01/instances/ProductType65>	
<http://www4.wiwiss.fu-berlin.de/bizer/bsbm/v01/instances/dataFromProducer54/Product2544>	<http://www4.wiwiss.fu-berlin.de/bizer/bsbm/v01/instances/ProductType12>	
<http://www4.wiwiss.fu-berlin.de/bizer/bsbm/v01/instances/dataFromProducer22/Product1034>	<http://www4.wiwiss.fu-berlin.de/bizer/bsbm/v01/instances/ProductType64>	
<http://www4.wiwiss.fu-berlin.de/bizer/bsbm/v01/instances/dataFromProducer42/Product1959>	<http://www4.wiwiss.fu-berlin.de/bizer/bsbm/v01/instances/ProductType65>	
<http://www4.wiwiss.fu-berlin.de/bizer/bsbm/v01/instances/dataFromProducer60/Product2773>	<http://www4.wiwiss.fu-berlin.de/bizer/bsbm/v01/instances/ProductType12>	
<http://www4.wiwiss.fu-berlin.de/bizer/bsbm/v01/instances/dataFromProducer41/Product1920>	<http://www4.wiwiss.fu-berlin.de/bizer/bsbm/v01/instances/ProductType65>	
<http://www4.wiwiss.fu-berlin.de/bizer/bsbm/v01/instances/dataFromProducer40/Product1835>	<http://www4.wiwiss.fu-berlin.de/bizer/bsbm/v01/instances/ProductType12>	
<http://www4.wiwiss.fu-berlin.de/bizer/bsbm/v01/instances/dataFromProducer22/Product1029>	<http://www4.wiwiss.fu-berlin.de/bizer/bsbm/v01/instances/ProductType12>	
<http://www4.wiwiss.fu-berlin.de/bizer/bsbm/v01/instances/dataFromProducer40/Product1855>	<http://www4.wiwiss.fu-berlin.de/bizer/bsbm/v01/instances/ProductType65>	
<http://www4.wiwiss.fu-berlin.de/bizer/bsbm/v01/instances/dataFromProducer54/Product2544>	<http://www4.wiwiss.fu-berlin.de/bizer/bsbm/v01/instances/ProductType65>	
<http://www4.wiwiss.fu-berlin.de/bizer/bsbm/v01/instances/dataFromProducer17/Product819>	<http://www4.wiwiss.fu-berlin.de/bizer/bsbm/v01/instances/ProductType12>	
<http://www4.wiwiss.fu-berlin.de/bizer/bsbm/v01/instances/dataFromProducer36/Product1598>	<http://www4.wiwiss.fu-berlin.de/bizer/bsbm/v01/instances/ProductType12>	
<http://www4.wiwiss.fu-berlin.de/bizer/bsbm/v01/instances/dataFromProducer23/Product1097>	<http://www4.wiwiss.fu-berlin.de/bizer/bsbm/v01/instances/ProductType64>	
<http://www4.wiwiss.fu-berlin.de/bizer/bsbm/v01/instances/dataFromProducer60/Product2773>	<http://www4.wiwiss.fu-berlin.de/bizer/bsbm/v01/instances/ProductType64>	
<http://www4.wiwiss.fu-berlin.de/bizer/bsbm/v01/instances/dataFromProducer2/Product83>	<http://www4.wiwiss.fu-berlin.de/bizer/bsbm/v01/instances/ProductType64>	
<http://www4.wiwiss.fu-berlin.de/bizer/bsbm/v01/instances/dataFromProducer40/Product1835>	<http://www4.wiwiss.fu-berlin.de/bizer/bsbm/v01/instances/ProductType65>	
<http://www4.wiwiss.fu-berlin.de/bizer/bsbm/v01/instances/dataFromProducer10/Product478>	<http://www4.wiwiss.fu-berlin.de/bizer/bsbm/v01/instances/ProductType12>	
<http://www4.wiwiss.fu-berlin.de/bizer/bsbm/v01/instances/dataFromProducer26/Product1218>	<http://www4.wiwiss.fu-berlin.de/bizer/bsbm/v01/instances/ProductType12>	
<http://www4.wiwiss.fu-berlin.de/bizer/bsbm/v01/instances/dataFromProducer52/Product2473>	<http://www4.wiwiss.fu-berlin.de/bizer/bsbm/v01/instances/ProductType12>	
<http://www4.wiwiss.fu-berlin.de/bizer/bsbm/v01/instances/dataFromProducer50/Product2352>	<http://www4.wiwiss.fu-berlin.de/bizer/bsbm/v01/instances/ProductType64>	
<http://www4.wiwiss.fu-berlin.de/bizer/bsbm/v01/instances/dataFromProducer9/Product449>	<http://www4.wiwiss.fu-berlin.de/bizer/bsbm/v01/instances/ProductType12>	
<http://www4.wiwiss.fu-berlin.de/bizer/bsbm/v01/instances/dataFromProducer42/Product1959>	<http://www4.wiwiss.fu-berlin.de/bizer/bsbm/v01/instances/ProductType12>	
<http://www4.wiwiss.fu-berlin.de/bizer/bsbm/v01/instances/dataFromProducer36/Product1614>	<http://www4.wiwiss.fu-berlin.de/bizer/bsbm/v01/instances/ProductType65>	
<http://www4.wiwiss.fu-berlin.de/bizer/bsbm/v01/instances/dataFromProducer36/Product1614>	<http://www4.wiwiss.fu-berlin.de/bizer/bsbm/v01/instances/ProductType12>	
<http://www4.wiwiss.fu-berlin.de/bizer/bsbm/v01/instances/dataFromProducer42/Product2016>	<http://www4.wiwiss.fu-berlin.de/bizer/bsbm/v01/instances/ProductType12>	
<http://www4.wiwiss.fu-berlin.de/bizer/bsbm/v01/instances/dataFromProducer41/Product1920>	<http://www4.wiwiss.fu-berlin.de/bizer/bsbm/v01/instances/ProductType12>	
<http://www4.wiwiss.fu-berlin.de/bizer/bsbm/v01/instances/dataFromProducer31/Product1404>	<http://www4.wiwiss.fu-berlin.de/bizer/bsbm/v01/instances/ProductType12>	
<http://www4.wiwiss.fu-berlin.de/bizer/bsbm/v01/instances/dataFromProducer58/Product2689>	<http://www4.wiwiss.fu-berlin.de/bizer/bsbm/v01/instances/ProductType65>	
<http://www4.wiwiss.fu-berlin.de/bizer/bsbm/v01/instances/dataFromProducer27/Product1260>	<http://www4.wiwiss.fu-berlin.de/bizer/bsbm/v01/instances/ProductType12>	
<http://www4.wiwiss.fu-berlin.de/bizer/bsbm/v01/instances/dataFromProducer42/Product2016>	<http://www4.wiwiss.fu-berlin.de/bizer/bsbm/v01/instances/ProductType64>	
<http://www4.wiwiss.fu-berlin.de/bizer/bsbm/v01/instances/dataFromProducer26/Product1208>	<http://www4.wiwiss.fu-berlin.de/bizer/bsbm/v01/instances/ProductType12>	
<http://www4.wiwiss.fu-berlin.de/bizer/bsbm/v01/instances/dataFromProducer58/Product2689>	<http://www4.wiwiss.fu-berlin.de/bizer/bsbm/v01/instances/ProductType12>	
<http://www4.wiwiss.fu-berlin.de/bizer/bsbm/v01/instances/dataFromProducer22/Product1029>	<http://www4.wiwiss.fu-berlin.de/bizer/bsbm/v01/instances/ProductType65>	
<http://www4.wiwiss.fu-berlin.de/bizer/bsbm/v01/instances/dataFromProducer23/Product1097>	<http://www4.wiwiss.fu-berlin.de/bizer/bsbm/v01/instances/ProductType12>	
<http://www4.wiwiss.fu-berlin.de/bizer/bsbm/v01/instances/dataFromProducer9/Product449>	<http://www4.wiwiss.fu-berlin.de/bizer/bsbm/v01/instances/ProductType64>	
<http://www4.wiwiss.fu-berlin.de/bizer/bsbm/v01/instances/dataFromProducer16/Product751>	<http://www4.wiwiss.fu-berlin.de/bizer/bsbm/v01/instances/ProductType65>	
<http://www4.wiwiss.fu-berlin.de/bizer/bsbm/v01/instances/dataFromProducer52/Product2473>	<http://www4.wiwiss.fu-berlin.de/bizer/bsbm/v01/instances/ProductType64>	
<http://www4.wiwiss.fu-berlin.de/bizer/bsbm/v01/instances/dataFromProducer39/Product1777>	<http://www4.wiwiss.fu-berlin.de/bizer/bsbm/v01/instances/ProductType12>	
<http://www4.wiwiss.fu-berlin.de/bizer/bsbm/v01/instances/dataFromProducer36/Product1598>	<http://www4.wiwiss.fu-berlin.de/bizer/bsbm/v01/instances/ProductType65>	
<http://www4.wiwiss.fu-berlin.de/bizer/bsbm/v01/instances/dataFromProducer50/Product2352>	<http://www4.wiwiss.fu-berlin.de/bizer/bsbm/v01/instances/ProductType12>	
<http://www4.wiwiss.fu-berlin.de/bizer/bsbm/v01/instances/dataFromProducer29/Product1335>	<http://www4.wiwiss.fu-berlin.de/bizer/bsbm/v01/instances/ProductType12>	
<http://www4.wiwiss.fu-berlin.de/bizer/bsbm/v01/instances/dataFromProducer31/Product1404>	<http://www4.wiwiss.fu-berlin.de/bizer/bsbm/v01/instances/ProductType65>	
<http://www4.wiwiss.fu-berlin.de/bizer/bsbm/v01/instances/dataFromProducer26/Product1218>	<http://www4.wiwiss.fu-berlin.de/bizer/bsbm/v01/instances/ProductType65>	
<http://www4.wiwiss.fu-berlin.de/bizer/bsbm/v01/instances/dataFromProducer29/Product1335>	<http://www4.wiwiss.fu-berlin.de/bizer/bsbm/v01/instances/ProductType65>	
<http://www4.wiwiss.fu-berlin.de/bizer/bsbm/v01/instances/dataFromProducer39/Product1777>	<http://www4.wiwiss.fu-berlin.de/bizer/bsbm/v01/instances/ProductType64>	
<http://www4.wiwiss.fu-berlin.de/bizer/bsbm/v01/instances/dataFromProducer16/Product751>	<http://www4.wiwiss.fu-berlin.de/bizer/bsbm/v01/instances/ProductType12>	
