digraph  g{
node [shape=rectangle, color=black, fontcolor=black, style=bold]
0 [label="LogSkolemFunctionCall
(<http://www4.wiwiss.fu-berlin.de/bizer/bsbm/v01/instances/dataFromRatingSite{0}/Review{1}>, <http://www4.wiwiss.fu-berlin.de/bizer/bsbm/v01/instances/dataFromProducer{2}/Product{3}>, \"{4}\", \"{5}\")" , color = blue] ; 
1 [label="LogSQLEval 
SELECT tab_2440.publisher, tab_2440.nr, tab_2440.producer, tab_2440.product, tab_2440.title, tab_2440.text FROM Review AS tab_2440, PRODUCT AS tab_2441, PRODUCTTYPEPRODUCT AS tab_2442 WHERE tab_2442.producttype = 59 AND tab_2442.product = tab_2441.nr AND tab_2440.producer = tab_2441.producer AND tab_2440.product = tab_2441.nr UNION SELECT tab_2446.publisher, tab_2446.nr, tab_2446.producer, tab_2446.product, tab_2446.title, tab_2446.text FROM PRODUCT AS tab_2447, Review AS tab_2446, PRODUCTTYPEPRODUCT AS tab_2448 WHERE tab_2448.producttype = 57 AND tab_2448.product = tab_2447.nr AND tab_2446.producer = tab_2447.producer AND tab_2446.product = tab_2447.nr UNION SELECT tab_2476.publisher, tab_2476.nr, tab_2476.producer, tab_2476.product, tab_2476.title, tab_2476.text FROM PRODUCTTYPEPRODUCT AS tab_2478, PRODUCT AS tab_2477, Review AS tab_2476 WHERE tab_2478.producttype = 68 AND tab_2478.product = tab_2477.nr AND tab_2476.producer = tab_2477.producer AND tab_2476.product = tab_2477.nr UNION SELECT tab_2464.publisher, tab_2464.nr, tab_2464.producer, tab_2464.product, tab_2464.title, tab_2464.text FROM PRODUCTTYPEPRODUCT AS tab_2466, PRODUCT AS tab_2465, Review AS tab_2464 WHERE tab_2466.producttype = 66 AND tab_2466.product = tab_2465.nr AND tab_2464.producer = tab_2465.producer AND tab_2464.product = tab_2465.nr UNION SELECT tab_2443.publisher, tab_2443.nr, tab_2443.producer, tab_2443.product, tab_2443.title, tab_2443.text FROM PRODUCTTYPEPRODUCT AS tab_2445, PRODUCT AS tab_2444, Review AS tab_2443 WHERE tab_2445.producttype = 69 AND tab_2445.product = tab_2444.nr AND tab_2443.producer = tab_2444.producer AND tab_2443.product = tab_2444.nr UNION SELECT tab_2434.publisher, tab_2434.nr, tab_2434.producer, tab_2434.product, tab_2434.title, tab_2434.text FROM PRODUCTTYPEPRODUCT AS tab_2436, Review AS tab_2434, PRODUCT AS tab_2435 WHERE tab_2436.producttype = 71 AND tab_2436.product = tab_2435.nr AND tab_2434.producer = tab_2435.producer AND tab_2434.product = tab_2435.nr UNION SELECT tab_2467.publisher, tab_2467.nr, tab_2467.producer, tab_2467.product, tab_2467.title, tab_2467.text FROM PRODUCTTYPEPRODUCT AS tab_2469, Review AS tab_2467, PRODUCT AS tab_2468 WHERE tab_2469.producttype = 58 AND tab_2469.product = tab_2468.nr AND tab_2467.producer = tab_2468.producer AND tab_2467.product = tab_2468.nr UNION SELECT tab_2455.publisher, tab_2455.nr, tab_2455.producer, tab_2455.product, tab_2455.title, tab_2455.text FROM PRODUCTTYPEPRODUCT AS tab_2457, Review AS tab_2455, PRODUCT AS tab_2456 WHERE tab_2457.producttype = 61 AND tab_2457.product = tab_2456.nr AND tab_2455.producer = tab_2456.producer AND tab_2455.product = tab_2456.nr UNION SELECT tab_2458.publisher, tab_2458.nr, tab_2458.producer, tab_2458.product, tab_2458.title, tab_2458.text FROM PRODUCT AS tab_2459, Review AS tab_2458, PRODUCTTYPEPRODUCT AS tab_2460 WHERE tab_2460.producttype = 67 AND tab_2460.product = tab_2459.nr AND tab_2458.producer = tab_2459.producer AND tab_2458.product = tab_2459.nr UNION SELECT tab_2452.publisher, tab_2452.nr, tab_2452.producer, tab_2452.product, tab_2452.title, tab_2452.text FROM Review AS tab_2452, PRODUCT AS tab_2453, PRODUCTTYPEPRODUCT AS tab_2454 WHERE tab_2454.producttype = 60 AND tab_2454.product = tab_2453.nr AND tab_2452.producer = tab_2453.producer AND tab_2452.product = tab_2453.nr UNION SELECT tab_2473.publisher, tab_2473.nr, tab_2473.producer, tab_2473.product, tab_2473.title, tab_2473.text FROM Review AS tab_2473, PRODUCT AS tab_2474, PRODUCTTYPEPRODUCT AS tab_2475 WHERE tab_2475.producttype = 70 AND tab_2475.product = tab_2474.nr AND tab_2473.producer = tab_2474.producer AND tab_2473.product = tab_2474.nr UNION SELECT tab_2470.publisher, tab_2470.nr, tab_2470.producer, tab_2470.product, tab_2470.title, tab_2470.text FROM PRODUCTTYPEPRODUCT AS tab_2472, Review AS tab_2470, PRODUCT AS tab_2471 WHERE tab_2472.producttype = 56 AND tab_2472.product = tab_2471.nr AND tab_2470.producer = tab_2471.producer AND tab_2470.product = tab_2471.nr UNION SELECT tab_2437.publisher, tab_2437.nr, tab_2437.producer, tab_2437.product, tab_2437.title, tab_2437.text FROM Review AS tab_2437, PRODUCT AS tab_2438, PRODUCTTYPEPRODUCT AS tab_2439 WHERE tab_2439.producttype = 64 AND tab_2439.product = tab_2438.nr AND tab_2437.producer = tab_2438.producer AND tab_2437.product = tab_2438.nr UNION SELECT tab_2431.publisher, tab_2431.nr, tab_2431.producer, tab_2431.product, tab_2431.title, tab_2431.text FROM PRODUCTTYPEPRODUCT AS tab_2433, PRODUCT AS tab_2432, Review AS tab_2431 WHERE tab_2433.producttype = 63 AND tab_2433.product = tab_2432.nr AND tab_2431.producer = tab_2432.producer AND tab_2431.product = tab_2432.nr UNION SELECT tab_2449.publisher, tab_2449.nr, tab_2449.producer, tab_2449.product, tab_2449.title, tab_2449.text FROM Review AS tab_2449, PRODUCT AS tab_2450, PRODUCTTYPEPRODUCT AS tab_2451 WHERE tab_2451.producttype = 62 AND tab_2451.product = tab_2450.nr AND tab_2449.producer = tab_2450.producer AND tab_2449.product = tab_2450.nr UNION SELECT tab_2461.publisher, tab_2461.nr, tab_2461.producer, tab_2461.product, tab_2461.title, tab_2461.text FROM PRODUCT AS tab_2462, Review AS tab_2461, PRODUCTTYPEPRODUCT AS tab_2463 WHERE tab_2463.producttype = 65 AND tab_2463.product = tab_2462.nr AND tab_2461.producer = tab_2462.producer AND tab_2461.product = tab_2462.nr", color = blue] ; 
0 -> 1 ; 
}

