digraph  g{
node [shape=rectangle, color=black, fontcolor=black, style=bold]
0 [label="LogSkolemFunctionCall
(<http://www4.wiwiss.fu-berlin.de/bizer/bsbm/v01/instances/dataFromVendor{1}/Offer{0}>, <{2}>, <http://www4.wiwiss.fu-berlin.de/bizer/bsbm/v01/instances/dataFromVendor{1}/Vendor{1}>, \"{3}\", <{4}>)" , color = blue] ; 
1 [label="LogMongoDBEval
vendor
[{$lookup: { from: \"offer\", let: { \"nr\": \"$nr\"}, pipeline: [ { $match: {$expr: {$eq: [\"$$nr\", \"$vendor\"] } } } ], as: \"mongojoin156\"}},
{$unwind: \"$mongojoin156\"}]
[mongojoin156.nr, mongojoin156.vendor, mongojoin156.offerwebpage, label, homepage]
", color = blue] ; 
0 -> 1 ; 
}

