$aname	$vehicleName	GRAAL_COL_0
"James Earl Jones"	"TIE Advanced x1"	<ex:StarFighter>	
"Hayden Christensen"	"TIE Advanced x1"	<ex:StarFighter>	
"Ewan McGregor"	"Jedi starfighter"	<ex:StarFighter>	
"Ewan McGregor"	"Jedi Interceptor"	<ex:StarFighter>	
"Ewan McGregor"	"Belbullab-22 starfighter"	<ex:StarFighter>	
"Alec Guinness"	"Jedi starfighter"	<ex:StarFighter>	
"Alec Guinness"	"Jedi Interceptor"	<ex:StarFighter>	
"Alec Guinness"	"Belbullab-22 starfighter"	<ex:StarFighter>	
"James Earl Jones"	"TIE Advanced x1"	<ex:StarShip>	
"Hayden Christensen"	"TIE Advanced x1"	<ex:StarShip>	
"Ewan McGregor"	"Jedi starfighter"	<ex:StarShip>	
"Ewan McGregor"	"Jedi Interceptor"	<ex:StarShip>	
"Ewan McGregor"	"Belbullab-22 starfighter"	<ex:StarShip>	
"Alec Guinness"	"Jedi starfighter"	<ex:StarShip>	
"Alec Guinness"	"Jedi Interceptor"	<ex:StarShip>	
"Alec Guinness"	"Belbullab-22 starfighter"	<ex:StarShip>	
