digraph  g{ graph[label = "0:6:18.956"]
node [shape=rectangle, color=black, fontcolor=black, style=bold] edge [color=black] 0 [label="BindAccessEval", color = yellow] ; 
1 [label="HashDistinct", color = yellow] ; 
0 -> 1 ; 
2 [label="Union", color = yellow] ; 
1 -> 2 ; 
3 [label="Project
[6, 5, 9, 7, 8, 2]", color = yellow] ; 
2 -> 3 ; 
4 [label="RightBindJoin 
[[0, 1]]
0", color = yellow] ; 
3 -> 4 ; 
5 [label="SQLQuery
SELECT tab_2743.nr, tab_2743.producer, tab_2745.propertyNum1 
FROM PRODUCTTYPEPRODUCT AS tab_2744, Product AS tab_2745, PRODUCT AS tab_2743  
WHERE tab_2744.producttype = 110 AND tab_2744.product = tab_2743.nr AND tab_2743.nr = tab_2745.nr AND tab_2743.producer = tab_2745.producer
30", color = yellow] ; 
4 -> 5 ; 
6 [label="PhyMongoDBEval
countrytype
[{\"$match\":{\"countrytype\":122}},
{$lookup: { from: \"productproducercountry\", let: { \"country\": \"$country\"}, pipeline: [ { $match: {$expr: {$eq: [\"$$country\", \"$country\"] } } } ], as: \"mongojoin377\"}},
{$unwind: \"$mongojoin377\"},
{$lookup: { from: \"productfeatureproduct\", let: { \"mongojoin377_nr\": \"$mongojoin377.nr\", \"mongojoin377_producer\": \"$mongojoin377.producer\"}, pipeline: [ { $match: {$expr: {$eq: [\"$label\", \"biographies\"] } } }, { $match: {$expr: {$eq: [\"$$mongojoin377_nr\", \"$nr\"] } } }, { $match: {$expr: {$eq: [\"$$mongojoin377_producer\", \"$producer\"] } } } ], as: \"mongojoin378\"}},
{$unwind: \"$mongojoin378\"},
{$lookup: { from: \"offer\", let: { \"mongojoin378_nr\": \"$mongojoin378.nr\", \"mongojoin378_producer\": \"$mongojoin378.producer\"}, pipeline: [ { $match: {$expr: {$eq: [\"$$mongojoin378_nr\", \"$product\"] } } }, { $match: {$expr: {$eq: [\"$$mongojoin378_producer\", \"$producer\"] } } } ], as: \"mongojoin379\"}},
{$unwind: \"$mongojoin379\"},
{ \"$match\": { \"mongojoin377.nr\": %s, \"mongojoin377.producer\": %s } }]
[mongojoin377.nr, mongojoin377.producer, mongojoin379.nr, mongojoin379.vendor, mongojoin379.price, mongojoin379.deliverydays, mongojoin379.offerwebpage]
0", color = yellow] ; 
4 -> 6 ; 
8 [label="Project
[6, 5, 9, 7, 8, 2]", color = yellow] ; 
2 -> 8 ; 
9 [label="RightBindJoin 
[[1, 0]]
0", color = yellow] ; 
8 -> 9 ; 
10 [label="SQLQuery
SELECT tab_2746.nr, tab_2746.producer, tab_2748.propertyNum1 
FROM PRODUCT AS tab_2746, PRODUCTTYPEPRODUCT AS tab_2747, Product AS tab_2748  
WHERE tab_2747.producttype = 110 AND tab_2747.product = tab_2746.nr AND tab_2746.nr = tab_2748.nr AND tab_2746.producer = tab_2748.producer
30", color = yellow] ; 
9 -> 10 ; 
11 [label="PhyMongoDBEval
countrytype
[{\"$match\":{\"countrytype\":121}},
{$lookup: { from: \"productproducercountry\", let: { \"country\": \"$country\"}, pipeline: [ { $match: {$expr: {$eq: [\"$$country\", \"$country\"] } } } ], as: \"mongojoin380\"}},
{$unwind: \"$mongojoin380\"},
{$lookup: { from: \"productfeatureproduct\", let: { \"mongojoin380_nr\": \"$mongojoin380.nr\", \"mongojoin380_producer\": \"$mongojoin380.producer\"}, pipeline: [ { $match: {$expr: {$eq: [\"$label\", \"biographies\"] } } }, { $match: {$expr: {$eq: [\"$$mongojoin380_nr\", \"$nr\"] } } }, { $match: {$expr: {$eq: [\"$$mongojoin380_producer\", \"$producer\"] } } } ], as: \"mongojoin381\"}},
{$unwind: \"$mongojoin381\"},
{$lookup: { from: \"offer\", let: { \"mongojoin381_nr\": \"$mongojoin381.nr\", \"mongojoin381_producer\": \"$mongojoin381.producer\"}, pipeline: [ { $match: {$expr: {$eq: [\"$$mongojoin381_nr\", \"$product\"] } } }, { $match: {$expr: {$eq: [\"$$mongojoin381_producer\", \"$producer\"] } } } ], as: \"mongojoin382\"}},
{$unwind: \"$mongojoin382\"},
{ \"$match\": { \"mongojoin380.producer\": %s, \"mongojoin380.nr\": %s } }]
[mongojoin380.nr, mongojoin380.producer, mongojoin382.nr, mongojoin382.vendor, mongojoin382.price, mongojoin382.deliverydays, mongojoin382.offerwebpage]
0", color = yellow] ; 
9 -> 11 ; 
13 [label="Project
[6, 5, 9, 7, 8, 2]", color = yellow] ; 
2 -> 13 ; 
14 [label="RightBindJoin 
[[0, 1]]
0", color = yellow] ; 
13 -> 14 ; 
15 [label="SQLQuery
SELECT tab_2749.nr, tab_2749.producer, tab_2751.propertyNum2 
FROM Product AS tab_2751, PRODUCT AS tab_2749, PRODUCTTYPEPRODUCT AS tab_2750  
WHERE tab_2750.producttype = 110 AND tab_2750.product = tab_2749.nr AND tab_2749.producer = tab_2751.producer AND tab_2749.nr = tab_2751.nr
30", color = yellow] ; 
14 -> 15 ; 
16 [label="PhyMongoDBEval
countrytype
[{\"$match\":{\"countrytype\":122}},
{$lookup: { from: \"productproducercountry\", let: { \"country\": \"$country\"}, pipeline: [ { $match: {$expr: {$eq: [\"$$country\", \"$country\"] } } } ], as: \"mongojoin383\"}},
{$unwind: \"$mongojoin383\"},
{$lookup: { from: \"productfeatureproduct\", let: { \"mongojoin383_nr\": \"$mongojoin383.nr\", \"mongojoin383_producer\": \"$mongojoin383.producer\"}, pipeline: [ { $match: {$expr: {$eq: [\"$label\", \"biographies\"] } } }, { $match: {$expr: {$eq: [\"$$mongojoin383_nr\", \"$nr\"] } } }, { $match: {$expr: {$eq: [\"$$mongojoin383_producer\", \"$producer\"] } } } ], as: \"mongojoin384\"}},
{$unwind: \"$mongojoin384\"},
{$lookup: { from: \"offer\", let: { \"mongojoin384_producer\": \"$mongojoin384.producer\", \"mongojoin384_nr\": \"$mongojoin384.nr\"}, pipeline: [ { $match: {$expr: {$eq: [\"$$mongojoin384_producer\", \"$producer\"] } } }, { $match: {$expr: {$eq: [\"$$mongojoin384_nr\", \"$product\"] } } } ], as: \"mongojoin385\"}},
{$unwind: \"$mongojoin385\"},
{ \"$match\": { \"mongojoin383.nr\": %s, \"mongojoin383.producer\": %s } }]
[mongojoin383.nr, mongojoin383.producer, mongojoin385.nr, mongojoin385.vendor, mongojoin385.price, mongojoin385.deliverydays, mongojoin385.offerwebpage]
0", color = yellow] ; 
14 -> 16 ; 
18 [label="Project
[6, 5, 9, 7, 8, 2]", color = yellow] ; 
2 -> 18 ; 
19 [label="RightBindJoin 
[[1, 0]]
0", color = yellow] ; 
18 -> 19 ; 
20 [label="SQLQuery
SELECT tab_2752.nr, tab_2752.producer, tab_2754.propertyNum2 
FROM PRODUCTTYPEPRODUCT AS tab_2753, Product AS tab_2754, PRODUCT AS tab_2752  
WHERE tab_2753.producttype = 110 AND tab_2753.product = tab_2752.nr AND tab_2752.nr = tab_2754.nr AND tab_2752.producer = tab_2754.producer
30", color = yellow] ; 
19 -> 20 ; 
21 [label="PhyMongoDBEval
countrytype
[{\"$match\":{\"countrytype\":121}},
{$lookup: { from: \"productproducercountry\", let: { \"country\": \"$country\"}, pipeline: [ { $match: {$expr: {$eq: [\"$$country\", \"$country\"] } } } ], as: \"mongojoin386\"}},
{$unwind: \"$mongojoin386\"},
{$lookup: { from: \"productfeatureproduct\", let: { \"mongojoin386_producer\": \"$mongojoin386.producer\", \"mongojoin386_nr\": \"$mongojoin386.nr\"}, pipeline: [ { $match: {$expr: {$eq: [\"$label\", \"biographies\"] } } }, { $match: {$expr: {$eq: [\"$$mongojoin386_producer\", \"$producer\"] } } }, { $match: {$expr: {$eq: [\"$$mongojoin386_nr\", \"$nr\"] } } } ], as: \"mongojoin387\"}},
{$unwind: \"$mongojoin387\"},
{$lookup: { from: \"offer\", let: { \"mongojoin387_nr\": \"$mongojoin387.nr\", \"mongojoin387_producer\": \"$mongojoin387.producer\"}, pipeline: [ { $match: {$expr: {$eq: [\"$$mongojoin387_nr\", \"$product\"] } } }, { $match: {$expr: {$eq: [\"$$mongojoin387_producer\", \"$producer\"] } } } ], as: \"mongojoin388\"}},
{$unwind: \"$mongojoin388\"},
{ \"$match\": { \"mongojoin386.producer\": %s, \"mongojoin386.nr\": %s } }]
[mongojoin386.nr, mongojoin386.producer, mongojoin388.nr, mongojoin388.vendor, mongojoin388.price, mongojoin388.deliverydays, mongojoin388.offerwebpage]
0", color = yellow] ; 
19 -> 21 ; 
22 [label="FunctionCallBindAccess
(<http://www4.wiwiss.fu-berlin.de/bizer/bsbm/v01/instances/dataFromVendor{0}/Offer{1}>, <{2}>, \"{3}\", \"{4}\", \"{5}\")", color = yellow] ; 
0 -> 22 ; 
}

