digraph  g{
node [shape=rectangle, color=black, fontcolor=black, style=bold]
0 [label="LogDistinct" , color = blue] ; 
1 [label="Union", color = blue] ; 
0 -> 1 ; 
2 [label="LogFunctionCall
AddConstant{1=(\"<http://www4.wiwiss.fu-berlin.de/bizer/bsbm/v01/vocabulary/producer>\")}" , color = blue] ; 
1 -> 2 ; 
3 [label="LogSkolemFunctionCall
(\"{0}\", <http://downlode.org/rdf/iso-3166/countries#{1}>)" , color = blue] ; 
2 -> 3 ; 
4 [label="LogProj
[4,2]" , color = blue] ; 
3 -> 4 ; 
5 [label="Join\n [1PREDICATE_EQUAL5,0PREDICATE_EQUAL3] ", color = blue] ; 
4 -> 5 ; 
6 [label="LogMongoDBEval
countrytype
[{\"$match\":{\"countrytype\":112}},
{$lookup: { from: \"productproducercountry\", let: { \"country\": \"$country\"}, pipeline: [ { $match: {$expr: {$eq: [\"$$country\", \"$country\"] } } } ], as: \"mongojoin197\"}},
{$unwind: \"$mongojoin197\"}]
[mongojoin197.nr, mongojoin197.producer, mongojoin197.country]
", color = blue] ; 
5 -> 6 ; 
7 [label="LogSQLEval 
SELECT nr, label, producer FROM Product", color = blue] ; 
5 -> 7 ; 
9 [label="LogFunctionCall
AddConstant{1=(\"<http://www4.wiwiss.fu-berlin.de/bizer/bsbm/v01/vocabulary/producer>\")}" , color = blue] ; 
1 -> 9 ; 
10 [label="LogSkolemFunctionCall
(\"{0}\", <http://downlode.org/rdf/iso-3166/countries#{1}>)" , color = blue] ; 
9 -> 10 ; 
11 [label="LogProj
[4,2]" , color = blue] ; 
10 -> 11 ; 
12 [label="Join\n [1PREDICATE_EQUAL5,0PREDICATE_EQUAL3] ", color = blue] ; 
11 -> 12 ; 
13 [label="LogMongoDBEval
countrytype
[{\"$match\":{\"countrytype\":122}},
{$lookup: { from: \"productproducercountry\", let: { \"country\": \"$country\"}, pipeline: [ { $match: {$expr: {$eq: [\"$$country\", \"$country\"] } } } ], as: \"mongojoin198\"}},
{$unwind: \"$mongojoin198\"}]
[mongojoin198.nr, mongojoin198.producer, mongojoin198.country]
", color = blue] ; 
12 -> 13 ; 
14 [label="LogSQLEval 
SELECT nr, label, producer FROM Product", color = blue] ; 
12 -> 14 ; 
16 [label="LogFunctionCall
AddConstant{1=(\"<http://www4.wiwiss.fu-berlin.de/bizer/bsbm/v01/vocabulary/producer>\")}" , color = blue] ; 
1 -> 16 ; 
17 [label="LogSkolemFunctionCall
(\"{0}\", <http://downlode.org/rdf/iso-3166/countries#{1}>)" , color = blue] ; 
16 -> 17 ; 
18 [label="LogProj
[4,2]" , color = blue] ; 
17 -> 18 ; 
19 [label="Join\n [1PREDICATE_EQUAL5,0PREDICATE_EQUAL3] ", color = blue] ; 
18 -> 19 ; 
20 [label="LogMongoDBEval
countrytype
[{\"$match\":{\"countrytype\":111}},
{$lookup: { from: \"productproducercountry\", let: { \"country\": \"$country\"}, pipeline: [ { $match: {$expr: {$eq: [\"$$country\", \"$country\"] } } } ], as: \"mongojoin199\"}},
{$unwind: \"$mongojoin199\"}]
[mongojoin199.nr, mongojoin199.producer, mongojoin199.country]
", color = blue] ; 
19 -> 20 ; 
21 [label="LogSQLEval 
SELECT nr, label, producer FROM Product", color = blue] ; 
19 -> 21 ; 
23 [label="LogFunctionCall
AddConstant{1=(\"<http://www4.wiwiss.fu-berlin.de/bizer/bsbm/v01/vocabulary/producer>\")}" , color = blue] ; 
1 -> 23 ; 
24 [label="LogSkolemFunctionCall
(\"{0}\", <http://downlode.org/rdf/iso-3166/countries#{1}>)" , color = blue] ; 
23 -> 24 ; 
25 [label="LogProj
[4,2]" , color = blue] ; 
24 -> 25 ; 
26 [label="Join\n [1PREDICATE_EQUAL5,0PREDICATE_EQUAL3] ", color = blue] ; 
25 -> 26 ; 
27 [label="LogMongoDBEval
countrytype
[{\"$match\":{\"countrytype\":121}},
{$lookup: { from: \"productproducercountry\", let: { \"country\": \"$country\"}, pipeline: [ { $match: {$expr: {$eq: [\"$$country\", \"$country\"] } } } ], as: \"mongojoin200\"}},
{$unwind: \"$mongojoin200\"}]
[mongojoin200.nr, mongojoin200.producer, mongojoin200.country]
", color = blue] ; 
26 -> 27 ; 
28 [label="LogSQLEval 
SELECT nr, label, producer FROM Product", color = blue] ; 
26 -> 28 ; 
}

