digraph  g{
node [shape=rectangle, color=black, fontcolor=black, style=bold]
0 [label="LogDistinct" , color = blue] ; 
1 [label="Union", color = blue] ; 
0 -> 1 ; 
2 [label="LogFunctionCall
AddConstant{1=(\"<http://www4.wiwiss.fu-berlin.de/bizer/bsbm/v01/vocabulary/producer>\")}" , color = blue] ; 
1 -> 2 ; 
3 [label="LogProj
[10,15]" , color = blue] ; 
2 -> 3 ; 
4 [label="Join\n [15PREDICATE_EQUAL16] ", color = blue] ; 
3 -> 4 ; 
5 [label="Join\n [13PREDICATE_EQUAL14] ", color = blue] ; 
4 -> 5 ; 
6 [label="LogSkolemFunctionCall
(\"{11}\", \"{10}\", \"{2}\", \"{9}\", <http://www4.wiwiss.fu-berlin.de/bizer/bsbm/v01/instances/dataFromProducer{3}/Producer{3}>, \"{8}\", <http://www4.wiwiss.fu-berlin.de/bizer/bsbm/v01/instances/dataFromProducer{3}/Producer{3}>, \"{7}\", \"{5}\", \"{4}\", \"{1}\", \"{13}\", \"{6}\", <http://www4.wiwiss.fu-berlin.de/bizer/bsbm/v01/instances/dataFromProducer{3}/Product{0}>)" , color = blue] ; 
5 -> 6 ; 
7 [label="LogSQLEval 
SELECT nr, label, comment, producer, propertyNum1, propertyNum2, propertyTex1, propertyTex2, propertyTex3, propertyTex4, propertyTex5, propertyTex6, publisher, publishDate FROM Product", color = blue] ; 
6 -> 7 ; 
8 [label="LogSkolemFunctionCall
(<http://www4.wiwiss.fu-berlin.de/bizer/bsbm/v01/instances/dataFromProducer{1}/Product{0}>, <http://downlode.org/rdf/iso-3166/countries#{2}>)" , color = blue] ; 
5 -> 8 ; 
9 [label="LogMongoDBEval
productproducercountry
[]
[nr, producer, country]
", color = blue] ; 
8 -> 9 ; 
10 [label="LogSkolemFunctionCall
(<http://downlode.org/rdf/iso-3166/countries#{0}>)" , color = blue] ; 
4 -> 10 ; 
11 [label="LogMongoDBEval
countrytype
[{\"$match\":{\"countrytype\":112}}]
[country]
", color = blue] ; 
10 -> 11 ; 
13 [label="LogFunctionCall
AddConstant{1=(\"<http://www4.wiwiss.fu-berlin.de/bizer/bsbm/v01/vocabulary/producer>\")}" , color = blue] ; 
1 -> 13 ; 
14 [label="LogProj
[10,15]" , color = blue] ; 
13 -> 14 ; 
15 [label="Join\n [15PREDICATE_EQUAL16] ", color = blue] ; 
14 -> 15 ; 
16 [label="Join\n [13PREDICATE_EQUAL14] ", color = blue] ; 
15 -> 16 ; 
17 [label="LogSkolemFunctionCall
(\"{11}\", \"{10}\", \"{2}\", \"{9}\", <http://www4.wiwiss.fu-berlin.de/bizer/bsbm/v01/instances/dataFromProducer{3}/Producer{3}>, \"{8}\", <http://www4.wiwiss.fu-berlin.de/bizer/bsbm/v01/instances/dataFromProducer{3}/Producer{3}>, \"{7}\", \"{5}\", \"{4}\", \"{1}\", \"{13}\", \"{6}\", <http://www4.wiwiss.fu-berlin.de/bizer/bsbm/v01/instances/dataFromProducer{3}/Product{0}>)" , color = blue] ; 
16 -> 17 ; 
18 [label="LogSQLEval 
SELECT nr, label, comment, producer, propertyNum1, propertyNum2, propertyTex1, propertyTex2, propertyTex3, propertyTex4, propertyTex5, propertyTex6, publisher, publishDate FROM Product", color = blue] ; 
17 -> 18 ; 
19 [label="LogSkolemFunctionCall
(<http://www4.wiwiss.fu-berlin.de/bizer/bsbm/v01/instances/dataFromProducer{1}/Product{0}>, <http://downlode.org/rdf/iso-3166/countries#{2}>)" , color = blue] ; 
16 -> 19 ; 
20 [label="LogMongoDBEval
productproducercountry
[]
[nr, producer, country]
", color = blue] ; 
19 -> 20 ; 
21 [label="LogSkolemFunctionCall
(<http://downlode.org/rdf/iso-3166/countries#{0}>)" , color = blue] ; 
15 -> 21 ; 
22 [label="LogMongoDBEval
countrytype
[{\"$match\":{\"countrytype\":122}}]
[country]
", color = blue] ; 
21 -> 22 ; 
24 [label="LogFunctionCall
AddConstant{1=(\"<http://www4.wiwiss.fu-berlin.de/bizer/bsbm/v01/vocabulary/producer>\")}" , color = blue] ; 
1 -> 24 ; 
25 [label="LogProj
[10,15]" , color = blue] ; 
24 -> 25 ; 
26 [label="Join\n [15PREDICATE_EQUAL16] ", color = blue] ; 
25 -> 26 ; 
27 [label="Join\n [13PREDICATE_EQUAL14] ", color = blue] ; 
26 -> 27 ; 
28 [label="LogSkolemFunctionCall
(\"{11}\", \"{10}\", \"{2}\", \"{9}\", <http://www4.wiwiss.fu-berlin.de/bizer/bsbm/v01/instances/dataFromProducer{3}/Producer{3}>, \"{8}\", <http://www4.wiwiss.fu-berlin.de/bizer/bsbm/v01/instances/dataFromProducer{3}/Producer{3}>, \"{7}\", \"{5}\", \"{4}\", \"{1}\", \"{13}\", \"{6}\", <http://www4.wiwiss.fu-berlin.de/bizer/bsbm/v01/instances/dataFromProducer{3}/Product{0}>)" , color = blue] ; 
27 -> 28 ; 
29 [label="LogSQLEval 
SELECT nr, label, comment, producer, propertyNum1, propertyNum2, propertyTex1, propertyTex2, propertyTex3, propertyTex4, propertyTex5, propertyTex6, publisher, publishDate FROM Product", color = blue] ; 
28 -> 29 ; 
30 [label="LogSkolemFunctionCall
(<http://www4.wiwiss.fu-berlin.de/bizer/bsbm/v01/instances/dataFromProducer{1}/Product{0}>, <http://downlode.org/rdf/iso-3166/countries#{2}>)" , color = blue] ; 
27 -> 30 ; 
31 [label="LogMongoDBEval
productproducercountry
[]
[nr, producer, country]
", color = blue] ; 
30 -> 31 ; 
32 [label="LogSkolemFunctionCall
(<http://downlode.org/rdf/iso-3166/countries#{0}>)" , color = blue] ; 
26 -> 32 ; 
33 [label="LogMongoDBEval
countrytype
[{\"$match\":{\"countrytype\":111}}]
[country]
", color = blue] ; 
32 -> 33 ; 
35 [label="LogFunctionCall
AddConstant{1=(\"<http://www4.wiwiss.fu-berlin.de/bizer/bsbm/v01/vocabulary/producer>\")}" , color = blue] ; 
1 -> 35 ; 
36 [label="LogProj
[10,15]" , color = blue] ; 
35 -> 36 ; 
37 [label="Join\n [15PREDICATE_EQUAL16] ", color = blue] ; 
36 -> 37 ; 
38 [label="Join\n [13PREDICATE_EQUAL14] ", color = blue] ; 
37 -> 38 ; 
39 [label="LogSkolemFunctionCall
(\"{11}\", \"{10}\", \"{2}\", \"{9}\", <http://www4.wiwiss.fu-berlin.de/bizer/bsbm/v01/instances/dataFromProducer{3}/Producer{3}>, \"{8}\", <http://www4.wiwiss.fu-berlin.de/bizer/bsbm/v01/instances/dataFromProducer{3}/Producer{3}>, \"{7}\", \"{5}\", \"{4}\", \"{1}\", \"{13}\", \"{6}\", <http://www4.wiwiss.fu-berlin.de/bizer/bsbm/v01/instances/dataFromProducer{3}/Product{0}>)" , color = blue] ; 
38 -> 39 ; 
40 [label="LogSQLEval 
SELECT nr, label, comment, producer, propertyNum1, propertyNum2, propertyTex1, propertyTex2, propertyTex3, propertyTex4, propertyTex5, propertyTex6, publisher, publishDate FROM Product", color = blue] ; 
39 -> 40 ; 
41 [label="LogSkolemFunctionCall
(<http://www4.wiwiss.fu-berlin.de/bizer/bsbm/v01/instances/dataFromProducer{1}/Product{0}>, <http://downlode.org/rdf/iso-3166/countries#{2}>)" , color = blue] ; 
38 -> 41 ; 
42 [label="LogMongoDBEval
productproducercountry
[]
[nr, producer, country]
", color = blue] ; 
41 -> 42 ; 
43 [label="LogSkolemFunctionCall
(<http://downlode.org/rdf/iso-3166/countries#{0}>)" , color = blue] ; 
37 -> 43 ; 
44 [label="LogMongoDBEval
countrytype
[{\"$match\":{\"countrytype\":121}}]
[country]
", color = blue] ; 
43 -> 44 ; 
}

