digraph  g{
node [shape=rectangle, color=black, fontcolor=black, style=bold]
0 [label="LogDistinct" , color = blue] ; 
1 [label="Union", color = blue] ; 
0 -> 1 ; 
2 [label="LogSkolemFunctionCall
(<http://www4.wiwiss.fu-berlin.de/bizer/bsbm/v01/instances/dataFromVendor{0}/Vendor{0}>, \"{1}\", <{2}>)" , color = blue] ; 
1 -> 2 ; 
3 [label="LogMongoDBEval
vendor
[]
[nr, label, homepage]
", color = blue] ; 
2 -> 3 ; 
5 [label="LogSkolemFunctionCall
(<http://www4.wiwiss.fu-berlin.de/bizer/bsbm/v01/instances/dataFromProducer{0}/Producer{0}>, \"{1}\", <{2}>)" , color = blue] ; 
1 -> 5 ; 
6 [label="LogSQLEval 
SELECT nr, label, homepage FROM Producer", color = blue] ; 
5 -> 6 ; 
}

