digraph  g{ graph[label = "12:11:24.275"]
node [shape=rectangle, color=black, fontcolor=black, style=bold] edge [color=black] 0 [label="BindAccessEval", color = yellow] ; 
1 [label="SQLQuery
SELECT tab_3384.vendor, tab_3384.nr, tab_3386.offerWebpage 
FROM Offer AS tab_3384, Offer AS tab_3386, CountryType AS tab_3387, Vendor AS tab_3385 
WHERE tab_3384.vendor = tab_3385.nr AND tab_3384.vendor = tab_3386.vendor AND tab_3384.nr = tab_3386.nr AND tab_3387.countryType = 121 AND tab_3385.country = tab_3387.country 
UNION
SELECT tab_3391.vendor, tab_3391.nr, tab_3393.offerWebpage 
FROM CountryType AS tab_3394, Offer AS tab_3391, Vendor AS tab_3392, Offer AS tab_3393 
WHERE tab_3391.vendor = tab_3392.nr AND tab_3391.vendor = tab_3393.vendor AND tab_3391.nr = tab_3393.nr AND tab_3394.countryType = 122 AND tab_3392.country = tab_3394.country 
UNION
SELECT tab_3377.vendor, tab_3377.nr, tab_3378.offerWebpage 
FROM Offer AS tab_3378, Vendor AS tab_3379, CountryType AS tab_3380, Offer AS tab_3377 
WHERE tab_3377.vendor = tab_3379.nr AND tab_3377.vendor = tab_3378.vendor AND tab_3377.nr = tab_3378.nr AND tab_3380.countryType = 112 AND tab_3379.country = tab_3380.country 
UNION
SELECT tab_3398.vendor, tab_3398.nr, tab_3399.offerWebpage 
FROM Offer AS tab_3399, Vendor AS tab_3400, Offer AS tab_3398, CountryType AS tab_3401 
WHERE tab_3398.vendor = tab_3400.nr AND tab_3398.vendor = tab_3399.vendor AND tab_3398.nr = tab_3399.nr AND tab_3401.countryType = 111 AND tab_3400.country = tab_3401.country
50958", color = yellow] ; 
0 -> 1 ; 
2 [label="FunctionCallBindAccess
(<http://www4.wiwiss.fu-berlin.de/bizer/bsbm/v01/instances/dataFromVendor{0}/Offer{1}>, <{2}>)", color = yellow] ; 
0 -> 2 ; 
}

