digraph  g{ graph[label = "0:20:56.83"]
node [shape=rectangle, color=black, fontcolor=black, style=bold] edge [color=black] 0 [label="BindAccessEval", color = yellow] ; 
1 [label="PhyMongoDBEval
vendor
[{$lookup: { from: \"offer\", let: { \"nr\": \"$nr\"}, pipeline: [ { $match: {$expr: {$eq: [\"$$nr\", \"$vendor\"] } } } ], as: \"mongojoin156\"}},
{$unwind: \"$mongojoin156\"}]
[mongojoin156.nr, mongojoin156.vendor, mongojoin156.offerwebpage, label, homepage]
56200", color = yellow] ; 
0 -> 1 ; 
2 [label="FunctionCallBindAccess
(<http://www4.wiwiss.fu-berlin.de/bizer/bsbm/v01/instances/dataFromVendor{1}/Offer{0}>, <{2}>, <http://www4.wiwiss.fu-berlin.de/bizer/bsbm/v01/instances/dataFromVendor{1}/Vendor{1}>, \"{3}\", <{4}>)", color = yellow] ; 
0 -> 2 ; 
}

