ANS($label,$featureLabel,$value) : [V_product\14(X17594824965526,X17594824965531,X17594824965529,X17594824965533,X17594824965521,X17594824965520,X17594824965523,X17594824965522,X17594824965525,$value,$label,X17594824965527,X17594824965532,$product), V_M58\1($product), V_pfeature-label-comment\5($featureLabel,X17594824965501,X17594824965500,X17594824965503,$product)]

ANS($label,$featureLabel,$value) : [V_product\14(X17594824965719,X17594824965724,X17594824965722,X17594824965727,X17594824965726,X17594824965729,X17594824965728,X17594824965716,$value,X17594824965717,$label,X17594824965720,X17594824965725,$product), V_M58\1($product), V_pfeature-label-comment\5($featureLabel,X17594824965662,X17594824965661,X17594824965664,$product)]

ANS($label,$featureLabel,$value) : [V_product\14(X17594824965826,X17594824965831,X17594824965829,X17594824965820,X17594824965819,X17594824965821,X17594824965823,X17594824965822,X17594824965825,$value,$label,X17594824965827,X17594824965832,$product), V_M33\1($product), V_pfeature-label-comment\5($featureLabel,X17594824965859,X17594824965862,X17594824965861,$product)]

ANS($label,$featureLabel,$value) : [V_product\14(X17594824966711,X17594824966713,X17594824966709,X17594824966703,X17594824966704,X17594824966701,X17594824966702,X17594824966707,$value,X17594824966705,$label,X17594824966712,X17594824966714,$product), V_M33\1($product), V_pfeature-label-comment\5($featureLabel,X17594824966821,X17594824966824,X17594824966825,$product)]

