digraph  g{
node [shape=rectangle, color=black, fontcolor=black, style=bold]
0 [label="LogSkolemFunctionCall
(<http://www.imdb.com/title/{0}>)" , color = blue] ; 
1 [label="LogSQLEval 
SELECT tab_8.id FROM title AS tab_9, title AS tab_8  WHERE tab_8.kind_id = 1 AND tab_9.title = 'Finding Nemo' AND tab_8.id = tab_9.id", color = blue] ; 
0 -> 1 ; 
}

