digraph  g{
node [shape=rectangle, color=black, fontcolor=black, style=bold]
0 [label="LogSkolemFunctionCall
(<http://www4.wiwiss.fu-berlin.de/bizer/bsbm/v01/instances/dataFromVendor{3}/Offer{0}>, <http://www4.wiwiss.fu-berlin.de/bizer/bsbm/v01/instances/dataFromProducer{2}/Product{1}>, \"{5}\", <http://www4.wiwiss.fu-berlin.de/bizer/bsbm/v01/instances/dataFromVendor{3}/Vendor{3}>, \"{4}\")" , color = blue] ; 
1 [label="LogProj
[3,4,5,6,7,1]" , color = blue] ; 
0 -> 1 ; 
2 [label="Join\n [2PREDICATE_EQUAL5,0PREDICATE_EQUAL4] ", color = blue] ; 
1 -> 2 ; 
3 [label="LogSQLEval 
SELECT nr, label, producer FROM Product", color = blue] ; 
2 -> 3 ; 
4 [label="LogMongoDBEval
offer
[]
[nr, product, producer, vendor, price]
", color = blue] ; 
2 -> 4 ; 
}

