digraph  g{
node [shape=rectangle, color=black, fontcolor=black, style=bold]
0 [label="LogDistinct" , color = blue] ; 
1 [label="Union", color = blue] ; 
0 -> 1 ; 
2 [label="LogFunctionCall
AddConstant{1=(\"<http://www4.wiwiss.fu-berlin.de/bizer/bsbm/v01/instances/ProductType65>\")}" , color = blue] ; 
1 -> 2 ; 
3 [label="LogProj
[4]" , color = blue] ; 
2 -> 3 ; 
4 [label="Join\n [4PREDICATE_EQUAL5] ", color = blue] ; 
3 -> 4 ; 
5 [label="LogSel
[[0PREDICATE_EQUAL\"\"biographies\"\"]]" , color = blue] ; 
4 -> 5 ; 
6 [label="LogSkolemFunctionCall
(\"{2}\", \"{3}\", <http://www4.wiwiss.fu-berlin.de/bizer/bsbm/v01/instances/StandardizationInstitution{4}>, \"{5}\", <http://www4.wiwiss.fu-berlin.de/bizer/bsbm/v01/instances/dataFromProducer{1}/Product{0}>)" , color = blue] ; 
5 -> 6 ; 
7 [label="LogMongoDBEval
productfeatureproduct
[]
[nr, producer, label, comment, publisher, publishdate]
", color = blue] ; 
6 -> 7 ; 
8 [label="LogSkolemFunctionCall
(<http://www4.wiwiss.fu-berlin.de/bizer/bsbm/v01/instances/dataFromProducer{1}/Product{0}>)" , color = blue] ; 
4 -> 8 ; 
9 [label="LogSQLEval 
SELECT P.nr AS nr, P.producer AS producer FROM PRODUCT AS P, PRODUCTTYPEPRODUCT AS PT WHERE PT.producttype = 65 AND PT.product = P.nr", color = blue] ; 
8 -> 9 ; 
11 [label="LogFunctionCall
AddConstant{1=(\"<http://www4.wiwiss.fu-berlin.de/bizer/bsbm/v01/instances/ProductType67>\")}" , color = blue] ; 
1 -> 11 ; 
12 [label="LogProj
[4]" , color = blue] ; 
11 -> 12 ; 
13 [label="Join\n [4PREDICATE_EQUAL5] ", color = blue] ; 
12 -> 13 ; 
14 [label="LogSel
[[0PREDICATE_EQUAL\"\"biographies\"\"]]" , color = blue] ; 
13 -> 14 ; 
15 [label="LogSkolemFunctionCall
(\"{2}\", \"{3}\", <http://www4.wiwiss.fu-berlin.de/bizer/bsbm/v01/instances/StandardizationInstitution{4}>, \"{5}\", <http://www4.wiwiss.fu-berlin.de/bizer/bsbm/v01/instances/dataFromProducer{1}/Product{0}>)" , color = blue] ; 
14 -> 15 ; 
16 [label="LogMongoDBEval
productfeatureproduct
[]
[nr, producer, label, comment, publisher, publishdate]
", color = blue] ; 
15 -> 16 ; 
17 [label="LogSkolemFunctionCall
(<http://www4.wiwiss.fu-berlin.de/bizer/bsbm/v01/instances/dataFromProducer{1}/Product{0}>)" , color = blue] ; 
13 -> 17 ; 
18 [label="LogSQLEval 
SELECT P.nr AS nr, P.producer AS producer FROM PRODUCT AS P, PRODUCTTYPEPRODUCT AS PT WHERE PT.producttype = 67 AND PT.product = P.nr", color = blue] ; 
17 -> 18 ; 
20 [label="LogFunctionCall
AddConstant{1=(\"<http://www4.wiwiss.fu-berlin.de/bizer/bsbm/v01/instances/ProductType12>\")}" , color = blue] ; 
1 -> 20 ; 
21 [label="LogProj
[4]" , color = blue] ; 
20 -> 21 ; 
22 [label="Join\n [4PREDICATE_EQUAL5] ", color = blue] ; 
21 -> 22 ; 
23 [label="LogSel
[[0PREDICATE_EQUAL\"\"biographies\"\"]]" , color = blue] ; 
22 -> 23 ; 
24 [label="LogSkolemFunctionCall
(\"{2}\", \"{3}\", <http://www4.wiwiss.fu-berlin.de/bizer/bsbm/v01/instances/StandardizationInstitution{4}>, \"{5}\", <http://www4.wiwiss.fu-berlin.de/bizer/bsbm/v01/instances/dataFromProducer{1}/Product{0}>)" , color = blue] ; 
23 -> 24 ; 
25 [label="LogMongoDBEval
productfeatureproduct
[]
[nr, producer, label, comment, publisher, publishdate]
", color = blue] ; 
24 -> 25 ; 
26 [label="LogSkolemFunctionCall
(<http://www4.wiwiss.fu-berlin.de/bizer/bsbm/v01/instances/dataFromProducer{1}/Product{0}>)" , color = blue] ; 
22 -> 26 ; 
27 [label="LogSQLEval 
SELECT P.nr AS nr, P.producer AS producer FROM PRODUCT AS P, PRODUCTTYPEPRODUCT AS PT WHERE PT.producttype = 64 AND PT.product = P.nr", color = blue] ; 
26 -> 27 ; 
29 [label="LogFunctionCall
AddConstant{1=(\"<http://www4.wiwiss.fu-berlin.de/bizer/bsbm/v01/instances/ProductType12>\")}" , color = blue] ; 
1 -> 29 ; 
30 [label="LogProj
[4]" , color = blue] ; 
29 -> 30 ; 
31 [label="Join\n [4PREDICATE_EQUAL5] ", color = blue] ; 
30 -> 31 ; 
32 [label="LogSel
[[0PREDICATE_EQUAL\"\"biographies\"\"]]" , color = blue] ; 
31 -> 32 ; 
33 [label="LogSkolemFunctionCall
(\"{2}\", \"{3}\", <http://www4.wiwiss.fu-berlin.de/bizer/bsbm/v01/instances/StandardizationInstitution{4}>, \"{5}\", <http://www4.wiwiss.fu-berlin.de/bizer/bsbm/v01/instances/dataFromProducer{1}/Product{0}>)" , color = blue] ; 
32 -> 33 ; 
34 [label="LogMongoDBEval
productfeatureproduct
[]
[nr, producer, label, comment, publisher, publishdate]
", color = blue] ; 
33 -> 34 ; 
35 [label="LogSkolemFunctionCall
(<http://www4.wiwiss.fu-berlin.de/bizer/bsbm/v01/instances/dataFromProducer{1}/Product{0}>)" , color = blue] ; 
31 -> 35 ; 
36 [label="LogSQLEval 
SELECT P.nr AS nr, P.producer AS producer FROM PRODUCT AS P, PRODUCTTYPEPRODUCT AS PT WHERE PT.producttype = 65 AND PT.product = P.nr", color = blue] ; 
35 -> 36 ; 
38 [label="LogFunctionCall
AddConstant{1=(\"<http://www4.wiwiss.fu-berlin.de/bizer/bsbm/v01/instances/ProductType69>\")}" , color = blue] ; 
1 -> 38 ; 
39 [label="LogProj
[4]" , color = blue] ; 
38 -> 39 ; 
40 [label="Join\n [4PREDICATE_EQUAL5] ", color = blue] ; 
39 -> 40 ; 
41 [label="LogSel
[[0PREDICATE_EQUAL\"\"biographies\"\"]]" , color = blue] ; 
40 -> 41 ; 
42 [label="LogSkolemFunctionCall
(\"{2}\", \"{3}\", <http://www4.wiwiss.fu-berlin.de/bizer/bsbm/v01/instances/StandardizationInstitution{4}>, \"{5}\", <http://www4.wiwiss.fu-berlin.de/bizer/bsbm/v01/instances/dataFromProducer{1}/Product{0}>)" , color = blue] ; 
41 -> 42 ; 
43 [label="LogMongoDBEval
productfeatureproduct
[]
[nr, producer, label, comment, publisher, publishdate]
", color = blue] ; 
42 -> 43 ; 
44 [label="LogSkolemFunctionCall
(<http://www4.wiwiss.fu-berlin.de/bizer/bsbm/v01/instances/dataFromProducer{1}/Product{0}>)" , color = blue] ; 
40 -> 44 ; 
45 [label="LogSQLEval 
SELECT P.nr AS nr, P.producer AS producer FROM PRODUCT AS P, PRODUCTTYPEPRODUCT AS PT WHERE PT.producttype = 69 AND PT.product = P.nr", color = blue] ; 
44 -> 45 ; 
47 [label="LogFunctionCall
AddConstant{1=(\"<http://www4.wiwiss.fu-berlin.de/bizer/bsbm/v01/instances/ProductType10>\")}" , color = blue] ; 
1 -> 47 ; 
48 [label="LogProj
[4]" , color = blue] ; 
47 -> 48 ; 
49 [label="Join\n [4PREDICATE_EQUAL5] ", color = blue] ; 
48 -> 49 ; 
50 [label="LogSel
[[0PREDICATE_EQUAL\"\"biographies\"\"]]" , color = blue] ; 
49 -> 50 ; 
51 [label="LogSkolemFunctionCall
(\"{2}\", \"{3}\", <http://www4.wiwiss.fu-berlin.de/bizer/bsbm/v01/instances/StandardizationInstitution{4}>, \"{5}\", <http://www4.wiwiss.fu-berlin.de/bizer/bsbm/v01/instances/dataFromProducer{1}/Product{0}>)" , color = blue] ; 
50 -> 51 ; 
52 [label="LogMongoDBEval
productfeatureproduct
[]
[nr, producer, label, comment, publisher, publishdate]
", color = blue] ; 
51 -> 52 ; 
53 [label="LogSkolemFunctionCall
(<http://www4.wiwiss.fu-berlin.de/bizer/bsbm/v01/instances/dataFromProducer{1}/Product{0}>)" , color = blue] ; 
49 -> 53 ; 
54 [label="LogSQLEval 
SELECT P.nr AS nr, P.producer AS producer FROM PRODUCT AS P, PRODUCTTYPEPRODUCT AS PT WHERE PT.producttype = 60 AND PT.product = P.nr", color = blue] ; 
53 -> 54 ; 
56 [label="LogFunctionCall
AddConstant{1=(\"<http://www4.wiwiss.fu-berlin.de/bizer/bsbm/v01/instances/ProductType10>\")}" , color = blue] ; 
1 -> 56 ; 
57 [label="LogProj
[4]" , color = blue] ; 
56 -> 57 ; 
58 [label="Join\n [4PREDICATE_EQUAL5] ", color = blue] ; 
57 -> 58 ; 
59 [label="LogSel
[[0PREDICATE_EQUAL\"\"biographies\"\"]]" , color = blue] ; 
58 -> 59 ; 
60 [label="LogSkolemFunctionCall
(\"{2}\", \"{3}\", <http://www4.wiwiss.fu-berlin.de/bizer/bsbm/v01/instances/StandardizationInstitution{4}>, \"{5}\", <http://www4.wiwiss.fu-berlin.de/bizer/bsbm/v01/instances/dataFromProducer{1}/Product{0}>)" , color = blue] ; 
59 -> 60 ; 
61 [label="LogMongoDBEval
productfeatureproduct
[]
[nr, producer, label, comment, publisher, publishdate]
", color = blue] ; 
60 -> 61 ; 
62 [label="LogSkolemFunctionCall
(<http://www4.wiwiss.fu-berlin.de/bizer/bsbm/v01/instances/dataFromProducer{1}/Product{0}>)" , color = blue] ; 
58 -> 62 ; 
63 [label="LogSQLEval 
SELECT P.nr AS nr, P.producer AS producer FROM PRODUCT AS P, PRODUCTTYPEPRODUCT AS PT WHERE PT.producttype = 61 AND PT.product = P.nr", color = blue] ; 
62 -> 63 ; 
65 [label="LogFunctionCall
AddConstant{1=(\"<http://www4.wiwiss.fu-berlin.de/bizer/bsbm/v01/instances/ProductType14>\")}" , color = blue] ; 
1 -> 65 ; 
66 [label="LogProj
[4]" , color = blue] ; 
65 -> 66 ; 
67 [label="Join\n [4PREDICATE_EQUAL5] ", color = blue] ; 
66 -> 67 ; 
68 [label="LogSel
[[0PREDICATE_EQUAL\"\"biographies\"\"]]" , color = blue] ; 
67 -> 68 ; 
69 [label="LogSkolemFunctionCall
(\"{2}\", \"{3}\", <http://www4.wiwiss.fu-berlin.de/bizer/bsbm/v01/instances/StandardizationInstitution{4}>, \"{5}\", <http://www4.wiwiss.fu-berlin.de/bizer/bsbm/v01/instances/dataFromProducer{1}/Product{0}>)" , color = blue] ; 
68 -> 69 ; 
70 [label="LogMongoDBEval
productfeatureproduct
[]
[nr, producer, label, comment, publisher, publishdate]
", color = blue] ; 
69 -> 70 ; 
71 [label="LogSkolemFunctionCall
(<http://www4.wiwiss.fu-berlin.de/bizer/bsbm/v01/instances/dataFromProducer{1}/Product{0}>)" , color = blue] ; 
67 -> 71 ; 
72 [label="LogSQLEval 
SELECT P.nr AS nr, P.producer AS producer FROM PRODUCT AS P, PRODUCTTYPEPRODUCT AS PT WHERE PT.producttype = 68 AND PT.product = P.nr", color = blue] ; 
71 -> 72 ; 
74 [label="LogFunctionCall
AddConstant{1=(\"<http://www4.wiwiss.fu-berlin.de/bizer/bsbm/v01/instances/ProductType14>\")}" , color = blue] ; 
1 -> 74 ; 
75 [label="LogProj
[4]" , color = blue] ; 
74 -> 75 ; 
76 [label="Join\n [4PREDICATE_EQUAL5] ", color = blue] ; 
75 -> 76 ; 
77 [label="LogSel
[[0PREDICATE_EQUAL\"\"biographies\"\"]]" , color = blue] ; 
76 -> 77 ; 
78 [label="LogSkolemFunctionCall
(\"{2}\", \"{3}\", <http://www4.wiwiss.fu-berlin.de/bizer/bsbm/v01/instances/StandardizationInstitution{4}>, \"{5}\", <http://www4.wiwiss.fu-berlin.de/bizer/bsbm/v01/instances/dataFromProducer{1}/Product{0}>)" , color = blue] ; 
77 -> 78 ; 
79 [label="LogMongoDBEval
productfeatureproduct
[]
[nr, producer, label, comment, publisher, publishdate]
", color = blue] ; 
78 -> 79 ; 
80 [label="LogSkolemFunctionCall
(<http://www4.wiwiss.fu-berlin.de/bizer/bsbm/v01/instances/dataFromProducer{1}/Product{0}>)" , color = blue] ; 
76 -> 80 ; 
81 [label="LogSQLEval 
SELECT P.nr AS nr, P.producer AS producer FROM PRODUCT AS P, PRODUCTTYPEPRODUCT AS PT WHERE PT.producttype = 69 AND PT.product = P.nr", color = blue] ; 
80 -> 81 ; 
83 [label="LogFunctionCall
AddConstant{1=(\"<http://www4.wiwiss.fu-berlin.de/bizer/bsbm/v01/instances/ProductType63>\")}" , color = blue] ; 
1 -> 83 ; 
84 [label="LogProj
[4]" , color = blue] ; 
83 -> 84 ; 
85 [label="Join\n [4PREDICATE_EQUAL5] ", color = blue] ; 
84 -> 85 ; 
86 [label="LogSel
[[0PREDICATE_EQUAL\"\"biographies\"\"]]" , color = blue] ; 
85 -> 86 ; 
87 [label="LogSkolemFunctionCall
(\"{2}\", \"{3}\", <http://www4.wiwiss.fu-berlin.de/bizer/bsbm/v01/instances/StandardizationInstitution{4}>, \"{5}\", <http://www4.wiwiss.fu-berlin.de/bizer/bsbm/v01/instances/dataFromProducer{1}/Product{0}>)" , color = blue] ; 
86 -> 87 ; 
88 [label="LogMongoDBEval
productfeatureproduct
[]
[nr, producer, label, comment, publisher, publishdate]
", color = blue] ; 
87 -> 88 ; 
89 [label="LogSkolemFunctionCall
(<http://www4.wiwiss.fu-berlin.de/bizer/bsbm/v01/instances/dataFromProducer{1}/Product{0}>)" , color = blue] ; 
85 -> 89 ; 
90 [label="LogSQLEval 
SELECT P.nr AS nr, P.producer AS producer FROM PRODUCT AS P, PRODUCTTYPEPRODUCT AS PT WHERE PT.producttype = 63 AND PT.product = P.nr", color = blue] ; 
89 -> 90 ; 
92 [label="LogFunctionCall
AddConstant{1=(\"<http://www4.wiwiss.fu-berlin.de/bizer/bsbm/v01/instances/ProductType58>\")}" , color = blue] ; 
1 -> 92 ; 
93 [label="LogProj
[4]" , color = blue] ; 
92 -> 93 ; 
94 [label="Join\n [4PREDICATE_EQUAL5] ", color = blue] ; 
93 -> 94 ; 
95 [label="LogSel
[[0PREDICATE_EQUAL\"\"biographies\"\"]]" , color = blue] ; 
94 -> 95 ; 
96 [label="LogSkolemFunctionCall
(\"{2}\", \"{3}\", <http://www4.wiwiss.fu-berlin.de/bizer/bsbm/v01/instances/StandardizationInstitution{4}>, \"{5}\", <http://www4.wiwiss.fu-berlin.de/bizer/bsbm/v01/instances/dataFromProducer{1}/Product{0}>)" , color = blue] ; 
95 -> 96 ; 
97 [label="LogMongoDBEval
productfeatureproduct
[]
[nr, producer, label, comment, publisher, publishdate]
", color = blue] ; 
96 -> 97 ; 
98 [label="LogSkolemFunctionCall
(<http://www4.wiwiss.fu-berlin.de/bizer/bsbm/v01/instances/dataFromProducer{1}/Product{0}>)" , color = blue] ; 
94 -> 98 ; 
99 [label="LogSQLEval 
SELECT P.nr AS nr, P.producer AS producer FROM PRODUCT AS P, PRODUCTTYPEPRODUCT AS PT WHERE PT.producttype = 58 AND PT.product = P.nr", color = blue] ; 
98 -> 99 ; 
101 [label="LogFunctionCall
AddConstant{1=(\"<http://www4.wiwiss.fu-berlin.de/bizer/bsbm/v01/instances/ProductType61>\")}" , color = blue] ; 
1 -> 101 ; 
102 [label="LogProj
[4]" , color = blue] ; 
101 -> 102 ; 
103 [label="Join\n [4PREDICATE_EQUAL5] ", color = blue] ; 
102 -> 103 ; 
104 [label="LogSel
[[0PREDICATE_EQUAL\"\"biographies\"\"]]" , color = blue] ; 
103 -> 104 ; 
105 [label="LogSkolemFunctionCall
(\"{2}\", \"{3}\", <http://www4.wiwiss.fu-berlin.de/bizer/bsbm/v01/instances/StandardizationInstitution{4}>, \"{5}\", <http://www4.wiwiss.fu-berlin.de/bizer/bsbm/v01/instances/dataFromProducer{1}/Product{0}>)" , color = blue] ; 
104 -> 105 ; 
106 [label="LogMongoDBEval
productfeatureproduct
[]
[nr, producer, label, comment, publisher, publishdate]
", color = blue] ; 
105 -> 106 ; 
107 [label="LogSkolemFunctionCall
(<http://www4.wiwiss.fu-berlin.de/bizer/bsbm/v01/instances/dataFromProducer{1}/Product{0}>)" , color = blue] ; 
103 -> 107 ; 
108 [label="LogSQLEval 
SELECT P.nr AS nr, P.producer AS producer FROM PRODUCT AS P, PRODUCTTYPEPRODUCT AS PT WHERE PT.producttype = 61 AND PT.product = P.nr", color = blue] ; 
107 -> 108 ; 
110 [label="LogFunctionCall
AddConstant{1=(\"<http://www4.wiwiss.fu-berlin.de/bizer/bsbm/v01/instances/ProductType56>\")}" , color = blue] ; 
1 -> 110 ; 
111 [label="LogProj
[4]" , color = blue] ; 
110 -> 111 ; 
112 [label="Join\n [4PREDICATE_EQUAL5] ", color = blue] ; 
111 -> 112 ; 
113 [label="LogSel
[[0PREDICATE_EQUAL\"\"biographies\"\"]]" , color = blue] ; 
112 -> 113 ; 
114 [label="LogSkolemFunctionCall
(\"{2}\", \"{3}\", <http://www4.wiwiss.fu-berlin.de/bizer/bsbm/v01/instances/StandardizationInstitution{4}>, \"{5}\", <http://www4.wiwiss.fu-berlin.de/bizer/bsbm/v01/instances/dataFromProducer{1}/Product{0}>)" , color = blue] ; 
113 -> 114 ; 
115 [label="LogMongoDBEval
productfeatureproduct
[]
[nr, producer, label, comment, publisher, publishdate]
", color = blue] ; 
114 -> 115 ; 
116 [label="LogSkolemFunctionCall
(<http://www4.wiwiss.fu-berlin.de/bizer/bsbm/v01/instances/dataFromProducer{1}/Product{0}>)" , color = blue] ; 
112 -> 116 ; 
117 [label="LogSQLEval 
SELECT P.nr AS nr, P.producer AS producer FROM PRODUCT AS P, PRODUCTTYPEPRODUCT AS PT WHERE PT.producttype = 56 AND PT.product = P.nr", color = blue] ; 
116 -> 117 ; 
119 [label="LogFunctionCall
AddConstant{1=(\"<http://www4.wiwiss.fu-berlin.de/bizer/bsbm/v01/instances/ProductType70>\")}" , color = blue] ; 
1 -> 119 ; 
120 [label="LogProj
[4]" , color = blue] ; 
119 -> 120 ; 
121 [label="Join\n [4PREDICATE_EQUAL5] ", color = blue] ; 
120 -> 121 ; 
122 [label="LogSel
[[0PREDICATE_EQUAL\"\"biographies\"\"]]" , color = blue] ; 
121 -> 122 ; 
123 [label="LogSkolemFunctionCall
(\"{2}\", \"{3}\", <http://www4.wiwiss.fu-berlin.de/bizer/bsbm/v01/instances/StandardizationInstitution{4}>, \"{5}\", <http://www4.wiwiss.fu-berlin.de/bizer/bsbm/v01/instances/dataFromProducer{1}/Product{0}>)" , color = blue] ; 
122 -> 123 ; 
124 [label="LogMongoDBEval
productfeatureproduct
[]
[nr, producer, label, comment, publisher, publishdate]
", color = blue] ; 
123 -> 124 ; 
125 [label="LogSkolemFunctionCall
(<http://www4.wiwiss.fu-berlin.de/bizer/bsbm/v01/instances/dataFromProducer{1}/Product{0}>)" , color = blue] ; 
121 -> 125 ; 
126 [label="LogSQLEval 
SELECT P.nr AS nr, P.producer AS producer FROM PRODUCT AS P, PRODUCTTYPEPRODUCT AS PT WHERE PT.producttype = 70 AND PT.product = P.nr", color = blue] ; 
125 -> 126 ; 
128 [label="LogFunctionCall
AddConstant{1=(\"<http://www4.wiwiss.fu-berlin.de/bizer/bsbm/v01/instances/ProductType8>\")}" , color = blue] ; 
1 -> 128 ; 
129 [label="LogProj
[4]" , color = blue] ; 
128 -> 129 ; 
130 [label="Join\n [4PREDICATE_EQUAL5] ", color = blue] ; 
129 -> 130 ; 
131 [label="LogSel
[[0PREDICATE_EQUAL\"\"biographies\"\"]]" , color = blue] ; 
130 -> 131 ; 
132 [label="LogSkolemFunctionCall
(\"{2}\", \"{3}\", <http://www4.wiwiss.fu-berlin.de/bizer/bsbm/v01/instances/StandardizationInstitution{4}>, \"{5}\", <http://www4.wiwiss.fu-berlin.de/bizer/bsbm/v01/instances/dataFromProducer{1}/Product{0}>)" , color = blue] ; 
131 -> 132 ; 
133 [label="LogMongoDBEval
productfeatureproduct
[]
[nr, producer, label, comment, publisher, publishdate]
", color = blue] ; 
132 -> 133 ; 
134 [label="LogSkolemFunctionCall
(<http://www4.wiwiss.fu-berlin.de/bizer/bsbm/v01/instances/dataFromProducer{1}/Product{0}>)" , color = blue] ; 
130 -> 134 ; 
135 [label="LogSQLEval 
SELECT P.nr AS nr, P.producer AS producer FROM PRODUCT AS P, PRODUCTTYPEPRODUCT AS PT WHERE PT.producttype = 57 AND PT.product = P.nr", color = blue] ; 
134 -> 135 ; 
137 [label="LogFunctionCall
AddConstant{1=(\"<http://www4.wiwiss.fu-berlin.de/bizer/bsbm/v01/instances/ProductType8>\")}" , color = blue] ; 
1 -> 137 ; 
138 [label="LogProj
[4]" , color = blue] ; 
137 -> 138 ; 
139 [label="Join\n [4PREDICATE_EQUAL5] ", color = blue] ; 
138 -> 139 ; 
140 [label="LogSel
[[0PREDICATE_EQUAL\"\"biographies\"\"]]" , color = blue] ; 
139 -> 140 ; 
141 [label="LogSkolemFunctionCall
(\"{2}\", \"{3}\", <http://www4.wiwiss.fu-berlin.de/bizer/bsbm/v01/instances/StandardizationInstitution{4}>, \"{5}\", <http://www4.wiwiss.fu-berlin.de/bizer/bsbm/v01/instances/dataFromProducer{1}/Product{0}>)" , color = blue] ; 
140 -> 141 ; 
142 [label="LogMongoDBEval
productfeatureproduct
[]
[nr, producer, label, comment, publisher, publishdate]
", color = blue] ; 
141 -> 142 ; 
143 [label="LogSkolemFunctionCall
(<http://www4.wiwiss.fu-berlin.de/bizer/bsbm/v01/instances/dataFromProducer{1}/Product{0}>)" , color = blue] ; 
139 -> 143 ; 
144 [label="LogSQLEval 
SELECT P.nr AS nr, P.producer AS producer FROM PRODUCT AS P, PRODUCTTYPEPRODUCT AS PT WHERE PT.producttype = 56 AND PT.product = P.nr", color = blue] ; 
143 -> 144 ; 
146 [label="LogFunctionCall
AddConstant{1=(\"<http://www4.wiwiss.fu-berlin.de/bizer/bsbm/v01/instances/ProductType64>\")}" , color = blue] ; 
1 -> 146 ; 
147 [label="LogProj
[4]" , color = blue] ; 
146 -> 147 ; 
148 [label="Join\n [4PREDICATE_EQUAL5] ", color = blue] ; 
147 -> 148 ; 
149 [label="LogSel
[[0PREDICATE_EQUAL\"\"biographies\"\"]]" , color = blue] ; 
148 -> 149 ; 
150 [label="LogSkolemFunctionCall
(\"{2}\", \"{3}\", <http://www4.wiwiss.fu-berlin.de/bizer/bsbm/v01/instances/StandardizationInstitution{4}>, \"{5}\", <http://www4.wiwiss.fu-berlin.de/bizer/bsbm/v01/instances/dataFromProducer{1}/Product{0}>)" , color = blue] ; 
149 -> 150 ; 
151 [label="LogMongoDBEval
productfeatureproduct
[]
[nr, producer, label, comment, publisher, publishdate]
", color = blue] ; 
150 -> 151 ; 
152 [label="LogSkolemFunctionCall
(<http://www4.wiwiss.fu-berlin.de/bizer/bsbm/v01/instances/dataFromProducer{1}/Product{0}>)" , color = blue] ; 
148 -> 152 ; 
153 [label="LogSQLEval 
SELECT P.nr AS nr, P.producer AS producer FROM PRODUCT AS P, PRODUCTTYPEPRODUCT AS PT WHERE PT.producttype = 64 AND PT.product = P.nr", color = blue] ; 
152 -> 153 ; 
155 [label="LogFunctionCall
AddConstant{1=(\"<http://www4.wiwiss.fu-berlin.de/bizer/bsbm/v01/instances/ProductType13>\")}" , color = blue] ; 
1 -> 155 ; 
156 [label="LogProj
[4]" , color = blue] ; 
155 -> 156 ; 
157 [label="Join\n [4PREDICATE_EQUAL5] ", color = blue] ; 
156 -> 157 ; 
158 [label="LogSel
[[0PREDICATE_EQUAL\"\"biographies\"\"]]" , color = blue] ; 
157 -> 158 ; 
159 [label="LogSkolemFunctionCall
(\"{2}\", \"{3}\", <http://www4.wiwiss.fu-berlin.de/bizer/bsbm/v01/instances/StandardizationInstitution{4}>, \"{5}\", <http://www4.wiwiss.fu-berlin.de/bizer/bsbm/v01/instances/dataFromProducer{1}/Product{0}>)" , color = blue] ; 
158 -> 159 ; 
160 [label="LogMongoDBEval
productfeatureproduct
[]
[nr, producer, label, comment, publisher, publishdate]
", color = blue] ; 
159 -> 160 ; 
161 [label="LogSkolemFunctionCall
(<http://www4.wiwiss.fu-berlin.de/bizer/bsbm/v01/instances/dataFromProducer{1}/Product{0}>)" , color = blue] ; 
157 -> 161 ; 
162 [label="LogSQLEval 
SELECT P.nr AS nr, P.producer AS producer FROM PRODUCT AS P, PRODUCTTYPEPRODUCT AS PT WHERE PT.producttype = 67 AND PT.product = P.nr", color = blue] ; 
161 -> 162 ; 
164 [label="LogFunctionCall
AddConstant{1=(\"<http://www4.wiwiss.fu-berlin.de/bizer/bsbm/v01/instances/ProductType13>\")}" , color = blue] ; 
1 -> 164 ; 
165 [label="LogProj
[4]" , color = blue] ; 
164 -> 165 ; 
166 [label="Join\n [4PREDICATE_EQUAL5] ", color = blue] ; 
165 -> 166 ; 
167 [label="LogSel
[[0PREDICATE_EQUAL\"\"biographies\"\"]]" , color = blue] ; 
166 -> 167 ; 
168 [label="LogSkolemFunctionCall
(\"{2}\", \"{3}\", <http://www4.wiwiss.fu-berlin.de/bizer/bsbm/v01/instances/StandardizationInstitution{4}>, \"{5}\", <http://www4.wiwiss.fu-berlin.de/bizer/bsbm/v01/instances/dataFromProducer{1}/Product{0}>)" , color = blue] ; 
167 -> 168 ; 
169 [label="LogMongoDBEval
productfeatureproduct
[]
[nr, producer, label, comment, publisher, publishdate]
", color = blue] ; 
168 -> 169 ; 
170 [label="LogSkolemFunctionCall
(<http://www4.wiwiss.fu-berlin.de/bizer/bsbm/v01/instances/dataFromProducer{1}/Product{0}>)" , color = blue] ; 
166 -> 170 ; 
171 [label="LogSQLEval 
SELECT P.nr AS nr, P.producer AS producer FROM PRODUCT AS P, PRODUCTTYPEPRODUCT AS PT WHERE PT.producttype = 66 AND PT.product = P.nr", color = blue] ; 
170 -> 171 ; 
173 [label="LogFunctionCall
AddConstant{1=(\"<http://www4.wiwiss.fu-berlin.de/bizer/bsbm/v01/instances/ProductType11>\")}" , color = blue] ; 
1 -> 173 ; 
174 [label="LogProj
[4]" , color = blue] ; 
173 -> 174 ; 
175 [label="Join\n [4PREDICATE_EQUAL5] ", color = blue] ; 
174 -> 175 ; 
176 [label="LogSel
[[0PREDICATE_EQUAL\"\"biographies\"\"]]" , color = blue] ; 
175 -> 176 ; 
177 [label="LogSkolemFunctionCall
(\"{2}\", \"{3}\", <http://www4.wiwiss.fu-berlin.de/bizer/bsbm/v01/instances/StandardizationInstitution{4}>, \"{5}\", <http://www4.wiwiss.fu-berlin.de/bizer/bsbm/v01/instances/dataFromProducer{1}/Product{0}>)" , color = blue] ; 
176 -> 177 ; 
178 [label="LogMongoDBEval
productfeatureproduct
[]
[nr, producer, label, comment, publisher, publishdate]
", color = blue] ; 
177 -> 178 ; 
179 [label="LogSkolemFunctionCall
(<http://www4.wiwiss.fu-berlin.de/bizer/bsbm/v01/instances/dataFromProducer{1}/Product{0}>)" , color = blue] ; 
175 -> 179 ; 
180 [label="LogSQLEval 
SELECT P.nr AS nr, P.producer AS producer FROM PRODUCT AS P, PRODUCTTYPEPRODUCT AS PT WHERE PT.producttype = 63 AND PT.product = P.nr", color = blue] ; 
179 -> 180 ; 
182 [label="LogFunctionCall
AddConstant{1=(\"<http://www4.wiwiss.fu-berlin.de/bizer/bsbm/v01/instances/ProductType11>\")}" , color = blue] ; 
1 -> 182 ; 
183 [label="LogProj
[4]" , color = blue] ; 
182 -> 183 ; 
184 [label="Join\n [4PREDICATE_EQUAL5] ", color = blue] ; 
183 -> 184 ; 
185 [label="LogSel
[[0PREDICATE_EQUAL\"\"biographies\"\"]]" , color = blue] ; 
184 -> 185 ; 
186 [label="LogSkolemFunctionCall
(\"{2}\", \"{3}\", <http://www4.wiwiss.fu-berlin.de/bizer/bsbm/v01/instances/StandardizationInstitution{4}>, \"{5}\", <http://www4.wiwiss.fu-berlin.de/bizer/bsbm/v01/instances/dataFromProducer{1}/Product{0}>)" , color = blue] ; 
185 -> 186 ; 
187 [label="LogMongoDBEval
productfeatureproduct
[]
[nr, producer, label, comment, publisher, publishdate]
", color = blue] ; 
186 -> 187 ; 
188 [label="LogSkolemFunctionCall
(<http://www4.wiwiss.fu-berlin.de/bizer/bsbm/v01/instances/dataFromProducer{1}/Product{0}>)" , color = blue] ; 
184 -> 188 ; 
189 [label="LogSQLEval 
SELECT P.nr AS nr, P.producer AS producer FROM PRODUCT AS P, PRODUCTTYPEPRODUCT AS PT WHERE PT.producttype = 62 AND PT.product = P.nr", color = blue] ; 
188 -> 189 ; 
191 [label="LogFunctionCall
AddConstant{1=(\"<http://www4.wiwiss.fu-berlin.de/bizer/bsbm/v01/instances/ProductType68>\")}" , color = blue] ; 
1 -> 191 ; 
192 [label="LogProj
[4]" , color = blue] ; 
191 -> 192 ; 
193 [label="Join\n [4PREDICATE_EQUAL5] ", color = blue] ; 
192 -> 193 ; 
194 [label="LogSel
[[0PREDICATE_EQUAL\"\"biographies\"\"]]" , color = blue] ; 
193 -> 194 ; 
195 [label="LogSkolemFunctionCall
(\"{2}\", \"{3}\", <http://www4.wiwiss.fu-berlin.de/bizer/bsbm/v01/instances/StandardizationInstitution{4}>, \"{5}\", <http://www4.wiwiss.fu-berlin.de/bizer/bsbm/v01/instances/dataFromProducer{1}/Product{0}>)" , color = blue] ; 
194 -> 195 ; 
196 [label="LogMongoDBEval
productfeatureproduct
[]
[nr, producer, label, comment, publisher, publishdate]
", color = blue] ; 
195 -> 196 ; 
197 [label="LogSkolemFunctionCall
(<http://www4.wiwiss.fu-berlin.de/bizer/bsbm/v01/instances/dataFromProducer{1}/Product{0}>)" , color = blue] ; 
193 -> 197 ; 
198 [label="LogSQLEval 
SELECT P.nr AS nr, P.producer AS producer FROM PRODUCT AS P, PRODUCTTYPEPRODUCT AS PT WHERE PT.producttype = 68 AND PT.product = P.nr", color = blue] ; 
197 -> 198 ; 
200 [label="LogFunctionCall
AddConstant{1=(\"<http://www4.wiwiss.fu-berlin.de/bizer/bsbm/v01/instances/ProductType15>\")}" , color = blue] ; 
1 -> 200 ; 
201 [label="LogProj
[4]" , color = blue] ; 
200 -> 201 ; 
202 [label="Join\n [4PREDICATE_EQUAL5] ", color = blue] ; 
201 -> 202 ; 
203 [label="LogSel
[[0PREDICATE_EQUAL\"\"biographies\"\"]]" , color = blue] ; 
202 -> 203 ; 
204 [label="LogSkolemFunctionCall
(\"{2}\", \"{3}\", <http://www4.wiwiss.fu-berlin.de/bizer/bsbm/v01/instances/StandardizationInstitution{4}>, \"{5}\", <http://www4.wiwiss.fu-berlin.de/bizer/bsbm/v01/instances/dataFromProducer{1}/Product{0}>)" , color = blue] ; 
203 -> 204 ; 
205 [label="LogMongoDBEval
productfeatureproduct
[]
[nr, producer, label, comment, publisher, publishdate]
", color = blue] ; 
204 -> 205 ; 
206 [label="LogSkolemFunctionCall
(<http://www4.wiwiss.fu-berlin.de/bizer/bsbm/v01/instances/dataFromProducer{1}/Product{0}>)" , color = blue] ; 
202 -> 206 ; 
207 [label="LogSQLEval 
SELECT P.nr AS nr, P.producer AS producer FROM PRODUCT AS P, PRODUCTTYPEPRODUCT AS PT WHERE PT.producttype = 70 AND PT.product = P.nr", color = blue] ; 
206 -> 207 ; 
209 [label="LogFunctionCall
AddConstant{1=(\"<http://www4.wiwiss.fu-berlin.de/bizer/bsbm/v01/instances/ProductType15>\")}" , color = blue] ; 
1 -> 209 ; 
210 [label="LogProj
[4]" , color = blue] ; 
209 -> 210 ; 
211 [label="Join\n [4PREDICATE_EQUAL5] ", color = blue] ; 
210 -> 211 ; 
212 [label="LogSel
[[0PREDICATE_EQUAL\"\"biographies\"\"]]" , color = blue] ; 
211 -> 212 ; 
213 [label="LogSkolemFunctionCall
(\"{2}\", \"{3}\", <http://www4.wiwiss.fu-berlin.de/bizer/bsbm/v01/instances/StandardizationInstitution{4}>, \"{5}\", <http://www4.wiwiss.fu-berlin.de/bizer/bsbm/v01/instances/dataFromProducer{1}/Product{0}>)" , color = blue] ; 
212 -> 213 ; 
214 [label="LogMongoDBEval
productfeatureproduct
[]
[nr, producer, label, comment, publisher, publishdate]
", color = blue] ; 
213 -> 214 ; 
215 [label="LogSkolemFunctionCall
(<http://www4.wiwiss.fu-berlin.de/bizer/bsbm/v01/instances/dataFromProducer{1}/Product{0}>)" , color = blue] ; 
211 -> 215 ; 
216 [label="LogSQLEval 
SELECT P.nr AS nr, P.producer AS producer FROM PRODUCT AS P, PRODUCTTYPEPRODUCT AS PT WHERE PT.producttype = 71 AND PT.product = P.nr", color = blue] ; 
215 -> 216 ; 
218 [label="LogFunctionCall
AddConstant{1=(\"<http://www4.wiwiss.fu-berlin.de/bizer/bsbm/v01/instances/ProductType66>\")}" , color = blue] ; 
1 -> 218 ; 
219 [label="LogProj
[4]" , color = blue] ; 
218 -> 219 ; 
220 [label="Join\n [4PREDICATE_EQUAL5] ", color = blue] ; 
219 -> 220 ; 
221 [label="LogSel
[[0PREDICATE_EQUAL\"\"biographies\"\"]]" , color = blue] ; 
220 -> 221 ; 
222 [label="LogSkolemFunctionCall
(\"{2}\", \"{3}\", <http://www4.wiwiss.fu-berlin.de/bizer/bsbm/v01/instances/StandardizationInstitution{4}>, \"{5}\", <http://www4.wiwiss.fu-berlin.de/bizer/bsbm/v01/instances/dataFromProducer{1}/Product{0}>)" , color = blue] ; 
221 -> 222 ; 
223 [label="LogMongoDBEval
productfeatureproduct
[]
[nr, producer, label, comment, publisher, publishdate]
", color = blue] ; 
222 -> 223 ; 
224 [label="LogSkolemFunctionCall
(<http://www4.wiwiss.fu-berlin.de/bizer/bsbm/v01/instances/dataFromProducer{1}/Product{0}>)" , color = blue] ; 
220 -> 224 ; 
225 [label="LogSQLEval 
SELECT P.nr AS nr, P.producer AS producer FROM PRODUCT AS P, PRODUCTTYPEPRODUCT AS PT WHERE PT.producttype = 66 AND PT.product = P.nr", color = blue] ; 
224 -> 225 ; 
227 [label="LogFunctionCall
AddConstant{1=(\"<http://www4.wiwiss.fu-berlin.de/bizer/bsbm/v01/instances/ProductType62>\")}" , color = blue] ; 
1 -> 227 ; 
228 [label="LogProj
[4]" , color = blue] ; 
227 -> 228 ; 
229 [label="Join\n [4PREDICATE_EQUAL5] ", color = blue] ; 
228 -> 229 ; 
230 [label="LogSel
[[0PREDICATE_EQUAL\"\"biographies\"\"]]" , color = blue] ; 
229 -> 230 ; 
231 [label="LogSkolemFunctionCall
(\"{2}\", \"{3}\", <http://www4.wiwiss.fu-berlin.de/bizer/bsbm/v01/instances/StandardizationInstitution{4}>, \"{5}\", <http://www4.wiwiss.fu-berlin.de/bizer/bsbm/v01/instances/dataFromProducer{1}/Product{0}>)" , color = blue] ; 
230 -> 231 ; 
232 [label="LogMongoDBEval
productfeatureproduct
[]
[nr, producer, label, comment, publisher, publishdate]
", color = blue] ; 
231 -> 232 ; 
233 [label="LogSkolemFunctionCall
(<http://www4.wiwiss.fu-berlin.de/bizer/bsbm/v01/instances/dataFromProducer{1}/Product{0}>)" , color = blue] ; 
229 -> 233 ; 
234 [label="LogSQLEval 
SELECT P.nr AS nr, P.producer AS producer FROM PRODUCT AS P, PRODUCTTYPEPRODUCT AS PT WHERE PT.producttype = 62 AND PT.product = P.nr", color = blue] ; 
233 -> 234 ; 
236 [label="LogFunctionCall
AddConstant{1=(\"<http://www4.wiwiss.fu-berlin.de/bizer/bsbm/v01/instances/ProductType60>\")}" , color = blue] ; 
1 -> 236 ; 
237 [label="LogProj
[4]" , color = blue] ; 
236 -> 237 ; 
238 [label="Join\n [4PREDICATE_EQUAL5] ", color = blue] ; 
237 -> 238 ; 
239 [label="LogSel
[[0PREDICATE_EQUAL\"\"biographies\"\"]]" , color = blue] ; 
238 -> 239 ; 
240 [label="LogSkolemFunctionCall
(\"{2}\", \"{3}\", <http://www4.wiwiss.fu-berlin.de/bizer/bsbm/v01/instances/StandardizationInstitution{4}>, \"{5}\", <http://www4.wiwiss.fu-berlin.de/bizer/bsbm/v01/instances/dataFromProducer{1}/Product{0}>)" , color = blue] ; 
239 -> 240 ; 
241 [label="LogMongoDBEval
productfeatureproduct
[]
[nr, producer, label, comment, publisher, publishdate]
", color = blue] ; 
240 -> 241 ; 
242 [label="LogSkolemFunctionCall
(<http://www4.wiwiss.fu-berlin.de/bizer/bsbm/v01/instances/dataFromProducer{1}/Product{0}>)" , color = blue] ; 
238 -> 242 ; 
243 [label="LogSQLEval 
SELECT P.nr AS nr, P.producer AS producer FROM PRODUCT AS P, PRODUCTTYPEPRODUCT AS PT WHERE PT.producttype = 60 AND PT.product = P.nr", color = blue] ; 
242 -> 243 ; 
245 [label="LogFunctionCall
AddConstant{1=(\"<http://www4.wiwiss.fu-berlin.de/bizer/bsbm/v01/instances/ProductType57>\")}" , color = blue] ; 
1 -> 245 ; 
246 [label="LogProj
[4]" , color = blue] ; 
245 -> 246 ; 
247 [label="Join\n [4PREDICATE_EQUAL5] ", color = blue] ; 
246 -> 247 ; 
248 [label="LogSel
[[0PREDICATE_EQUAL\"\"biographies\"\"]]" , color = blue] ; 
247 -> 248 ; 
249 [label="LogSkolemFunctionCall
(\"{2}\", \"{3}\", <http://www4.wiwiss.fu-berlin.de/bizer/bsbm/v01/instances/StandardizationInstitution{4}>, \"{5}\", <http://www4.wiwiss.fu-berlin.de/bizer/bsbm/v01/instances/dataFromProducer{1}/Product{0}>)" , color = blue] ; 
248 -> 249 ; 
250 [label="LogMongoDBEval
productfeatureproduct
[]
[nr, producer, label, comment, publisher, publishdate]
", color = blue] ; 
249 -> 250 ; 
251 [label="LogSkolemFunctionCall
(<http://www4.wiwiss.fu-berlin.de/bizer/bsbm/v01/instances/dataFromProducer{1}/Product{0}>)" , color = blue] ; 
247 -> 251 ; 
252 [label="LogSQLEval 
SELECT P.nr AS nr, P.producer AS producer FROM PRODUCT AS P, PRODUCTTYPEPRODUCT AS PT WHERE PT.producttype = 57 AND PT.product = P.nr", color = blue] ; 
251 -> 252 ; 
254 [label="LogFunctionCall
AddConstant{1=(\"<http://www4.wiwiss.fu-berlin.de/bizer/bsbm/v01/instances/ProductType71>\")}" , color = blue] ; 
1 -> 254 ; 
255 [label="LogProj
[4]" , color = blue] ; 
254 -> 255 ; 
256 [label="Join\n [4PREDICATE_EQUAL5] ", color = blue] ; 
255 -> 256 ; 
257 [label="LogSel
[[0PREDICATE_EQUAL\"\"biographies\"\"]]" , color = blue] ; 
256 -> 257 ; 
258 [label="LogSkolemFunctionCall
(\"{2}\", \"{3}\", <http://www4.wiwiss.fu-berlin.de/bizer/bsbm/v01/instances/StandardizationInstitution{4}>, \"{5}\", <http://www4.wiwiss.fu-berlin.de/bizer/bsbm/v01/instances/dataFromProducer{1}/Product{0}>)" , color = blue] ; 
257 -> 258 ; 
259 [label="LogMongoDBEval
productfeatureproduct
[]
[nr, producer, label, comment, publisher, publishdate]
", color = blue] ; 
258 -> 259 ; 
260 [label="LogSkolemFunctionCall
(<http://www4.wiwiss.fu-berlin.de/bizer/bsbm/v01/instances/dataFromProducer{1}/Product{0}>)" , color = blue] ; 
256 -> 260 ; 
261 [label="LogSQLEval 
SELECT P.nr AS nr, P.producer AS producer FROM PRODUCT AS P, PRODUCTTYPEPRODUCT AS PT WHERE PT.producttype = 71 AND PT.product = P.nr", color = blue] ; 
260 -> 261 ; 
263 [label="LogFunctionCall
AddConstant{1=(\"<http://www4.wiwiss.fu-berlin.de/bizer/bsbm/v01/instances/ProductType59>\")}" , color = blue] ; 
1 -> 263 ; 
264 [label="LogProj
[4]" , color = blue] ; 
263 -> 264 ; 
265 [label="Join\n [4PREDICATE_EQUAL5] ", color = blue] ; 
264 -> 265 ; 
266 [label="LogSel
[[0PREDICATE_EQUAL\"\"biographies\"\"]]" , color = blue] ; 
265 -> 266 ; 
267 [label="LogSkolemFunctionCall
(\"{2}\", \"{3}\", <http://www4.wiwiss.fu-berlin.de/bizer/bsbm/v01/instances/StandardizationInstitution{4}>, \"{5}\", <http://www4.wiwiss.fu-berlin.de/bizer/bsbm/v01/instances/dataFromProducer{1}/Product{0}>)" , color = blue] ; 
266 -> 267 ; 
268 [label="LogMongoDBEval
productfeatureproduct
[]
[nr, producer, label, comment, publisher, publishdate]
", color = blue] ; 
267 -> 268 ; 
269 [label="LogSkolemFunctionCall
(<http://www4.wiwiss.fu-berlin.de/bizer/bsbm/v01/instances/dataFromProducer{1}/Product{0}>)" , color = blue] ; 
265 -> 269 ; 
270 [label="LogSQLEval 
SELECT P.nr AS nr, P.producer AS producer FROM PRODUCT AS P, PRODUCTTYPEPRODUCT AS PT WHERE PT.producttype = 59 AND PT.product = P.nr", color = blue] ; 
269 -> 270 ; 
272 [label="LogFunctionCall
AddConstant{1=(\"<http://www4.wiwiss.fu-berlin.de/bizer/bsbm/v01/instances/ProductType9>\")}" , color = blue] ; 
1 -> 272 ; 
273 [label="LogProj
[4]" , color = blue] ; 
272 -> 273 ; 
274 [label="Join\n [4PREDICATE_EQUAL5] ", color = blue] ; 
273 -> 274 ; 
275 [label="LogSel
[[0PREDICATE_EQUAL\"\"biographies\"\"]]" , color = blue] ; 
274 -> 275 ; 
276 [label="LogSkolemFunctionCall
(\"{2}\", \"{3}\", <http://www4.wiwiss.fu-berlin.de/bizer/bsbm/v01/instances/StandardizationInstitution{4}>, \"{5}\", <http://www4.wiwiss.fu-berlin.de/bizer/bsbm/v01/instances/dataFromProducer{1}/Product{0}>)" , color = blue] ; 
275 -> 276 ; 
277 [label="LogMongoDBEval
productfeatureproduct
[]
[nr, producer, label, comment, publisher, publishdate]
", color = blue] ; 
276 -> 277 ; 
278 [label="LogSkolemFunctionCall
(<http://www4.wiwiss.fu-berlin.de/bizer/bsbm/v01/instances/dataFromProducer{1}/Product{0}>)" , color = blue] ; 
274 -> 278 ; 
279 [label="LogSQLEval 
SELECT P.nr AS nr, P.producer AS producer FROM PRODUCT AS P, PRODUCTTYPEPRODUCT AS PT WHERE PT.producttype = 59 AND PT.product = P.nr", color = blue] ; 
278 -> 279 ; 
281 [label="LogFunctionCall
AddConstant{1=(\"<http://www4.wiwiss.fu-berlin.de/bizer/bsbm/v01/instances/ProductType9>\")}" , color = blue] ; 
1 -> 281 ; 
282 [label="LogProj
[4]" , color = blue] ; 
281 -> 282 ; 
283 [label="Join\n [4PREDICATE_EQUAL5] ", color = blue] ; 
282 -> 283 ; 
284 [label="LogSel
[[0PREDICATE_EQUAL\"\"biographies\"\"]]" , color = blue] ; 
283 -> 284 ; 
285 [label="LogSkolemFunctionCall
(\"{2}\", \"{3}\", <http://www4.wiwiss.fu-berlin.de/bizer/bsbm/v01/instances/StandardizationInstitution{4}>, \"{5}\", <http://www4.wiwiss.fu-berlin.de/bizer/bsbm/v01/instances/dataFromProducer{1}/Product{0}>)" , color = blue] ; 
284 -> 285 ; 
286 [label="LogMongoDBEval
productfeatureproduct
[]
[nr, producer, label, comment, publisher, publishdate]
", color = blue] ; 
285 -> 286 ; 
287 [label="LogSkolemFunctionCall
(<http://www4.wiwiss.fu-berlin.de/bizer/bsbm/v01/instances/dataFromProducer{1}/Product{0}>)" , color = blue] ; 
283 -> 287 ; 
288 [label="LogSQLEval 
SELECT P.nr AS nr, P.producer AS producer FROM PRODUCT AS P, PRODUCTTYPEPRODUCT AS PT WHERE PT.producttype = 58 AND PT.product = P.nr", color = blue] ; 
287 -> 288 ; 
}

