ANS($product,<http://www4.wiwiss.fu-berlin.de/bizer/bsbm/v01/instances/ProductType65>) : [V_pfeature-label-comment\5("biographies",X859690270796002,X859690270796003,X859690270795998,$product), V_M34\1($product)]

ANS($product,<http://www4.wiwiss.fu-berlin.de/bizer/bsbm/v01/instances/ProductType67>) : [V_pfeature-label-comment\5("biographies",X859690270796101,X859690270796100,X859690270796103,$product), V_M83\1($product)]

ANS($product,<http://www4.wiwiss.fu-berlin.de/bizer/bsbm/v01/instances/ProductType12>) : [V_pfeature-label-comment\5("biographies",X859690270796135,X859690270796137,X859690270796136,$product), V_M57\1($product)]

ANS($product,<http://www4.wiwiss.fu-berlin.de/bizer/bsbm/v01/instances/ProductType12>) : [V_pfeature-label-comment\5("biographies",X859690270796135,X859690270796137,X859690270796136,$product), V_M34\1($product)]

ANS($product,<http://www4.wiwiss.fu-berlin.de/bizer/bsbm/v01/instances/ProductType69>) : [V_pfeature-label-comment\5("biographies",X859690270796243,X859690270796242,X859690270796244,$product), V_M32\1($product)]

ANS($product,<http://www4.wiwiss.fu-berlin.de/bizer/bsbm/v01/instances/ProductType10>) : [V_pfeature-label-comment\5("biographies",X859690270796395,X859690270796394,X859690270796391,$product), V_M61\1($product)]

ANS($product,<http://www4.wiwiss.fu-berlin.de/bizer/bsbm/v01/instances/ProductType10>) : [V_pfeature-label-comment\5("biographies",X859690270796395,X859690270796394,X859690270796391,$product), V_M38\1($product)]

ANS($product,<http://www4.wiwiss.fu-berlin.de/bizer/bsbm/v01/instances/ProductType14>) : [V_pfeature-label-comment\5("biographies",X859690270796474,X859690270796479,X859690270796477,$product), V_M55\1($product)]

ANS($product,<http://www4.wiwiss.fu-berlin.de/bizer/bsbm/v01/instances/ProductType14>) : [V_pfeature-label-comment\5("biographies",X859690270796474,X859690270796479,X859690270796477,$product), V_M32\1($product)]

ANS($product,<http://www4.wiwiss.fu-berlin.de/bizer/bsbm/v01/instances/ProductType63>) : [V_pfeature-label-comment\5("biographies",X859690270796582,X859690270796585,X859690270796584,$product), V_M87\1($product)]

ANS($product,<http://www4.wiwiss.fu-berlin.de/bizer/bsbm/v01/instances/ProductType58>) : [V_pfeature-label-comment\5("biographies",X859690270796634,X859690270796637,X859690270796636,$product), V_M8\1($product)]

ANS($product,<http://www4.wiwiss.fu-berlin.de/bizer/bsbm/v01/instances/ProductType61>) : [V_pfeature-label-comment\5("biographies",X859690270796744,X859690270796747,X859690270796746,$product), V_M38\1($product)]

ANS($product,<http://www4.wiwiss.fu-berlin.de/bizer/bsbm/v01/instances/ProductType56>) : [V_pfeature-label-comment\5("biographies",X859690270796840,X859690270796839,X859690270796842,$product), V_M58\1($product)]

ANS($product,<http://www4.wiwiss.fu-berlin.de/bizer/bsbm/v01/instances/ProductType70>) : [V_pfeature-label-comment\5("biographies",X859690270796883,X859690270796882,X859690270796879,$product), V_M18\1($product)]

ANS($product,<http://www4.wiwiss.fu-berlin.de/bizer/bsbm/v01/instances/ProductType8>) : [V_pfeature-label-comment\5("biographies",X859690270796948,X859690270796947,X859690270796945,$product), V_M33\1($product)]

ANS($product,<http://www4.wiwiss.fu-berlin.de/bizer/bsbm/v01/instances/ProductType8>) : [V_pfeature-label-comment\5("biographies",X859690270796948,X859690270796947,X859690270796945,$product), V_M58\1($product)]

ANS($product,<http://www4.wiwiss.fu-berlin.de/bizer/bsbm/v01/instances/ProductType64>) : [V_pfeature-label-comment\5("biographies",X859690270797123,X859690270797122,X859690270797124,$product), V_M57\1($product)]

ANS($product,<http://www4.wiwiss.fu-berlin.de/bizer/bsbm/v01/instances/ProductType13>) : [V_pfeature-label-comment\5("biographies",X859690270797194,X859690270797197,X859690270797196,$product), V_M83\1($product)]

ANS($product,<http://www4.wiwiss.fu-berlin.de/bizer/bsbm/v01/instances/ProductType13>) : [V_pfeature-label-comment\5("biographies",X859690270797194,X859690270797197,X859690270797196,$product), V_M12\1($product)]

ANS($product,<http://www4.wiwiss.fu-berlin.de/bizer/bsbm/v01/instances/ProductType11>) : [V_pfeature-label-comment\5("biographies",X859690270797244,X859690270797243,X859690270797242,$product), V_M87\1($product)]

ANS($product,<http://www4.wiwiss.fu-berlin.de/bizer/bsbm/v01/instances/ProductType11>) : [V_pfeature-label-comment\5("biographies",X859690270797244,X859690270797243,X859690270797242,$product), V_M16\1($product)]

ANS($product,<http://www4.wiwiss.fu-berlin.de/bizer/bsbm/v01/instances/ProductType68>) : [V_pfeature-label-comment\5("biographies",X859690270797407,X859690270797406,X859690270797403,$product), V_M55\1($product)]

ANS($product,<http://www4.wiwiss.fu-berlin.de/bizer/bsbm/v01/instances/ProductType15>) : [V_pfeature-label-comment\5("biographies",X859690270797502,X859690270797505,X859690270797504,$product), V_M18\1($product)]

ANS($product,<http://www4.wiwiss.fu-berlin.de/bizer/bsbm/v01/instances/ProductType15>) : [V_pfeature-label-comment\5("biographies",X859690270797502,X859690270797505,X859690270797504,$product), V_M86\1($product)]

ANS($product,<http://www4.wiwiss.fu-berlin.de/bizer/bsbm/v01/instances/ProductType66>) : [V_pfeature-label-comment\5("biographies",X859690270797554,X859690270797551,X859690270797550,$product), V_M12\1($product)]

ANS($product,<http://www4.wiwiss.fu-berlin.de/bizer/bsbm/v01/instances/ProductType62>) : [V_pfeature-label-comment\5("biographies",X859690270797692,X859690270797691,X859690270797694,$product), V_M16\1($product)]

ANS($product,<http://www4.wiwiss.fu-berlin.de/bizer/bsbm/v01/instances/ProductType60>) : [V_pfeature-label-comment\5("biographies",X859690270797750,X859690270797753,X859690270797752,$product), V_M61\1($product)]

ANS($product,<http://www4.wiwiss.fu-berlin.de/bizer/bsbm/v01/instances/ProductType57>) : [V_pfeature-label-comment\5("biographies",X859690270797838,X859690270797841,X859690270797840,$product), V_M33\1($product)]

ANS($product,<http://www4.wiwiss.fu-berlin.de/bizer/bsbm/v01/instances/ProductType71>) : [V_pfeature-label-comment\5("biographies",X859690270797938,X859690270797937,X859690270797935,$product), V_M86\1($product)]

ANS($product,<http://www4.wiwiss.fu-berlin.de/bizer/bsbm/v01/instances/ProductType59>) : [V_pfeature-label-comment\5("biographies",X859690270797983,X859690270797982,X859690270797979,$product), V_M80\1($product)]

ANS($product,<http://www4.wiwiss.fu-berlin.de/bizer/bsbm/v01/instances/ProductType9>) : [V_pfeature-label-comment\5("biographies",X859690270798085,X859690270798084,X859690270798081,$product), V_M80\1($product)]

ANS($product,<http://www4.wiwiss.fu-berlin.de/bizer/bsbm/v01/instances/ProductType9>) : [V_pfeature-label-comment\5("biographies",X859690270798085,X859690270798084,X859690270798081,$product), V_M8\1($product)]

