ANS($review,$product,$rating) : [V_review\9(X17594824962586225,X17594824962586227,X17594824962586226,X17594824962586228,$review,X17594824962586229,X17594824962586232,$rating,$product), V_reviewer\6(X17594824962586628,X17594824962586629,X17594824962586631,X17594824962586630,$review,X17594824962586625)]

ANS($review,$product,$rating) : [V_review\9(X17594824962587737,X17594824962587736,X17594824962587730,X17594824962587729,$review,X17594824962587731,$rating,X17594824962587733,$product), V_reviewer\6(X17594824962587997,X17594824962587996,X17594824962587992,X17594824962587991,$review,X17594824962587993)]

