"Alec Guinness"	"Naboo star skiff"	
"Alec Guinness"	"Tribubble bongo"	
"Ewan McGregor"	"Trade Federation cruiser"	
"Hayden Christensen"	"TIE Advanced x1"	
"Ewan McGregor"	"Naboo star skiff"	
"Alec Guinness"	"Jedi Interceptor"	
"James Earl Jones"	"TIE Advanced x1"	
"Ewan McGregor"	"Jedi Interceptor"	
"Ewan McGregor"	"Jedi starfighter"	
"Alec Guinness"	"Belbullab-22 starfighter"	
"Alec Guinness"	"Trade Federation cruiser"	
"Ewan McGregor"	"Tribubble bongo"	
"Ewan McGregor"	"Belbullab-22 starfighter"	
"Alec Guinness"	"Jedi starfighter"	
