digraph  g{ graph[label = "0:4:55.293"]
node [shape=rectangle, color=black, fontcolor=black, style=bold] edge [color=black] 0 [label="BindAccessEval", color = yellow] ; 
1 [label="HashDistinct", color = yellow] ; 
0 -> 1 ; 
2 [label="Union", color = yellow] ; 
1 -> 2 ; 
3 [label="Project
[4, 0, 2, 1, 3]", color = yellow] ; 
2 -> 3 ; 
4 [label="RightBindJoin 
[[1, 2]]
6561", color = yellow] ; 
3 -> 4 ; 
5 [label="SQLQuery
SELECT tab_1438.nr, tab_1438.product, tab_1438.producer, tab_1438.rating2, tab_1438.publisher 
FROM Review AS tab_1440, Person AS tab_1439, Review AS tab_1438  
WHERE tab_1440.person = tab_1439.nr AND tab_1438.publisher = tab_1439.publisher AND tab_1438.nr = tab_1440.nr
28100", color = yellow] ; 
4 -> 5 ; 
6 [label="PhyMongoDBEval
countrytype
[{\"$match\":{\"countrytype\":211}},
{$lookup: { from: \"productproducercountry\", let: { \"country\": \"$country\"}, pipeline: [ { $match: {$expr: {$eq: [\"$$country\", \"$country\"] } } } ], as: \"mongojoin161\"}},
{$unwind: \"$mongojoin161\"},
{ \"$match\": { \"mongojoin161.nr\": %s, \"mongojoin161.producer\": %s } }]
[mongojoin161.nr, mongojoin161.producer]
6561", color = yellow] ; 
4 -> 6 ; 
8 [label="Project
[4, 0, 2, 1, 3]", color = yellow] ; 
2 -> 8 ; 
9 [label="RightBindJoin 
[[2, 1]]
4599", color = yellow] ; 
8 -> 9 ; 
10 [label="SQLQuery
SELECT tab_1432.nr, tab_1432.product, tab_1432.producer, tab_1432.rating2, tab_1432.publisher 
FROM Review AS tab_1434, Review AS tab_1432, Person AS tab_1433  
WHERE tab_1434.person = tab_1433.nr AND tab_1432.publisher = tab_1433.publisher AND tab_1432.nr = tab_1434.nr
28100", color = yellow] ; 
9 -> 10 ; 
11 [label="PhyMongoDBEval
countrytype
[{\"$match\":{\"countrytype\":212}},
{$lookup: { from: \"productproducercountry\", let: { \"country\": \"$country\"}, pipeline: [ { $match: {$expr: {$eq: [\"$$country\", \"$country\"] } } } ], as: \"mongojoin162\"}},
{$unwind: \"$mongojoin162\"},
{ \"$match\": { \"mongojoin162.producer\": %s, \"mongojoin162.nr\": %s } }]
[mongojoin162.nr, mongojoin162.producer]
4599", color = yellow] ; 
9 -> 11 ; 
13 [label="Project
[4, 0, 2, 1, 3]", color = yellow] ; 
2 -> 13 ; 
14 [label="RightBindJoin 
[[2, 1]]
4599", color = yellow] ; 
13 -> 14 ; 
15 [label="SQLQuery
SELECT tab_1444.nr, tab_1444.product, tab_1444.producer, tab_1444.rating1, tab_1444.publisher 
FROM Review AS tab_1446, Review AS tab_1444, Person AS tab_1445  
WHERE tab_1446.person = tab_1445.nr AND tab_1444.publisher = tab_1445.publisher AND tab_1444.nr = tab_1446.nr
28100", color = yellow] ; 
14 -> 15 ; 
16 [label="PhyMongoDBEval
countrytype
[{\"$match\":{\"countrytype\":212}},
{$lookup: { from: \"productproducercountry\", let: { \"country\": \"$country\"}, pipeline: [ { $match: {$expr: {$eq: [\"$$country\", \"$country\"] } } } ], as: \"mongojoin163\"}},
{$unwind: \"$mongojoin163\"},
{ \"$match\": { \"mongojoin163.producer\": %s, \"mongojoin163.nr\": %s } }]
[mongojoin163.nr, mongojoin163.producer]
4599", color = yellow] ; 
14 -> 16 ; 
18 [label="Project
[4, 0, 2, 1, 3]", color = yellow] ; 
2 -> 18 ; 
19 [label="RightBindJoin 
[[2, 1]]
3969", color = yellow] ; 
18 -> 19 ; 
20 [label="SQLQuery
SELECT tab_1447.nr, tab_1447.product, tab_1447.producer, tab_1447.rating2, tab_1447.publisher 
FROM Review AS tab_1447, Person AS tab_1448, Review AS tab_1449  
WHERE tab_1449.person = tab_1448.nr AND tab_1447.publisher = tab_1448.publisher AND tab_1447.nr = tab_1449.nr
28100", color = yellow] ; 
19 -> 20 ; 
21 [label="PhyMongoDBEval
countrytype
[{\"$match\":{\"countrytype\":221}},
{$lookup: { from: \"productproducercountry\", let: { \"country\": \"$country\"}, pipeline: [ { $match: {$expr: {$eq: [\"$$country\", \"$country\"] } } } ], as: \"mongojoin164\"}},
{$unwind: \"$mongojoin164\"},
{ \"$match\": { \"mongojoin164.producer\": %s, \"mongojoin164.nr\": %s } }]
[mongojoin164.nr, mongojoin164.producer]
3969", color = yellow] ; 
19 -> 21 ; 
23 [label="Project
[4, 0, 2, 1, 3]", color = yellow] ; 
2 -> 23 ; 
24 [label="RightBindJoin 
[[1, 2]]
6561", color = yellow] ; 
23 -> 24 ; 
25 [label="SQLQuery
SELECT tab_1450.nr, tab_1450.product, tab_1450.producer, tab_1450.rating1, tab_1450.publisher 
FROM Person AS tab_1451, Review AS tab_1452, Review AS tab_1450  
WHERE tab_1452.person = tab_1451.nr AND tab_1450.publisher = tab_1451.publisher AND tab_1450.nr = tab_1452.nr
28100", color = yellow] ; 
24 -> 25 ; 
26 [label="PhyMongoDBEval
countrytype
[{\"$match\":{\"countrytype\":211}},
{$lookup: { from: \"productproducercountry\", let: { \"country\": \"$country\"}, pipeline: [ { $match: {$expr: {$eq: [\"$$country\", \"$country\"] } } } ], as: \"mongojoin165\"}},
{$unwind: \"$mongojoin165\"},
{ \"$match\": { \"mongojoin165.nr\": %s, \"mongojoin165.producer\": %s } }]
[mongojoin165.nr, mongojoin165.producer]
6561", color = yellow] ; 
24 -> 26 ; 
28 [label="Project
[4, 0, 2, 1, 3]", color = yellow] ; 
2 -> 28 ; 
29 [label="RightBindJoin 
[[1, 2]]
1756", color = yellow] ; 
28 -> 29 ; 
30 [label="SQLQuery
SELECT tab_1435.nr, tab_1435.product, tab_1435.producer, tab_1435.rating2, tab_1435.publisher 
FROM Review AS tab_1437, Review AS tab_1435, Person AS tab_1436  
WHERE tab_1437.person = tab_1436.nr AND tab_1435.publisher = tab_1436.publisher AND tab_1435.nr = tab_1437.nr
28100", color = yellow] ; 
29 -> 30 ; 
31 [label="PhyMongoDBEval
countrytype
[{\"$match\":{\"countrytype\":222}},
{$lookup: { from: \"productproducercountry\", let: { \"country\": \"$country\"}, pipeline: [ { $match: {$expr: {$eq: [\"$$country\", \"$country\"] } } } ], as: \"mongojoin166\"}},
{$unwind: \"$mongojoin166\"},
{ \"$match\": { \"mongojoin166.nr\": %s, \"mongojoin166.producer\": %s } }]
[mongojoin166.nr, mongojoin166.producer]
1756", color = yellow] ; 
29 -> 31 ; 
33 [label="Project
[4, 0, 2, 1, 3]", color = yellow] ; 
2 -> 33 ; 
34 [label="RightBindJoin 
[[2, 1]]
3969", color = yellow] ; 
33 -> 34 ; 
35 [label="SQLQuery
SELECT tab_1441.nr, tab_1441.product, tab_1441.producer, tab_1441.rating1, tab_1441.publisher 
FROM Person AS tab_1442, Review AS tab_1443, Review AS tab_1441  
WHERE tab_1443.person = tab_1442.nr AND tab_1441.publisher = tab_1442.publisher AND tab_1441.nr = tab_1443.nr
28100", color = yellow] ; 
34 -> 35 ; 
36 [label="PhyMongoDBEval
countrytype
[{\"$match\":{\"countrytype\":221}},
{$lookup: { from: \"productproducercountry\", let: { \"country\": \"$country\"}, pipeline: [ { $match: {$expr: {$eq: [\"$$country\", \"$country\"] } } } ], as: \"mongojoin167\"}},
{$unwind: \"$mongojoin167\"},
{ \"$match\": { \"mongojoin167.producer\": %s, \"mongojoin167.nr\": %s } }]
[mongojoin167.nr, mongojoin167.producer]
3969", color = yellow] ; 
34 -> 36 ; 
38 [label="Project
[4, 0, 2, 1, 3]", color = yellow] ; 
2 -> 38 ; 
39 [label="RightBindJoin 
[[2, 1]]
1756", color = yellow] ; 
38 -> 39 ; 
40 [label="SQLQuery
SELECT tab_1453.nr, tab_1453.product, tab_1453.producer, tab_1453.rating1, tab_1453.publisher 
FROM Person AS tab_1454, Review AS tab_1455, Review AS tab_1453  
WHERE tab_1455.person = tab_1454.nr AND tab_1453.publisher = tab_1454.publisher AND tab_1453.nr = tab_1455.nr
28100", color = yellow] ; 
39 -> 40 ; 
41 [label="PhyMongoDBEval
countrytype
[{\"$match\":{\"countrytype\":222}},
{$lookup: { from: \"productproducercountry\", let: { \"country\": \"$country\"}, pipeline: [ { $match: {$expr: {$eq: [\"$$country\", \"$country\"] } } } ], as: \"mongojoin168\"}},
{$unwind: \"$mongojoin168\"},
{ \"$match\": { \"mongojoin168.producer\": %s, \"mongojoin168.nr\": %s } }]
[mongojoin168.nr, mongojoin168.producer]
1756", color = yellow] ; 
39 -> 41 ; 
42 [label="FunctionCallBindAccess
(<http://www4.wiwiss.fu-berlin.de/bizer/bsbm/v01/instances/dataFromRatingSite{0}/Review{1}>, <http://www4.wiwiss.fu-berlin.de/bizer/bsbm/v01/instances/dataFromProducer{2}/Product{3}>, \"{4}\")", color = yellow] ; 
0 -> 42 ; 
}

