digraph  g{ graph[label = "12:14:18.722"]
node [shape=rectangle, color=black, fontcolor=black, style=bold] edge [color=black] 0 [label="BindAccessEval", color = yellow] ; 
1 [label="SQLQuery
SELECT tab_27037.vendor, tab_27037.nr, tab_27037.offerWebpage, tab_27037.price, tab_27037.deliveryDays, tab_27038.propertyNum4 
FROM PRODUCTTYPEPRODUCT AS tab_27034, Product AS tab_27038, Offer AS tab_27037, Offer AS tab_27035, Producer AS tab_27036, CountryType AS tab_27039 
WHERE tab_27038.nr = tab_27035.product AND tab_27036.nr = tab_27038.producer AND tab_27038.nr = tab_27034.product AND tab_27034.producttype = 56 AND tab_27037.vendor = tab_27035.vendor AND tab_27037.nr = tab_27035.nr AND tab_27039.countryType = 121 AND tab_27036.country = tab_27039.country 
UNION
SELECT tab_27127.vendor, tab_27127.nr, tab_27127.offerWebpage, tab_27127.price, tab_27127.deliveryDays, tab_27124.propertyNum1 
FROM PRODUCT AS tab_27126, Producer AS tab_27129, Product AS tab_27128, CountryType AS tab_27130, Product AS tab_27124, Offer AS tab_27127, PRODUCTTYPEPRODUCT AS tab_27125 
WHERE tab_27125.producttype = 57 AND tab_27125.product = tab_27126.nr AND tab_27127.producer = tab_27126.producer AND tab_27127.product = tab_27126.nr AND tab_27127.producer = tab_27124.producer AND tab_27127.product = tab_27124.nr AND tab_27126.producer = tab_27124.producer AND tab_27126.nr = tab_27124.nr AND tab_27128.producer = tab_27129.nr AND tab_27127.producer = tab_27128.producer AND tab_27127.product = tab_27128.nr AND tab_27126.producer = tab_27128.producer AND tab_27126.nr = tab_27128.nr AND tab_27124.producer = tab_27128.producer AND tab_27124.nr = tab_27128.nr AND tab_27130.countryType = 121 AND tab_27129.country = tab_27130.country 
UNION
SELECT tab_26972.vendor, tab_26972.nr, tab_26972.offerWebpage, tab_26972.price, tab_26972.deliveryDays, tab_26971.propertyNum2 
FROM Product AS tab_26971, PRODUCTTYPEPRODUCT AS tab_26974, Product AS tab_26969, CountryType AS tab_26975, PRODUCT AS tab_26970, Offer AS tab_26972, Producer AS tab_26973 
WHERE tab_26974.producttype = 57 AND tab_26974.product = tab_26970.nr AND tab_26972.producer = tab_26970.producer AND tab_26972.product = tab_26970.nr AND tab_26972.producer = tab_26971.producer AND tab_26972.product = tab_26971.nr AND tab_26970.producer = tab_26971.producer AND tab_26970.nr = tab_26971.nr AND tab_26969.producer = tab_26973.nr AND tab_26972.producer = tab_26969.producer AND tab_26972.product = tab_26969.nr AND tab_26970.producer = tab_26969.producer AND tab_26970.nr = tab_26969.nr AND tab_26971.producer = tab_26969.producer AND tab_26971.nr = tab_26969.nr AND tab_26975.countryType = 122 AND tab_26973.country = tab_26975.country 
UNION
SELECT tab_27067.vendor, tab_27067.nr, tab_27067.offerWebpage, tab_27067.price, tab_27067.deliveryDays, tab_27064.propertyNum2 
FROM PRODUCTTYPEPRODUCT AS tab_27068, Product AS tab_27069, Producer AS tab_27066, CountryType AS tab_27070, PRODUCT AS tab_27065, Offer AS tab_27067, Product AS tab_27064 
WHERE tab_27068.producttype = 56 AND tab_27068.product = tab_27065.nr AND tab_27067.producer = tab_27065.producer AND tab_27067.product = tab_27065.nr AND tab_27067.producer = tab_27064.producer AND tab... (15 UNIONs)
2015", color = yellow] ; 
0 -> 1 ; 
2 [label="FunctionCallBindAccess
(<http://www4.wiwiss.fu-berlin.de/bizer/bsbm/v01/instances/dataFromVendor{0}/Offer{1}>, <{2}>, \"{3}\", \"{4}\", \"{5}\")", color = yellow] ; 
0 -> 2 ; 
}

