INPUT	N_ANS	N_TRI	N_REF	N_REW	N_CLASH	N_COVER	T_REF	T_REW	T_CLASH	T_COVER	T_CORE	T_OP	T_QEV	T_TOTAL
Q01	15514	5	21	16	12	4	0	1166	0	2	23	4	142	1337
Q01a	111793	5	175	128	96	32	4	8836	0	7	170	22	1025	10064
Q01b	863729	5	1407	1024	768	256	20	69235	9	136	1339	195	8078	79012
Q02	124	6	63	32	24	8	3	15256	0	2	41	8	122	15432
Q02old	124	6	63	32	24	8	2	15355	0	1	40	7	120	15525
Q02a	598	6	147	64	48	16	3	35679	2	2	81	15	242	36024
Q03	5	5	4375	1024	N/A	512	93	792273	24	415	7609	656	6375	807445
Q04	4487	2	1	8	6	2	0	29	0	0	1	1	27	58
Q05	3000000	4	1	8	7	1	0	29	0	0	4	0	15480	15513
Q05a	1793489	4	3	2	N/A	2	0	357	0	0	1	2	8723	9083
Q05b	2454945	4	7	4	N/A	4	0	806	1	0	3	4	12713	13527
Q06	2790902	3	5	2	N/A	2	0	314	0	0	3	2	13939	14258
Q06a	1674256	6	15	4	N/A	4	0	3995	0	2	8	4	15260	19269
Q06b	844190	6	35	8	N/A	8	0	9259	0	3	16	8	12864	22150
Q07	2	3	5	2562	N/A	2562	0	527	2	2410	208	3077	29881	36105
Q07a	3	3	19	10248	N/A	5124	0	2323	10	19254	413	10412	63660	96072
Q08	3000000	3	1	1	N/A	1	0	37	0	0	4	1	19015	19057
Q09	299902	1	7	2	N/A	2	1	190	0	0	3	1	835	1030
Q12	14571	5	2	8	7	1	1	309	0	0	2	1	127	440
Q12a	31322	5	6	16	14	2	1	843	0	0	4	1	370	1219
Q12b	117426	5	14	32	28	4	0	1946	0	0	6	2	1116	3070
Q13	167760	4	84	50	N/A	42	1	5589	0	35	78	30	2714	8447
Q13a	4416946	4	5628	3200	N/A	2688	48	367828	34	7630	5097	5264	114510	500411
Q13b	10049829	4	5628	3200	N/A	2688	49	373521	35	7799	5413	5222	182421	574460
Q14	3000000	3	1	1	N/A	1	0	153	0	0	5	1	13917	14076
Q15	1500000	5	1	4	3	1	1	105	0	0	4	2	13824	13936
Q16	249004	4	201	128	N/A	128	2	15720	0	15	461	53	7527	23778
Q17	2790902	2	5	2	N/A	2	1	260	0	1	3	1	10971	11237
Q18	3000000	4	1	4	3	1	0	94	0	0	6	2	20734	20836
Q19	39826	9	525	448	N/A	128	14	256244	3	884	869	131	3011	261156
Q19a	60834	9	1225	896	N/A	256	38	589343	4	1808	1741	282	5755	598971
Q20	904	11	63	8	N/A	8	2	42138	1	94	106	17	1710	44068
Q20a	7818	11	525	64	N/A	64	17	340099	1	766	593	126	16638	358240
Q20b	10486	11	1225	128	N/A	128	43	795582	6	1545	1190	255	33392	832013
Q21	37176	3	9350	14180	6486	6401	107	106713	74	27354	800	17660	145764	298472
Q22	1528	4	40	32	N/A	32	1	608	1	1	4	7	857	1479
Q22a	18588	4	520	384	N/A	384	7	7785	9	172	51	147	10305	18476
Q23	1329887	7	192	80	56	24	4	30049	1	10	33	13	18222	48332
Q23a	2008985	7	448	160	112	48	7	68908	1	18	66	26	33233	102259
Q01	15514	5	21	16	12	4	1	1073	0	2	21	3	133	1233
Q01a	111793	5	175	128	96	32	2	9589	2	8	185	23	1022	10831
Q01b	863729	5	1407	1024	768	256	17	69889	3	127	1339	193	8082	79650
Q02	124	6	63	32	24	8	1	15304	0	4	41	7	119	15476
Q02old	124	6	63	32	24	8	2	15392	0	4	41	8	121	15568
Q02a	598	6	147	64	48	16	5	38282	1	5	83	14	247	38637
Q03	5	5	4375	1024	N/A	512	93	803843	23	428	7624	659	6391	819061
Q04	4487	2	1	8	6	2	0	30	0	0	2	0	27	59
Q05	3000000	4	1	8	7	1	0	27	0	0	3	0	16430	16460
Q05a	1793489	4	3	2	N/A	2	0	399	0	0	2	2	8148	8551
Q05b	2454945	4	7	4	N/A	4	1	805	0	0	3	3	13147	13959
Q06	2790902	3	5	2	N/A	2	0	316	0	1	4	1	12406	12728
Q06a	1674256	6	15	4	N/A	4	0	3855	0	2	8	3	16688	20556
Q06b	844190	6	35	8	N/A	8	0	9548	0	0	14	7	11729	21298
Q07	2	3	5	2562	N/A	2562	0	539	3	2460	208	3024	29894	36128
Q07a	3	3	19	10248	N/A	5124	0	2233	16	21919	431	10527	63266	98392
Q08	3000000	3	1	1	N/A	1	0	38	0	0	5	0	19196	19239
Q09	299902	1	7	2	N/A	2	0	202	0	0	3	1	793	999
Q12	14571	5	2	8	7	1	0	306	0	0	2	0	121	429
Q12a	31322	5	6	16	14	2	0	845	0	0	3	1	367	1216
Q12b	117426	5	14	32	28	4	1	1988	0	0	7	2	1119	3117
Q13	167760	4	84	50	N/A	42	1	5641	0	35	79	30	2987	8773
Q13a	4416946	4	5628	3200	N/A	2688	47	369943	16	7565	5268	5275	111734	499848
Q13b	10049829	4	5628	3200	N/A	2688	67	378583	31	7751	5036	6066	181289	578823
Q14	3000000	3	1	1	N/A	1	0	136	0	0	4	1	12416	12557
Q15	1500000	5	1	4	3	1	0	100	0	0	4	1	13622	13727
Q16	249004	4	201	128	N/A	128	2	15788	1	23	504	54	6940	23312
Q17	2790902	2	5	2	N/A	2	0	263	0	0	3	1	10695	10962
Q18	3000000	4	1	4	3	1	1	88	0	0	6	1	23277	23373
Q19	39826	9	525	448	N/A	128	15	254939	2	876	876	132	3039	259879
Q19a	60834	9	1225	896	N/A	256	38	627344	8	1846	1744	285	5785	637050
Q20	904	11	63	8	N/A	8	2	41424	0	94	75	16	1563	43174
Q20a	7818	11	525	64	N/A	64	17	341699	2	770	592	128	18038	361246
Q20b	10486	11	1225	128	N/A	128	43	810837	7	1550	1194	255	32092	845978
Q21	37176	3	9350	14180	6486	6401	112	106006	67	28432	799	17938	145635	298989
Q22	1528	4	40	32	N/A	32	1	472	0	2	4	6	858	1343
Q22a	18588	4	520	384	N/A	384	6	6031	6	112	48	132	10271	16606
Q23	1329887	7	192	80	56	24	4	29971	2	8	34	12	17865	47896
Q23a	2008985	7	448	160	112	48	7	70408	1	19	66	25	33087	103613
Q01	15514	5	21	16	12	4	0	1193	0	1	23	4	137	1358
Q01a	111793	5	175	128	96	32	2	8845	1	5	171	21	1039	10084
Q01b	863729	5	1407	1024	768	256	18	70124	5	131	1345	193	8186	80002
Q02	124	6	63	32	24	8	1	15790	0	3	45	8	122	15969
Q02old	124	6	63	32	24	8	1	15222	0	4	41	6	119	15393
Q02a	598	6	147	64	48	16	2	35617	0	5	82	14	241	35961
Q03	5	5	4375	1024	N/A	512	97	800588	22	391	9266	654	6374	817392
Q04	4487	2	1	8	6	2	0	30	0	0	2	0	27	59
Q05	3000000	4	1	8	7	1	0	32	0	0	3	1	16133	16169
Q05a	1793489	4	3	2	N/A	2	0	372	0	0	2	1	8982	9357
Q05b	2454945	4	7	4	N/A	4	0	897	0	0	4	2	11924	12827
Q06	2790902	3	5	2	N/A	2	0	291	0	1	3	1	13735	14031
Q06a	1674256	6	15	4	N/A	4	0	4019	0	1	8	4	14807	18839
Q06b	844190	6	35	8	N/A	8	0	8978	1	3	15	7	13103	22107
Q07	2	3	5	2562	N/A	2562	0	574	4	2668	218	3265	29847	36576
Q07a	3	3	19	10248	N/A	5124	0	2071	10	18981	407	10549	63856	95874
Q08	3000000	3	1	1	N/A	1	0	42	0	0	5	1	18988	19036
Q09	299902	1	7	2	N/A	2	0	188	0	0	3	1	841	1033
Q12	14571	5	2	8	7	1	0	303	0	0	2	1	120	426
Q12a	31322	5	6	16	14	2	0	861	0	0	3	1	370	1235
Q12b	117426	5	14	32	28	4	0	1972	1	0	6	2	1088	3069
Q13	167760	4	84	50	N/A	42	1	5789	1	32	78	30	2726	8657
Q13a	4416946	4	5628	3200	N/A	2688	48	373092	36	7669	5075	5276	109173	500369
Q13b	10049829	4	5628	3200	N/A	2688	49	382089	40	8435	5713	5256	178238	579820
Q14	3000000	3	1	1	N/A	1	0	139	0	0	4	1	12953	13097
Q15	1500000	5	1	4	3	1	0	127	0	0	6	1	13148	13282
Q16	249004	4	201	128	N/A	128	2	14282	1	18	390	44	7458	22195
Q17	2790902	2	5	2	N/A	2	0	262	0	0	4	1	10347	10614
Q18	3000000	4	1	4	3	1	0	97	0	0	7	2	20713	20819
Q19	39826	9	525	448	N/A	128	14	256864	4	878	867	131	3042	261800
Q19a	60834	9	1225	896	N/A	256	37	587797	7	1803	1882	283	5760	597569
Q20	904	11	63	8	N/A	8	2	42660	0	94	78	19	1794	44647
Q20a	7818	11	525	64	N/A	64	17	344179	7	759	640	127	15164	360893
Q20b	10486	11	1225	128	N/A	128	44	796067	2	1544	1282	255	29570	828764
Q21	37176	3	9350	14180	6486	6401	137	110900	58	30337	952	16966	145512	304862
Q22	1528	4	40	32	N/A	32	1	497	1	2	6	9	860	1376
Q22a	18588	4	520	384	N/A	384	7	5820	4	126	47	131	10286	16421
Q23	1329887	7	192	80	56	24	3	29903	1	9	33	21	18330	48300
Q23a	2008985	7	448	160	112	48	6	69806	3	19	66	25	33768	103693
Q01	15514	5	21	16	12	4	1	1445	0	1	39	5	144	1635
Q01a	111793	5	175	128	96	32	2	9066	0	9	169	22	1256	10524
Q01b	863729	5	1407	1024	768	256	17	74667	12	155	1427	191	8059	84528
Q02	124	6	63	32	24	8	1	15361	1	3	40	7	123	15536
Q02old	124	6	63	32	24	8	1	15807	0	2	41	7	123	15981
Q02a	598	6	147	64	48	16	3	36929	1	3	90	15	244	37285
Q03	5	5	4375	1024	N/A	512	82	788748	27	424	7788	652	6368	804089
Q04	4487	2	1	8	6	2	1	28	0	0	2	0	27	58
Q05	3000000	4	1	8	7	1	0	29	0	0	3	1	14591	14624
Q05a	1793489	4	3	2	N/A	2	0	353	0	0	2	1	8796	9152
Q05b	2454945	4	7	4	N/A	4	0	874	0	0	3	3	11954	12834
Q06	2790902	3	5	2	N/A	2	0	298	0	1	4	1	13779	14083
Q06a	1674256	6	15	4	N/A	4	0	4011	0	2	8	4	14786	18811
Q06b	844190	6	35	8	N/A	8	0	9046	0	1	15	7	13070	22139
Q07	2	3	5	2562	N/A	2562	0	564	5	2496	212	3117	29792	36186
Q07a	3	3	19	10248	N/A	5124	1	2076	9	18370	405	10484	63446	94791
Q08	3000000	3	1	1	N/A	1	0	43	0	0	5	0	18926	18974
Q09	299902	1	7	2	N/A	2	0	195	0	0	3	1	787	986
Q12	14571	5	2	8	7	1	1	317	0	0	2	1	121	442
Q12a	31322	5	6	16	14	2	0	846	0	0	3	1	371	1221
Q12b	117426	5	14	32	28	4	0	1963	0	0	7	2	1128	3100
Q13	167760	4	84	50	N/A	42	1	5750	0	34	79	30	2814	8708
Q13a	4416946	4	5628	3200	N/A	2688	48	373399	27	7417	5568	5517	109437	501413
Q13b	10049829	4	5628	3200	N/A	2688	50	370334	28	7112	5310	5213	179700	567747
Q14	3000000	3	1	1	N/A	1	0	141	0	0	4	1	12690	12836
Q15	1500000	5	1	4	3	1	0	100	0	0	3	1	13161	13265
Q16	249004	4	201	128	N/A	128	2	14651	1	20	524	51	7133	22382
Q17	2790902	2	5	2	N/A	2	0	270	0	0	3	1	10506	10780
Q18	3000000	4	1	4	3	1	0	90	0	0	7	1	23541	23639
Q19	39826	9	525	448	N/A	128	18	261339	4	924	929	147	3012	266373
Q19a	60834	9	1225	896	N/A	256	37	587902	8	1867	1856	282	5796	597748
Q20	904	11	63	8	N/A	8	2	41768	0	100	75	18	2300	44263
Q20a	7818	11	525	64	N/A	64	17	341540	7	798	632	123	18524	361641
Q20b	10486	11	1225	128	N/A	128	45	796336	4	1621	1253	304	29540	829103
Q21	37176	3	9350	14180	6486	6401	112	114498	54	25929	920	17338	145836	304687
Q22	1528	4	40	32	N/A	32	1	650	0	2	4	7	862	1526
Q22a	18588	4	520	384	N/A	384	5	8223	2	211	59	176	10383	19059
Q23	1329887	7	192	80	56	24	5	30490	3	7	33	12	18580	49130
Q23a	2008985	7	448	160	112	48	6	69706	2	24	66	25	33464	103293
Q01	15514	5	21	16	12	4	0	1168	1	1	23	5	148	1346
Q01a	111793	5	175	128	96	32	3	9661	0	12	169	21	1048	10914
Q01b	863729	5	1407	1024	768	256	17	76937	7	141	1618	208	8149	87077
Q02	124	6	63	32	24	8	1	15409	0	1	43	7	125	15586
Q02old	124	6	63	32	24	8	1	15633	0	2	41	7	119	15803
Q02a	598	6	147	64	48	16	2	36986	0	2	88	13	245	37336
Q03	5	5	4375	1024	N/A	512	88	787150	17	395	7902	660	6371	802583
Q04	4487	2	1	8	6	2	0	30	0	0	1	0	27	58
Q05	3000000	4	1	8	7	1	1	25	0	0	3	1	15672	15702
Q05a	1793489	4	3	2	N/A	2	0	370	0	0	1	2	8204	8577
Q05b	2454945	4	7	4	N/A	4	1	814	0	0	3	2	12992	13812
Q06	2790902	3	5	2	N/A	2	0	372	1	0	6	2	14585	14966
Q06a	1674256	6	15	4	N/A	4	2	3917	0	1	8	4	17271	21203
Q06b	844190	6	35	8	N/A	8	0	9239	0	1	17	8	13174	22439
Q07	2	3	5	2562	N/A	2562	0	714	3	3172	302	3706	29946	37843
Q07a	3	3	19	10248	N/A	5124	1	2234	17	21211	409	10851	63320	98043
Q08	3000000	3	1	1	N/A	1	0	41	0	0	5	1	20589	20636
Q09	299902	1	7	2	N/A	2	0	226	0	0	4	0	810	1040
Q12	14571	5	2	8	7	1	0	319	0	0	2	1	124	446
Q12a	31322	5	6	16	14	2	0	890	0	0	3	1	372	1266
Q12b	117426	5	14	32	28	4	1	2064	0	0	7	2	1090	3164
Q13	167760	4	84	50	N/A	42	1	6276	0	36	79	30	3013	9435
Q13a	4416946	4	5628	3200	N/A	2688	48	380014	35	7760	5532	5483	112550	511422
Q13b	10049829	4	5628	3200	N/A	2688	49	374567	40	7386	5559	5370	185137	578108
Q14	3000000	3	1	1	N/A	1	0	139	0	0	4	1	13425	13569
Q15	1500000	5	1	4	3	1	0	103	0	0	4	2	12679	12788
Q16	249004	4	201	128	N/A	128	2	14910	2	18	407	45	7379	22763
Q17	2790902	2	5	2	N/A	2	0	259	0	1	3	1	10800	11064
Q18	3000000	4	1	4	3	1	0	88	0	0	6	1	21655	21750
Q19	39826	9	525	448	N/A	128	14	255590	2	922	894	132	3028	260582
Q19a	60834	9	1225	896	N/A	256	36	586523	7	1864	1791	278	5821	596320
Q20	904	11	63	8	N/A	8	2	40946	0	96	75	17	2522	43658
Q20a	7818	11	525	64	N/A	64	17	343099	2	787	595	126	16060	360686
Q20b	10486	11	1225	128	N/A	128	43	794684	12	1603	1216	252	27369	825179
Q21	37176	3	9350	14180	6486	6401	103	108007	37	27632	791	16498	145749	298817
Q22	1528	4	40	32	N/A	32	1	959	0	1	4	6	865	1836
Q22a	18588	4	520	384	N/A	384	6	6515	2	122	48	130	10258	17081
Q23	1329887	7	192	80	56	24	3	30568	0	10	33	13	18814	49441
Q23a	2008985	7	448	160	112	48	5	70671	2	25	66	25	34386	105180
Q02b	1058	6	525	N/A	N/A	N/A	12	N/A	N/A	N/A	N/A	N/A	N/A	N/A
Q02c	1570	6	1225	N/A	N/A	N/A	26	N/A	N/A	N/A	N/A	N/A	N/A	N/A
Q02d	8842	6	4221	N/A	N/A	N/A	270	N/A	N/A	N/A	N/A	N/A	N/A	N/A
Q02e	35130	6	9849	N/A	N/A	N/A	454	N/A	N/A	N/A	N/A	N/A	N/A	N/A
Q20c	51988	11	4221	N/A	N/A	N/A	372	N/A	N/A	N/A	N/A	N/A	N/A	N/A
Q20d	201747	11	9849	N/A	N/A	N/A	601	N/A	N/A	N/A	N/A	N/A	N/A	N/A
Q03	5	5	4375	N/A	N/A	N/A	90	N/A	N/A	N/A	N/A	N/A	N/A	N/A
Q10	10	3	9350	N/A	N/A	N/A	81	N/A	N/A	N/A	N/A	N/A	N/A	N/A
Q10a	15	3	28172	N/A	N/A	N/A	374	N/A	N/A	N/A	N/A	N/A	N/A	N/A
Q10b	25	3	66060	N/A	N/A	N/A	1548	N/A	N/A	N/A	N/A	N/A	N/A	N/A
Q11	14571	5	155600	N/A	N/A	N/A	2763	N/A	N/A	N/A	N/A	N/A	N/A	N/A
