$product	$type
<http://www4.wiwiss.fu-berlin.de/bizer/bsbm/v01/instances/dataFromProducer8/Product375>	<http://www4.wiwiss.fu-berlin.de/bizer/bsbm/v01/instances/ProductType8>	
<http://www4.wiwiss.fu-berlin.de/bizer/bsbm/v01/instances/dataFromProducer9/Product386>	<http://www4.wiwiss.fu-berlin.de/bizer/bsbm/v01/instances/ProductType8>	
<http://www4.wiwiss.fu-berlin.de/bizer/bsbm/v01/instances/dataFromProducer17/Product811>	<http://www4.wiwiss.fu-berlin.de/bizer/bsbm/v01/instances/ProductType8>	
<http://www4.wiwiss.fu-berlin.de/bizer/bsbm/v01/instances/dataFromProducer20/Product900>	<http://www4.wiwiss.fu-berlin.de/bizer/bsbm/v01/instances/ProductType8>	
<http://www4.wiwiss.fu-berlin.de/bizer/bsbm/v01/instances/dataFromProducer21/Product975>	<http://www4.wiwiss.fu-berlin.de/bizer/bsbm/v01/instances/ProductType8>	
<http://www4.wiwiss.fu-berlin.de/bizer/bsbm/v01/instances/dataFromProducer23/Product1069>	<http://www4.wiwiss.fu-berlin.de/bizer/bsbm/v01/instances/ProductType8>	
<http://www4.wiwiss.fu-berlin.de/bizer/bsbm/v01/instances/dataFromProducer30/Product1359>	<http://www4.wiwiss.fu-berlin.de/bizer/bsbm/v01/instances/ProductType8>	
<http://www4.wiwiss.fu-berlin.de/bizer/bsbm/v01/instances/dataFromProducer38/Product1742>	<http://www4.wiwiss.fu-berlin.de/bizer/bsbm/v01/instances/ProductType8>	
<http://www4.wiwiss.fu-berlin.de/bizer/bsbm/v01/instances/dataFromProducer51/Product2422>	<http://www4.wiwiss.fu-berlin.de/bizer/bsbm/v01/instances/ProductType8>	
<http://www4.wiwiss.fu-berlin.de/bizer/bsbm/v01/instances/dataFromProducer52/Product2472>	<http://www4.wiwiss.fu-berlin.de/bizer/bsbm/v01/instances/ProductType8>	
<http://www4.wiwiss.fu-berlin.de/bizer/bsbm/v01/instances/dataFromProducer53/Product2484>	<http://www4.wiwiss.fu-berlin.de/bizer/bsbm/v01/instances/ProductType8>	
<http://www4.wiwiss.fu-berlin.de/bizer/bsbm/v01/instances/dataFromProducer55/Product2573>	<http://www4.wiwiss.fu-berlin.de/bizer/bsbm/v01/instances/ProductType8>	
<http://www4.wiwiss.fu-berlin.de/bizer/bsbm/v01/instances/dataFromProducer1/Product45>	<http://www4.wiwiss.fu-berlin.de/bizer/bsbm/v01/instances/ProductType65>	
<http://www4.wiwiss.fu-berlin.de/bizer/bsbm/v01/instances/dataFromProducer16/Product751>	<http://www4.wiwiss.fu-berlin.de/bizer/bsbm/v01/instances/ProductType65>	
<http://www4.wiwiss.fu-berlin.de/bizer/bsbm/v01/instances/dataFromProducer17/Product819>	<http://www4.wiwiss.fu-berlin.de/bizer/bsbm/v01/instances/ProductType65>	
<http://www4.wiwiss.fu-berlin.de/bizer/bsbm/v01/instances/dataFromProducer22/Product1029>	<http://www4.wiwiss.fu-berlin.de/bizer/bsbm/v01/instances/ProductType65>	
<http://www4.wiwiss.fu-berlin.de/bizer/bsbm/v01/instances/dataFromProducer26/Product1218>	<http://www4.wiwiss.fu-berlin.de/bizer/bsbm/v01/instances/ProductType65>	
<http://www4.wiwiss.fu-berlin.de/bizer/bsbm/v01/instances/dataFromProducer27/Product1260>	<http://www4.wiwiss.fu-berlin.de/bizer/bsbm/v01/instances/ProductType65>	
<http://www4.wiwiss.fu-berlin.de/bizer/bsbm/v01/instances/dataFromProducer29/Product1335>	<http://www4.wiwiss.fu-berlin.de/bizer/bsbm/v01/instances/ProductType65>	
<http://www4.wiwiss.fu-berlin.de/bizer/bsbm/v01/instances/dataFromProducer31/Product1404>	<http://www4.wiwiss.fu-berlin.de/bizer/bsbm/v01/instances/ProductType65>	
<http://www4.wiwiss.fu-berlin.de/bizer/bsbm/v01/instances/dataFromProducer33/Product1524>	<http://www4.wiwiss.fu-berlin.de/bizer/bsbm/v01/instances/ProductType65>	
<http://www4.wiwiss.fu-berlin.de/bizer/bsbm/v01/instances/dataFromProducer36/Product1598>	<http://www4.wiwiss.fu-berlin.de/bizer/bsbm/v01/instances/ProductType65>	
<http://www4.wiwiss.fu-berlin.de/bizer/bsbm/v01/instances/dataFromProducer36/Product1614>	<http://www4.wiwiss.fu-berlin.de/bizer/bsbm/v01/instances/ProductType65>	
<http://www4.wiwiss.fu-berlin.de/bizer/bsbm/v01/instances/dataFromProducer40/Product1835>	<http://www4.wiwiss.fu-berlin.de/bizer/bsbm/v01/instances/ProductType65>	
<http://www4.wiwiss.fu-berlin.de/bizer/bsbm/v01/instances/dataFromProducer40/Product1855>	<http://www4.wiwiss.fu-berlin.de/bizer/bsbm/v01/instances/ProductType65>	
<http://www4.wiwiss.fu-berlin.de/bizer/bsbm/v01/instances/dataFromProducer41/Product1920>	<http://www4.wiwiss.fu-berlin.de/bizer/bsbm/v01/instances/ProductType65>	
<http://www4.wiwiss.fu-berlin.de/bizer/bsbm/v01/instances/dataFromProducer42/Product1959>	<http://www4.wiwiss.fu-berlin.de/bizer/bsbm/v01/instances/ProductType65>	
<http://www4.wiwiss.fu-berlin.de/bizer/bsbm/v01/instances/dataFromProducer54/Product2544>	<http://www4.wiwiss.fu-berlin.de/bizer/bsbm/v01/instances/ProductType65>	
<http://www4.wiwiss.fu-berlin.de/bizer/bsbm/v01/instances/dataFromProducer58/Product2689>	<http://www4.wiwiss.fu-berlin.de/bizer/bsbm/v01/instances/ProductType65>	
<http://www4.wiwiss.fu-berlin.de/bizer/bsbm/v01/instances/dataFromProducer1/Product19>	<http://www4.wiwiss.fu-berlin.de/bizer/bsbm/v01/instances/ProductType60>	
<http://www4.wiwiss.fu-berlin.de/bizer/bsbm/v01/instances/dataFromProducer6/Product233>	<http://www4.wiwiss.fu-berlin.de/bizer/bsbm/v01/instances/ProductType60>	
<http://www4.wiwiss.fu-berlin.de/bizer/bsbm/v01/instances/dataFromProducer9/Product445>	<http://www4.wiwiss.fu-berlin.de/bizer/bsbm/v01/instances/ProductType60>	
<http://www4.wiwiss.fu-berlin.de/bizer/bsbm/v01/instances/dataFromProducer13/Product594>	<http://www4.wiwiss.fu-berlin.de/bizer/bsbm/v01/instances/ProductType60>	
<http://www4.wiwiss.fu-berlin.de/bizer/bsbm/v01/instances/dataFromProducer14/Product645>	<http://www4.wiwiss.fu-berlin.de/bizer/bsbm/v01/instances/ProductType60>	
<http://www4.wiwiss.fu-berlin.de/bizer/bsbm/v01/instances/dataFromProducer16/Product748>	<http://www4.wiwiss.fu-berlin.de/bizer/bsbm/v01/instances/ProductType60>	
<http://www4.wiwiss.fu-berlin.de/bizer/bsbm/v01/instances/dataFromProducer16/Product785>	<http://www4.wiwiss.fu-berlin.de/bizer/bsbm/v01/instances/ProductType60>	
<http://www4.wiwiss.fu-berlin.de/bizer/bsbm/v01/instances/dataFromProducer18/Product837>	<http://www4.wiwiss.fu-berlin.de/bizer/bsbm/v01/instances/ProductType60>	
<http://www4.wiwiss.fu-berlin.de/bizer/bsbm/v01/instances/dataFromProducer33/Product1519>	<http://www4.wiwiss.fu-berlin.de/bizer/bsbm/v01/instances/ProductType60>	
<http://www4.wiwiss.fu-berlin.de/bizer/bsbm/v01/instances/dataFromProducer39/Product1760>	<http://www4.wiwiss.fu-berlin.de/bizer/bsbm/v01/instances/ProductType60>	
<http://www4.wiwiss.fu-berlin.de/bizer/bsbm/v01/instances/dataFromProducer39/Product1814>	<http://www4.wiwiss.fu-berlin.de/bizer/bsbm/v01/instances/ProductType60>	
<http://www4.wiwiss.fu-berlin.de/bizer/bsbm/v01/instances/dataFromProducer42/Product1971>	<http://www4.wiwiss.fu-berlin.de/bizer/bsbm/v01/instances/ProductType60>	
<http://www4.wiwiss.fu-berlin.de/bizer/bsbm/v01/instances/dataFromProducer42/Product1975>	<http://www4.wiwiss.fu-berlin.de/bizer/bsbm/v01/instances/ProductType60>	
<http://www4.wiwiss.fu-berlin.de/bizer/bsbm/v01/instances/dataFromProducer50/Product2323>	<http://www4.wiwiss.fu-berlin.de/bizer/bsbm/v01/instances/ProductType60>	
<http://www4.wiwiss.fu-berlin.de/bizer/bsbm/v01/instances/dataFromProducer51/Product2429>	<http://www4.wiwiss.fu-berlin.de/bizer/bsbm/v01/instances/ProductType60>	
<http://www4.wiwiss.fu-berlin.de/bizer/bsbm/v01/instances/dataFromProducer60/Product2780>	<http://www4.wiwiss.fu-berlin.de/bizer/bsbm/v01/instances/ProductType60>	
<http://www4.wiwiss.fu-berlin.de/bizer/bsbm/v01/instances/dataFromProducer2/Product78>	<http://www4.wiwiss.fu-berlin.de/bizer/bsbm/v01/instances/ProductType13>	
<http://www4.wiwiss.fu-berlin.de/bizer/bsbm/v01/instances/dataFromProducer6/Product211>	<http://www4.wiwiss.fu-berlin.de/bizer/bsbm/v01/instances/ProductType13>	
<http://www4.wiwiss.fu-berlin.de/bizer/bsbm/v01/instances/dataFromProducer10/Product469>	<http://www4.wiwiss.fu-berlin.de/bizer/bsbm/v01/instances/ProductType13>	
<http://www4.wiwiss.fu-berlin.de/bizer/bsbm/v01/instances/dataFromProducer13/Product633>	<http://www4.wiwiss.fu-berlin.de/bizer/bsbm/v01/instances/ProductType13>	
<http://www4.wiwiss.fu-berlin.de/bizer/bsbm/v01/instances/dataFromProducer31/Product1416>	<http://www4.wiwiss.fu-berlin.de/bizer/bsbm/v01/instances/ProductType13>	
<http://www4.wiwiss.fu-berlin.de/bizer/bsbm/v01/instances/dataFromProducer32/Product1465>	<http://www4.wiwiss.fu-berlin.de/bizer/bsbm/v01/instances/ProductType13>	
<http://www4.wiwiss.fu-berlin.de/bizer/bsbm/v01/instances/dataFromProducer41/Product1886>	<http://www4.wiwiss.fu-berlin.de/bizer/bsbm/v01/instances/ProductType13>	
<http://www4.wiwiss.fu-berlin.de/bizer/bsbm/v01/instances/dataFromProducer42/Product1954>	<http://www4.wiwiss.fu-berlin.de/bizer/bsbm/v01/instances/ProductType13>	
<http://www4.wiwiss.fu-berlin.de/bizer/bsbm/v01/instances/dataFromProducer8/Product375>	<http://www4.wiwiss.fu-berlin.de/bizer/bsbm/v01/instances/ProductType57>	
<http://www4.wiwiss.fu-berlin.de/bizer/bsbm/v01/instances/dataFromProducer9/Product386>	<http://www4.wiwiss.fu-berlin.de/bizer/bsbm/v01/instances/ProductType57>	
<http://www4.wiwiss.fu-berlin.de/bizer/bsbm/v01/instances/dataFromProducer17/Product811>	<http://www4.wiwiss.fu-berlin.de/bizer/bsbm/v01/instances/ProductType57>	
<http://www4.wiwiss.fu-berlin.de/bizer/bsbm/v01/instances/dataFromProducer20/Product900>	<http://www4.wiwiss.fu-berlin.de/bizer/bsbm/v01/instances/ProductType57>	
<http://www4.wiwiss.fu-berlin.de/bizer/bsbm/v01/instances/dataFromProducer21/Product975>	<http://www4.wiwiss.fu-berlin.de/bizer/bsbm/v01/instances/ProductType57>	
<http://www4.wiwiss.fu-berlin.de/bizer/bsbm/v01/instances/dataFromProducer23/Product1069>	<http://www4.wiwiss.fu-berlin.de/bizer/bsbm/v01/instances/ProductType57>	
<http://www4.wiwiss.fu-berlin.de/bizer/bsbm/v01/instances/dataFromProducer30/Product1359>	<http://www4.wiwiss.fu-berlin.de/bizer/bsbm/v01/instances/ProductType57>	
<http://www4.wiwiss.fu-berlin.de/bizer/bsbm/v01/instances/dataFromProducer38/Product1742>	<http://www4.wiwiss.fu-berlin.de/bizer/bsbm/v01/instances/ProductType57>	
<http://www4.wiwiss.fu-berlin.de/bizer/bsbm/v01/instances/dataFromProducer51/Product2422>	<http://www4.wiwiss.fu-berlin.de/bizer/bsbm/v01/instances/ProductType57>	
<http://www4.wiwiss.fu-berlin.de/bizer/bsbm/v01/instances/dataFromProducer52/Product2472>	<http://www4.wiwiss.fu-berlin.de/bizer/bsbm/v01/instances/ProductType57>	
<http://www4.wiwiss.fu-berlin.de/bizer/bsbm/v01/instances/dataFromProducer53/Product2484>	<http://www4.wiwiss.fu-berlin.de/bizer/bsbm/v01/instances/ProductType57>	
<http://www4.wiwiss.fu-berlin.de/bizer/bsbm/v01/instances/dataFromProducer55/Product2573>	<http://www4.wiwiss.fu-berlin.de/bizer/bsbm/v01/instances/ProductType57>	
<http://www4.wiwiss.fu-berlin.de/bizer/bsbm/v01/instances/dataFromProducer5/Product191>	<http://www4.wiwiss.fu-berlin.de/bizer/bsbm/v01/instances/ProductType62>	
<http://www4.wiwiss.fu-berlin.de/bizer/bsbm/v01/instances/dataFromProducer6/Product267>	<http://www4.wiwiss.fu-berlin.de/bizer/bsbm/v01/instances/ProductType62>	
<http://www4.wiwiss.fu-berlin.de/bizer/bsbm/v01/instances/dataFromProducer12/Product563>	<http://www4.wiwiss.fu-berlin.de/bizer/bsbm/v01/instances/ProductType62>	
<http://www4.wiwiss.fu-berlin.de/bizer/bsbm/v01/instances/dataFromProducer22/Product1011>	<http://www4.wiwiss.fu-berlin.de/bizer/bsbm/v01/instances/ProductType62>	
<http://www4.wiwiss.fu-berlin.de/bizer/bsbm/v01/instances/dataFromProducer25/Product1149>	<http://www4.wiwiss.fu-berlin.de/bizer/bsbm/v01/instances/ProductType62>	
<http://www4.wiwiss.fu-berlin.de/bizer/bsbm/v01/instances/dataFromProducer28/Product1287>	<http://www4.wiwiss.fu-berlin.de/bizer/bsbm/v01/instances/ProductType62>	
<http://www4.wiwiss.fu-berlin.de/bizer/bsbm/v01/instances/dataFromProducer28/Product1297>	<http://www4.wiwiss.fu-berlin.de/bizer/bsbm/v01/instances/ProductType62>	
<http://www4.wiwiss.fu-berlin.de/bizer/bsbm/v01/instances/dataFromProducer30/Product1374>	<http://www4.wiwiss.fu-berlin.de/bizer/bsbm/v01/instances/ProductType62>	
<http://www4.wiwiss.fu-berlin.de/bizer/bsbm/v01/instances/dataFromProducer33/Product1500>	<http://www4.wiwiss.fu-berlin.de/bizer/bsbm/v01/instances/ProductType62>	
<http://www4.wiwiss.fu-berlin.de/bizer/bsbm/v01/instances/dataFromProducer35/Product1565>	<http://www4.wiwiss.fu-berlin.de/bizer/bsbm/v01/instances/ProductType62>	
<http://www4.wiwiss.fu-berlin.de/bizer/bsbm/v01/instances/dataFromProducer38/Product1738>	<http://www4.wiwiss.fu-berlin.de/bizer/bsbm/v01/instances/ProductType62>	
<http://www4.wiwiss.fu-berlin.de/bizer/bsbm/v01/instances/dataFromProducer39/Product1786>	<http://www4.wiwiss.fu-berlin.de/bizer/bsbm/v01/instances/ProductType62>	
<http://www4.wiwiss.fu-berlin.de/bizer/bsbm/v01/instances/dataFromProducer41/Product1921>	<http://www4.wiwiss.fu-berlin.de/bizer/bsbm/v01/instances/ProductType62>	
<http://www4.wiwiss.fu-berlin.de/bizer/bsbm/v01/instances/dataFromProducer50/Product2339>	<http://www4.wiwiss.fu-berlin.de/bizer/bsbm/v01/instances/ProductType62>	
<http://www4.wiwiss.fu-berlin.de/bizer/bsbm/v01/instances/dataFromProducer54/Product2510>	<http://www4.wiwiss.fu-berlin.de/bizer/bsbm/v01/instances/ProductType62>	
<http://www4.wiwiss.fu-berlin.de/bizer/bsbm/v01/instances/dataFromProducer54/Product2530>	<http://www4.wiwiss.fu-berlin.de/bizer/bsbm/v01/instances/ProductType62>	
<http://www4.wiwiss.fu-berlin.de/bizer/bsbm/v01/instances/dataFromProducer55/Product2604>	<http://www4.wiwiss.fu-berlin.de/bizer/bsbm/v01/instances/ProductType62>	
<http://www4.wiwiss.fu-berlin.de/bizer/bsbm/v01/instances/dataFromProducer2/Product83>	<http://www4.wiwiss.fu-berlin.de/bizer/bsbm/v01/instances/ProductType12>	
<http://www4.wiwiss.fu-berlin.de/bizer/bsbm/v01/instances/dataFromProducer9/Product449>	<http://www4.wiwiss.fu-berlin.de/bizer/bsbm/v01/instances/ProductType12>	
<http://www4.wiwiss.fu-berlin.de/bizer/bsbm/v01/instances/dataFromProducer10/Product478>	<http://www4.wiwiss.fu-berlin.de/bizer/bsbm/v01/instances/ProductType12>	
<http://www4.wiwiss.fu-berlin.de/bizer/bsbm/v01/instances/dataFromProducer22/Product1034>	<http://www4.wiwiss.fu-berlin.de/bizer/bsbm/v01/instances/ProductType12>	
<http://www4.wiwiss.fu-berlin.de/bizer/bsbm/v01/instances/dataFromProducer23/Product1097>	<http://www4.wiwiss.fu-berlin.de/bizer/bsbm/v01/instances/ProductType12>	
<http://www4.wiwiss.fu-berlin.de/bizer/bsbm/v01/instances/dataFromProducer26/Product1208>	<http://www4.wiwiss.fu-berlin.de/bizer/bsbm/v01/instances/ProductType12>	
<http://www4.wiwiss.fu-berlin.de/bizer/bsbm/v01/instances/dataFromProducer39/Product1777>	<http://www4.wiwiss.fu-berlin.de/bizer/bsbm/v01/instances/ProductType12>	
<http://www4.wiwiss.fu-berlin.de/bizer/bsbm/v01/instances/dataFromProducer42/Product2016>	<http://www4.wiwiss.fu-berlin.de/bizer/bsbm/v01/instances/ProductType12>	
<http://www4.wiwiss.fu-berlin.de/bizer/bsbm/v01/instances/dataFromProducer50/Product2352>	<http://www4.wiwiss.fu-berlin.de/bizer/bsbm/v01/instances/ProductType12>	
<http://www4.wiwiss.fu-berlin.de/bizer/bsbm/v01/instances/dataFromProducer52/Product2473>	<http://www4.wiwiss.fu-berlin.de/bizer/bsbm/v01/instances/ProductType12>	
<http://www4.wiwiss.fu-berlin.de/bizer/bsbm/v01/instances/dataFromProducer60/Product2773>	<http://www4.wiwiss.fu-berlin.de/bizer/bsbm/v01/instances/ProductType12>	
<http://www4.wiwiss.fu-berlin.de/bizer/bsbm/v01/instances/dataFromProducer3/Product99>	<http://www4.wiwiss.fu-berlin.de/bizer/bsbm/v01/instances/ProductType71>	
<http://www4.wiwiss.fu-berlin.de/bizer/bsbm/v01/instances/dataFromProducer13/Product583>	<http://www4.wiwiss.fu-berlin.de/bizer/bsbm/v01/instances/ProductType71>	
<http://www4.wiwiss.fu-berlin.de/bizer/bsbm/v01/instances/dataFromProducer20/Product906>	<http://www4.wiwiss.fu-berlin.de/bizer/bsbm/v01/instances/ProductType71>	
<http://www4.wiwiss.fu-berlin.de/bizer/bsbm/v01/instances/dataFromProducer24/Product1126>	<http://www4.wiwiss.fu-berlin.de/bizer/bsbm/v01/instances/ProductType71>	
<http://www4.wiwiss.fu-berlin.de/bizer/bsbm/v01/instances/dataFromProducer27/Product1253>	<http://www4.wiwiss.fu-berlin.de/bizer/bsbm/v01/instances/ProductType71>	
<http://www4.wiwiss.fu-berlin.de/bizer/bsbm/v01/instances/dataFromProducer33/Product1501>	<http://www4.wiwiss.fu-berlin.de/bizer/bsbm/v01/instances/ProductType71>	
<http://www4.wiwiss.fu-berlin.de/bizer/bsbm/v01/instances/dataFromProducer35/Product1573>	<http://www4.wiwiss.fu-berlin.de/bizer/bsbm/v01/instances/ProductType71>	
<http://www4.wiwiss.fu-berlin.de/bizer/bsbm/v01/instances/dataFromProducer35/Product1587>	<http://www4.wiwiss.fu-berlin.de/bizer/bsbm/v01/instances/ProductType71>	
<http://www4.wiwiss.fu-berlin.de/bizer/bsbm/v01/instances/dataFromProducer39/Product1776>	<http://www4.wiwiss.fu-berlin.de/bizer/bsbm/v01/instances/ProductType71>	
<http://www4.wiwiss.fu-berlin.de/bizer/bsbm/v01/instances/dataFromProducer39/Product1818>	<http://www4.wiwiss.fu-berlin.de/bizer/bsbm/v01/instances/ProductType71>	
<http://www4.wiwiss.fu-berlin.de/bizer/bsbm/v01/instances/dataFromProducer40/Product1848>	<http://www4.wiwiss.fu-berlin.de/bizer/bsbm/v01/instances/ProductType71>	
<http://www4.wiwiss.fu-berlin.de/bizer/bsbm/v01/instances/dataFromProducer41/Product1918>	<http://www4.wiwiss.fu-berlin.de/bizer/bsbm/v01/instances/ProductType71>	
<http://www4.wiwiss.fu-berlin.de/bizer/bsbm/v01/instances/dataFromProducer41/Product1942>	<http://www4.wiwiss.fu-berlin.de/bizer/bsbm/v01/instances/ProductType71>	
<http://www4.wiwiss.fu-berlin.de/bizer/bsbm/v01/instances/dataFromProducer45/Product2099>	<http://www4.wiwiss.fu-berlin.de/bizer/bsbm/v01/instances/ProductType71>	
<http://www4.wiwiss.fu-berlin.de/bizer/bsbm/v01/instances/dataFromProducer55/Product2610>	<http://www4.wiwiss.fu-berlin.de/bizer/bsbm/v01/instances/ProductType71>	
<http://www4.wiwiss.fu-berlin.de/bizer/bsbm/v01/instances/dataFromProducer57/Product2648>	<http://www4.wiwiss.fu-berlin.de/bizer/bsbm/v01/instances/ProductType71>	
<http://www4.wiwiss.fu-berlin.de/bizer/bsbm/v01/instances/dataFromProducer59/Product2742>	<http://www4.wiwiss.fu-berlin.de/bizer/bsbm/v01/instances/ProductType71>	
<http://www4.wiwiss.fu-berlin.de/bizer/bsbm/v01/instances/dataFromProducer60/Product2795>	<http://www4.wiwiss.fu-berlin.de/bizer/bsbm/v01/instances/ProductType71>	
<http://www4.wiwiss.fu-berlin.de/bizer/bsbm/v01/instances/dataFromProducer2/Product83>	<http://www4.wiwiss.fu-berlin.de/bizer/bsbm/v01/instances/ProductType64>	
<http://www4.wiwiss.fu-berlin.de/bizer/bsbm/v01/instances/dataFromProducer9/Product449>	<http://www4.wiwiss.fu-berlin.de/bizer/bsbm/v01/instances/ProductType64>	
<http://www4.wiwiss.fu-berlin.de/bizer/bsbm/v01/instances/dataFromProducer10/Product478>	<http://www4.wiwiss.fu-berlin.de/bizer/bsbm/v01/instances/ProductType64>	
<http://www4.wiwiss.fu-berlin.de/bizer/bsbm/v01/instances/dataFromProducer22/Product1034>	<http://www4.wiwiss.fu-berlin.de/bizer/bsbm/v01/instances/ProductType64>	
<http://www4.wiwiss.fu-berlin.de/bizer/bsbm/v01/instances/dataFromProducer23/Product1097>	<http://www4.wiwiss.fu-berlin.de/bizer/bsbm/v01/instances/ProductType64>	
<http://www4.wiwiss.fu-berlin.de/bizer/bsbm/v01/instances/dataFromProducer26/Product1208>	<http://www4.wiwiss.fu-berlin.de/bizer/bsbm/v01/instances/ProductType64>	
<http://www4.wiwiss.fu-berlin.de/bizer/bsbm/v01/instances/dataFromProducer39/Product1777>	<http://www4.wiwiss.fu-berlin.de/bizer/bsbm/v01/instances/ProductType64>	
<http://www4.wiwiss.fu-berlin.de/bizer/bsbm/v01/instances/dataFromProducer42/Product2016>	<http://www4.wiwiss.fu-berlin.de/bizer/bsbm/v01/instances/ProductType64>	
<http://www4.wiwiss.fu-berlin.de/bizer/bsbm/v01/instances/dataFromProducer50/Product2352>	<http://www4.wiwiss.fu-berlin.de/bizer/bsbm/v01/instances/ProductType64>	
<http://www4.wiwiss.fu-berlin.de/bizer/bsbm/v01/instances/dataFromProducer52/Product2473>	<http://www4.wiwiss.fu-berlin.de/bizer/bsbm/v01/instances/ProductType64>	
<http://www4.wiwiss.fu-berlin.de/bizer/bsbm/v01/instances/dataFromProducer60/Product2773>	<http://www4.wiwiss.fu-berlin.de/bizer/bsbm/v01/instances/ProductType64>	
<http://www4.wiwiss.fu-berlin.de/bizer/bsbm/v01/instances/dataFromProducer1/Product45>	<http://www4.wiwiss.fu-berlin.de/bizer/bsbm/v01/instances/ProductType12>	
<http://www4.wiwiss.fu-berlin.de/bizer/bsbm/v01/instances/dataFromProducer16/Product751>	<http://www4.wiwiss.fu-berlin.de/bizer/bsbm/v01/instances/ProductType12>	
<http://www4.wiwiss.fu-berlin.de/bizer/bsbm/v01/instances/dataFromProducer17/Product819>	<http://www4.wiwiss.fu-berlin.de/bizer/bsbm/v01/instances/ProductType12>	
<http://www4.wiwiss.fu-berlin.de/bizer/bsbm/v01/instances/dataFromProducer22/Product1029>	<http://www4.wiwiss.fu-berlin.de/bizer/bsbm/v01/instances/ProductType12>	
<http://www4.wiwiss.fu-berlin.de/bizer/bsbm/v01/instances/dataFromProducer26/Product1218>	<http://www4.wiwiss.fu-berlin.de/bizer/bsbm/v01/instances/ProductType12>	
<http://www4.wiwiss.fu-berlin.de/bizer/bsbm/v01/instances/dataFromProducer27/Product1260>	<http://www4.wiwiss.fu-berlin.de/bizer/bsbm/v01/instances/ProductType12>	
<http://www4.wiwiss.fu-berlin.de/bizer/bsbm/v01/instances/dataFromProducer29/Product1335>	<http://www4.wiwiss.fu-berlin.de/bizer/bsbm/v01/instances/ProductType12>	
<http://www4.wiwiss.fu-berlin.de/bizer/bsbm/v01/instances/dataFromProducer31/Product1404>	<http://www4.wiwiss.fu-berlin.de/bizer/bsbm/v01/instances/ProductType12>	
<http://www4.wiwiss.fu-berlin.de/bizer/bsbm/v01/instances/dataFromProducer33/Product1524>	<http://www4.wiwiss.fu-berlin.de/bizer/bsbm/v01/instances/ProductType12>	
<http://www4.wiwiss.fu-berlin.de/bizer/bsbm/v01/instances/dataFromProducer36/Product1598>	<http://www4.wiwiss.fu-berlin.de/bizer/bsbm/v01/instances/ProductType12>	
<http://www4.wiwiss.fu-berlin.de/bizer/bsbm/v01/instances/dataFromProducer36/Product1614>	<http://www4.wiwiss.fu-berlin.de/bizer/bsbm/v01/instances/ProductType12>	
<http://www4.wiwiss.fu-berlin.de/bizer/bsbm/v01/instances/dataFromProducer40/Product1835>	<http://www4.wiwiss.fu-berlin.de/bizer/bsbm/v01/instances/ProductType12>	
<http://www4.wiwiss.fu-berlin.de/bizer/bsbm/v01/instances/dataFromProducer40/Product1855>	<http://www4.wiwiss.fu-berlin.de/bizer/bsbm/v01/instances/ProductType12>	
<http://www4.wiwiss.fu-berlin.de/bizer/bsbm/v01/instances/dataFromProducer41/Product1920>	<http://www4.wiwiss.fu-berlin.de/bizer/bsbm/v01/instances/ProductType12>	
<http://www4.wiwiss.fu-berlin.de/bizer/bsbm/v01/instances/dataFromProducer42/Product1959>	<http://www4.wiwiss.fu-berlin.de/bizer/bsbm/v01/instances/ProductType12>	
<http://www4.wiwiss.fu-berlin.de/bizer/bsbm/v01/instances/dataFromProducer54/Product2544>	<http://www4.wiwiss.fu-berlin.de/bizer/bsbm/v01/instances/ProductType12>	
<http://www4.wiwiss.fu-berlin.de/bizer/bsbm/v01/instances/dataFromProducer58/Product2689>	<http://www4.wiwiss.fu-berlin.de/bizer/bsbm/v01/instances/ProductType12>	
<http://www4.wiwiss.fu-berlin.de/bizer/bsbm/v01/instances/dataFromProducer2/Product80>	<http://www4.wiwiss.fu-berlin.de/bizer/bsbm/v01/instances/ProductType66>	
<http://www4.wiwiss.fu-berlin.de/bizer/bsbm/v01/instances/dataFromProducer6/Product235>	<http://www4.wiwiss.fu-berlin.de/bizer/bsbm/v01/instances/ProductType66>	
<http://www4.wiwiss.fu-berlin.de/bizer/bsbm/v01/instances/dataFromProducer11/Product510>	<http://www4.wiwiss.fu-berlin.de/bizer/bsbm/v01/instances/ProductType66>	
<http://www4.wiwiss.fu-berlin.de/bizer/bsbm/v01/instances/dataFromProducer11/Product521>	<http://www4.wiwiss.fu-berlin.de/bizer/bsbm/v01/instances/ProductType66>	
<http://www4.wiwiss.fu-berlin.de/bizer/bsbm/v01/instances/dataFromProducer17/Product799>	<http://www4.wiwiss.fu-berlin.de/bizer/bsbm/v01/instances/ProductType66>	
<http://www4.wiwiss.fu-berlin.de/bizer/bsbm/v01/instances/dataFromProducer28/Product1300>	<http://www4.wiwiss.fu-berlin.de/bizer/bsbm/v01/instances/ProductType66>	
<http://www4.wiwiss.fu-berlin.de/bizer/bsbm/v01/instances/dataFromProducer33/Product1532>	<http://www4.wiwiss.fu-berlin.de/bizer/bsbm/v01/instances/ProductType66>	
<http://www4.wiwiss.fu-berlin.de/bizer/bsbm/v01/instances/dataFromProducer37/Product1671>	<http://www4.wiwiss.fu-berlin.de/bizer/bsbm/v01/instances/ProductType66>	
<http://www4.wiwiss.fu-berlin.de/bizer/bsbm/v01/instances/dataFromProducer38/Product1716>	<http://www4.wiwiss.fu-berlin.de/bizer/bsbm/v01/instances/ProductType66>	
<http://www4.wiwiss.fu-berlin.de/bizer/bsbm/v01/instances/dataFromProducer48/Product2259>	<http://www4.wiwiss.fu-berlin.de/bizer/bsbm/v01/instances/ProductType66>	
<http://www4.wiwiss.fu-berlin.de/bizer/bsbm/v01/instances/dataFromProducer50/Product2364>	<http://www4.wiwiss.fu-berlin.de/bizer/bsbm/v01/instances/ProductType66>	
<http://www4.wiwiss.fu-berlin.de/bizer/bsbm/v01/instances/dataFromProducer51/Product2412>	<http://www4.wiwiss.fu-berlin.de/bizer/bsbm/v01/instances/ProductType66>	
<http://www4.wiwiss.fu-berlin.de/bizer/bsbm/v01/instances/dataFromProducer51/Product2449>	<http://www4.wiwiss.fu-berlin.de/bizer/bsbm/v01/instances/ProductType66>	
<http://www4.wiwiss.fu-berlin.de/bizer/bsbm/v01/instances/dataFromProducer53/Product2502>	<http://www4.wiwiss.fu-berlin.de/bizer/bsbm/v01/instances/ProductType66>	
<http://www4.wiwiss.fu-berlin.de/bizer/bsbm/v01/instances/dataFromProducer8/Product373>	<http://www4.wiwiss.fu-berlin.de/bizer/bsbm/v01/instances/ProductType14>	
<http://www4.wiwiss.fu-berlin.de/bizer/bsbm/v01/instances/dataFromProducer9/Product385>	<http://www4.wiwiss.fu-berlin.de/bizer/bsbm/v01/instances/ProductType14>	
<http://www4.wiwiss.fu-berlin.de/bizer/bsbm/v01/instances/dataFromProducer11/Product517>	<http://www4.wiwiss.fu-berlin.de/bizer/bsbm/v01/instances/ProductType14>	
<http://www4.wiwiss.fu-berlin.de/bizer/bsbm/v01/instances/dataFromProducer15/Product718>	<http://www4.wiwiss.fu-berlin.de/bizer/bsbm/v01/instances/ProductType14>	
<http://www4.wiwiss.fu-berlin.de/bizer/bsbm/v01/instances/dataFromProducer16/Product783>	<http://www4.wiwiss.fu-berlin.de/bizer/bsbm/v01/instances/ProductType14>	
<http://www4.wiwiss.fu-berlin.de/bizer/bsbm/v01/instances/dataFromProducer19/Product899>	<http://www4.wiwiss.fu-berlin.de/bizer/bsbm/v01/instances/ProductType14>	
<http://www4.wiwiss.fu-berlin.de/bizer/bsbm/v01/instances/dataFromProducer22/Product1036>	<http://www4.wiwiss.fu-berlin.de/bizer/bsbm/v01/instances/ProductType14>	
<http://www4.wiwiss.fu-berlin.de/bizer/bsbm/v01/instances/dataFromProducer33/Product1504>	<http://www4.wiwiss.fu-berlin.de/bizer/bsbm/v01/instances/ProductType14>	
<http://www4.wiwiss.fu-berlin.de/bizer/bsbm/v01/instances/dataFromProducer36/Product1593>	<http://www4.wiwiss.fu-berlin.de/bizer/bsbm/v01/instances/ProductType14>	
<http://www4.wiwiss.fu-berlin.de/bizer/bsbm/v01/instances/dataFromProducer38/Product1726>	<http://www4.wiwiss.fu-berlin.de/bizer/bsbm/v01/instances/ProductType14>	
<http://www4.wiwiss.fu-berlin.de/bizer/bsbm/v01/instances/dataFromProducer42/Product1972>	<http://www4.wiwiss.fu-berlin.de/bizer/bsbm/v01/instances/ProductType14>	
<http://www4.wiwiss.fu-berlin.de/bizer/bsbm/v01/instances/dataFromProducer42/Product1977>	<http://www4.wiwiss.fu-berlin.de/bizer/bsbm/v01/instances/ProductType14>	
<http://www4.wiwiss.fu-berlin.de/bizer/bsbm/v01/instances/dataFromProducer42/Product2019>	<http://www4.wiwiss.fu-berlin.de/bizer/bsbm/v01/instances/ProductType14>	
<http://www4.wiwiss.fu-berlin.de/bizer/bsbm/v01/instances/dataFromProducer43/Product2037>	<http://www4.wiwiss.fu-berlin.de/bizer/bsbm/v01/instances/ProductType14>	
<http://www4.wiwiss.fu-berlin.de/bizer/bsbm/v01/instances/dataFromProducer43/Product2039>	<http://www4.wiwiss.fu-berlin.de/bizer/bsbm/v01/instances/ProductType14>	
<http://www4.wiwiss.fu-berlin.de/bizer/bsbm/v01/instances/dataFromProducer46/Product2147>	<http://www4.wiwiss.fu-berlin.de/bizer/bsbm/v01/instances/ProductType14>	
<http://www4.wiwiss.fu-berlin.de/bizer/bsbm/v01/instances/dataFromProducer48/Product2277>	<http://www4.wiwiss.fu-berlin.de/bizer/bsbm/v01/instances/ProductType14>	
<http://www4.wiwiss.fu-berlin.de/bizer/bsbm/v01/instances/dataFromProducer50/Product2337>	<http://www4.wiwiss.fu-berlin.de/bizer/bsbm/v01/instances/ProductType14>	
<http://www4.wiwiss.fu-berlin.de/bizer/bsbm/v01/instances/dataFromProducer54/Product2512>	<http://www4.wiwiss.fu-berlin.de/bizer/bsbm/v01/instances/ProductType14>	
<http://www4.wiwiss.fu-berlin.de/bizer/bsbm/v01/instances/dataFromProducer5/Product202>	<http://www4.wiwiss.fu-berlin.de/bizer/bsbm/v01/instances/ProductType63>	
<http://www4.wiwiss.fu-berlin.de/bizer/bsbm/v01/instances/dataFromProducer6/Product271>	<http://www4.wiwiss.fu-berlin.de/bizer/bsbm/v01/instances/ProductType63>	
<http://www4.wiwiss.fu-berlin.de/bizer/bsbm/v01/instances/dataFromProducer10/Product470>	<http://www4.wiwiss.fu-berlin.de/bizer/bsbm/v01/instances/ProductType63>	
<http://www4.wiwiss.fu-berlin.de/bizer/bsbm/v01/instances/dataFromProducer35/Product1569>	<http://www4.wiwiss.fu-berlin.de/bizer/bsbm/v01/instances/ProductType63>	
<http://www4.wiwiss.fu-berlin.de/bizer/bsbm/v01/instances/dataFromProducer41/Product1911>	<http://www4.wiwiss.fu-berlin.de/bizer/bsbm/v01/instances/ProductType63>	
<http://www4.wiwiss.fu-berlin.de/bizer/bsbm/v01/instances/dataFromProducer57/Product2642>	<http://www4.wiwiss.fu-berlin.de/bizer/bsbm/v01/instances/ProductType63>	
<http://www4.wiwiss.fu-berlin.de/bizer/bsbm/v01/instances/dataFromProducer6/Product236>	<http://www4.wiwiss.fu-berlin.de/bizer/bsbm/v01/instances/ProductType69>	
<http://www4.wiwiss.fu-berlin.de/bizer/bsbm/v01/instances/dataFromProducer7/Product312>	<http://www4.wiwiss.fu-berlin.de/bizer/bsbm/v01/instances/ProductType69>	
<http://www4.wiwiss.fu-berlin.de/bizer/bsbm/v01/instances/dataFromProducer12/Product549>	<http://www4.wiwiss.fu-berlin.de/bizer/bsbm/v01/instances/ProductType69>	
<http://www4.wiwiss.fu-berlin.de/bizer/bsbm/v01/instances/dataFromProducer14/Product657>	<http://www4.wiwiss.fu-berlin.de/bizer/bsbm/v01/instances/ProductType69>	
<http://www4.wiwiss.fu-berlin.de/bizer/bsbm/v01/instances/dataFromProducer22/Product1022>	<http://www4.wiwiss.fu-berlin.de/bizer/bsbm/v01/instances/ProductType69>	
<http://www4.wiwiss.fu-berlin.de/bizer/bsbm/v01/instances/dataFromProducer28/Product1295>	<http://www4.wiwiss.fu-berlin.de/bizer/bsbm/v01/instances/ProductType69>	
<http://www4.wiwiss.fu-berlin.de/bizer/bsbm/v01/instances/dataFromProducer28/Product1307>	<http://www4.wiwiss.fu-berlin.de/bizer/bsbm/v01/instances/ProductType69>	
<http://www4.wiwiss.fu-berlin.de/bizer/bsbm/v01/instances/dataFromProducer32/Product1459>	<http://www4.wiwiss.fu-berlin.de/bizer/bsbm/v01/instances/ProductType69>	
<http://www4.wiwiss.fu-berlin.de/bizer/bsbm/v01/instances/dataFromProducer33/Product1493>	<http://www4.wiwiss.fu-berlin.de/bizer/bsbm/v01/instances/ProductType69>	
<http://www4.wiwiss.fu-berlin.de/bizer/bsbm/v01/instances/dataFromProducer39/Product1767>	<http://www4.wiwiss.fu-berlin.de/bizer/bsbm/v01/instances/ProductType69>	
<http://www4.wiwiss.fu-berlin.de/bizer/bsbm/v01/instances/dataFromProducer48/Product2226>	<http://www4.wiwiss.fu-berlin.de/bizer/bsbm/v01/instances/ProductType69>	
<http://www4.wiwiss.fu-berlin.de/bizer/bsbm/v01/instances/dataFromProducer51/Product2425>	<http://www4.wiwiss.fu-berlin.de/bizer/bsbm/v01/instances/ProductType69>	
<http://www4.wiwiss.fu-berlin.de/bizer/bsbm/v01/instances/dataFromProducer51/Product2436>	<http://www4.wiwiss.fu-berlin.de/bizer/bsbm/v01/instances/ProductType69>	
<http://www4.wiwiss.fu-berlin.de/bizer/bsbm/v01/instances/dataFromProducer3/Product106>	<http://www4.wiwiss.fu-berlin.de/bizer/bsbm/v01/instances/ProductType15>	
<http://www4.wiwiss.fu-berlin.de/bizer/bsbm/v01/instances/dataFromProducer5/Product204>	<http://www4.wiwiss.fu-berlin.de/bizer/bsbm/v01/instances/ProductType15>	
<http://www4.wiwiss.fu-berlin.de/bizer/bsbm/v01/instances/dataFromProducer20/Product921>	<http://www4.wiwiss.fu-berlin.de/bizer/bsbm/v01/instances/ProductType15>	
<http://www4.wiwiss.fu-berlin.de/bizer/bsbm/v01/instances/dataFromProducer24/Product1104>	<http://www4.wiwiss.fu-berlin.de/bizer/bsbm/v01/instances/ProductType15>	
<http://www4.wiwiss.fu-berlin.de/bizer/bsbm/v01/instances/dataFromProducer25/Product1137>	<http://www4.wiwiss.fu-berlin.de/bizer/bsbm/v01/instances/ProductType15>	
<http://www4.wiwiss.fu-berlin.de/bizer/bsbm/v01/instances/dataFromProducer25/Product1171>	<http://www4.wiwiss.fu-berlin.de/bizer/bsbm/v01/instances/ProductType15>	
<http://www4.wiwiss.fu-berlin.de/bizer/bsbm/v01/instances/dataFromProducer31/Product1414>	<http://www4.wiwiss.fu-berlin.de/bizer/bsbm/v01/instances/ProductType15>	
<http://www4.wiwiss.fu-berlin.de/bizer/bsbm/v01/instances/dataFromProducer42/Product2003>	<http://www4.wiwiss.fu-berlin.de/bizer/bsbm/v01/instances/ProductType15>	
<http://www4.wiwiss.fu-berlin.de/bizer/bsbm/v01/instances/dataFromProducer43/Product2050>	<http://www4.wiwiss.fu-berlin.de/bizer/bsbm/v01/instances/ProductType15>	
<http://www4.wiwiss.fu-berlin.de/bizer/bsbm/v01/instances/dataFromProducer43/Product2058>	<http://www4.wiwiss.fu-berlin.de/bizer/bsbm/v01/instances/ProductType15>	
<http://www4.wiwiss.fu-berlin.de/bizer/bsbm/v01/instances/dataFromProducer47/Product2221>	<http://www4.wiwiss.fu-berlin.de/bizer/bsbm/v01/instances/ProductType15>	
<http://www4.wiwiss.fu-berlin.de/bizer/bsbm/v01/instances/dataFromProducer49/Product2299>	<http://www4.wiwiss.fu-berlin.de/bizer/bsbm/v01/instances/ProductType15>	
<http://www4.wiwiss.fu-berlin.de/bizer/bsbm/v01/instances/dataFromProducer53/Product2497>	<http://www4.wiwiss.fu-berlin.de/bizer/bsbm/v01/instances/ProductType15>	
<http://www4.wiwiss.fu-berlin.de/bizer/bsbm/v01/instances/dataFromProducer58/Product2703>	<http://www4.wiwiss.fu-berlin.de/bizer/bsbm/v01/instances/ProductType15>	
<http://www4.wiwiss.fu-berlin.de/bizer/bsbm/v01/instances/dataFromProducer59/Product2726>	<http://www4.wiwiss.fu-berlin.de/bizer/bsbm/v01/instances/ProductType15>	
<http://www4.wiwiss.fu-berlin.de/bizer/bsbm/v01/instances/dataFromProducer59/Product2739>	<http://www4.wiwiss.fu-berlin.de/bizer/bsbm/v01/instances/ProductType15>	
<http://www4.wiwiss.fu-berlin.de/bizer/bsbm/v01/instances/dataFromProducer8/Product373>	<http://www4.wiwiss.fu-berlin.de/bizer/bsbm/v01/instances/ProductType68>	
<http://www4.wiwiss.fu-berlin.de/bizer/bsbm/v01/instances/dataFromProducer9/Product385>	<http://www4.wiwiss.fu-berlin.de/bizer/bsbm/v01/instances/ProductType68>	
<http://www4.wiwiss.fu-berlin.de/bizer/bsbm/v01/instances/dataFromProducer11/Product517>	<http://www4.wiwiss.fu-berlin.de/bizer/bsbm/v01/instances/ProductType68>	
<http://www4.wiwiss.fu-berlin.de/bizer/bsbm/v01/instances/dataFromProducer15/Product718>	<http://www4.wiwiss.fu-berlin.de/bizer/bsbm/v01/instances/ProductType68>	
<http://www4.wiwiss.fu-berlin.de/bizer/bsbm/v01/instances/dataFromProducer16/Product783>	<http://www4.wiwiss.fu-berlin.de/bizer/bsbm/v01/instances/ProductType68>	
<http://www4.wiwiss.fu-berlin.de/bizer/bsbm/v01/instances/dataFromProducer19/Product899>	<http://www4.wiwiss.fu-berlin.de/bizer/bsbm/v01/instances/ProductType68>	
<http://www4.wiwiss.fu-berlin.de/bizer/bsbm/v01/instances/dataFromProducer22/Product1036>	<http://www4.wiwiss.fu-berlin.de/bizer/bsbm/v01/instances/ProductType68>	
<http://www4.wiwiss.fu-berlin.de/bizer/bsbm/v01/instances/dataFromProducer33/Product1504>	<http://www4.wiwiss.fu-berlin.de/bizer/bsbm/v01/instances/ProductType68>	
<http://www4.wiwiss.fu-berlin.de/bizer/bsbm/v01/instances/dataFromProducer36/Product1593>	<http://www4.wiwiss.fu-berlin.de/bizer/bsbm/v01/instances/ProductType68>	
<http://www4.wiwiss.fu-berlin.de/bizer/bsbm/v01/instances/dataFromProducer38/Product1726>	<http://www4.wiwiss.fu-berlin.de/bizer/bsbm/v01/instances/ProductType68>	
<http://www4.wiwiss.fu-berlin.de/bizer/bsbm/v01/instances/dataFromProducer42/Product1972>	<http://www4.wiwiss.fu-berlin.de/bizer/bsbm/v01/instances/ProductType68>	
<http://www4.wiwiss.fu-berlin.de/bizer/bsbm/v01/instances/dataFromProducer42/Product1977>	<http://www4.wiwiss.fu-berlin.de/bizer/bsbm/v01/instances/ProductType68>	
<http://www4.wiwiss.fu-berlin.de/bizer/bsbm/v01/instances/dataFromProducer42/Product2019>	<http://www4.wiwiss.fu-berlin.de/bizer/bsbm/v01/instances/ProductType68>	
<http://www4.wiwiss.fu-berlin.de/bizer/bsbm/v01/instances/dataFromProducer43/Product2037>	<http://www4.wiwiss.fu-berlin.de/bizer/bsbm/v01/instances/ProductType68>	
<http://www4.wiwiss.fu-berlin.de/bizer/bsbm/v01/instances/dataFromProducer43/Product2039>	<http://www4.wiwiss.fu-berlin.de/bizer/bsbm/v01/instances/ProductType68>	
<http://www4.wiwiss.fu-berlin.de/bizer/bsbm/v01/instances/dataFromProducer46/Product2147>	<http://www4.wiwiss.fu-berlin.de/bizer/bsbm/v01/instances/ProductType68>	
<http://www4.wiwiss.fu-berlin.de/bizer/bsbm/v01/instances/dataFromProducer48/Product2277>	<http://www4.wiwiss.fu-berlin.de/bizer/bsbm/v01/instances/ProductType68>	
<http://www4.wiwiss.fu-berlin.de/bizer/bsbm/v01/instances/dataFromProducer50/Product2337>	<http://www4.wiwiss.fu-berlin.de/bizer/bsbm/v01/instances/ProductType68>	
<http://www4.wiwiss.fu-berlin.de/bizer/bsbm/v01/instances/dataFromProducer54/Product2512>	<http://www4.wiwiss.fu-berlin.de/bizer/bsbm/v01/instances/ProductType68>	
<http://www4.wiwiss.fu-berlin.de/bizer/bsbm/v01/instances/dataFromProducer2/Product80>	<http://www4.wiwiss.fu-berlin.de/bizer/bsbm/v01/instances/ProductType13>	
<http://www4.wiwiss.fu-berlin.de/bizer/bsbm/v01/instances/dataFromProducer6/Product235>	<http://www4.wiwiss.fu-berlin.de/bizer/bsbm/v01/instances/ProductType13>	
<http://www4.wiwiss.fu-berlin.de/bizer/bsbm/v01/instances/dataFromProducer11/Product510>	<http://www4.wiwiss.fu-berlin.de/bizer/bsbm/v01/instances/ProductType13>	
<http://www4.wiwiss.fu-berlin.de/bizer/bsbm/v01/instances/dataFromProducer11/Product521>	<http://www4.wiwiss.fu-berlin.de/bizer/bsbm/v01/instances/ProductType13>	
<http://www4.wiwiss.fu-berlin.de/bizer/bsbm/v01/instances/dataFromProducer17/Product799>	<http://www4.wiwiss.fu-berlin.de/bizer/bsbm/v01/instances/ProductType13>	
<http://www4.wiwiss.fu-berlin.de/bizer/bsbm/v01/instances/dataFromProducer28/Product1300>	<http://www4.wiwiss.fu-berlin.de/bizer/bsbm/v01/instances/ProductType13>	
<http://www4.wiwiss.fu-berlin.de/bizer/bsbm/v01/instances/dataFromProducer33/Product1532>	<http://www4.wiwiss.fu-berlin.de/bizer/bsbm/v01/instances/ProductType13>	
<http://www4.wiwiss.fu-berlin.de/bizer/bsbm/v01/instances/dataFromProducer37/Product1671>	<http://www4.wiwiss.fu-berlin.de/bizer/bsbm/v01/instances/ProductType13>	
<http://www4.wiwiss.fu-berlin.de/bizer/bsbm/v01/instances/dataFromProducer38/Product1716>	<http://www4.wiwiss.fu-berlin.de/bizer/bsbm/v01/instances/ProductType13>	
<http://www4.wiwiss.fu-berlin.de/bizer/bsbm/v01/instances/dataFromProducer48/Product2259>	<http://www4.wiwiss.fu-berlin.de/bizer/bsbm/v01/instances/ProductType13>	
<http://www4.wiwiss.fu-berlin.de/bizer/bsbm/v01/instances/dataFromProducer50/Product2364>	<http://www4.wiwiss.fu-berlin.de/bizer/bsbm/v01/instances/ProductType13>	
<http://www4.wiwiss.fu-berlin.de/bizer/bsbm/v01/instances/dataFromProducer51/Product2412>	<http://www4.wiwiss.fu-berlin.de/bizer/bsbm/v01/instances/ProductType13>	
<http://www4.wiwiss.fu-berlin.de/bizer/bsbm/v01/instances/dataFromProducer51/Product2449>	<http://www4.wiwiss.fu-berlin.de/bizer/bsbm/v01/instances/ProductType13>	
<http://www4.wiwiss.fu-berlin.de/bizer/bsbm/v01/instances/dataFromProducer53/Product2502>	<http://www4.wiwiss.fu-berlin.de/bizer/bsbm/v01/instances/ProductType13>	
<http://www4.wiwiss.fu-berlin.de/bizer/bsbm/v01/instances/dataFromProducer5/Product183>	<http://www4.wiwiss.fu-berlin.de/bizer/bsbm/v01/instances/ProductType59>	
<http://www4.wiwiss.fu-berlin.de/bizer/bsbm/v01/instances/dataFromProducer7/Product278>	<http://www4.wiwiss.fu-berlin.de/bizer/bsbm/v01/instances/ProductType59>	
<http://www4.wiwiss.fu-berlin.de/bizer/bsbm/v01/instances/dataFromProducer8/Product376>	<http://www4.wiwiss.fu-berlin.de/bizer/bsbm/v01/instances/ProductType59>	
<http://www4.wiwiss.fu-berlin.de/bizer/bsbm/v01/instances/dataFromProducer25/Product1147>	<http://www4.wiwiss.fu-berlin.de/bizer/bsbm/v01/instances/ProductType59>	
<http://www4.wiwiss.fu-berlin.de/bizer/bsbm/v01/instances/dataFromProducer26/Product1214>	<http://www4.wiwiss.fu-berlin.de/bizer/bsbm/v01/instances/ProductType59>	
<http://www4.wiwiss.fu-berlin.de/bizer/bsbm/v01/instances/dataFromProducer37/Product1704>	<http://www4.wiwiss.fu-berlin.de/bizer/bsbm/v01/instances/ProductType59>	
<http://www4.wiwiss.fu-berlin.de/bizer/bsbm/v01/instances/dataFromProducer40/Product1866>	<http://www4.wiwiss.fu-berlin.de/bizer/bsbm/v01/instances/ProductType59>	
<http://www4.wiwiss.fu-berlin.de/bizer/bsbm/v01/instances/dataFromProducer40/Product1873>	<http://www4.wiwiss.fu-berlin.de/bizer/bsbm/v01/instances/ProductType59>	
<http://www4.wiwiss.fu-berlin.de/bizer/bsbm/v01/instances/dataFromProducer41/Product1898>	<http://www4.wiwiss.fu-berlin.de/bizer/bsbm/v01/instances/ProductType59>	
<http://www4.wiwiss.fu-berlin.de/bizer/bsbm/v01/instances/dataFromProducer47/Product2182>	<http://www4.wiwiss.fu-berlin.de/bizer/bsbm/v01/instances/ProductType59>	
<http://www4.wiwiss.fu-berlin.de/bizer/bsbm/v01/instances/dataFromProducer55/Product2600>	<http://www4.wiwiss.fu-berlin.de/bizer/bsbm/v01/instances/ProductType59>	
<http://www4.wiwiss.fu-berlin.de/bizer/bsbm/v01/instances/dataFromProducer57/Product2627>	<http://www4.wiwiss.fu-berlin.de/bizer/bsbm/v01/instances/ProductType59>	
<http://www4.wiwiss.fu-berlin.de/bizer/bsbm/v01/instances/dataFromProducer5/Product183>	<http://www4.wiwiss.fu-berlin.de/bizer/bsbm/v01/instances/ProductType9>	
<http://www4.wiwiss.fu-berlin.de/bizer/bsbm/v01/instances/dataFromProducer7/Product278>	<http://www4.wiwiss.fu-berlin.de/bizer/bsbm/v01/instances/ProductType9>	
<http://www4.wiwiss.fu-berlin.de/bizer/bsbm/v01/instances/dataFromProducer8/Product376>	<http://www4.wiwiss.fu-berlin.de/bizer/bsbm/v01/instances/ProductType9>	
<http://www4.wiwiss.fu-berlin.de/bizer/bsbm/v01/instances/dataFromProducer25/Product1147>	<http://www4.wiwiss.fu-berlin.de/bizer/bsbm/v01/instances/ProductType9>	
<http://www4.wiwiss.fu-berlin.de/bizer/bsbm/v01/instances/dataFromProducer26/Product1214>	<http://www4.wiwiss.fu-berlin.de/bizer/bsbm/v01/instances/ProductType9>	
<http://www4.wiwiss.fu-berlin.de/bizer/bsbm/v01/instances/dataFromProducer37/Product1704>	<http://www4.wiwiss.fu-berlin.de/bizer/bsbm/v01/instances/ProductType9>	
<http://www4.wiwiss.fu-berlin.de/bizer/bsbm/v01/instances/dataFromProducer40/Product1866>	<http://www4.wiwiss.fu-berlin.de/bizer/bsbm/v01/instances/ProductType9>	
<http://www4.wiwiss.fu-berlin.de/bizer/bsbm/v01/instances/dataFromProducer40/Product1873>	<http://www4.wiwiss.fu-berlin.de/bizer/bsbm/v01/instances/ProductType9>	
<http://www4.wiwiss.fu-berlin.de/bizer/bsbm/v01/instances/dataFromProducer41/Product1898>	<http://www4.wiwiss.fu-berlin.de/bizer/bsbm/v01/instances/ProductType9>	
<http://www4.wiwiss.fu-berlin.de/bizer/bsbm/v01/instances/dataFromProducer47/Product2182>	<http://www4.wiwiss.fu-berlin.de/bizer/bsbm/v01/instances/ProductType9>	
<http://www4.wiwiss.fu-berlin.de/bizer/bsbm/v01/instances/dataFromProducer55/Product2600>	<http://www4.wiwiss.fu-berlin.de/bizer/bsbm/v01/instances/ProductType9>	
<http://www4.wiwiss.fu-berlin.de/bizer/bsbm/v01/instances/dataFromProducer57/Product2627>	<http://www4.wiwiss.fu-berlin.de/bizer/bsbm/v01/instances/ProductType9>	
<http://www4.wiwiss.fu-berlin.de/bizer/bsbm/v01/instances/dataFromProducer7/Product313>	<http://www4.wiwiss.fu-berlin.de/bizer/bsbm/v01/instances/ProductType61>	
<http://www4.wiwiss.fu-berlin.de/bizer/bsbm/v01/instances/dataFromProducer16/Product733>	<http://www4.wiwiss.fu-berlin.de/bizer/bsbm/v01/instances/ProductType61>	
<http://www4.wiwiss.fu-berlin.de/bizer/bsbm/v01/instances/dataFromProducer16/Product769>	<http://www4.wiwiss.fu-berlin.de/bizer/bsbm/v01/instances/ProductType61>	
<http://www4.wiwiss.fu-berlin.de/bizer/bsbm/v01/instances/dataFromProducer21/Product973>	<http://www4.wiwiss.fu-berlin.de/bizer/bsbm/v01/instances/ProductType61>	
<http://www4.wiwiss.fu-berlin.de/bizer/bsbm/v01/instances/dataFromProducer23/Product1057>	<http://www4.wiwiss.fu-berlin.de/bizer/bsbm/v01/instances/ProductType61>	
<http://www4.wiwiss.fu-berlin.de/bizer/bsbm/v01/instances/dataFromProducer30/Product1354>	<http://www4.wiwiss.fu-berlin.de/bizer/bsbm/v01/instances/ProductType61>	
<http://www4.wiwiss.fu-berlin.de/bizer/bsbm/v01/instances/dataFromProducer30/Product1375>	<http://www4.wiwiss.fu-berlin.de/bizer/bsbm/v01/instances/ProductType61>	
<http://www4.wiwiss.fu-berlin.de/bizer/bsbm/v01/instances/dataFromProducer40/Product1824>	<http://www4.wiwiss.fu-berlin.de/bizer/bsbm/v01/instances/ProductType61>	
<http://www4.wiwiss.fu-berlin.de/bizer/bsbm/v01/instances/dataFromProducer40/Product1847>	<http://www4.wiwiss.fu-berlin.de/bizer/bsbm/v01/instances/ProductType61>	
<http://www4.wiwiss.fu-berlin.de/bizer/bsbm/v01/instances/dataFromProducer43/Product2027>	<http://www4.wiwiss.fu-berlin.de/bizer/bsbm/v01/instances/ProductType61>	
<http://www4.wiwiss.fu-berlin.de/bizer/bsbm/v01/instances/dataFromProducer45/Product2144>	<http://www4.wiwiss.fu-berlin.de/bizer/bsbm/v01/instances/ProductType61>	
<http://www4.wiwiss.fu-berlin.de/bizer/bsbm/v01/instances/dataFromProducer48/Product2272>	<http://www4.wiwiss.fu-berlin.de/bizer/bsbm/v01/instances/ProductType61>	
<http://www4.wiwiss.fu-berlin.de/bizer/bsbm/v01/instances/dataFromProducer51/Product2421>	<http://www4.wiwiss.fu-berlin.de/bizer/bsbm/v01/instances/ProductType61>	
<http://www4.wiwiss.fu-berlin.de/bizer/bsbm/v01/instances/dataFromProducer53/Product2482>	<http://www4.wiwiss.fu-berlin.de/bizer/bsbm/v01/instances/ProductType61>	
<http://www4.wiwiss.fu-berlin.de/bizer/bsbm/v01/instances/dataFromProducer54/Product2520>	<http://www4.wiwiss.fu-berlin.de/bizer/bsbm/v01/instances/ProductType61>	
<http://www4.wiwiss.fu-berlin.de/bizer/bsbm/v01/instances/dataFromProducer55/Product2593>	<http://www4.wiwiss.fu-berlin.de/bizer/bsbm/v01/instances/ProductType61>	
<http://www4.wiwiss.fu-berlin.de/bizer/bsbm/v01/instances/dataFromProducer60/Product2787>	<http://www4.wiwiss.fu-berlin.de/bizer/bsbm/v01/instances/ProductType61>	
<http://www4.wiwiss.fu-berlin.de/bizer/bsbm/v01/instances/dataFromProducer15/Product709>	<http://www4.wiwiss.fu-berlin.de/bizer/bsbm/v01/instances/ProductType58>	
<http://www4.wiwiss.fu-berlin.de/bizer/bsbm/v01/instances/dataFromProducer16/Product767>	<http://www4.wiwiss.fu-berlin.de/bizer/bsbm/v01/instances/ProductType58>	
<http://www4.wiwiss.fu-berlin.de/bizer/bsbm/v01/instances/dataFromProducer20/Product915>	<http://www4.wiwiss.fu-berlin.de/bizer/bsbm/v01/instances/ProductType58>	
<http://www4.wiwiss.fu-berlin.de/bizer/bsbm/v01/instances/dataFromProducer36/Product1610>	<http://www4.wiwiss.fu-berlin.de/bizer/bsbm/v01/instances/ProductType58>	
<http://www4.wiwiss.fu-berlin.de/bizer/bsbm/v01/instances/dataFromProducer37/Product1646>	<http://www4.wiwiss.fu-berlin.de/bizer/bsbm/v01/instances/ProductType58>	
<http://www4.wiwiss.fu-berlin.de/bizer/bsbm/v01/instances/dataFromProducer46/Product2163>	<http://www4.wiwiss.fu-berlin.de/bizer/bsbm/v01/instances/ProductType58>	
<http://www4.wiwiss.fu-berlin.de/bizer/bsbm/v01/instances/dataFromProducer49/Product2288>	<http://www4.wiwiss.fu-berlin.de/bizer/bsbm/v01/instances/ProductType58>	
<http://www4.wiwiss.fu-berlin.de/bizer/bsbm/v01/instances/dataFromProducer55/Product2577>	<http://www4.wiwiss.fu-berlin.de/bizer/bsbm/v01/instances/ProductType58>	
<http://www4.wiwiss.fu-berlin.de/bizer/bsbm/v01/instances/dataFromProducer61/Product2809>	<http://www4.wiwiss.fu-berlin.de/bizer/bsbm/v01/instances/ProductType58>	
<http://www4.wiwiss.fu-berlin.de/bizer/bsbm/v01/instances/dataFromProducer1/Product19>	<http://www4.wiwiss.fu-berlin.de/bizer/bsbm/v01/instances/ProductType10>	
<http://www4.wiwiss.fu-berlin.de/bizer/bsbm/v01/instances/dataFromProducer6/Product233>	<http://www4.wiwiss.fu-berlin.de/bizer/bsbm/v01/instances/ProductType10>	
<http://www4.wiwiss.fu-berlin.de/bizer/bsbm/v01/instances/dataFromProducer9/Product445>	<http://www4.wiwiss.fu-berlin.de/bizer/bsbm/v01/instances/ProductType10>	
<http://www4.wiwiss.fu-berlin.de/bizer/bsbm/v01/instances/dataFromProducer13/Product594>	<http://www4.wiwiss.fu-berlin.de/bizer/bsbm/v01/instances/ProductType10>	
<http://www4.wiwiss.fu-berlin.de/bizer/bsbm/v01/instances/dataFromProducer14/Product645>	<http://www4.wiwiss.fu-berlin.de/bizer/bsbm/v01/instances/ProductType10>	
<http://www4.wiwiss.fu-berlin.de/bizer/bsbm/v01/instances/dataFromProducer16/Product748>	<http://www4.wiwiss.fu-berlin.de/bizer/bsbm/v01/instances/ProductType10>	
<http://www4.wiwiss.fu-berlin.de/bizer/bsbm/v01/instances/dataFromProducer16/Product785>	<http://www4.wiwiss.fu-berlin.de/bizer/bsbm/v01/instances/ProductType10>	
<http://www4.wiwiss.fu-berlin.de/bizer/bsbm/v01/instances/dataFromProducer18/Product837>	<http://www4.wiwiss.fu-berlin.de/bizer/bsbm/v01/instances/ProductType10>	
<http://www4.wiwiss.fu-berlin.de/bizer/bsbm/v01/instances/dataFromProducer33/Product1519>	<http://www4.wiwiss.fu-berlin.de/bizer/bsbm/v01/instances/ProductType10>	
<http://www4.wiwiss.fu-berlin.de/bizer/bsbm/v01/instances/dataFromProducer39/Product1760>	<http://www4.wiwiss.fu-berlin.de/bizer/bsbm/v01/instances/ProductType10>	
<http://www4.wiwiss.fu-berlin.de/bizer/bsbm/v01/instances/dataFromProducer39/Product1814>	<http://www4.wiwiss.fu-berlin.de/bizer/bsbm/v01/instances/ProductType10>	
<http://www4.wiwiss.fu-berlin.de/bizer/bsbm/v01/instances/dataFromProducer42/Product1971>	<http://www4.wiwiss.fu-berlin.de/bizer/bsbm/v01/instances/ProductType10>	
<http://www4.wiwiss.fu-berlin.de/bizer/bsbm/v01/instances/dataFromProducer42/Product1975>	<http://www4.wiwiss.fu-berlin.de/bizer/bsbm/v01/instances/ProductType10>	
<http://www4.wiwiss.fu-berlin.de/bizer/bsbm/v01/instances/dataFromProducer50/Product2323>	<http://www4.wiwiss.fu-berlin.de/bizer/bsbm/v01/instances/ProductType10>	
<http://www4.wiwiss.fu-berlin.de/bizer/bsbm/v01/instances/dataFromProducer51/Product2429>	<http://www4.wiwiss.fu-berlin.de/bizer/bsbm/v01/instances/ProductType10>	
<http://www4.wiwiss.fu-berlin.de/bizer/bsbm/v01/instances/dataFromProducer60/Product2780>	<http://www4.wiwiss.fu-berlin.de/bizer/bsbm/v01/instances/ProductType10>	
<http://www4.wiwiss.fu-berlin.de/bizer/bsbm/v01/instances/dataFromProducer3/Product106>	<http://www4.wiwiss.fu-berlin.de/bizer/bsbm/v01/instances/ProductType70>	
<http://www4.wiwiss.fu-berlin.de/bizer/bsbm/v01/instances/dataFromProducer5/Product204>	<http://www4.wiwiss.fu-berlin.de/bizer/bsbm/v01/instances/ProductType70>	
<http://www4.wiwiss.fu-berlin.de/bizer/bsbm/v01/instances/dataFromProducer20/Product921>	<http://www4.wiwiss.fu-berlin.de/bizer/bsbm/v01/instances/ProductType70>	
<http://www4.wiwiss.fu-berlin.de/bizer/bsbm/v01/instances/dataFromProducer24/Product1104>	<http://www4.wiwiss.fu-berlin.de/bizer/bsbm/v01/instances/ProductType70>	
<http://www4.wiwiss.fu-berlin.de/bizer/bsbm/v01/instances/dataFromProducer25/Product1137>	<http://www4.wiwiss.fu-berlin.de/bizer/bsbm/v01/instances/ProductType70>	
<http://www4.wiwiss.fu-berlin.de/bizer/bsbm/v01/instances/dataFromProducer25/Product1171>	<http://www4.wiwiss.fu-berlin.de/bizer/bsbm/v01/instances/ProductType70>	
<http://www4.wiwiss.fu-berlin.de/bizer/bsbm/v01/instances/dataFromProducer31/Product1414>	<http://www4.wiwiss.fu-berlin.de/bizer/bsbm/v01/instances/ProductType70>	
<http://www4.wiwiss.fu-berlin.de/bizer/bsbm/v01/instances/dataFromProducer42/Product2003>	<http://www4.wiwiss.fu-berlin.de/bizer/bsbm/v01/instances/ProductType70>	
<http://www4.wiwiss.fu-berlin.de/bizer/bsbm/v01/instances/dataFromProducer43/Product2050>	<http://www4.wiwiss.fu-berlin.de/bizer/bsbm/v01/instances/ProductType70>	
<http://www4.wiwiss.fu-berlin.de/bizer/bsbm/v01/instances/dataFromProducer43/Product2058>	<http://www4.wiwiss.fu-berlin.de/bizer/bsbm/v01/instances/ProductType70>	
<http://www4.wiwiss.fu-berlin.de/bizer/bsbm/v01/instances/dataFromProducer47/Product2221>	<http://www4.wiwiss.fu-berlin.de/bizer/bsbm/v01/instances/ProductType70>	
<http://www4.wiwiss.fu-berlin.de/bizer/bsbm/v01/instances/dataFromProducer49/Product2299>	<http://www4.wiwiss.fu-berlin.de/bizer/bsbm/v01/instances/ProductType70>	
<http://www4.wiwiss.fu-berlin.de/bizer/bsbm/v01/instances/dataFromProducer53/Product2497>	<http://www4.wiwiss.fu-berlin.de/bizer/bsbm/v01/instances/ProductType70>	
<http://www4.wiwiss.fu-berlin.de/bizer/bsbm/v01/instances/dataFromProducer58/Product2703>	<http://www4.wiwiss.fu-berlin.de/bizer/bsbm/v01/instances/ProductType70>	
<http://www4.wiwiss.fu-berlin.de/bizer/bsbm/v01/instances/dataFromProducer59/Product2726>	<http://www4.wiwiss.fu-berlin.de/bizer/bsbm/v01/instances/ProductType70>	
<http://www4.wiwiss.fu-berlin.de/bizer/bsbm/v01/instances/dataFromProducer59/Product2739>	<http://www4.wiwiss.fu-berlin.de/bizer/bsbm/v01/instances/ProductType70>	
<http://www4.wiwiss.fu-berlin.de/bizer/bsbm/v01/instances/dataFromProducer15/Product709>	<http://www4.wiwiss.fu-berlin.de/bizer/bsbm/v01/instances/ProductType9>	
<http://www4.wiwiss.fu-berlin.de/bizer/bsbm/v01/instances/dataFromProducer16/Product767>	<http://www4.wiwiss.fu-berlin.de/bizer/bsbm/v01/instances/ProductType9>	
<http://www4.wiwiss.fu-berlin.de/bizer/bsbm/v01/instances/dataFromProducer20/Product915>	<http://www4.wiwiss.fu-berlin.de/bizer/bsbm/v01/instances/ProductType9>	
<http://www4.wiwiss.fu-berlin.de/bizer/bsbm/v01/instances/dataFromProducer36/Product1610>	<http://www4.wiwiss.fu-berlin.de/bizer/bsbm/v01/instances/ProductType9>	
<http://www4.wiwiss.fu-berlin.de/bizer/bsbm/v01/instances/dataFromProducer37/Product1646>	<http://www4.wiwiss.fu-berlin.de/bizer/bsbm/v01/instances/ProductType9>	
<http://www4.wiwiss.fu-berlin.de/bizer/bsbm/v01/instances/dataFromProducer46/Product2163>	<http://www4.wiwiss.fu-berlin.de/bizer/bsbm/v01/instances/ProductType9>	
<http://www4.wiwiss.fu-berlin.de/bizer/bsbm/v01/instances/dataFromProducer49/Product2288>	<http://www4.wiwiss.fu-berlin.de/bizer/bsbm/v01/instances/ProductType9>	
<http://www4.wiwiss.fu-berlin.de/bizer/bsbm/v01/instances/dataFromProducer55/Product2577>	<http://www4.wiwiss.fu-berlin.de/bizer/bsbm/v01/instances/ProductType9>	
<http://www4.wiwiss.fu-berlin.de/bizer/bsbm/v01/instances/dataFromProducer61/Product2809>	<http://www4.wiwiss.fu-berlin.de/bizer/bsbm/v01/instances/ProductType9>	
<http://www4.wiwiss.fu-berlin.de/bizer/bsbm/v01/instances/dataFromProducer5/Product191>	<http://www4.wiwiss.fu-berlin.de/bizer/bsbm/v01/instances/ProductType11>	
<http://www4.wiwiss.fu-berlin.de/bizer/bsbm/v01/instances/dataFromProducer6/Product267>	<http://www4.wiwiss.fu-berlin.de/bizer/bsbm/v01/instances/ProductType11>	
<http://www4.wiwiss.fu-berlin.de/bizer/bsbm/v01/instances/dataFromProducer12/Product563>	<http://www4.wiwiss.fu-berlin.de/bizer/bsbm/v01/instances/ProductType11>	
<http://www4.wiwiss.fu-berlin.de/bizer/bsbm/v01/instances/dataFromProducer22/Product1011>	<http://www4.wiwiss.fu-berlin.de/bizer/bsbm/v01/instances/ProductType11>	
<http://www4.wiwiss.fu-berlin.de/bizer/bsbm/v01/instances/dataFromProducer25/Product1149>	<http://www4.wiwiss.fu-berlin.de/bizer/bsbm/v01/instances/ProductType11>	
<http://www4.wiwiss.fu-berlin.de/bizer/bsbm/v01/instances/dataFromProducer28/Product1287>	<http://www4.wiwiss.fu-berlin.de/bizer/bsbm/v01/instances/ProductType11>	
<http://www4.wiwiss.fu-berlin.de/bizer/bsbm/v01/instances/dataFromProducer28/Product1297>	<http://www4.wiwiss.fu-berlin.de/bizer/bsbm/v01/instances/ProductType11>	
<http://www4.wiwiss.fu-berlin.de/bizer/bsbm/v01/instances/dataFromProducer30/Product1374>	<http://www4.wiwiss.fu-berlin.de/bizer/bsbm/v01/instances/ProductType11>	
<http://www4.wiwiss.fu-berlin.de/bizer/bsbm/v01/instances/dataFromProducer33/Product1500>	<http://www4.wiwiss.fu-berlin.de/bizer/bsbm/v01/instances/ProductType11>	
<http://www4.wiwiss.fu-berlin.de/bizer/bsbm/v01/instances/dataFromProducer35/Product1565>	<http://www4.wiwiss.fu-berlin.de/bizer/bsbm/v01/instances/ProductType11>	
<http://www4.wiwiss.fu-berlin.de/bizer/bsbm/v01/instances/dataFromProducer38/Product1738>	<http://www4.wiwiss.fu-berlin.de/bizer/bsbm/v01/instances/ProductType11>	
<http://www4.wiwiss.fu-berlin.de/bizer/bsbm/v01/instances/dataFromProducer39/Product1786>	<http://www4.wiwiss.fu-berlin.de/bizer/bsbm/v01/instances/ProductType11>	
<http://www4.wiwiss.fu-berlin.de/bizer/bsbm/v01/instances/dataFromProducer41/Product1921>	<http://www4.wiwiss.fu-berlin.de/bizer/bsbm/v01/instances/ProductType11>	
<http://www4.wiwiss.fu-berlin.de/bizer/bsbm/v01/instances/dataFromProducer50/Product2339>	<http://www4.wiwiss.fu-berlin.de/bizer/bsbm/v01/instances/ProductType11>	
<http://www4.wiwiss.fu-berlin.de/bizer/bsbm/v01/instances/dataFromProducer54/Product2510>	<http://www4.wiwiss.fu-berlin.de/bizer/bsbm/v01/instances/ProductType11>	
<http://www4.wiwiss.fu-berlin.de/bizer/bsbm/v01/instances/dataFromProducer54/Product2530>	<http://www4.wiwiss.fu-berlin.de/bizer/bsbm/v01/instances/ProductType11>	
<http://www4.wiwiss.fu-berlin.de/bizer/bsbm/v01/instances/dataFromProducer55/Product2604>	<http://www4.wiwiss.fu-berlin.de/bizer/bsbm/v01/instances/ProductType11>	
<http://www4.wiwiss.fu-berlin.de/bizer/bsbm/v01/instances/dataFromProducer7/Product313>	<http://www4.wiwiss.fu-berlin.de/bizer/bsbm/v01/instances/ProductType10>	
<http://www4.wiwiss.fu-berlin.de/bizer/bsbm/v01/instances/dataFromProducer16/Product733>	<http://www4.wiwiss.fu-berlin.de/bizer/bsbm/v01/instances/ProductType10>	
<http://www4.wiwiss.fu-berlin.de/bizer/bsbm/v01/instances/dataFromProducer16/Product769>	<http://www4.wiwiss.fu-berlin.de/bizer/bsbm/v01/instances/ProductType10>	
<http://www4.wiwiss.fu-berlin.de/bizer/bsbm/v01/instances/dataFromProducer21/Product973>	<http://www4.wiwiss.fu-berlin.de/bizer/bsbm/v01/instances/ProductType10>	
<http://www4.wiwiss.fu-berlin.de/bizer/bsbm/v01/instances/dataFromProducer23/Product1057>	<http://www4.wiwiss.fu-berlin.de/bizer/bsbm/v01/instances/ProductType10>	
<http://www4.wiwiss.fu-berlin.de/bizer/bsbm/v01/instances/dataFromProducer30/Product1354>	<http://www4.wiwiss.fu-berlin.de/bizer/bsbm/v01/instances/ProductType10>	
<http://www4.wiwiss.fu-berlin.de/bizer/bsbm/v01/instances/dataFromProducer30/Product1375>	<http://www4.wiwiss.fu-berlin.de/bizer/bsbm/v01/instances/ProductType10>	
<http://www4.wiwiss.fu-berlin.de/bizer/bsbm/v01/instances/dataFromProducer40/Product1824>	<http://www4.wiwiss.fu-berlin.de/bizer/bsbm/v01/instances/ProductType10>	
<http://www4.wiwiss.fu-berlin.de/bizer/bsbm/v01/instances/dataFromProducer40/Product1847>	<http://www4.wiwiss.fu-berlin.de/bizer/bsbm/v01/instances/ProductType10>	
<http://www4.wiwiss.fu-berlin.de/bizer/bsbm/v01/instances/dataFromProducer43/Product2027>	<http://www4.wiwiss.fu-berlin.de/bizer/bsbm/v01/instances/ProductType10>	
<http://www4.wiwiss.fu-berlin.de/bizer/bsbm/v01/instances/dataFromProducer45/Product2144>	<http://www4.wiwiss.fu-berlin.de/bizer/bsbm/v01/instances/ProductType10>	
<http://www4.wiwiss.fu-berlin.de/bizer/bsbm/v01/instances/dataFromProducer48/Product2272>	<http://www4.wiwiss.fu-berlin.de/bizer/bsbm/v01/instances/ProductType10>	
<http://www4.wiwiss.fu-berlin.de/bizer/bsbm/v01/instances/dataFromProducer51/Product2421>	<http://www4.wiwiss.fu-berlin.de/bizer/bsbm/v01/instances/ProductType10>	
<http://www4.wiwiss.fu-berlin.de/bizer/bsbm/v01/instances/dataFromProducer53/Product2482>	<http://www4.wiwiss.fu-berlin.de/bizer/bsbm/v01/instances/ProductType10>	
<http://www4.wiwiss.fu-berlin.de/bizer/bsbm/v01/instances/dataFromProducer54/Product2520>	<http://www4.wiwiss.fu-berlin.de/bizer/bsbm/v01/instances/ProductType10>	
<http://www4.wiwiss.fu-berlin.de/bizer/bsbm/v01/instances/dataFromProducer55/Product2593>	<http://www4.wiwiss.fu-berlin.de/bizer/bsbm/v01/instances/ProductType10>	
<http://www4.wiwiss.fu-berlin.de/bizer/bsbm/v01/instances/dataFromProducer60/Product2787>	<http://www4.wiwiss.fu-berlin.de/bizer/bsbm/v01/instances/ProductType10>	
<http://www4.wiwiss.fu-berlin.de/bizer/bsbm/v01/instances/dataFromProducer5/Product202>	<http://www4.wiwiss.fu-berlin.de/bizer/bsbm/v01/instances/ProductType11>	
<http://www4.wiwiss.fu-berlin.de/bizer/bsbm/v01/instances/dataFromProducer6/Product271>	<http://www4.wiwiss.fu-berlin.de/bizer/bsbm/v01/instances/ProductType11>	
<http://www4.wiwiss.fu-berlin.de/bizer/bsbm/v01/instances/dataFromProducer10/Product470>	<http://www4.wiwiss.fu-berlin.de/bizer/bsbm/v01/instances/ProductType11>	
<http://www4.wiwiss.fu-berlin.de/bizer/bsbm/v01/instances/dataFromProducer35/Product1569>	<http://www4.wiwiss.fu-berlin.de/bizer/bsbm/v01/instances/ProductType11>	
<http://www4.wiwiss.fu-berlin.de/bizer/bsbm/v01/instances/dataFromProducer41/Product1911>	<http://www4.wiwiss.fu-berlin.de/bizer/bsbm/v01/instances/ProductType11>	
<http://www4.wiwiss.fu-berlin.de/bizer/bsbm/v01/instances/dataFromProducer57/Product2642>	<http://www4.wiwiss.fu-berlin.de/bizer/bsbm/v01/instances/ProductType11>	
<http://www4.wiwiss.fu-berlin.de/bizer/bsbm/v01/instances/dataFromProducer1/Product12>	<http://www4.wiwiss.fu-berlin.de/bizer/bsbm/v01/instances/ProductType56>	
<http://www4.wiwiss.fu-berlin.de/bizer/bsbm/v01/instances/dataFromProducer11/Product530>	<http://www4.wiwiss.fu-berlin.de/bizer/bsbm/v01/instances/ProductType56>	
<http://www4.wiwiss.fu-berlin.de/bizer/bsbm/v01/instances/dataFromProducer12/Product545>	<http://www4.wiwiss.fu-berlin.de/bizer/bsbm/v01/instances/ProductType56>	
<http://www4.wiwiss.fu-berlin.de/bizer/bsbm/v01/instances/dataFromProducer27/Product1252>	<http://www4.wiwiss.fu-berlin.de/bizer/bsbm/v01/instances/ProductType56>	
<http://www4.wiwiss.fu-berlin.de/bizer/bsbm/v01/instances/dataFromProducer27/Product1255>	<http://www4.wiwiss.fu-berlin.de/bizer/bsbm/v01/instances/ProductType56>	
<http://www4.wiwiss.fu-berlin.de/bizer/bsbm/v01/instances/dataFromProducer30/Product1363>	<http://www4.wiwiss.fu-berlin.de/bizer/bsbm/v01/instances/ProductType56>	
<http://www4.wiwiss.fu-berlin.de/bizer/bsbm/v01/instances/dataFromProducer36/Product1606>	<http://www4.wiwiss.fu-berlin.de/bizer/bsbm/v01/instances/ProductType56>	
<http://www4.wiwiss.fu-berlin.de/bizer/bsbm/v01/instances/dataFromProducer36/Product1613>	<http://www4.wiwiss.fu-berlin.de/bizer/bsbm/v01/instances/ProductType56>	
<http://www4.wiwiss.fu-berlin.de/bizer/bsbm/v01/instances/dataFromProducer37/Product1660>	<http://www4.wiwiss.fu-berlin.de/bizer/bsbm/v01/instances/ProductType56>	
<http://www4.wiwiss.fu-berlin.de/bizer/bsbm/v01/instances/dataFromProducer39/Product1789>	<http://www4.wiwiss.fu-berlin.de/bizer/bsbm/v01/instances/ProductType56>	
<http://www4.wiwiss.fu-berlin.de/bizer/bsbm/v01/instances/dataFromProducer49/Product2285>	<http://www4.wiwiss.fu-berlin.de/bizer/bsbm/v01/instances/ProductType56>	
<http://www4.wiwiss.fu-berlin.de/bizer/bsbm/v01/instances/dataFromProducer59/Product2767>	<http://www4.wiwiss.fu-berlin.de/bizer/bsbm/v01/instances/ProductType56>	
<http://www4.wiwiss.fu-berlin.de/bizer/bsbm/v01/instances/dataFromProducer6/Product236>	<http://www4.wiwiss.fu-berlin.de/bizer/bsbm/v01/instances/ProductType14>	
<http://www4.wiwiss.fu-berlin.de/bizer/bsbm/v01/instances/dataFromProducer7/Product312>	<http://www4.wiwiss.fu-berlin.de/bizer/bsbm/v01/instances/ProductType14>	
<http://www4.wiwiss.fu-berlin.de/bizer/bsbm/v01/instances/dataFromProducer12/Product549>	<http://www4.wiwiss.fu-berlin.de/bizer/bsbm/v01/instances/ProductType14>	
<http://www4.wiwiss.fu-berlin.de/bizer/bsbm/v01/instances/dataFromProducer14/Product657>	<http://www4.wiwiss.fu-berlin.de/bizer/bsbm/v01/instances/ProductType14>	
<http://www4.wiwiss.fu-berlin.de/bizer/bsbm/v01/instances/dataFromProducer22/Product1022>	<http://www4.wiwiss.fu-berlin.de/bizer/bsbm/v01/instances/ProductType14>	
<http://www4.wiwiss.fu-berlin.de/bizer/bsbm/v01/instances/dataFromProducer28/Product1295>	<http://www4.wiwiss.fu-berlin.de/bizer/bsbm/v01/instances/ProductType14>	
<http://www4.wiwiss.fu-berlin.de/bizer/bsbm/v01/instances/dataFromProducer28/Product1307>	<http://www4.wiwiss.fu-berlin.de/bizer/bsbm/v01/instances/ProductType14>	
<http://www4.wiwiss.fu-berlin.de/bizer/bsbm/v01/instances/dataFromProducer32/Product1459>	<http://www4.wiwiss.fu-berlin.de/bizer/bsbm/v01/instances/ProductType14>	
<http://www4.wiwiss.fu-berlin.de/bizer/bsbm/v01/instances/dataFromProducer33/Product1493>	<http://www4.wiwiss.fu-berlin.de/bizer/bsbm/v01/instances/ProductType14>	
<http://www4.wiwiss.fu-berlin.de/bizer/bsbm/v01/instances/dataFromProducer39/Product1767>	<http://www4.wiwiss.fu-berlin.de/bizer/bsbm/v01/instances/ProductType14>	
<http://www4.wiwiss.fu-berlin.de/bizer/bsbm/v01/instances/dataFromProducer48/Product2226>	<http://www4.wiwiss.fu-berlin.de/bizer/bsbm/v01/instances/ProductType14>	
<http://www4.wiwiss.fu-berlin.de/bizer/bsbm/v01/instances/dataFromProducer51/Product2425>	<http://www4.wiwiss.fu-berlin.de/bizer/bsbm/v01/instances/ProductType14>	
<http://www4.wiwiss.fu-berlin.de/bizer/bsbm/v01/instances/dataFromProducer51/Product2436>	<http://www4.wiwiss.fu-berlin.de/bizer/bsbm/v01/instances/ProductType14>	
<http://www4.wiwiss.fu-berlin.de/bizer/bsbm/v01/instances/dataFromProducer2/Product78>	<http://www4.wiwiss.fu-berlin.de/bizer/bsbm/v01/instances/ProductType67>	
<http://www4.wiwiss.fu-berlin.de/bizer/bsbm/v01/instances/dataFromProducer6/Product211>	<http://www4.wiwiss.fu-berlin.de/bizer/bsbm/v01/instances/ProductType67>	
<http://www4.wiwiss.fu-berlin.de/bizer/bsbm/v01/instances/dataFromProducer10/Product469>	<http://www4.wiwiss.fu-berlin.de/bizer/bsbm/v01/instances/ProductType67>	
<http://www4.wiwiss.fu-berlin.de/bizer/bsbm/v01/instances/dataFromProducer13/Product633>	<http://www4.wiwiss.fu-berlin.de/bizer/bsbm/v01/instances/ProductType67>	
<http://www4.wiwiss.fu-berlin.de/bizer/bsbm/v01/instances/dataFromProducer31/Product1416>	<http://www4.wiwiss.fu-berlin.de/bizer/bsbm/v01/instances/ProductType67>	
<http://www4.wiwiss.fu-berlin.de/bizer/bsbm/v01/instances/dataFromProducer32/Product1465>	<http://www4.wiwiss.fu-berlin.de/bizer/bsbm/v01/instances/ProductType67>	
<http://www4.wiwiss.fu-berlin.de/bizer/bsbm/v01/instances/dataFromProducer41/Product1886>	<http://www4.wiwiss.fu-berlin.de/bizer/bsbm/v01/instances/ProductType67>	
<http://www4.wiwiss.fu-berlin.de/bizer/bsbm/v01/instances/dataFromProducer42/Product1954>	<http://www4.wiwiss.fu-berlin.de/bizer/bsbm/v01/instances/ProductType67>	
<http://www4.wiwiss.fu-berlin.de/bizer/bsbm/v01/instances/dataFromProducer1/Product12>	<http://www4.wiwiss.fu-berlin.de/bizer/bsbm/v01/instances/ProductType8>	
<http://www4.wiwiss.fu-berlin.de/bizer/bsbm/v01/instances/dataFromProducer11/Product530>	<http://www4.wiwiss.fu-berlin.de/bizer/bsbm/v01/instances/ProductType8>	
<http://www4.wiwiss.fu-berlin.de/bizer/bsbm/v01/instances/dataFromProducer12/Product545>	<http://www4.wiwiss.fu-berlin.de/bizer/bsbm/v01/instances/ProductType8>	
<http://www4.wiwiss.fu-berlin.de/bizer/bsbm/v01/instances/dataFromProducer27/Product1252>	<http://www4.wiwiss.fu-berlin.de/bizer/bsbm/v01/instances/ProductType8>	
<http://www4.wiwiss.fu-berlin.de/bizer/bsbm/v01/instances/dataFromProducer27/Product1255>	<http://www4.wiwiss.fu-berlin.de/bizer/bsbm/v01/instances/ProductType8>	
<http://www4.wiwiss.fu-berlin.de/bizer/bsbm/v01/instances/dataFromProducer30/Product1363>	<http://www4.wiwiss.fu-berlin.de/bizer/bsbm/v01/instances/ProductType8>	
<http://www4.wiwiss.fu-berlin.de/bizer/bsbm/v01/instances/dataFromProducer36/Product1606>	<http://www4.wiwiss.fu-berlin.de/bizer/bsbm/v01/instances/ProductType8>	
<http://www4.wiwiss.fu-berlin.de/bizer/bsbm/v01/instances/dataFromProducer36/Product1613>	<http://www4.wiwiss.fu-berlin.de/bizer/bsbm/v01/instances/ProductType8>	
<http://www4.wiwiss.fu-berlin.de/bizer/bsbm/v01/instances/dataFromProducer37/Product1660>	<http://www4.wiwiss.fu-berlin.de/bizer/bsbm/v01/instances/ProductType8>	
<http://www4.wiwiss.fu-berlin.de/bizer/bsbm/v01/instances/dataFromProducer39/Product1789>	<http://www4.wiwiss.fu-berlin.de/bizer/bsbm/v01/instances/ProductType8>	
<http://www4.wiwiss.fu-berlin.de/bizer/bsbm/v01/instances/dataFromProducer49/Product2285>	<http://www4.wiwiss.fu-berlin.de/bizer/bsbm/v01/instances/ProductType8>	
<http://www4.wiwiss.fu-berlin.de/bizer/bsbm/v01/instances/dataFromProducer59/Product2767>	<http://www4.wiwiss.fu-berlin.de/bizer/bsbm/v01/instances/ProductType8>	
<http://www4.wiwiss.fu-berlin.de/bizer/bsbm/v01/instances/dataFromProducer3/Product99>	<http://www4.wiwiss.fu-berlin.de/bizer/bsbm/v01/instances/ProductType15>	
<http://www4.wiwiss.fu-berlin.de/bizer/bsbm/v01/instances/dataFromProducer13/Product583>	<http://www4.wiwiss.fu-berlin.de/bizer/bsbm/v01/instances/ProductType15>	
<http://www4.wiwiss.fu-berlin.de/bizer/bsbm/v01/instances/dataFromProducer20/Product906>	<http://www4.wiwiss.fu-berlin.de/bizer/bsbm/v01/instances/ProductType15>	
<http://www4.wiwiss.fu-berlin.de/bizer/bsbm/v01/instances/dataFromProducer24/Product1126>	<http://www4.wiwiss.fu-berlin.de/bizer/bsbm/v01/instances/ProductType15>	
<http://www4.wiwiss.fu-berlin.de/bizer/bsbm/v01/instances/dataFromProducer27/Product1253>	<http://www4.wiwiss.fu-berlin.de/bizer/bsbm/v01/instances/ProductType15>	
<http://www4.wiwiss.fu-berlin.de/bizer/bsbm/v01/instances/dataFromProducer33/Product1501>	<http://www4.wiwiss.fu-berlin.de/bizer/bsbm/v01/instances/ProductType15>	
<http://www4.wiwiss.fu-berlin.de/bizer/bsbm/v01/instances/dataFromProducer35/Product1573>	<http://www4.wiwiss.fu-berlin.de/bizer/bsbm/v01/instances/ProductType15>	
<http://www4.wiwiss.fu-berlin.de/bizer/bsbm/v01/instances/dataFromProducer35/Product1587>	<http://www4.wiwiss.fu-berlin.de/bizer/bsbm/v01/instances/ProductType15>	
<http://www4.wiwiss.fu-berlin.de/bizer/bsbm/v01/instances/dataFromProducer39/Product1776>	<http://www4.wiwiss.fu-berlin.de/bizer/bsbm/v01/instances/ProductType15>	
<http://www4.wiwiss.fu-berlin.de/bizer/bsbm/v01/instances/dataFromProducer39/Product1818>	<http://www4.wiwiss.fu-berlin.de/bizer/bsbm/v01/instances/ProductType15>	
<http://www4.wiwiss.fu-berlin.de/bizer/bsbm/v01/instances/dataFromProducer40/Product1848>	<http://www4.wiwiss.fu-berlin.de/bizer/bsbm/v01/instances/ProductType15>	
<http://www4.wiwiss.fu-berlin.de/bizer/bsbm/v01/instances/dataFromProducer41/Product1918>	<http://www4.wiwiss.fu-berlin.de/bizer/bsbm/v01/instances/ProductType15>	
<http://www4.wiwiss.fu-berlin.de/bizer/bsbm/v01/instances/dataFromProducer41/Product1942>	<http://www4.wiwiss.fu-berlin.de/bizer/bsbm/v01/instances/ProductType15>	
<http://www4.wiwiss.fu-berlin.de/bizer/bsbm/v01/instances/dataFromProducer45/Product2099>	<http://www4.wiwiss.fu-berlin.de/bizer/bsbm/v01/instances/ProductType15>	
<http://www4.wiwiss.fu-berlin.de/bizer/bsbm/v01/instances/dataFromProducer55/Product2610>	<http://www4.wiwiss.fu-berlin.de/bizer/bsbm/v01/instances/ProductType15>	
<http://www4.wiwiss.fu-berlin.de/bizer/bsbm/v01/instances/dataFromProducer57/Product2648>	<http://www4.wiwiss.fu-berlin.de/bizer/bsbm/v01/instances/ProductType15>	
<http://www4.wiwiss.fu-berlin.de/bizer/bsbm/v01/instances/dataFromProducer59/Product2742>	<http://www4.wiwiss.fu-berlin.de/bizer/bsbm/v01/instances/ProductType15>	
<http://www4.wiwiss.fu-berlin.de/bizer/bsbm/v01/instances/dataFromProducer60/Product2795>	<http://www4.wiwiss.fu-berlin.de/bizer/bsbm/v01/instances/ProductType15>	
