digraph  g{
node [shape=rectangle, color=black, fontcolor=black, style=bold]
0 [label="LogSkolemFunctionCall
(<http://www4.wiwiss.fu-berlin.de/bizer/bsbm/v01/instances/dataFromRatingSite{0}/Review{1}>, <http://www4.wiwiss.fu-berlin.de/bizer/bsbm/v01/instances/dataFromProducer{2}/Product{3}>, \"{4}\")" , color = blue] ; 
1 [label="LogSQLEval 
SELECT publisher, nr, producer, product, rating2 FROM Review UNION SELECT publisher, nr, producer, product, rating1 FROM Review", color = blue] ; 
0 -> 1 ; 
}

