digraph  g{ graph[label = "16:12:13.195"]
node [shape=rectangle, color=black, fontcolor=black, style=bold] edge [color=black] 0 [label="BindAccessEval", color = yellow] ; 
1 [label="SQLQuery
SELECT tab_2.person_id 
FROM cast_info AS tab_2, name AS tab_3 
WHERE tab_2.role_id = 2 AND tab_3.name = 'Pfeiffer, Michelle' AND tab_2.person_id = tab_3.id 
UNION
SELECT tab_0.person_id 
FROM cast_info AS tab_0, name AS tab_1 
WHERE tab_0.role_id = 2 AND tab_1.name = 'Pfeiffer, Michelle' AND tab_0.person_id = tab_1.id
1", color = yellow] ; 
0 -> 1 ; 
2 [label="FunctionCallBindAccess
(<http://www.imdb.com/name/{0}>)", color = yellow] ; 
0 -> 2 ; 
}

