digraph  g{
node [shape=rectangle, color=black, fontcolor=black, style=bold]
0 [label="LogSkolemFunctionCall
(<http://www.imdb.com/name/{0}>)" , color = blue] ; 
1 [label="LogSQLEval 
SELECT tab_6.person_id FROM name AS tab_7, cast_info AS tab_6 WHERE tab_6.role_id = 1 AND tab_7.name = 'Aaker, Lee' AND tab_6.person_id = tab_7.id UNION SELECT tab_4.person_id FROM cast_info AS tab_4, name AS tab_5 WHERE tab_4.role_id = 1 AND tab_5.name = 'Aaker, Lee' AND tab_4.person_id = tab_5.id", color = blue] ; 
0 -> 1 ; 
}

