digraph  g{
node [shape=rectangle, color=black, fontcolor=black, style=bold]
0 [label="LogSkolemFunctionCall
(<http://www4.wiwiss.fu-berlin.de/bizer/bsbm/v01/instances/dataFromVendor{0}/Offer{1}>, <{2}>)" , color = blue] ; 
1 [label="LogSQLEval 
SELECT tab_3365.vendor, tab_3365.nr, tab_3363.offerWebpage FROM Offer AS tab_3363, Offer AS tab_3365, CountryType AS tab_3366, Vendor AS tab_3364 WHERE tab_3365.vendor = tab_3364.nr AND tab_3365.vendor = tab_3363.vendor AND tab_3365.nr = tab_3363.nr AND tab_3366.countryType = 112 AND tab_3364.country = tab_3366.country UNION SELECT tab_3370.vendor, tab_3370.nr, tab_3372.offerWebpage FROM CountryType AS tab_3373, Offer AS tab_3370, Vendor AS tab_3371, Offer AS tab_3372 WHERE tab_3370.vendor = tab_3371.nr AND tab_3370.vendor = tab_3372.vendor AND tab_3370.nr = tab_3372.nr AND tab_3373.countryType = 111 AND tab_3371.country = tab_3373.country", color = blue] ; 
0 -> 1 ; 
}

