ANS($offer,$offerURL) : [V_offer-country\2($country,$offer), V_offer\10(X208235166112058,X208235166112059,X208235166112065,$offerURL,X208235166112067,X208235166112066,X208235166112061,X208235166112060,X208235166112063,$offer), V_country-type-112\1($country)]

ANS($offer,$offerURL) : [V_offer-country\2($country,$offer), V_offer\10(X208235166112058,X208235166112059,X208235166112065,$offerURL,X208235166112067,X208235166112066,X208235166112061,X208235166112060,X208235166112063,$offer), V_country-type-111\1($country)]

