digraph  g{ graph[label = "16:12:14.946"]
node [shape=rectangle, color=black, fontcolor=black, style=bold] edge [color=black] 0 [label="BindAccessEval", color = yellow] ; 
1 [label="SQLQuery
SELECT tab_29.id, tab_30.movie_id 
FROM movie_info AS tab_30, title AS tab_29, title AS tab_28  
WHERE tab_29.kind_id = 1 AND tab_28.title = 'Finding Nemo' AND tab_29.id = tab_28.id AND tab_30.info_type_id = 3 AND tab_29.id = tab_30.movie_id AND tab_28.id = tab_30.movie_id
4", color = yellow] ; 
0 -> 1 ; 
2 [label="FunctionCallBindAccess
(<http://www.imdb.com/title/{0}>, <http://www.imdb.com/genre/{1}>)", color = yellow] ; 
0 -> 2 ; 
}

