digraph  g{ graph[label = "11:36:26.420"]
node [shape=rectangle, color=black, fontcolor=black, style=bold] edge [color=black] 0 [label="BindAccessEval", color = yellow] ; 
1 [label="SQLQuery
SELECT nr, vendor, price, deliveryDays, offerWebpage 
FROM Offer
56200", color = yellow] ; 
0 -> 1 ; 
2 [label="FunctionCallBindAccess
(<http://www4.wiwiss.fu-berlin.de/bizer/bsbm/v01/instances/dataFromVendor{1}/Offer{0}>, <{4}>, \"{2}\", \"{3}\")", color = yellow] ; 
0 -> 2 ; 
}

